{
  "temps": [
    218.046142578125,
    218.0417022705078,
    218.0417022705078,
    218.03814697265625,
    218.03530883789062,
    218.03530883789062,
    218.0330352783203,
    218.0330352783203,
    218.03121948242188,
    218.03121948242188,
    218.02975463867188,
    218.02975463867188,
    218.02859497070312,
    218.0276641845703,
    218.0276641845703,
    218.03970336914062,
    218.03970336914062,
    218.07492065429688,
    218.07492065429688,
    218.06472778320312,
    218.06472778320312,
    218.0565643310547,
    218.0565643310547,
    218.05003356933594,
    218.04481506347656,
    218.04481506347656,
    218.0534210205078,
    218.0534210205078,
    218.0858917236328,
    218.0858917236328,
    218.07350158691406,
    218.07350158691406,
    218.0763702392578,
    218.11705017089844,
    218.11705017089844,
    218.1112060546875,
    218.1112060546875,
    218.1193389892578,
    218.1193389892578,
    218.1386260986328,
    218.12847900390625,
    218.12847900390625,
    218.1459503173828,
    218.13433837890625,
    218.13433837890625,
    218.150634765625,
    218.150634765625,
    218.16366577148438,
    218.16366577148438,
    218.1613006591797,
    218.1613006591797,
    218.1721954345703,
    218.1681365966797,
    218.1681365966797,
    218.17767333984375,
    218.17767333984375,
    218.17251586914062,
    218.17251586914062,
    218.19395446777344,
    218.19395446777344,
    218.1983184814453,
    218.1983184814453,
    218.20181274414062,
    218.1918182373047,
    218.1918182373047,
    218.1710205078125,
    218.1710205078125,
    218.1799774169922,
    218.1799774169922,
    218.1743621826172,
    218.1743621826172,
    218.14427185058594,
    218.14427185058594,
    218.1457977294922,
    218.1470184326172,
    218.1470184326172,
    218.16078186035156,
    218.16078186035156,
    218.1461944580078,
    218.1461944580078,
    218.134521484375,
    218.134521484375,
    218.12518310546875,
    218.12518310546875,
    218.1049346923828,
    218.1015167236328,
    218.1015167236328,
    218.08599853515625,
    218.08599853515625,
    218.07357788085938,
    218.07357788085938,
    218.07643127441406,
    218.07643127441406,
    218.06593322753906,
    218.06593322753906,
    218.05752563476562,
    218.05752563476562,
    218.05081176757812,
    218.04544067382812,
    218.04544067382812,
    218.0411376953125,
    218.0411376953125,
    218.03768920898438,
    218.03768920898438,
    218.03494262695312,
    218.03494262695312,
    218.05833435058594,
    218.05833435058594,
    218.05145263671875,
    218.0459442138672,
    218.0459442138672,
    218.04153442382812,
    218.04153442382812,
    218.0380096435547,
    218.0380096435547,
    218.03518676757812,
    218.03292846679688,
    218.03292846679688,
    218.0311279296875,
    218.0311279296875,
    218.02969360351562,
    218.02853393554688,
    218.02853393554688,
    218.02761840820312,
    218.02761840820312,
    218.02688598632812,
    218.02688598632812,
    218.0262908935547,
    218.02581787109375,
    218.02581787109375,
    218.0254364013672,
    218.0254364013672,
    218.02513122558594,
    218.02513122558594,
    218.02488708496094,
    218.02488708496094,
    218.02468872070312,
    218.0245361328125,
    218.0245361328125,
    218.03720092773438,
    218.03720092773438,
    218.0345458984375,
    218.0345458984375,
    218.0452117919922,
    218.0452117919922,
    218.05374145507812,
    218.05374145507812,
    218.06056213378906,
    218.05323791503906,
    218.05323791503906,
    218.04737854003906,
    218.04737854003906,
    218.04269409179688,
    218.04269409179688,
    218.05172729492188,
    218.05172729492188,
    218.04617309570312,
    218.04617309570312,
    218.04171752929688,
    218.04171752929688,
    218.0509490966797,
    218.11851501464844,
    218.11851501464844,
    218.13796997070312,
    218.15353393554688,
    218.15353393554688,
    218.17877197265625,
    218.17877197265625,
    218.1733856201172,
    218.1733856201172,
    218.16908264160156,
    218.16908264160156,
    218.1912078857422,
    218.1912078857422,
    218.2089080810547,
    218.2102813720703,
    218.2102813720703,
    218.2241668701172,
    218.2241668701172,
    218.2352752685547,
    218.23138427734375,
    218.23138427734375,
    218.228271484375,
    218.228271484375,
    218.2385711669922,
    218.23402404785156,
    218.23402404785156,
    218.21759033203125,
    218.21759033203125,
    218.2172393798828,
    218.2172393798828,
    218.20416259765625,
    218.20416259765625,
    218.19371032714844,
    218.21092224121094,
    218.21092224121094,
    218.19911193847656,
    218.19911193847656,
    218.18966674804688,
    218.18966674804688,
    218.2076873779297,
    218.2076873779297,
    218.1837158203125,
    218.1837158203125,
    218.16455078125,
    218.1492156982422,
    218.1492156982422,
    218.12416076660156,
    218.12416076660156,
    218.10411071777344,
    218.10411071777344,
    218.08807373046875,
    218.08807373046875,
    218.08802795410156,
    218.08802795410156,
    218.07521057128906,
    218.06495666503906,
    218.06495666503906,
    218.05674743652344,
    218.05674743652344,
    218.05018615722656,
    218.05018615722656,
    218.05772399902344,
    218.05772399902344,
    218.05096435546875,
    218.04556274414062,
    218.04556274414062,
    218.04122924804688,
    218.04122924804688,
    218.0377655029297,
    218.0377655029297,
    218.03500366210938,
    218.0327911376953,
    218.0327911376953,
    218.03102111816406,
    218.02960205078125,
    218.02960205078125,
    218.02847290039062,
    218.02847290039062,
    218.02755737304688,
    218.02755737304688,
    218.02682495117188,
    218.0262451171875,
    218.0262451171875,
    218.02578735351562,
    218.02542114257812,
    218.02542114257812,
    218.02511596679688,
    218.02511596679688,
    218.02487182617188,
    218.02487182617188,
    218.02468872070312,
    218.0245361328125,
    218.0245361328125,
    218.0244140625,
    218.02432250976562,
    218.02432250976562,
    218.01145935058594,
    218.01394653320312,
    218.01394653320312,
    218.00315856933594,
    218.00730895996094,
    218.00730895996094,
    217.98504638671875,
    217.99905395507812,
    217.9784393310547,
    217.9784393310547,
    217.95132446289062,
    217.9402618408203,
    217.9402618408203,
    217.9058380126953,
    217.90386962890625,
    217.90386962890625,
    217.87672424316406,
    217.87672424316406,
    217.85499572753906,
    217.85499572753906,
    217.83761596679688,
    217.83761596679688,
    217.8365020751953,
    217.8356170654297,
    217.8356170654297,
    217.82211303710938,
    217.82211303710938,
    217.81130981445312,
    217.81130981445312,
    217.80267333984375,
    217.80267333984375,
    217.79576110839844,
    217.7902374267578,
    217.7902374267578,
    217.7858123779297,
    217.7858123779297,
    217.7822723388672,
    217.7822723388672,
    217.77943420410156,
    217.77943420410156,
    217.7771759033203,
    217.77536010742188,
    217.77536010742188,
    217.77391052246094,
    217.77391052246094,
    217.7727508544922,
    217.7727508544922,
    217.77182006835938,
    217.77182006835938,
    217.7710723876953,
    217.77047729492188,
    217.77047729492188,
    217.77000427246094,
    217.77000427246094,
    217.76962280273438,
    217.76962280273438,
    217.76931762695312,
    217.76907348632812,
    217.76907348632812,
    217.7688751220703,
    217.7688751220703,
    217.7687225341797,
    217.7687225341797,
    217.7686004638672,
    217.7685089111328,
    217.7685089111328,
    217.7684326171875,
    217.7684326171875,
    217.76837158203125,
    217.76837158203125,
    217.76832580566406,
    217.76832580566406,
    217.76828002929688,
    217.76824951171875,
    217.76824951171875,
    217.76821899414062,
    217.76821899414062,
    217.76820373535156,
    217.76820373535156,
    217.7681884765625,
    217.7681884765625,
    217.76817321777344,
    217.76817321777344,
    217.76815795898438,
    217.7681427001953,
    217.7681427001953,
    217.7681427001953,
    217.7681427001953,
    217.7681427001953,
    217.7681427001953,
    217.7681427001953,
    217.7681427001953,
    217.75534057617188,
    217.75534057617188,
    217.74508666992188,
    217.7368927001953,
    217.7368927001953,
    217.73033142089844,
    217.73033142089844,
    217.72508239746094,
    217.72508239746094,
    217.69529724121094,
    217.6714630126953,
    217.6714630126953,
    217.6524200439453,
    217.6524200439453,
    217.62437438964844,
    217.62437438964844,
    217.60194396972656,
    217.5968017578125,
    217.5968017578125,
    217.5798797607422,
    217.5798797607422,
    217.57913208007812,
    217.57913208007812,
    217.5657501220703,
    217.5657501220703,
    217.55503845214844,
    217.54647827148438,
    217.54647827148438,
    217.5396270751953,
    217.5396270751953,
    217.5469512939453,
    217.5469512939453,
    217.54000854492188,
    217.54000854492188,
    217.51461791992188,
    217.51461791992188,
    217.51414489746094,
    217.51376342773438,
    217.51376342773438,
    217.51345825195312,
    217.51345825195312,
    217.51321411132812,
    217.51321411132812,
    217.5130157470703,
    217.5130157470703,
    217.5128631591797,
    217.5127410888672,
    217.5127410888672,
    217.51263427734375,
    217.51263427734375,
    217.51255798339844,
    217.51255798339844,
    217.5124969482422,
    217.49964904785156,
    217.47657775878906,
    217.47657775878906,
    217.47091674804688,
    217.4663848876953,
    217.4663848876953,
    217.4371795654297,
    217.4371795654297,
    217.42660522460938,
    217.42660522460938,
    217.4181365966797,
    217.4181365966797,
    217.39857482910156,
    217.39857482910156,
    217.39572143554688,
    217.39572143554688,
    217.38064575195312,
    217.35580444335938,
    217.35580444335938,
    217.3487091064453,
    217.3487091064453,
    217.34303283691406,
    217.34303283691406,
    217.3385009765625,
    217.3385009765625,
    217.33486938476562,
    217.31918334960938,
    217.31918334960938,
    217.3321990966797,
    217.3321990966797,
    217.329833984375,
    217.329833984375,
    217.32794189453125,
    217.32794189453125,
    217.33920288085938,
    217.3482208251953,
    217.3482208251953,
    217.35543823242188,
    217.35543823242188,
    217.37400817871094,
    217.37400817871094,
    217.3888702392578,
    217.3888702392578,
    217.41354370117188,
    217.41354370117188,
    217.4332733154297,
    217.436279296875,
    217.436279296875,
    217.4514617919922,
    217.4514617919922,
    217.46360778808594,
    217.46360778808594,
    217.47332763671875,
    217.47332763671875,
    217.48110961914062,
    217.48733520507812,
    217.48733520507812,
    217.4923095703125,
    217.4923095703125,
    217.4962921142578,
    217.4962921142578,
    217.49948120117188,
    217.5020294189453,
    217.5020294189453,
    217.5040740966797,
    217.5040740966797,
    217.50570678710938,
    217.50570678710938,
    217.5070037841797,
    217.50804138183594
  ],
  "speeds": [
    0,
    0,
    0,
    0,
    0,
    0,
    0,
    0,
    0,
    0,
    0,
    0,
    0,
    0,
    0,
    0,
    0,
    0,
    0,
    0,
    0,
    0,
    0,
    0,
    0,
    0,
    0,
    0,
    0,
    0,
    0,
    0,
    0,
    0,
    0,
    0,
    0,
    0,
    0,
    0,
    0,
    0,
    0,
    0,
    0,
    0,
    0,
    0,
    0,
    0,
    0,
    0,
    0,
    0,
    0,
    0,
    0,
    0,
    0,
    0,
    0,
    0,
    0,
    0,
    0,
    0,
    0,
    0,
    0,
    0,
    0,
    0,
    0,
    0,
    0,
    0,
    0,
    0,
    0,
    0,
    0,
    0,
    0,
    0,
    0,
    0,
    0,
    0,
    0,
    0,
    0,
    0,
    0,
    0,
    0,
    0,
    0,
    0,
    0,
    0,
    0,
    0,
    0,
    0,
    0,
    0,
    0,
    0,
    0,
    0,
    0,
    0,
    0,
    0,
    0,
    0,
    0,
    0,
    0,
    0,
    0,
    0,
    0,
    0,
    0,
    0,
    0,
    0,
    0,
    0,
    0,
    0,
    0,
    0,
    0,
    0,
    0,
    0,
    0,
    0,
    0,
    0,
    0,
    0,
    0,
    0,
    0,
    0,
    0,
    0,
    0,
    0,
    0,
    0,
    0,
    0,
    0,
    0,
    0,
    0,
    0,
    1.6488046646118164,
    1.6474465131759644,
    1.6488046646118164,
    1.6474465131759644,
    1.6488046646118164,
    1.6488046646118164,
    1.6474465131759644,
    1.6488046646118164,
    1.6474465131759644,
    1.6488046646118164,
    1.6488046646118164,
    1.6488046646118164,
    1.6488046646118164,
    1.6488046646118164,
    1.6474465131759644,
    1.6488046646118164,
    1.6488046646118164,
    1.6488046646118164,
    1.6488046646118164,
    1.6474465131759644,
    1.6488046646118164,
    1.65016508102417,
    1.6488046646118164,
    1.6474465131759644,
    1.6474465131759644,
    1.6488046646118164,
    1.6488046646118164,
    1.6488046646118164,
    1.6474465131759644,
    1.6488046646118164,
    1.6474465131759644,
    1.6488046646118164,
    1.6474465131759644,
    1.6474465131759644,
    1.6474465131759644,
    1.6474465131759644,
    1.6474465131759644,
    1.6488046646118164,
    1.6474465131759644,
    1.6488046646118164,
    1.6474465131759644,
    1.6488046646118164,
    1.6488046646118164,
    1.6488046646118164,
    1.6488046646118164,
    1.6474465131759644,
    1.6488046646118164,
    1.6474465131759644,
    1.6488046646118164,
    1.6474465131759644,
    1.6488046646118164,
    1.6474465131759644,
    1.65016508102417,
    1.6474465131759644,
    3.2948930263519287,
    3.2948930263519287,
    3.2948930263519287,
    3.2948930263519287,
    3.2948930263519287,
    3.30033016204834,
    3.2948930263519287,
    3.30033016204834,
    3.3057854175567627,
    3.2948930263519287,
    3.2948930263519287,
    3.2948930263519287,
    3.2948930263519287,
    3.2948930263519287,
    3.2948930263519287,
    3.2948930263519287,
    3.30033016204834,
    3.2948930263519287,
    3.30033016204834,
    3.30033016204834,
    3.2948930263519287,
    3.2948930263519287,
    3.2948930263519287,
    3.2948930263519287,
    3.30033016204834,
    3.28947377204895,
    3.30033016204834,
    3.30033016204834,
    3.30033016204834,
    3.2948930263519287,
    3.2948930263519287,
    3.30033016204834,
    3.2948930263519287,
    3.2948930263519287,
    3.2948930263519287,
    3.2948930263519287,
    3.2948930263519287,
    3.30033016204834,
    3.2948930263519287,
    3.2948930263519287,
    3.2948930263519287,
    3.2948930263519287,
    3.28947377204895,
    3.30033016204834,
    3.30033016204834,
    3.30033016204834,
    3.2948930263519287,
    3.2948930263519287,
    4.95049524307251,
    4.938271999359131,
    4.938271999359131,
    4.938271999359131,
    4.938271999359131,
    4.938271999359131,
    4.938271999359131,
    4.95049524307251,
    4.95049524307251,
    4.95049524307251,
    4.95049524307251,
    4.95049524307251,
    4.95049524307251,
    4.95049524307251,
    4.95049524307251,
    4.938271999359131,
    4.938271999359131,
    4.95049524307251,
    4.938271999359131,
    4.95049524307251,
    4.901960849761963,
    4.938271999359131,
    4.938271999359131,
    4.938271999359131,
    4.95049524307251,
    4.95049524307251,
    4.938271999359131,
    4.95049524307251,
    4.938271999359131,
    4.938271999359131,
    4.95049524307251,
    4.95049524307251,
    4.938271999359131,
    4.938271999359131,
    4.938271999359131,
    4.938271999359131,
    4.938271999359131,
    4.938271999359131,
    4.938271999359131,
    4.95049524307251,
    4.938271999359131,
    4.938271999359131,
    4.938271999359131,
    4.95049524307251,
    4.938271999359131,
    4.938271999359131,
    4.95049524307251,
    4.938271999359131,
    4.938271999359131,
    4.95049524307251,
    6.5789475440979,
    6.60066032409668,
    6.60066032409668,
    6.5789475440979,
    6.60066032409668,
    6.5789475440979,
    6.60066032409668,
    6.60066032409668,
    6.5789475440979,
    6.60066032409668,
    6.60066032409668,
    6.60066032409668,
    6.5789475440979,
    6.493506908416748,
    6.5789475440979,
    6.622517108917236,
    6.60066032409668,
    6.514658451080322,
    6.60066032409668,
    6.60066032409668,
    6.60066032409668,
    6.60066032409668,
    6.60066032409668,
    6.5789475440979,
    6.5789475440979,
    6.60066032409668,
    6.60066032409668,
    6.60066032409668,
    6.60066032409668,
    6.5789475440979,
    6.60066032409668,
    6.60066032409668,
    6.5789475440979,
    6.5789475440979,
    6.622517108917236,
    6.5789475440979,
    6.60066032409668,
    6.557377338409424,
    6.60066032409668,
    6.5789475440979,
    6.5789475440979,
    6.5789475440979,
    6.5789475440979,
    6.60066032409668,
    6.60066032409668,
    6.5789475440979,
    6.60066032409668,
    6.5789475440979,
    6.60066032409668,
    6.557377338409424,
    6.60066032409668,
    6.60066032409668,
    8.264463424682617,
    8.230453491210938,
    8.230453491210938,
    8.230453491210938,
    8.230453491210938,
    8.264463424682617,
    8.264463424682617,
    8.230453491210938,
    8.230453491210938,
    8.230453491210938,
    8.230453491210938,
    8.230453491210938,
    8.196722030639648,
    8.196722030639648,
    8.264463424682617,
    8.196722030639648,
    8.230453491210938,
    8.230453491210938,
    8.097166061401367,
    8.230453491210938,
    8.230453491210938,
    8.230453491210938,
    8.230453491210938,
    8.230453491210938,
    8.230453491210938,
    8.230453491210938,
    8.230453491210938,
    8.230453491210938,
    8.264463424682617,
    8.230453491210938,
    8.230453491210938,
    8.230453491210938,
    8.230453491210938,
    8.298755645751953,
    8.230453491210938,
    8.230453491210938,
    0,
    0,
    0,
    0,
    0,
    0,
    0,
    0,
    0,
    0,
    0,
    0,
    0,
    0,
    0,
    0,
    0,
    0,
    0,
    0,
    0,
    0,
    0,
    0,
    0,
    0,
    0,
    0,
    0,
    0,
    0,
    0,
    0,
    0,
    0,
    0,
    0,
    0,
    0,
    0,
    0,
    0,
    0,
    0,
    0,
    0,
    0,
    0,
    0,
    0,
    0,
    0,
    0,
    0,
    0,
    0,
    0,
    0,
    0,
    0,
    0,
    0,
    0,
    0,
    0,
    0,
    0,
    0,
    0,
    0,
    0
  ],
  "loads": [
    5.536613030984427,
    5.538156313827432,
    5.538156313827432,
    5.535907530256195,
    5.535907530256195,
    5.537979938645375,
    5.542962537538506,
    5.542962537538506,
    5.542257036810275,
    5.542257036810275,
    5.545916821837974,
    5.545916821837974,
    5.549267950297072,
    5.549267950297072,
    5.548386074386783,
    5.547724667454066,
    5.547724667454066,
    5.550105732411845,
    5.550105732411845,
    5.550634857958019,
    5.550634857958019,
    5.555661550646665,
    5.552574984960654,
    5.552574984960654,
    5.552222234596539,
    5.552222234596539,
    5.553897798826087,
    5.553897798826087,
    5.5505907641625045,
    5.554030080212631,
    5.554030080212631,
    5.559453617060907,
    5.559453617060907,
    5.561526025450086,
    5.561526025450086,
    5.560511868153253,
    5.560864618517369,
    5.560864618517369,
    5.560511868153253,
    5.560511868153253,
    5.557513490058271,
    5.558263084582017,
    5.558263084582017,
    5.56593540500153,
    5.56593540500153,
    5.5653621856598425,
    5.567346406457992,
    5.567346406457992,
    5.567125937480419,
    5.567125937480419,
    5.561526025450086,
    5.561526025450086,
    5.563730715225808,
    5.567214125071449,
    5.567214125071449,
    5.571843973600465,
    5.571843973600465,
    5.570785722508118,
    5.570785722508118,
    5.574710070308903,
    5.577223416653227,
    5.577223416653227,
    5.574401413740302,
    5.574401413740302,
    5.572637661919725,
    5.572637661919725,
    5.571976254987009,
    5.571976254987009,
    5.573695913012071,
    5.572196723964581,
    5.572196723964581,
    5.57457778892236,
    5.57457778892236,
    5.575856508992279,
    5.575856508992279,
    5.577840729790429,
    5.577840729790429,
    5.577443885630799,
    5.576341540742938,
    5.576341540742938,
    5.585116206050312,
    5.585116206050312,
    5.58608626955163,
    5.58608626955163,
    5.58370520459385,
    5.58370520459385,
    5.584631174299653,
    5.588643709691467,
    5.588643709691467,
    5.5841461425489936,
    5.5841461425489936,
    5.587144520643976,
    5.587144520643976,
    5.588467334509409,
    5.588467334509409,
    5.590495649103073,
    5.590804305671675,
    5.590804305671675,
    5.590451555307559,
    5.590451555307559,
    5.592568057492252,
    5.592568057492252,
    5.600240377911765,
    5.600240377911765,
    5.598564813682216,
    5.5962278425199505,
    5.5962278425199505,
    5.599711252365592,
    5.599711252365592,
    5.601871848345799,
    5.601871848345799,
    5.601739566959256,
    5.602886005642631,
    5.602886005642631,
    5.605002507827325,
    5.605002507827325,
    5.604429288485637,
    5.604429288485637,
    5.602886005642631,
    5.607648135558191,
    5.607648135558191,
    5.613424422770583,
    5.611748858541034,
    5.611748858541034,
    5.610955170221774,
    5.610955170221774,
    5.6153645497732185,
    5.616202331887993,
    5.616202331887993,
    5.622243181873471,
    5.622243181873471,
    5.624051027489563,
    5.624051027489563,
    5.619818023120176,
    5.619818023120176,
    5.619377085165032,
    5.617436958162397,
    5.617436958162397,
    5.6179219899130555,
    5.6179219899130555,
    5.621052649394581,
    5.621052649394581,
    5.623742370920962,
    5.63018006506607,
    5.63018006506607,
    5.626035248287713,
    5.626035248287713,
    5.624359684058164,
    5.624359684058164,
    5.629298189155781,
    5.629298189155781,
    5.631326503749446,
    5.630091877475041,
    5.630091877475041,
    5.631987910682162,
    5.631987910682162,
    5.632869786592451,
    5.632869786592451,
    5.637808291690068,
    5.637808291690068,
    5.637235072348381,
    5.6476853018853035,
    5.652447431800863,
    5.652447431800863,
    5.9332808154323375,
    5.9332808154323375,
    6.792007483076075,
    7.079366748443687,
    7.079366748443687,
    6.931652533470309,
    6.931652533470309,
    6.85629623693613,
    6.85629623693613,
    6.90832691564317,
    6.90832691564317,
    6.915911048471654,
    6.8418334720073934,
    6.8418334720073934,
    6.828340770579974,
    6.939809885640481,
    6.939809885640481,
    7.35005855910684,
    7.984435995173102,
    7.984435995173102,
    8.29291618859213,
    8.29291618859213,
    8.336524952355912,
    8.336524952355912,
    8.261168655821733,
    8.261168655821733,
    8.122185012360216,
    8.112131626982922,
    8.112131626982922,
    8.136295026924836,
    8.136295026924836,
    8.095199609505377,
    8.095199609505377,
    8.081486439100386,
    8.057278945362958,
    8.057278945362958,
    8.01411111955432,
    8.01411111955432,
    8.033776952353762,
    8.033776952353762,
    8.01927009362951,
    8.01927009362951,
    7.959478906911928,
    7.996120850984428,
    7.996120850984428,
    8.064025296076668,
    8.064025296076668,
    8.0531341285846,
    8.0531341285846,
    8.081177782531785,
    8.067067767967163,
    8.067067767967163,
    8.077032965753428,
    8.077032965753428,
    8.529655776709163,
    8.529655776709163,
    9.358001819243452,
    9.358001819243452,
    9.822221298419485,
    9.96217500538232,
    9.96217500538232,
    9.973463017034017,
    9.973463017034017,
    9.931926661659414,
    9.931926661659414,
    10.036032112869009,
    10.107199498829317,
    10.107199498829317,
    10.106758560874173,
    10.065795424841259,
    10.065795424841259,
    10.138947031599715,
    10.231940846339672,
    10.231940846339672,
    10.24653589265495,
    10.24653589265495,
    10.234542380275023,
    10.234542380275023,
    10.209805760991422,
    10.28097314695173,
    10.28097314695173,
    10.303990108210268,
    10.285117963730087,
    10.285117963730087,
    10.23423372370642,
    10.23423372370642,
    10.286308496208978,
    10.313778930814474,
    10.313778930814474,
    10.28436836920634,
    10.24653589265495,
    10.24653589265495,
    10.338339174916017,
    10.394602857992444,
    10.394602857992444,
    10.396895735359195,
    10.352890127435781,
    10.396719360177137,
    10.464800180451434,
    10.483407762158528,
    10.513435636903862,
    11.086787259978138,
    11.9724552366812,
    12.236841634585787,
    12.34570921571094,
    12.34570921571094,
    12.458148394272765,
    12.456737392816304,
    12.456737392816304,
    12.528433904322785,
    12.528433904322785,
    12.586417245424276,
    12.586417245424276,
    12.573321388156486,
    12.645150181049509,
    12.645150181049509,
    12.654277596720998,
    12.654277596720998,
    12.646869839074572,
    12.646869839074572,
    12.727693766252543,
    12.705073649153636,
    12.705073649153636,
    12.707454714111414,
    12.707454714111414,
    12.813279823346072,
    12.813279823346072,
    12.799081621190423,
    12.799081621190423,
    12.86209165498056,
    12.932818102985722,
    12.932818102985722,
    12.876642607500326,
    12.876642607500326,
    12.952616217171705,
    12.952616217171705,
    13.02325447758584,
    12.970650579537113,
    12.970650579537113,
    13.071669465060697,
    13.071669465060697,
    13.092569924134542,
    13.031147266982925,
    13.031147266982925,
    13.141778599928658,
    13.141778599928658,
    13.180801608958937,
    13.180801608958937,
    13.158490148428632,
    13.270752951808397,
    13.270752951808397,
    13.309820054634192,
    13.309820054634192,
    14.001210768300627,
    14.954209970754238,
    14.954209970754238,
    15.23720395036592,
    15.23720395036592,
    15.499782502654416,
    15.499782502654416,
    15.618086156019661,
    15.834366223017994,
    15.834366223017994,
    15.901300604608917,
    15.901300604608917,
    16.069871184860624,
    16.069871184860624,
    16.13596778433677,
    16.13596778433677,
    16.292897602572666,
    16.36212486153034,
    16.36212486153034,
    16.45555961422544,
    16.45555961422544,
    16.540748827159337,
    16.540748827159337,
    16.60045182628589,
    16.63440404883201,
    16.63440404883201,
    16.612665807643392,
    16.612665807643392,
    16.636564644812218,
    16.670472773562825,
    16.74181653470519,
    16.74181653470519,
    16.766376778806734,
    16.766376778806734,
    16.851169147581004,
    16.84270313884223,
    16.84270313884223,
    16.89045671938437,
    16.89045671938437,
    16.871452293517645,
    16.9763514330465,
    16.9763514330465,
    16.977762434502964,
    16.977762434502964,
    17.11088160316106,
    17.095845618890635,
    17.095845618890635,
    17.224731783179347,
    17.224731783179347,
    17.222042061652967,
    17.395507053206778,
    17.395507053206778,
    18.088044205556585,
    18.088044205556585,
    18.948402343634356,
    18.948402343634356,
    19.23307188747559,
    19.23307188747559,
    19.477175139443535,
    19.65765104448414,
    19.65765104448414,
    19.80320466347731,
    19.80320466347731,
    19.995365424329243,
    19.995365424329243,
    20.117152487540128,
    21.304686588335052,
    21.304686588335052,
    21.413906919824324,
    21.413906919824324,
    21.614710064597087,
    21.74985754784885,
    21.74985754784885,
    21.810751079454292,
    21.810751079454292,
    21.91833994050953,
    21.91833994050953,
    22.023062704856326,
    22.208344833608006,
    22.208344833608006,
    22.32792720704317,
    22.32792720704317,
    22.461134563292298,
    22.56422585720506,
    22.56422585720506,
    22.62992561252158,
    21.751753581055972,
    16.254756469452676,
    16.254756469452676,
    10.986650250364843,
    10.986650250364843,
    8.792851642134861,
    8.792851642134861,
    7.749548346467675,
    7.749548346467675,
    7.13272024101616,
    6.721721973026056,
    6.721721973026056,
    6.4376697423220275,
    6.4376697423220275,
    6.217729890295996,
    6.217729890295996,
    6.028214757174929,
    5.8655968393176705,
    5.8655968393176705,
    5.715016527635854,
    5.715016527635854,
    5.575503758628163,
    5.575503758628163,
    5.4437074038355,
    5.307325294309334,
    5.307325294309334,
    5.186596482190795,
    5.186596482190795,
    5.100701768528664,
    5.100701768528664,
    5.050567123028744,
    5.050567123028744,
    5.01895187164489,
    5.007443391015621,
    5.007443391015621,
    4.997742756002443,
    4.997742756002443,
    4.9997710705961085,
    4.9997710705961085,
    5.001711197598744,
    5.002813542486605,
    5.002813542486605,
    5.006385139923275,
    5.006385139923275,
    5.008810298676568,
    5.008810298676568,
    5.011191363634349,
    5.011191363634349,
    5.0091630490406835,
    5.0108386132702325,
    5.0108386132702325,
    5.012866927863897,
    5.012866927863897,
    5.015733024572336,
    5.015733024572336,
    5.015865305958879,
    5.011896864362579,
    5.011896864362579,
    5.0103976753150885,
    5.0103976753150885,
    5.016085774936451,
    5.018731402667318,
    5.018731402667318,
    5.016306243914023,
    5.016306243914023,
    5.017408588801884,
    5.022655750468103,
    5.022655750468103,
    5.023228969809791
  ]
}