[
  {
    "temp": 188.79275512695312,
    "speed": 0,
    "load": 0.004233004369386784
  },
  {
    "temp": 188.8003692626953,
    "speed": 0,
    "load": -0.00255744013983783
  },
  {
    "temp": 188.7962188720703,
    "speed": 0,
    "load": -0.0060408499854789355
  },
  {
    "temp": 188.80313110351562,
    "speed": 0,
    "load": -0.00837782114774388
  },
  {
    "temp": 188.79843139648438,
    "speed": 0,
    "load": -0.010273854354864831
  },
  {
    "temp": 188.7998504638672,
    "speed": 0,
    "load": -0.010758886105523224
  },
  {
    "temp": 188.80604553222656,
    "speed": 0,
    "load": -0.01746114302371904
  },
  {
    "temp": 188.79054260253906,
    "speed": 0,
    "load": -0.016314704340342878
  },
  {
    "temp": 188.79859924316406,
    "speed": 0,
    "load": -0.016050141567256482
  },
  {
    "temp": 188.7947998046875,
    "speed": 3.900156021118164,
    "load": -0.01737295543269024
  },
  {
    "temp": 188.78115844726562,
    "speed": 3.90625,
    "load": 2.5748130952702644
  },
  {
    "temp": 188.7910919189453,
    "speed": 4.159733772277832,
    "load": 8.804869557301139
  },
  {
    "temp": 188.77857971191406,
    "speed": 3.8940811157226562,
    "load": 17.022497945940955
  },
  {
    "temp": 188.76856994628906,
    "speed": 4.159733772277832,
    "load": 21.676950812854315
  },
  {
    "temp": 188.74391174316406,
    "speed": 3.90625,
    "load": 25.493489283606753
  },
  {
    "temp": 188.7305908203125,
    "speed": 3.900156021118164,
    "load": 26.389078364300563
  },
  {
    "temp": 188.71994018554688,
    "speed": 3.900156021118164,
    "load": 24.498292318845817
  },
  {
    "temp": 188.70458984375,
    "speed": 3.900156021118164,
    "load": 18.984363189764977
  },
  {
    "temp": 188.70936584472656,
    "speed": 4.166666507720947,
    "load": 18.0290270161491
  },
  {
    "temp": 188.69271850585938,
    "speed": 3.90625,
    "load": 17.671911366277644
  },
  {
    "temp": 188.6793975830078,
    "speed": 4.159733772277832,
    "load": 17.755028170822364
  },
  {
    "temp": 188.6684112548828,
    "speed": 4.159733772277832,
    "load": 17.786202484251074
  },
  {
    "temp": 188.67019653320312,
    "speed": 3.900156021118164,
    "load": 17.679848249470243
  },
  {
    "temp": 188.67161560058594,
    "speed": 4.166666507720947,
    "load": 18.24438111344163
  },
  {
    "temp": 188.66343688964844,
    "speed": 4.159733772277832,
    "load": 18.27379167504976
  },
  {
    "temp": 188.65597534179688,
    "speed": 3.900156021118164,
    "load": 18.634082078198258
  },
  {
    "temp": 188.66024780273438,
    "speed": 3.90625,
    "load": 18.681218345603195
  },
  {
    "temp": 188.64796447753906,
    "speed": 3.900156021118164,
    "load": 18.64748659203465
  },
  {
    "temp": 188.65383911132812,
    "speed": 3.900156021118164,
    "load": 19.041111904592064
  },
  {
    "temp": 188.64830017089844,
    "speed": 4.1528239250183105,
    "load": 19.02488538784275
  },
  {
    "temp": 188.6403045654297,
    "speed": 3.8940811157226562,
    "load": 19.132959280648645
  },
  {
    "temp": 188.62722778320312,
    "speed": 4.159733772277832,
    "load": 19.2830545605798
  },
  {
    "temp": 188.62681579589844,
    "speed": 4.159733772277832,
    "load": 19.160958840800316
  },
  {
    "temp": 188.62667846679688,
    "speed": 4.166666507720947,
    "load": 19.345623656414794
  },
  {
    "temp": 188.62657165527344,
    "speed": 3.900156021118164,
    "load": 19.3355702710375
  },
  {
    "temp": 188.61624145507812,
    "speed": 4.159733772277832,
    "load": 19.435178155104623
  },
  {
    "temp": 188.60797119140625,
    "speed": 3.900156021118164,
    "load": 19.658821885953866
  },
  {
    "temp": 188.60630798339844,
    "speed": 4.166666507720947,
    "load": 19.478213699526716
  },
  {
    "temp": 188.5897979736328,
    "speed": 4.159733772277832,
    "load": 19.752829857990655
  },
  {
    "temp": 188.56600952148438,
    "speed": 3.900156021118164,
    "load": 19.884317556214718
  },
  {
    "temp": 188.55755615234375,
    "speed": 3.8940811157226562,
    "load": 19.841767043543282
  },
  {
    "temp": 188.55079650878906,
    "speed": 3.900156021118164,
    "load": 20.09610005607058
  },
  {
    "temp": 188.5430908203125,
    "speed": 3.90625,
    "load": 19.87651295440866
  },
  {
    "temp": 188.5289764404297,
    "speed": 3.900156021118164,
    "load": 20.178952297842212
  },
  {
    "temp": 188.52792358398438,
    "speed": 3.8940811157226562,
    "load": 20.328209795658594
  },
  {
    "temp": 188.516845703125,
    "speed": 3.900156021118164,
    "load": 20.254529063353964
  },
  {
    "temp": 188.4824676513672,
    "speed": 4.159733772277832,
    "load": 20.546650458637135
  },
  {
    "temp": 188.47024536132812,
    "speed": 0,
    "load": 20.59771107384286
  },
  {
    "temp": 188.46046447753906,
    "speed": 0,
    "load": 19.901558230260864
  },
  {
    "temp": 188.46287536621094,
    "speed": 0,
    "load": 15.81397519848116
  },
  {
    "temp": 188.4479217529297,
    "speed": 0,
    "load": 7.78983038455871
  },
  {
    "temp": 188.44261169433594,
    "speed": 0,
    "load": 6.320272367653421
  },
  {
    "temp": 188.4383544921875,
    "speed": 0,
    "load": 5.414762182968862
  },
  {
    "temp": 188.42471313476562,
    "speed": 0,
    "load": 4.322117930121016
  },
  {
    "temp": 188.4235076904297,
    "speed": 0,
    "load": 3.9540229251664636
  },
  {
    "temp": 188.412841796875,
    "speed": 0,
    "load": 3.653567802531062
  },
  {
    "temp": 188.404296875,
    "speed": 0,
    "load": 3.1609960128392425
  },
  {
    "temp": 188.3974609375,
    "speed": 0,
    "load": 2.9670274063712165
  },
  {
    "temp": 188.3855743408203,
    "speed": 0,
    "load": 2.800176484144573
  },
  {
    "temp": 188.3824920654297,
    "speed": 0,
    "load": 2.661589684842684
  },
  {
    "temp": 188.3902587890625,
    "speed": 0,
    "load": 2.441341176248053
  },
  {
    "temp": 188.39646911621094,
    "speed": 0,
    "load": 2.354079554924973
  },
  {
    "temp": 188.38699340820312,
    "speed": 0,
    "load": 2.267479340534611
  },
  {
    "temp": 188.37338256835938,
    "speed": 0,
    "load": 2.1092708022287967
  },
  {
    "temp": 188.3625030517578,
    "speed": 0,
    "load": 2.038720729405692
  },
  {
    "temp": 188.36402893066406,
    "speed": 0,
    "load": 1.9789295426881095
  },
  {
    "temp": 188.3345489501953,
    "speed": 0,
    "load": 1.939730158475773
  },
  {
    "temp": 188.33917236328125,
    "speed": 0,
    "load": 1.901677212946809
  },
  {
    "temp": 188.35560607910156,
    "speed": 0,
    "load": 1.8409159627279097
  },
  {
    "temp": 188.3585205078125,
    "speed": 0,
    "load": 1.8148565295788748
  },
  {
    "temp": 188.37107849121094,
    "speed": 0,
    "load": 1.7921482248889378
  },
  {
    "temp": 188.38917541503906,
    "speed": 0,
    "load": 1.7461583961673766
  },
  {
    "temp": 188.39561462402344,
    "speed": 0,
    "load": 1.730990130510409
  },
  {
    "temp": 188.38027954101562,
    "speed": 0,
    "load": 1.7179383670381343
  },
  {
    "temp": 188.38687133789062,
    "speed": 0,
    "load": 1.707047199546067
  },
  {
    "temp": 188.38352966308594,
    "speed": 0,
    "load": 1.6768870434141894
  },
  {
    "temp": 188.39109802246094,
    "speed": 0,
    "load": 1.6672745959920414
  },
  {
    "temp": 188.39173889160156,
    "speed": 0,
    "load": 1.6445662913021044
  },
  {
    "temp": 188.3976593017578,
    "speed": 0,
    "load": 1.6303680891464536
  },
  {
    "temp": 188.4023895263672,
    "speed": 0,
    "load": 1.617801357424839
  },
  {
    "temp": 188.4061737060547,
    "speed": 0,
    "load": 1.6088944107309215
  },
  {
    "temp": 188.421875,
    "speed": 0,
    "load": 1.5963276790093053
  },
  {
    "temp": 188.42176818847656,
    "speed": 0,
    "load": 1.5872884509288463
  },
  {
    "temp": 188.44215393066406,
    "speed": 0,
    "load": 1.573928030887969
  },
  {
    "temp": 188.46127319335938,
    "speed": 0,
    "load": 1.5652856469671397
  },
  {
    "temp": 188.46353149414062,
    "speed": 0,
    "load": 1.5565550754552797
  },
  {
    "temp": 188.48580932617188,
    "speed": 0,
    "load": 1.5477804101479054
  },
  {
    "temp": 188.49339294433594,
    "speed": 0,
    "load": 1.532964894855053
  },
  {
    "temp": 188.5227508544922,
    "speed": 0,
    "load": 1.5330089886505691
  },
  {
    "temp": 188.54342651367188,
    "speed": 0,
    "load": 1.524146135752166
  },
  {
    "temp": 188.55996704101562,
    "speed": 0,
    "load": 1.5092865266637991
  },
  {
    "temp": 188.5837860107422,
    "speed": 0,
    "load": 1.506817274114991
  },
  {
    "temp": 188.6024932861328,
    "speed": 0,
    "load": 1.4996299854461368
  },
  {
    "temp": 188.6072235107422,
    "speed": 0,
    "load": 1.4789940891453783
  },
  {
    "temp": 188.63148498535156,
    "speed": 0,
    "load": 1.4719390818630673
  },
  {
    "temp": 188.63980102539062,
    "speed": 0,
    "load": 1.4643549490345835
  },
  {
    "temp": 188.6575469970703,
    "speed": 0,
    "load": 1.4563298782509557
  },
  {
    "temp": 188.6614990234375,
    "speed": 0,
    "load": 1.4413379877760457
  },
  {
    "temp": 188.67489624023438,
    "speed": 0,
    "load": 1.4347239184488787
  },
  {
    "temp": 188.6958465576172,
    "speed": 0,
    "load": 1.4274484421889975
  },
  {
    "temp": 188.7444305419922,
    "speed": 0,
    "load": 1.4102959557338801
  },
  {
    "temp": 188.76170349121094,
    "speed": 0,
    "load": 1.4054456382272908
  },
  {
    "temp": 188.76528930664062,
    "speed": 0,
    "load": 1.3986110999225518
  },
  {
    "temp": 188.78887939453125,
    "speed": 0,
    "load": 1.3912915298671544
  },
  {
    "temp": 188.80751037597656,
    "speed": 0,
    "load": 1.3830459901059546
  },
  {
    "temp": 188.81588745117188,
    "speed": 0,
    "load": 1.3647911587629773
  },
  {
    "temp": 188.82911682128906,
    "speed": 0,
    "load": 1.3515630201086433
  },
  {
    "temp": 188.83969116210938,
    "speed": 0,
    "load": 1.3527094587920194
  },
  {
    "temp": 188.84674072265625,
    "speed": 0,
    "load": 1.3374970993395374
  },
  {
    "temp": 188.8435516357422,
    "speed": 0,
    "load": 1.3336609391297811
  },
  {
    "temp": 188.87991333007812,
    "speed": 0,
    "load": 1.3189336114279575
  },
  {
    "temp": 188.89056396484375,
    "speed": 0,
    "load": 1.3081747253224352
  },
  {
    "temp": 188.8956756591797,
    "speed": 0,
    "load": 1.2932269286430378
  },
  {
    "temp": 188.90318298339844,
    "speed": 0,
    "load": 1.289919893979456
  },
  {
    "temp": 188.91941833496094,
    "speed": 0,
    "load": 1.2910663326628304
  },
  {
    "temp": 188.92218017578125,
    "speed": 0,
    "load": 1.2799987899887073
  },
  {
    "temp": 188.91590881347656,
    "speed": 0,
    "load": 1.2702981549755288
  },
  {
    "temp": 188.9091339111328,
    "speed": 0,
    "load": 1.2623612717829298
  },
  {
    "temp": 188.9139404296875,
    "speed": 0,
    "load": 1.2512937291088049
  },
  {
    "temp": 188.92906188964844,
    "speed": 0,
    "load": 1.2460024736470716
  },
  {
    "temp": 188.94012451171875,
    "speed": 0,
    "load": 1.2397411546840216
  },
  {
    "temp": 188.948974609375,
    "speed": 0,
    "load": 1.2319365528779658
  },
  {
    "temp": 188.94581604003906,
    "speed": 0,
    "load": 1.228276767850267
  },
  {
    "temp": 188.96377563476562,
    "speed": 0,
    "load": 1.219546196338407
  },
  {
    "temp": 188.93228149414062,
    "speed": 0,
    "load": 1.2172092251761422
  },
  {
    "temp": 188.93246459960938,
    "speed": 0,
    "load": 1.2071117460033358
  },
  {
    "temp": 188.9326171875,
    "speed": 0,
    "load": 1.1938836073490036
  },
  {
    "temp": 188.91644287109375,
    "speed": 0,
    "load": 1.1860790055429478
  },
  {
    "temp": 188.89932250976562,
    "speed": 0,
    "load": 1.180611374899157
  },
  {
    "temp": 188.90609741210938,
    "speed": 0,
    "load": 1.1766429333028556
  },
  {
    "temp": 188.8892364501953,
    "speed": 0,
    "load": 1.1713516778411242
  },
  {
    "temp": 188.88778686523438,
    "speed": 0,
    "load": 1.1527440961340298
  },
  {
    "temp": 188.88662719726562,
    "speed": 0,
    "load": 1.1528322837250586
  },
  {
    "temp": 188.87545776367188,
    "speed": 0,
    "load": 1.1526118147474866
  },
  {
    "temp": 188.85939025878906,
    "speed": 0,
    "load": 1.138325425000807
  },
  {
    "temp": 188.85366821289062,
    "speed": 0,
    "load": 1.1352829531103117
  },
  {
    "temp": 188.84542846679688,
    "speed": 0,
    "load": 1.1274783513042559
  },
  {
    "temp": 188.832275390625,
    "speed": 0,
    "load": 1.1238185662765554
  },
  {
    "temp": 188.8319854736328,
    "speed": 0,
    "load": 1.1193650929295975
  },
  {
    "temp": 188.83175659179688,
    "speed": 0,
    "load": 1.116851746585275
  },
  {
    "temp": 188.8314208984375,
    "speed": 0,
    "load": 1.1078125185048142
  },
  {
    "temp": 188.831298828125,
    "speed": 0,
    "load": 1.1028299196116835
  },
  {
    "temp": 188.82293701171875,
    "speed": 0,
    "load": 1.102300794065509
  },
  {
    "temp": 188.81427001953125,
    "speed": 0,
    "load": 1.0970977261948045
  },
  {
    "temp": 188.8175811767578,
    "speed": 0,
    "load": 1.0910568762093265
  },
  {
    "temp": 188.80392456054688,
    "speed": 0,
    "load": 1.086206558702739
  },
  {
    "temp": 188.79905700683594,
    "speed": 0,
    "load": 1.080827115649977
  },
  {
    "temp": 188.78494262695312,
    "speed": 0,
    "load": 1.0737280145721515
  },
  {
    "temp": 188.77279663085938,
    "speed": 0,
    "load": 1.0763295485075028
  },
  {
    "temp": 188.7434539794922,
    "speed": 0,
    "load": 1.071435137205401
  },
  {
    "temp": 188.71998596191406,
    "speed": 0,
    "load": 1.0638510043769172
  },
  {
    "temp": 188.70257568359375,
    "speed": 0,
    "load": 1.0597061875985583
  },
  {
    "temp": 188.69752502441406,
    "speed": 0,
    "load": 1.057589685413867
  },
  {
    "temp": 188.70372009277344,
    "speed": 0,
    "load": 1.0515047416328729
  },
  {
    "temp": 188.68601989746094,
    "speed": 0,
    "load": 1.0500055525853833
  },
  {
    "temp": 188.67404174804688,
    "speed": 0,
    "load": 1.0513283664508153
  },
  {
    "temp": 188.66497802734375,
    "speed": 0,
    "load": 1.050755147109128
  },
  {
    "temp": 188.65721130371094,
    "speed": 0,
    "load": 1.0471394558769438
  },
  {
    "temp": 188.65098571777344,
    "speed": 0,
    "load": 1.0378356650233966
  },
  {
    "temp": 188.64202880859375,
    "speed": 0,
    "load": 1.0368215077265655
  },
  {
    "temp": 188.6388397216797,
    "speed": 0,
    "load": 1.0330294413123235
  },
  {
    "temp": 188.63629150390625,
    "speed": 0,
    "load": 1.0324121281751202
  },
  {
    "temp": 188.6223907470703,
    "speed": 0,
    "load": 1.0276499982595597
  },
  {
    "temp": 188.62313842773438,
    "speed": 0,
    "load": 1.0237256504587764
  },
  {
    "temp": 188.6237335205078,
    "speed": 0,
    "load": 1.019624927475932
  },
  {
    "temp": 188.6245880126953,
    "speed": 0,
    "load": 1.0240784008228916
  },
  {
    "temp": 188.62489318847656,
    "speed": 0,
    "load": 1.0207272723637937
  },
  {
    "temp": 188.62513732910156,
    "speed": 0,
    "load": 1.0171997687226382
  },
  {
    "temp": 188.62533569335938,
    "speed": 0,
    "load": 1.020109959226592
  },
  {
    "temp": 188.61741638183594,
    "speed": 0,
    "load": 1.008116446846663
  },
  {
    "temp": 188.60891723632812,
    "speed": 0,
    "load": 1.0067054453902005
  },
  {
    "temp": 188.6123504638672,
    "speed": 0,
    "load": 1.0101888552358416
  },
  {
    "temp": 188.61729431152344,
    "speed": 0,
    "load": 1.006440882617114
  },
  {
    "temp": 188.6190643310547,
    "speed": 0,
    "load": 1.0024724410208146
  },
  {
    "temp": 188.62159729003906,
    "speed": 0,
    "load": 0.9980630614693711
  },
  {
    "temp": 188.62249755859375,
    "speed": 0,
    "load": 1.0018992216791274
  },
  {
    "temp": 188.6232147216797,
    "speed": 0,
    "load": 1.0004882202226648
  },
  {
    "temp": 188.62379455566406,
    "speed": 0,
    "load": 0.9974898421276821
  },
  {
    "temp": 188.62461853027344,
    "speed": 0,
    "load": 0.9906112100274305
  },
  {
    "temp": 188.6249237060547,
    "speed": 0,
    "load": 0.9929481811896954
  },
  {
    "temp": 188.6251678466797,
    "speed": 0,
    "load": 0.9932127439627818
  },
  {
    "temp": 188.63369750976562,
    "speed": 0,
    "load": 0.9953733399429909
  },
  {
    "temp": 188.64242553710938,
    "speed": 0,
    "load": 0.9889797395933959
  },
  {
    "temp": 188.63916015625,
    "speed": 0,
    "load": 0.9907434914139737
  },
  {
    "temp": 188.6365509033203,
    "speed": 0,
    "load": 0.9850994855881252
  },
  {
    "temp": 188.65121459960938,
    "speed": 0,
    "load": 0.9808223874232249
  },
  {
    "temp": 188.6461944580078,
    "speed": 0,
    "load": 0.9728414104351097
  },
  {
    "temp": 188.6758270263672,
    "speed": 0,
    "load": 0.9768539458269254
  },
  {
    "temp": 188.66587829589844,
    "speed": 0,
    "load": 0.9754870381659773
  },
  {
    "temp": 188.67840576171875,
    "speed": 0,
    "load": 0.9739437553229715
  },
  {
    "temp": 188.70870971679688,
    "speed": 0,
    "load": 0.9731941607992267
  },
  {
    "temp": 188.71266174316406,
    "speed": 0,
    "load": 0.9679469991330079
  },
  {
    "temp": 188.71583557128906,
    "speed": 0,
    "load": 0.9664478100855165
  },
  {
    "temp": 188.72039794921875,
    "speed": 0,
    "load": 0.9695784695670424
  },
  {
    "temp": 188.7322540283203,
    "speed": 0,
    "load": 0.9590841462346047
  },
  {
    "temp": 188.75196838378906,
    "speed": 0,
    "load": 0.9647281520604531
  },
  {
    "temp": 188.7619171142578,
    "speed": 0,
    "load": 0.9611124608282688
  },
  {
    "temp": 188.75523376464844,
    "speed": 0,
    "load": 0.9603187725090097
  },
  {
    "temp": 188.74989318847656,
    "speed": 0,
    "load": 0.9604069601000385
  },
  {
    "temp": 188.76878356933594,
    "speed": 0,
    "load": 0.9479725097649654
  },
  {
    "temp": 188.76072692871094,
    "speed": 0,
    "load": 0.9500449181541457
  },
  {
    "temp": 188.77572631835938,
    "speed": 0,
    "load": 0.954322016319046
  },
  {
    "temp": 188.77650451660156,
    "speed": 0,
    "load": 0.9504417623137753
  },
  {
    "temp": 188.78736877441406,
    "speed": 0,
    "load": 0.9507063250868617
  },
  {
    "temp": 188.79278564453125,
    "speed": 0,
    "load": 0.9469142586726198
  },
  {
    "temp": 188.80038452148438,
    "speed": 0,
    "load": 0.9452827882385852
  },
  {
    "temp": 188.8064727783203,
    "speed": 0,
    "load": 0.9425930667122033
  },
  {
    "temp": 188.80499267578125,
    "speed": 0,
    "load": 0.938315968547303
  },
  {
    "temp": 188.81015014648438,
    "speed": 0,
    "load": 0.9403442831409672
  },
  {
    "temp": 188.8142852783203,
    "speed": 0,
    "load": 0.9381395933652454
  },
  {
    "temp": 188.8202362060547,
    "speed": 0,
    "load": 0.9380073119787022
  },
  {
    "temp": 188.81211853027344,
    "speed": 0,
    "load": 0.9355380594298941
  },
  {
    "temp": 188.81585693359375,
    "speed": 0,
    "load": 0.9355821532254085
  },
  {
    "temp": 188.8212432861328,
    "speed": 0,
    "load": 0.9340388703824027
  },
  {
    "temp": 188.8026885986328,
    "speed": 0,
    "load": 0.931481430242564
  },
  {
    "temp": 188.79808044433594,
    "speed": 0,
    "load": 0.9328483379035122
  },
  {
    "temp": 188.80462646484375,
    "speed": 0,
    "load": 0.9289239901027271
  },
  {
    "temp": 188.79563903808594,
    "speed": 0,
    "load": 0.929717678421988
  },
  {
    "temp": 188.78221130371094,
    "speed": 0,
    "load": 0.9283507707610399
  },
  {
    "temp": 188.7816925048828,
    "speed": 0,
    "load": 0.9206343565460129
  },
  {
    "temp": 188.79937744140625,
    "speed": 0,
    "load": 0.9185619481568343
  },
  {
    "temp": 188.79542541503906,
    "speed": 0,
    "load": 0.9268074879180341
  },
  {
    "temp": 188.80250549316406,
    "speed": 0,
    "load": 0.9194879178626367
  },
  {
    "temp": 188.7860870361328,
    "speed": 0,
    "load": 0.9169745715183142
  },
  {
    "temp": 188.77456665039062,
    "speed": 0,
    "load": 0.9141084748098747
  },
  {
    "temp": 188.76535034179688,
    "speed": 0,
    "load": 0.9173714156779438
  },
  {
    "temp": 188.7579803466797,
    "speed": 0,
    "load": 0.9199729496132969
  },
  {
    "temp": 188.75555419921875,
    "speed": 0,
    "load": 0.9169304777227998
  },
  {
    "temp": 188.75013732910156,
    "speed": 0,
    "load": 0.9097431890539456
  },
  {
    "temp": 188.75604248046875,
    "speed": 0,
    "load": 0.9123447229892969
  },
  {
    "temp": 188.73793029785156,
    "speed": 0,
    "load": 0.909125875916744
  },
  {
    "temp": 188.72579956054688,
    "speed": 0,
    "load": 0.9100518456225464
  },
  {
    "temp": 188.72633361816406,
    "speed": 0,
    "load": 0.9123888167848131
  },
  {
    "temp": 188.71652221679688,
    "speed": 0,
    "load": 0.9089935945302008
  },
  {
    "temp": 188.70445251464844,
    "speed": 0,
    "load": 0.9092581573032872
  },
  {
    "temp": 188.6990203857422,
    "speed": 0,
    "load": 0.9050251529338995
  },
  {
    "temp": 188.6809539794922,
    "speed": 0,
    "load": 0.9041873708191259
  },
  {
    "temp": 188.66998291015625,
    "speed": 0,
    "load": 0.8964268628085845
  },
  {
    "temp": 188.67144775390625,
    "speed": 0,
    "load": 0.9012771803151738
  },
  {
    "temp": 188.66537475585938,
    "speed": 0,
    "load": 0.902952744544721
  },
  {
    "temp": 188.66775512695312,
    "speed": 0,
    "load": 0.8989843029484215
  },
  {
    "temp": 188.67990112304688,
    "speed": 0,
    "load": 0.8962504876265269
  },
  {
    "temp": 188.6707763671875,
    "speed": 0,
    "load": 0.9005716795869416
  },
  {
    "temp": 188.66184997558594,
    "speed": 0,
    "load": 0.9024236189985482
  },
  {
    "temp": 188.66494750976562,
    "speed": 0,
    "load": 0.8972205511278455
  },
  {
    "temp": 188.66940307617188,
    "speed": 0,
    "load": 0.8943985482149204
  },
  {
    "temp": 188.66075134277344,
    "speed": 0,
    "load": 0.8958536434668973
  },
  {
    "temp": 188.65382385253906,
    "speed": 0,
    "load": 0.8918852018705978
  },
  {
    "temp": 188.6622772216797,
    "speed": 0,
    "load": 0.8937371412822026
  },
  {
    "temp": 188.665283203125,
    "speed": 0,
    "load": 0.8863293836357782
  },
  {
    "temp": 188.65118408203125,
    "speed": 0,
    "load": 0.8884899796159855
  },
  {
    "temp": 188.65640258789062,
    "speed": 0,
    "load": 0.8871230719550374
  },
  {
    "temp": 188.66058349609375,
    "speed": 0,
    "load": 0.8840806000645403
  },
  {
    "temp": 188.66659545898438,
    "speed": 0,
    "load": 0.8869026029774654
  },
  {
    "temp": 188.66873168945312,
    "speed": 0,
    "load": 0.8846538194062292
  },
  {
    "temp": 188.67044067382812,
    "speed": 0,
    "load": 0.8826695986080795
  },
  {
    "temp": 188.6626739501953,
    "speed": 0,
    "load": 0.8814349723336745
  },
  {
    "temp": 188.68606567382812,
    "speed": 0,
    "load": 0.8775547183284038
  },
  {
    "temp": 188.69454956054688,
    "speed": 0,
    "load": 0.8752618409616533
  },
  {
    "temp": 188.69110107421875,
    "speed": 0,
    "load": 0.8783925004431774
  },
  {
    "temp": 188.6881866455078,
    "speed": 0,
    "load": 0.872307556662185
  },
  {
    "temp": 188.6962432861328,
    "speed": 0,
    "load": 0.8753500285526821
  },
  {
    "temp": 188.6924591064453,
    "speed": 0,
    "load": 0.8779515624880334
  },
  {
    "temp": 188.68942260742188,
    "speed": 0,
    "load": 0.8712933993653538
  },
  {
    "temp": 188.7239532470703,
    "speed": 0,
    "load": 0.8713374931608682
  },
  {
    "temp": 188.73509216308594,
    "speed": 0,
    "load": 0.8775547183284038
  },
  {
    "temp": 188.73272705078125,
    "speed": 0,
    "load": 0.8682068336793423
  },
  {
    "temp": 188.7421112060547,
    "speed": 0,
    "load": 0.8697060227268336
  },
  {
    "temp": 188.73939514160156,
    "speed": 0,
    "load": 0.8704997110460928
  },
  {
    "temp": 188.75389099121094,
    "speed": 0,
    "load": 0.8656934873350197
  },
  {
    "temp": 188.759033203125,
    "speed": 0,
    "load": 0.8662667066767069
  },
  {
    "temp": 188.76316833496094,
    "speed": 0,
    "load": 0.8636651727413538
  },
  {
    "temp": 188.7793426513672,
    "speed": 0,
    "load": 0.8645470486516436
  },
  {
    "temp": 188.7794189453125,
    "speed": 0,
    "load": 0.8605345132598297
  },
  {
    "temp": 188.77947998046875,
    "speed": 0,
    "load": 0.8652525493798757
  },
  {
    "temp": 188.77134704589844,
    "speed": 0,
    "load": 0.8675454267466263
  },
  {
    "temp": 188.78323364257812,
    "speed": 0,
    "load": 0.8570070096186742
  },
  {
    "temp": 188.8003692626953,
    "speed": 0,
    "load": 0.8518480355434841
  },
  {
    "temp": 188.80645751953125,
    "speed": 0,
    "load": 0.8519362231345129
  },
  {
    "temp": 188.8113250732422,
    "speed": 0,
    "load": 0.8523771610896569
  },
  {
    "temp": 188.79991149902344,
    "speed": 0,
    "load": 0.8501724713139369
  },
  {
    "temp": 188.80609130859375,
    "speed": 0,
    "load": 0.8511425348152537
  },
  {
    "temp": 188.80079650878906,
    "speed": 0,
    "load": 0.855199164002582
  },
  {
    "temp": 188.7931671142578,
    "speed": 0,
    "load": 0.8534354121820042
  },
  {
    "temp": 188.80068969726562,
    "speed": 0,
    "load": 0.8508338782466529
  },
  {
    "temp": 188.81153869628906,
    "speed": 0,
    "load": 0.8477914063561558
  },
  {
    "temp": 188.79493713378906,
    "speed": 0,
    "load": 0.8462922173086662
  },
  {
    "temp": 188.7918701171875,
    "speed": 0,
    "load": 0.8447930282611731
  },
  {
    "temp": 188.7874755859375,
    "speed": 0,
    "load": 0.8448371220566893
  },
  {
    "temp": 188.78590393066406,
    "speed": 0,
    "load": 0.8452339662163189
  },
  {
    "temp": 188.77442932128906,
    "speed": 0,
    "load": 0.8463363111041788
  },
  {
    "temp": 188.7947235107422,
    "speed": 0,
    "load": 0.8410450556424474
  },
  {
    "temp": 188.78147888183594,
    "speed": 0,
    "load": 0.8383553341160654
  },
  {
    "temp": 188.79135131835938,
    "speed": 0,
    "load": 0.8394135852084128
  },
  {
    "temp": 188.77691650390625,
    "speed": 0,
    "load": 0.8400308983456144
  },
  {
    "temp": 188.78768920898438,
    "speed": 0,
    "load": 0.837429364410263
  },
  {
    "temp": 188.79296875,
    "speed": 0,
    "load": 0.8353128622255683
  },
  {
    "temp": 188.7800750732422,
    "speed": 0,
    "load": 0.8362829257268869
  },
  {
    "temp": 188.7799835205078,
    "speed": 0,
    "load": 0.8335050166094762
  },
  {
    "temp": 188.7798614501953,
    "speed": 0,
    "load": 0.829933419172808
  },
  {
    "temp": 188.77981567382812,
    "speed": 0,
    "load": 0.8338136731780788
  },
  {
    "temp": 188.75930786132812,
    "speed": 0,
    "load": 0.8363711133179157
  },
  {
    "temp": 188.75314331054688,
    "speed": 0,
    "load": 0.8220847235712379
  },
  {
    "temp": 188.74632263183594,
    "speed": 0,
    "load": 0.8223933801398386
  },
  {
    "temp": 188.7427520751953,
    "speed": 0,
    "load": 0.8238043815963012
  },
  {
    "temp": 188.73989868164062,
    "speed": 0,
    "load": 0.831035764060668
  },
  {
    "temp": 188.75808715820312,
    "speed": 0,
    "load": 0.8296688563997217
  },
  {
    "temp": 188.75216674804688,
    "speed": 0,
    "load": 0.8226138491174106
  },
  {
    "temp": 188.74159240722656,
    "speed": 0,
    "load": 0.8163084363588462
  },
  {
    "temp": 188.7389678955078,
    "speed": 0,
    "load": 0.8195272834313991
  },
  {
    "temp": 188.71640014648438,
    "speed": 0,
    "load": 0.8200564089775719
  },
  {
    "temp": 188.7105255126953,
    "speed": 0,
    "load": 0.8188658764986831
  },
  {
    "temp": 188.70388793945312,
    "speed": 0,
    "load": 0.8208060035013185
  },
  {
    "temp": 188.69432067871094,
    "speed": 0,
    "load": 0.8210264724788905
  },
  {
    "temp": 188.68067932128906,
    "speed": 0,
    "load": 0.8209823786833761
  },
  {
    "temp": 188.70046997070312,
    "speed": 0,
    "load": 0.8084156469617598
  },
  {
    "temp": 188.68392944335938,
    "speed": 0,
    "load": 0.8049322371161205
  },
  {
    "temp": 188.67236328125,
    "speed": 0,
    "load": 0.8078424276200726
  },
  {
    "temp": 188.66311645507812,
    "speed": 0,
    "load": 0.8092975228720496
  },
  {
    "temp": 188.64979553222656,
    "speed": 0,
    "load": 0.8129573078997483
  },
  {
    "temp": 188.65530395507812,
    "speed": 0,
    "load": 0.8131777768773203
  },
  {
    "temp": 188.6494598388672,
    "speed": 0,
    "load": 0.8064755199591245
  },
  {
    "temp": 188.6512908935547,
    "speed": 0,
    "load": 0.8061227695950093
  },
  {
    "temp": 188.64625549316406,
    "speed": 0,
    "load": 0.8059023006174373
  },
  {
    "temp": 188.66270446777344,
    "speed": 0,
    "load": 0.8044031115699459
  },
  {
    "temp": 188.65538024902344,
    "speed": 0,
    "load": 0.8043149239789171
  },
  {
    "temp": 188.64483642578125,
    "speed": 0,
    "load": 0.8079747090066158
  },
  {
    "temp": 188.64109802246094,
    "speed": 0,
    "load": 0.8118990568074009
  },
  {
    "temp": 188.63571166992188,
    "speed": 0,
    "load": 0.7987150119485831
  },
  {
    "temp": 188.64402770996094,
    "speed": 0,
    "load": 0.8004346699736464
  },
  {
    "temp": 188.6506805419922,
    "speed": 0,
    "load": 0.800390576178132
  },
  {
    "temp": 188.64183044433594,
    "speed": 0,
    "load": 0.7932473813047922
  },
  {
    "temp": 188.63868713378906,
    "speed": 0,
    "load": 0.7975685732652069
  },
  {
    "temp": 188.64234924316406,
    "speed": 0,
    "load": 0.7928064433496482
  },
  {
    "temp": 188.63909912109375,
    "speed": 0,
    "load": 0.7970835415145485
  },
  {
    "temp": 188.63650512695312,
    "speed": 0,
    "load": 0.7932032875092778
  },
  {
    "temp": 188.64300537109375,
    "speed": 0,
    "load": 0.7957166338536021
  },
  {
    "temp": 188.63963317871094,
    "speed": 0,
    "load": 0.793115099918249
  },
  {
    "temp": 188.63693237304688,
    "speed": 0,
    "load": 0.794349726192654
  },
  {
    "temp": 188.63304138183594,
    "speed": 0,
    "load": 0.7939528820330244
  },
  {
    "temp": 188.6418914794922,
    "speed": 0,
    "load": 0.7898962528456943
  },
  {
    "temp": 188.6489715576172,
    "speed": 0,
    "load": 0.7902490032098113
  },
  {
    "temp": 188.64073181152344,
    "speed": 0,
    "load": 0.7861482802269686
  },
  {
    "temp": 188.64804077148438,
    "speed": 0,
    "load": 0.7886175327757767
  },
  {
    "temp": 188.6641387939453,
    "speed": 0,
    "load": 0.7853104981121932
  },
  {
    "temp": 188.65045166015625,
    "speed": 0,
    "load": 0.787735656865487
  },
  {
    "temp": 188.6455841064453,
    "speed": 0,
    "load": 0.7833703711095579
  },
  {
    "temp": 188.6519317626953,
    "speed": 0,
    "load": 0.78407587183779
  },
  {
    "temp": 188.6692657470703,
    "speed": 0,
    "load": 0.7894994086860647
  },
  {
    "temp": 188.67086791992188,
    "speed": 0,
    "load": 0.7856632484763084
  },
  {
    "temp": 188.69261169433594,
    "speed": 0,
    "load": 0.7799310550594312
  },
  {
    "temp": 188.69528198242188,
    "speed": 0,
    "load": 0.7805042744011184
  },
  {
    "temp": 188.70191955566406,
    "speed": 0,
    "load": 0.7743311430290971
  },
  {
    "temp": 188.7072296142578,
    "speed": 0,
    "load": 0.7699217634776536
  },
  {
    "temp": 188.71148681640625,
    "speed": 0,
    "load": 0.7744634244156403
  },
  {
    "temp": 188.6944122314453,
    "speed": 0,
    "load": 0.7813420565158937
  },
  {
    "temp": 188.7332763671875,
    "speed": 0,
    "load": 0.779798773672888
  },
  {
    "temp": 188.74253845214844,
    "speed": 0,
    "load": 0.7729201415726346
  },
  {
    "temp": 188.74996948242188,
    "speed": 0,
    "load": 0.7670115729736997
  },
  {
    "temp": 188.7559051513672,
    "speed": 0,
    "load": 0.7657769466992965
  },
  {
    "temp": 188.76065063476562,
    "speed": 0,
    "load": 0.76908398136288
  },
  {
    "temp": 188.77468872070312,
    "speed": 0,
    "load": 0.7713327649341162
  },
  {
    "temp": 188.78465270996094,
    "speed": 0,
    "load": 0.7719500780713178
  },
  {
    "temp": 188.79388427734375,
    "speed": 0,
    "load": 0.7711563897520586
  },
  {
    "temp": 188.7808074951172,
    "speed": 0,
    "load": 0.7675847923153887
  },
  {
    "temp": 188.78855895996094,
    "speed": 0,
    "load": 0.7627785686043138
  },
  {
    "temp": 188.78677368164062,
    "speed": 0,
    "load": 0.7716855152982314
  },
  {
    "temp": 188.78533935546875,
    "speed": 0,
    "load": 0.762028974080569
  },
  {
    "temp": 188.79351806640625,
    "speed": 0,
    "load": 0.7597801905093329
  },
  {
    "temp": 188.79074096679688,
    "speed": 0,
    "load": 0.7635722569235748
  },
  {
    "temp": 188.78851318359375,
    "speed": 0,
    "load": 0.7645423204248916
  },
  {
    "temp": 188.78736877441406,
    "speed": 0,
    "load": 0.7665265412230413
  },
  {
    "temp": 188.79605102539062,
    "speed": 0,
    "load": 0.7607061602151353
  },
  {
    "temp": 188.77992248535156,
    "speed": 0,
    "load": 0.7637486321056324
  },
  {
    "temp": 188.79010009765625,
    "speed": 0,
    "load": 0.7580605324842695
  },
  {
    "temp": 188.7777862548828,
    "speed": 0,
    "load": 0.7611470981702793
  },
  {
    "temp": 188.7781524658203,
    "speed": 0,
    "load": 0.7591628773721295
  },
  {
    "temp": 188.76844787597656,
    "speed": 0,
    "load": 0.764145476265262
  },
  {
    "temp": 188.78091430664062,
    "speed": 0,
    "load": 0.7593833463497015
  },
  {
    "temp": 188.78065490722656,
    "speed": 0,
    "load": 0.755635373730974
  },
  {
    "temp": 188.7720947265625,
    "speed": 0,
    "load": 0.757310937960523
  },
  {
    "temp": 188.75314331054688,
    "speed": 0,
    "load": 0.7542243722745114
  },
  {
    "temp": 188.7686767578125,
    "speed": 0,
    "load": 0.753959809501425
  },
  {
    "temp": 188.75421142578125,
    "speed": 0,
    "load": 0.7534306839552523
  },
  {
    "temp": 188.76953125,
    "speed": 0,
    "load": 0.7510937127929873
  },
  {
    "temp": 188.74656677246094,
    "speed": 0,
    "load": 0.7552385295713444
  },
  {
    "temp": 188.74295043945312,
    "speed": 0,
    "load": 0.7508732438154153
  },
  {
    "temp": 188.72982788085938,
    "speed": 0,
    "load": 0.748359897471091
  },
  {
    "temp": 188.71932983398438,
    "speed": 0,
    "load": 0.7480071471069758
  },
  {
    "temp": 188.7205810546875,
    "speed": 0,
    "load": 0.7436418613510467
  },
  {
    "temp": 188.72216796875,
    "speed": 0,
    "load": 0.7486244602441774
  },
  {
    "temp": 188.7234344482422,
    "speed": 0,
    "load": 0.7420544847125266
  },
  {
    "temp": 188.70681762695312,
    "speed": 0,
    "load": 0.7505645872468145
  },
  {
    "temp": 188.690673828125,
    "speed": 0,
    "load": 0.7451851441940525
  },
  {
    "temp": 188.68800354003906,
    "speed": 0,
    "load": 0.7455819883536821
  },
  {
    "temp": 188.69439697265625,
    "speed": 0,
    "load": 0.7439064241241331
  },
  {
    "temp": 188.69097900390625,
    "speed": 0,
    "load": 0.7432891109869315
  },
  {
    "temp": 188.68606567382812,
    "speed": 0,
    "load": 0.7384828872758566
  },
  {
    "temp": 188.68431091308594,
    "speed": 0,
    "load": 0.7443032682837627
  },
  {
    "temp": 188.6829071044922,
    "speed": 0,
    "load": 0.7403348266874632
  },
  {
    "temp": 188.6715545654297,
    "speed": 0,
    "load": 0.7407757646426072
  },
  {
    "temp": 188.6818084716797,
    "speed": 0,
    "load": 0.7396734197547472
  },
  {
    "temp": 188.69114685058594,
    "speed": 0,
    "load": 0.7405993894605496
  },
  {
    "temp": 188.677978515625,
    "speed": 0,
    "load": 0.7348671960436723
  },
  {
    "temp": 188.6676025390625,
    "speed": 0,
    "load": 0.730590097878772
  },
  {
    "temp": 188.6593017578125,
    "speed": 0,
    "load": 0.7338971325423556
  },
  {
    "temp": 188.66578674316406,
    "speed": 0,
    "load": 0.7353963215898469
  },
  {
    "temp": 188.67832946777344,
    "speed": 0,
    "load": 0.7345144456795571
  },
  {
    "temp": 188.68836975097656,
    "speed": 0,
    "load": 0.7306782854698008
  },
  {
    "temp": 188.6925811767578,
    "speed": 0,
    "load": 0.730149159923628
  },
  {
    "temp": 188.6895294189453,
    "speed": 0,
    "load": 0.7346908208616147
  },
  {
    "temp": 188.69332885742188,
    "speed": 0,
    "load": 0.7310751296294304
  },
  {
    "temp": 188.69012451171875,
    "speed": 0,
    "load": 0.7292672840133383
  },
  {
    "temp": 188.6773223876953,
    "speed": 0,
    "load": 0.7248138106663804
  },
  {
    "temp": 188.6773223876953,
    "speed": 0,
    "load": 0.7203162435239081
  },
  {
    "temp": 188.6773223876953,
    "speed": 0,
    "load": 0.7240201223471212
  },
  {
    "temp": 188.6977996826172,
    "speed": 0,
    "load": 0.7278121887613631
  },
  {
    "temp": 188.69041442871094,
    "speed": 0,
    "load": 0.7259161555542422
  },
  {
    "temp": 188.6877899169922,
    "speed": 0,
    "load": 0.7260484369407836
  },
  {
    "temp": 188.6922149658203,
    "speed": 0,
    "load": 0.7157304887904052
  },
  {
    "temp": 188.6790008544922,
    "speed": 0,
    "load": 0.7166564584962094
  },
  {
    "temp": 188.68890380859375,
    "speed": 0,
    "load": 0.7177588033840694
  },
  {
    "temp": 188.70315551757812,
    "speed": 0,
    "load": 0.7233587154144034
  },
  {
    "temp": 188.70822143554688,
    "speed": 0,
    "load": 0.7189934296584743
  },
  {
    "temp": 188.7122802734375,
    "speed": 0,
    "load": 0.7190375234539887
  },
  {
    "temp": 188.71812438964844,
    "speed": 0,
    "load": 0.7220799953444841
  },
  {
    "temp": 188.73043823242188,
    "speed": 0,
    "load": 0.7208012752745665
  },
  {
    "temp": 188.7300567626953,
    "speed": 0,
    "load": 0.7210217442521385
  },
  {
    "temp": 188.73768615722656,
    "speed": 0,
    "load": 0.7195666490001615
  },
  {
    "temp": 188.74607849121094,
    "speed": 0,
    "load": 0.7148927066756317
  },
  {
    "temp": 188.75611877441406,
    "speed": 0,
    "load": 0.7163478019276086
  },
  {
    "temp": 188.77105712890625,
    "speed": 0,
    "load": 0.7175383344064974
  },
  {
    "temp": 188.7830047607422,
    "speed": 0,
    "load": 0.7196989303867047
  },
  {
    "temp": 188.77210998535156,
    "speed": 0,
    "load": 0.7154659260173188
  },
  {
    "temp": 188.76663208007812,
    "speed": 0,
    "load": 0.7158627701769484
  },
  {
    "temp": 188.7794647216797,
    "speed": 0,
    "load": 0.7084550125305222
  },
  {
    "temp": 188.76927185058594,
    "speed": 0,
    "load": 0.7074849490292054
  },
  {
    "temp": 188.77301025390625,
    "speed": 0,
    "load": 0.7070881048695741
  },
  {
    "temp": 188.78457641601562,
    "speed": 0,
    "load": 0.7078376993933206
  },
  {
    "temp": 188.7938232421875,
    "speed": 0,
    "load": 0.7107037961017584
  },
  {
    "temp": 188.78871154785156,
    "speed": 0,
    "load": 0.708102262166407
  },
  {
    "temp": 188.78689575195312,
    "speed": 0,
    "load": 0.7066471669144301
  },
  {
    "temp": 188.7854461669922,
    "speed": 0,
    "load": 0.7105274209197008
  },
  {
    "temp": 188.7833709716797,
    "speed": 0,
    "load": 0.706779448300975
  },
  {
    "temp": 188.78262329101562,
    "speed": 0,
    "load": 0.7062503227548005
  },
  {
    "temp": 188.79226684570312,
    "speed": 0,
    "load": 0.7055448220265701
  },
  {
    "temp": 188.7877197265625,
    "speed": 0,
    "load": 0.7051920716624531
  },
  {
    "temp": 188.78610229492188,
    "speed": 0,
    "load": 0.7075290428247198
  },
  {
    "temp": 188.7940216064453,
    "speed": 0,
    "load": 0.7047070399117947
  },
  {
    "temp": 188.7911376953125,
    "speed": 0,
    "load": 0.7038692577970211
  },
  {
    "temp": 188.78883361816406,
    "speed": 0,
    "load": 0.7032519446598196
  },
  {
    "temp": 188.7855224609375,
    "speed": 0,
    "load": 0.7010031610885816
  },
  {
    "temp": 188.7843475341797,
    "speed": 0,
    "load": 0.6975638450384567
  },
  {
    "temp": 188.77317810058594,
    "speed": 0,
    "load": 0.6973874698563991
  },
  {
    "temp": 188.76731872558594,
    "speed": 0,
    "load": 0.6958441870133933
  },
  {
    "temp": 188.75955200195312,
    "speed": 0,
    "load": 0.7008708797020384
  },
  {
    "temp": 188.76358032226562,
    "speed": 0,
    "load": 0.6981811581756583
  },
  {
    "temp": 188.76934814453125,
    "speed": 0,
    "load": 0.700826785906524
  },
  {
    "temp": 188.7714080810547,
    "speed": 0,
    "load": 0.6938599662152436
  },
  {
    "temp": 188.76283264160156,
    "speed": 0,
    "load": 0.6914789012574625
  },
  {
    "temp": 188.75047302246094,
    "speed": 0,
    "load": 0.6894946804593127
  },
  {
    "temp": 188.74607849121094,
    "speed": 0,
    "load": 0.693110371691497
  },
  {
    "temp": 188.74256896972656,
    "speed": 0,
    "load": 0.6920962143946641
  },
  {
    "temp": 188.71908569335938,
    "speed": 0,
    "load": 0.6930662778959826
  },
  {
    "temp": 188.72096252441406,
    "speed": 0,
    "load": 0.6920521205991514
  },
  {
    "temp": 188.72247314453125,
    "speed": 0,
    "load": 0.6898915246189441
  },
  {
    "temp": 188.73281860351562,
    "speed": 0,
    "load": 0.692889902713925
  },
  {
    "temp": 188.72171020507812,
    "speed": 0,
    "load": 0.6881277727983646
  },
  {
    "temp": 188.73330688476562,
    "speed": 0,
    "load": 0.6919639330081226
  },
  {
    "temp": 188.72134399414062,
    "speed": 0,
    "load": 0.6923166833722378
  },
  {
    "temp": 188.7227783203125,
    "speed": 0,
    "load": 0.6929339965094394
  },
  {
    "temp": 188.70640563964844,
    "speed": 0,
    "load": 0.6909056819157753
  },
  {
    "temp": 188.70059204101562,
    "speed": 0,
    "load": 0.6858789892271284
  },
  {
    "temp": 188.7106475830078,
    "speed": 0,
    "load": 0.6871136155015334
  },
  {
    "temp": 188.69374084472656,
    "speed": 0,
    "load": 0.6833656428828059
  },
  {
    "temp": 188.6802215576172,
    "speed": 0,
    "load": 0.6813373282891417
  },
  {
    "temp": 188.67916870117188,
    "speed": 0,
    "load": 0.6825719545635467
  },
  {
    "temp": 188.67880249023438,
    "speed": 0,
    "load": 0.687510459661163
  },
  {
    "temp": 188.69895935058594,
    "speed": 0,
    "load": 0.6835861118603779
  },
  {
    "temp": 188.69935607910156,
    "speed": 0,
    "load": 0.6844238939751515
  },
  {
    "temp": 188.68470764160156,
    "speed": 0,
    "load": 0.6827042359500881
  },
  {
    "temp": 188.68203735351562,
    "speed": 0,
    "load": 0.6779861998300438
  },
  {
    "temp": 188.6913299560547,
    "speed": 0,
    "load": 0.6768838549421838
  },
  {
    "temp": 188.67828369140625,
    "speed": 0,
    "load": 0.6771484177152702
  },
  {
    "temp": 188.70248413085938,
    "speed": 0,
    "load": 0.6838065808379499
  },
  {
    "temp": 188.7076873779297,
    "speed": 0,
    "load": 0.6775011680793854
  },
  {
    "temp": 188.7016143798828,
    "speed": 0,
    "load": 0.6740618520292587
  },
  {
    "temp": 188.7215118408203,
    "speed": 0,
    "load": 0.6800586082192224
  },
  {
    "temp": 188.73313903808594,
    "speed": 0,
    "load": 0.6741059458247731
  },
  {
    "temp": 188.73220825195312,
    "speed": 0,
    "load": 0.6782507626031302
  },
  {
    "temp": 188.73289489746094,
    "speed": 0,
    "load": 0.6767515735556389
  },
  {
    "temp": 188.7422332763672,
    "speed": 0,
    "load": 0.677236605306299
  },
  {
    "temp": 188.73948669433594,
    "speed": 0,
    "load": 0.6741059458247731
  },
  {
    "temp": 188.7519073486328,
    "speed": 0,
    "load": 0.6717248808669938
  },
  {
    "temp": 188.74722290039062,
    "speed": 0,
    "load": 0.6767074797601262
  },
  {
    "temp": 188.7537078857422,
    "speed": 0,
    "load": 0.6725626629817674
  },
  {
    "temp": 188.74867248535156,
    "speed": 0,
    "load": 0.6725626629817674
  },
  {
    "temp": 188.76510620117188,
    "speed": 0,
    "load": 0.6758256038498365
  },
  {
    "temp": 188.76800537109375,
    "speed": 0,
    "load": 0.6670950323379765
  },
  {
    "temp": 188.74559020996094,
    "speed": 0,
    "load": 0.6669186571559189
  },
  {
    "temp": 188.74217224121094,
    "speed": 0,
    "load": 0.6674918764976079
  },
  {
    "temp": 188.75990295410156,
    "speed": 0,
    "load": 0.6627738403775618
  },
  {
    "temp": 188.77407836914062,
    "speed": 0,
    "load": 0.6697847538643584
  },
  {
    "temp": 188.77520751953125,
    "speed": 0,
    "load": 0.6664777192007749
  },
  {
    "temp": 188.76861572265625,
    "speed": 0,
    "load": 0.6674918764976079
  },
  {
    "temp": 188.77081298828125,
    "speed": 0,
    "load": 0.6639643728564524
  },
  {
    "temp": 188.77256774902344,
    "speed": 0,
    "load": 0.6614951203076425
  },
  {
    "temp": 188.75465393066406,
    "speed": 0,
    "load": 0.6621124334448458
  },
  {
    "temp": 188.76988220214844,
    "speed": 0,
    "load": 0.6614069327166137
  },
  {
    "temp": 188.7652130126953,
    "speed": 0,
    "load": 0.6663013440187173
  },
  {
    "temp": 188.76809692382812,
    "speed": 0,
    "load": 0.6608778071704409
  },
  {
    "temp": 188.7601776123047,
    "speed": 0,
    "load": 0.6684178462034103
  },
  {
    "temp": 188.75384521484375,
    "speed": 0,
    "load": 0.6664336254052605
  },
  {
    "temp": 188.76312255859375,
    "speed": 0,
    "load": 0.6606132443973545
  },
  {
    "temp": 188.7766571044922,
    "speed": 0,
    "load": 0.6536905185015867
  },
  {
    "temp": 188.77772521972656,
    "speed": 0,
    "load": 0.6505157652245481
  },
  {
    "temp": 188.77810668945312,
    "speed": 0,
    "load": 0.6558070206862796
  },
  {
    "temp": 188.75794982910156,
    "speed": 0,
    "load": 0.6553219889356212
  },
  {
    "temp": 188.7657470703125,
    "speed": 0,
    "load": 0.649810264496316
  },
  {
    "temp": 188.75830078125,
    "speed": 0,
    "load": 0.6457095415134733
  },
  {
    "temp": 188.75233459472656,
    "speed": 0,
    "load": 0.6458418229000165
  },
  {
    "temp": 188.7621612548828,
    "speed": 0,
    "load": 0.6506039528155769
  },
  {
    "temp": 188.75543212890625,
    "speed": 0,
    "load": 0.6528527363868131
  },
  {
    "temp": 188.74574279785156,
    "speed": 0,
    "load": 0.6464150422417037
  },
  {
    "temp": 188.7320556640625,
    "speed": 0,
    "load": 0.6502512024514617
  },
  {
    "temp": 188.72109985351562,
    "speed": 0,
    "load": 0.6565125214145118
  },
  {
    "temp": 188.75241088867188,
    "speed": 0,
    "load": 0.656424333823483
  },
  {
    "temp": 188.7476348876953,
    "speed": 0,
    "load": 0.6561597710503948
  },
  {
    "temp": 188.74380493164062,
    "speed": 0,
    "load": 0.6489724823815424
  },
  {
    "temp": 188.72805786132812,
    "speed": 0,
    "load": 0.6450481345807573
  },
  {
    "temp": 188.7281494140625,
    "speed": 0,
    "load": 0.6485315444263984
  },
  {
    "temp": 188.73851013183594,
    "speed": 0,
    "load": 0.6499425458828592
  },
  {
    "temp": 188.74673461914062,
    "speed": 0,
    "load": 0.6439016958973811
  },
  {
    "temp": 188.7430877685547,
    "speed": 0,
    "load": 0.6457095415134733
  },
  {
    "temp": 188.7378387451172,
    "speed": 0,
    "load": 0.6444749152390683
  },
  {
    "temp": 188.73597717285156,
    "speed": 0,
    "load": 0.6443867276480395
  },
  {
    "temp": 188.71400451660156,
    "speed": 0,
    "load": 0.6458859166955309
  },
  {
    "temp": 188.68235778808594,
    "speed": 0,
    "load": 0.6471646367654502
  },
  {
    "temp": 188.67111206054688,
    "speed": 0,
    "load": 0.6475614809250798
  },
  {
    "temp": 188.67234802246094,
    "speed": 0,
    "load": 0.6428434448050355
  },
  {
    "temp": 188.69256591796875,
    "speed": 0,
    "load": 0.6400214418921104
  },
  {
    "temp": 188.6792755126953,
    "speed": 0,
    "load": 0.6382576900715327
  },
  {
    "temp": 188.6788787841797,
    "speed": 0,
    "load": 0.64041828605174
  },
  {
    "temp": 188.68035888671875,
    "speed": 0,
    "load": 0.6392718473683638
  },
  {
    "temp": 188.6695098876953,
    "speed": 0,
    "load": 0.6408151302113696
  },
  {
    "temp": 188.68130493164062,
    "speed": 0,
    "load": 0.6408592240068858
  },
  {
    "temp": 188.68191528320312,
    "speed": 0,
    "load": 0.635038842998978
  },
  {
    "temp": 188.67076110839844,
    "speed": 0,
    "load": 0.6301885254923905
  },
  {
    "temp": 188.6720733642578,
    "speed": 0,
    "load": 0.6298798689237879
  },
  {
    "temp": 188.66372680664062,
    "speed": 0,
    "load": 0.6312026827892216
  },
  {
    "temp": 188.6562042236328,
    "speed": 0,
    "load": 0.6329664346097994
  },
  {
    "temp": 188.66043090820312,
    "speed": 0,
    "load": 0.6363616568644117
  },
  {
    "temp": 188.6480712890625,
    "speed": 0,
    "load": 0.6312026827892216
  },
  {
    "temp": 188.65391540527344,
    "speed": 0,
    "load": 0.6306294634475345
  },
  {
    "temp": 188.66233825683594,
    "speed": 0,
    "load": 0.6341128732931756
  },
  {
    "temp": 188.65509033203125,
    "speed": 0,
    "load": 0.6277633667390967
  },
  {
    "temp": 188.65953063964844,
    "speed": 0,
    "load": 0.6281602108987263
  },
  {
    "temp": 188.65774536132812,
    "speed": 0,
    "load": 0.6284688674673271
  },
  {
    "temp": 188.6514129638672,
    "speed": 0,
    "load": 0.6297475875372465
  },
  {
    "temp": 188.65658569335938,
    "speed": 0,
    "load": 0.6290861806045287
  },
  {
    "temp": 188.67428588867188,
    "speed": 0,
    "load": 0.6230453306190507
  },
  {
    "temp": 188.6851348876953,
    "speed": 0,
    "load": 0.6261318963050622
  },
  {
    "temp": 188.6741180419922,
    "speed": 0,
    "load": 0.6221193609132465
  },
  {
    "temp": 188.66452026367188,
    "speed": 0,
    "load": 0.6219429857311889
  },
  {
    "temp": 188.6773223876953,
    "speed": 0,
    "load": 0.6282483984897551
  },
  {
    "temp": 188.66708374023438,
    "speed": 0,
    "load": 0.6276310853525517
  },
  {
    "temp": 188.6588897705078,
    "speed": 0,
    "load": 0.6200910463195841
  },
  {
    "temp": 188.66346740722656,
    "speed": 0,
    "load": 0.6221193609132465
  },
  {
    "temp": 188.6764678955078,
    "speed": 0,
    "load": 0.6244122382799988
  },
  {
    "temp": 188.6766357421875,
    "speed": 0,
    "load": 0.6259114273274884
  },
  {
    "temp": 188.6768798828125,
    "speed": 0,
    "load": 0.6252941141902868
  },
  {
    "temp": 188.66673278808594,
    "speed": 0,
    "load": 0.6275428977615229
  },
  {
    "temp": 188.67054748535156,
    "speed": 0,
    "load": 0.6265287404646918
  },
  {
    "temp": 188.67190551757812,
    "speed": 0,
    "load": 0.6245004258710276
  },
  {
    "temp": 188.69345092773438,
    "speed": 0,
    "load": 0.6207083594567857
  },
  {
    "temp": 188.6978759765625,
    "speed": 0,
    "load": 0.6213697663895017
  },
  {
    "temp": 188.71421813964844,
    "speed": 0,
    "load": 0.624544519666542
  },
  {
    "temp": 188.70297241210938,
    "speed": 0,
    "load": 0.6201351401150967
  },
  {
    "temp": 188.7183074951172,
    "speed": 0,
    "load": 0.6224280174818491
  },
  {
    "temp": 188.7305908203125,
    "speed": 0,
    "load": 0.6166076364739412
  },
  {
    "temp": 188.7301788330078,
    "speed": 0,
    "load": 0.6141824777206475
  },
  {
    "temp": 188.7397918701172,
    "speed": 0,
    "load": 0.6156375729726244
  },
  {
    "temp": 188.74777221679688,
    "speed": 0,
    "load": 0.6232217058011083
  },
  {
    "temp": 188.74391174316406,
    "speed": 0,
    "load": 0.623883112733826
  },
  {
    "temp": 188.75106811523438,
    "speed": 0,
    "load": 0.6208406408433289
  },
  {
    "temp": 188.77159118652344,
    "speed": 0,
    "load": 0.6221193609132465
  },
  {
    "temp": 188.78343200683594,
    "speed": 0,
    "load": 0.6152407288129949
  },
  {
    "temp": 188.7826690673828,
    "speed": 0,
    "load": 0.6111400058301522
  },
  {
    "temp": 188.78976440429688,
    "speed": 0,
    "load": 0.6117573189673537
  },
  {
    "temp": 188.78773498535156,
    "speed": 0,
    "load": 0.6122423507180121
  },
  {
    "temp": 188.79635620117188,
    "speed": 0,
    "load": 0.6109195368525784
  },
  {
    "temp": 188.7930145263672,
    "speed": 0,
    "load": 0.6126391948776417
  },
  {
    "temp": 188.79843139648438,
    "speed": 0,
    "load": 0.6134328831969027
  },
  {
    "temp": 188.79466247558594,
    "speed": 0,
    "load": 0.6088471284633998
  },
  {
    "temp": 188.80189514160156,
    "speed": 0,
    "load": 0.6154171039950525
  },
  {
    "temp": 188.78366088867188,
    "speed": 0,
    "load": 0.6121100693314689
  },
  {
    "temp": 188.7930908203125,
    "speed": 0,
    "load": 0.609552629191632
  },
  {
    "temp": 188.80062866210938,
    "speed": 0,
    "load": 0.6049668744581291
  },
  {
    "temp": 188.80331420898438,
    "speed": 0,
    "load": 0.6059810317549621
  },
  {
    "temp": 188.79856872558594,
    "speed": 0,
    "load": 0.6111400058301522
  },
  {
    "temp": 188.79478454589844,
    "speed": 0,
    "load": 0.6016598397945474
  },
  {
    "temp": 188.80775451660156,
    "speed": 0,
    "load": 0.6050550620491579
  },
  {
    "temp": 188.8021240234375,
    "speed": 0,
    "load": 0.6028503722734362
  },
  {
    "temp": 188.7940216064453,
    "speed": 0,
    "load": 0.6046582178895283
  },
  {
    "temp": 188.78091430664062,
    "speed": 0,
    "load": 0.6089794098499448
  },
  {
    "temp": 188.7722625732422,
    "speed": 0,
    "load": 0.610654974079492
  },
  {
    "temp": 188.75326538085938,
    "speed": 0,
    "load": 0.6089353160544286
  },
  {
    "temp": 188.76275634765625,
    "speed": 0,
    "load": 0.6081416277351694
  },
  {
    "temp": 188.7763671875,
    "speed": 0,
    "load": 0.6102581299198624
  },
  {
    "temp": 188.75656127929688,
    "speed": 0,
    "load": 0.6059810317549621
  },
  {
    "temp": 188.76283264160156,
    "speed": 0,
    "load": 0.602497621909321
  },
  {
    "temp": 188.7661895751953,
    "speed": 0,
    "load": 0.602718090886893
  },
  {
    "temp": 188.75865173339844,
    "speed": 0,
    "load": 0.6038204357747547
  },
  {
    "temp": 188.73141479492188,
    "speed": 0,
    "load": 0.6027621846824074
  },
  {
    "temp": 188.72059631347656,
    "speed": 0,
    "load": 0.603732248183726
  },
  {
    "temp": 188.6968231201172,
    "speed": 0,
    "load": 0.5984850865175071
  },
  {
    "temp": 188.70315551757812,
    "speed": 0,
    "load": 0.5967654284924437
  },
  {
    "temp": 188.69798278808594,
    "speed": 0,
    "load": 0.6054960000043037
  },
  {
    "temp": 188.6925811767578,
    "speed": 0,
    "load": 0.6086266594858278
  },
  {
    "temp": 188.67929077148438,
    "speed": 0,
    "load": 0.6040409047523267
  },
  {
    "temp": 188.67857360839844,
    "speed": 0,
    "load": 0.5971181788565589
  },
  {
    "temp": 188.67831420898438,
    "speed": 0,
    "load": 0.5976913981982479
  },
  {
    "temp": 188.67811584472656,
    "speed": 0,
    "load": 0.6016157459990312
  },
  {
    "temp": 188.66758728027344,
    "speed": 0,
    "load": 0.5999842755649984
  },
  {
    "temp": 188.65928649902344,
    "speed": 0,
    "load": 0.5984409927219927
  },
  {
    "temp": 188.6628875732422,
    "speed": 0,
    "load": 0.6028503722734362
  },
  {
    "temp": 188.65553283691406,
    "speed": 0,
    "load": 0.6002929321335992
  },
  {
    "temp": 188.6449432373047,
    "speed": 0,
    "load": 0.5969418036745013
  },
  {
    "temp": 188.64117431640625,
    "speed": 0,
    "load": 0.6003370259291136
  },
  {
    "temp": 188.63816833496094,
    "speed": 0,
    "load": 0.6009543390663152
  },
  {
    "temp": 188.6420135498047,
    "speed": 0,
    "load": 0.5984850865175071
  },
  {
    "temp": 188.6388397216797,
    "speed": 0,
    "load": 0.5940757069660636
  },
  {
    "temp": 188.6547393798828,
    "speed": 0,
    "load": 0.5917387358037969
  },
  {
    "temp": 188.64901733398438,
    "speed": 0,
    "load": 0.5949134890808372
  },
  {
    "temp": 188.64443969726562,
    "speed": 0,
    "load": 0.586050636182434
  },
  {
    "temp": 188.66445922851562,
    "speed": 0,
    "load": 0.5896663274146183
  },
  {
    "temp": 188.6567840576172,
    "speed": 0,
    "load": 0.5968095222879581
  },
  {
    "temp": 188.660888671875,
    "speed": 0,
    "load": 0.5935024876243746
  },
  {
    "temp": 188.67440795898438,
    "speed": 0,
    "load": 0.5940757069660636
  },
  {
    "temp": 188.6852264404297,
    "speed": 0,
    "load": 0.5930174558737162
  },
  {
    "temp": 188.682373046875,
    "speed": 0,
    "load": 0.5912537040531385
  },
  {
    "temp": 188.68136596679688,
    "speed": 0,
    "load": 0.5900190777787353
  },
  {
    "temp": 188.67031860351562,
    "speed": 0,
    "load": 0.5899749839832191
  },
  {
    "temp": 188.66148376464844,
    "speed": 0,
    "load": 0.5916064544172537
  },
  {
    "temp": 188.64874267578125,
    "speed": 0,
    "load": 0.5932820186468026
  },
  {
    "temp": 188.65444946289062,
    "speed": 0,
    "load": 0.5877702942074974
  },
  {
    "temp": 188.67086791992188,
    "speed": 0,
    "load": 0.5904159219383649
  },
  {
    "temp": 188.69261169433594,
    "speed": 0,
    "load": 0.5893576708460175
  },
  {
    "temp": 188.69528198242188,
    "speed": 0,
    "load": 0.5813326000623897
  },
  {
    "temp": 188.70191955566406,
    "speed": 0,
    "load": 0.5875939190254398
  },
  {
    "temp": 188.69699096679688,
    "speed": 0,
    "load": 0.5839341339977411
  },
  {
    "temp": 188.6828155517578,
    "speed": 0,
    "load": 0.5855656044317756
  },
  {
    "temp": 188.69107055664062,
    "speed": 0,
    "load": 0.5835813836336259
  },
  {
    "temp": 188.68832397460938,
    "speed": 0,
    "load": 0.5798775048104128
  },
  {
    "temp": 188.6963653564453,
    "speed": 0,
    "load": 0.587285262456839
  },
  {
    "temp": 188.68130493164062,
    "speed": 0,
    "load": 0.5860065423869196
  },
  {
    "temp": 188.7009735107422,
    "speed": 0,
    "load": 0.5755122190544837
  },
  {
    "temp": 188.70065307617188,
    "speed": 0,
    "load": 0.5804066303565856
  },
  {
    "temp": 188.71644592285156,
    "speed": 0,
    "load": 0.5778491902167486
  },
  {
    "temp": 188.71885681152344,
    "speed": 0,
    "load": 0.5833168208605395
  },
  {
    "temp": 188.71412658691406,
    "speed": 0,
    "load": 0.5827436015188505
  },
  {
    "temp": 188.70675659179688,
    "speed": 0,
    "load": 0.5760854383961709
  },
  {
    "temp": 188.72132873535156,
    "speed": 0,
    "load": 0.5771436894885182
  },
  {
    "temp": 188.734130859375,
    "speed": 0,
    "load": 0.5778491902167486
  },
  {
    "temp": 188.73300170898438,
    "speed": 0,
    "load": 0.5741453113935355
  },
  {
    "temp": 188.7321014404297,
    "speed": 0,
    "load": 0.5722051843909002
  },
  {
    "temp": 188.73080444335938,
    "speed": 0,
    "load": 0.5736602796428771
  },
  {
    "temp": 188.70986938476562,
    "speed": 0,
    "load": 0.5719406216178138
  },
  {
    "temp": 188.72381591796875,
    "speed": 0,
    "load": 0.5717201526402418
  },
  {
    "temp": 188.72549438476562,
    "speed": 0,
    "load": 0.5724256533684722
  },
  {
    "temp": 188.71585083007812,
    "speed": 0,
    "load": 0.5705296201613512
  },
  {
    "temp": 188.7183837890625,
    "speed": 0,
    "load": 0.5723374657774434
  },
  {
    "temp": 188.75067138671875,
    "speed": 0,
    "load": 0.5688981497273167
  },
  {
    "temp": 188.76669311523438,
    "speed": 0,
    "load": 0.5657233964502781
  },
  {
    "temp": 188.77134704589844,
    "speed": 0,
    "load": 0.5764381887602861
  },
  {
    "temp": 188.78323364257812,
    "speed": 0,
    "load": 0.5751153748948541
  },
  {
    "temp": 188.8003692626953,
    "speed": 0,
    "load": 0.5625927369687522
  },
  {
    "temp": 188.78599548339844,
    "speed": 0,
    "load": 0.5665170847695373
  },
  {
    "temp": 188.78472900390625,
    "speed": 0,
    "load": 0.5669580227246813
  },
  {
    "temp": 188.78372192382812,
    "speed": 0,
    "load": 0.5700445884106928
  },
  {
    "temp": 188.7720184326172,
    "speed": 0,
    "load": 0.5709705581164952
  },
  {
    "temp": 188.78378295898438,
    "speed": 0,
    "load": 0.5625045493777234
  },
  {
    "temp": 188.77206420898438,
    "speed": 0,
    "load": 0.5696477442510632
  },
  {
    "temp": 188.7633514404297,
    "speed": 0,
    "load": 0.5618431424450074
  },
  {
    "temp": 188.77684020996094,
    "speed": 0,
    "load": 0.5717201526402418
  },
  {
    "temp": 188.75942993164062,
    "speed": 0,
    "load": 0.5715878712536986
  },
  {
    "temp": 188.7634735107422,
    "speed": 0,
    "load": 0.5674430544753415
  },
  {
    "temp": 188.77694702148438,
    "speed": 0,
    "load": 0.5582274512128231
  },
  {
    "temp": 188.78814697265625,
    "speed": 0,
    "load": 0.5625045493777234
  },
  {
    "temp": 188.77621459960938,
    "speed": 0,
    "load": 0.5683249303856295
  },
  {
    "temp": 188.76722717285156,
    "speed": 0,
    "load": 0.569956400819664
  },
  {
    "temp": 188.7696990966797,
    "speed": 0,
    "load": 0.5608289851481745
  },
  {
    "temp": 188.76145935058594,
    "speed": 0,
    "load": 0.565017895722046
  },
  {
    "temp": 188.7598114013672,
    "speed": 0,
    "load": 0.5624163617866946
  },
  {
    "temp": 188.7637939453125,
    "speed": 0,
    "load": 0.5609171727392033
  },
  {
    "temp": 188.76695251464844,
    "speed": 0,
    "load": 0.5626368307642666
  },
  {
    "temp": 188.75926208496094,
    "speed": 0,
    "load": 0.5591093271231111
  },
  {
    "temp": 188.7461395263672,
    "speed": 0,
    "load": 0.5525834453869729
  },
  {
    "temp": 188.74261474609375,
    "speed": 0,
    "load": 0.5605644223750881
  },
  {
    "temp": 188.72525024414062,
    "speed": 0,
    "load": 0.5620636114225794
  },
  {
    "temp": 188.71566772460938,
    "speed": 0,
    "load": 0.5567282621653318
  },
  {
    "temp": 188.71823120117188,
    "speed": 0,
    "load": 0.5541267282299787
  },
  {
    "temp": 188.70350646972656,
    "speed": 0,
    "load": 0.5490559417458192
  },
  {
    "temp": 188.69827270507812,
    "speed": 0,
    "load": 0.5464103140149517
  },
  {
    "temp": 188.683837890625,
    "speed": 0,
    "load": 0.5569928249384182
  },
  {
    "temp": 188.67124938964844,
    "speed": 0,
    "load": 0.5477772216758998
  },
  {
    "temp": 188.66221618652344,
    "speed": 0,
    "load": 0.5455284381046637
  },
  {
    "temp": 188.6492156982422,
    "speed": 0,
    "load": 0.5508637873619113
  },
  {
    "temp": 188.64459228515625,
    "speed": 0,
    "load": 0.5482622534265582
  },
  {
    "temp": 188.64089965820312,
    "speed": 0,
    "load": 0.5467630643790686
  },
  {
    "temp": 188.66424560546875,
    "speed": 0,
    "load": 0.5467630643790686
  },
  {
    "temp": 188.6566162109375,
    "speed": 0,
    "load": 0.5461457512418653
  },
  {
    "temp": 188.6456298828125,
    "speed": 0,
    "load": 0.5456166256956925
  },
  {
    "temp": 188.65196228027344,
    "speed": 0,
    "load": 0.5453961567181205
  },
  {
    "temp": 188.6570281982422,
    "speed": 0,
    "load": 0.5453520629226061
  },
  {
    "temp": 188.64590454101562,
    "speed": 0,
    "load": 0.5471158147431838
  },
  {
    "temp": 188.64195251464844,
    "speed": 0,
    "load": 0.543191466942397
  },
  {
    "temp": 188.63877868652344,
    "speed": 0,
    "load": 0.5457930008777501
  }
]