[
  {
    "temp": 188.70382690429688,
    "speed": 0,
    "load": -0.006349506554079731
  },
  {
    "temp": 188.70875549316406,
    "speed": 0,
    "load": -0.006084943780993335
  },
  {
    "temp": 188.71270751953125,
    "speed": 0,
    "load": -0.0024251587532946317
  },
  {
    "temp": 188.7158660888672,
    "speed": 0,
    "load": -0.00449756714247318
  },
  {
    "temp": 188.69993591308594,
    "speed": 0,
    "load": -0.0011905324788905602
  },
  {
    "temp": 188.7056427001953,
    "speed": 0,
    "load": -0.0052912554617332574
  },
  {
    "temp": 188.6897430419922,
    "speed": 0,
    "load": -0.010097479172807233
  },
  {
    "temp": 188.69749450683594,
    "speed": 0,
    "load": -0.007848695601571087
  },
  {
    "temp": 188.68321228027344,
    "speed": 0,
    "load": -0.008069164579143084
  },
  {
    "temp": 188.69227600097656,
    "speed": 1.7337031364440918,
    "load": -0.009259697058032756
  },
  {
    "temp": 188.6892852783203,
    "speed": 1.7349063158035278,
    "load": 0.050222833090947994
  },
  {
    "temp": 188.67665100097656,
    "speed": 1.7337031364440918,
    "load": 1.8891104812251935
  },
  {
    "temp": 188.68508911132812,
    "speed": 1.7844396829605103,
    "load": 2.5068204625869965
  },
  {
    "temp": 188.68353271484375,
    "speed": 1.732501745223999,
    "load": 2.7822303093701946
  },
  {
    "temp": 188.6720428466797,
    "speed": 1.7831668853759766,
    "load": 2.83461373844135
  },
  {
    "temp": 188.68333435058594,
    "speed": 1.7831668853759766,
    "load": 2.8067023658807093
  },
  {
    "temp": 188.68212890625,
    "speed": 1.7831668853759766,
    "load": 2.5974332123691726
  },
  {
    "temp": 188.68116760253906,
    "speed": 1.7337031364440918,
    "load": 2.1980757063948806
  },
  {
    "temp": 188.67977905273438,
    "speed": 1.7337031364440918,
    "load": 2.1338310463303403
  },
  {
    "temp": 188.66905212402344,
    "speed": 1.7337031364440918,
    "load": 2.0668525709439045
  },
  {
    "temp": 188.68093872070312,
    "speed": 1.7831668853759766,
    "load": 1.9974048430086597
  },
  {
    "temp": 188.68020629882812,
    "speed": 1.7337031364440918,
    "load": 1.9171982289678917
  },
  {
    "temp": 188.67962646484375,
    "speed": 1.7337031364440918,
    "load": 1.8490733148980807
  },
  {
    "temp": 188.66893005371094,
    "speed": 1.7349063158035278,
    "load": 1.777288615800571
  },
  {
    "temp": 188.6706085205078,
    "speed": 1.7349063158035278,
    "load": 1.768469856697683
  },
  {
    "temp": 188.68121337890625,
    "speed": 1.7831668853759766,
    "load": 1.7633990702135218
  },
  {
    "temp": 188.68043518066406,
    "speed": 1.7337031364440918,
    "load": 1.953487422676277
  },
  {
    "temp": 188.6798095703125,
    "speed": 1.7349063158035278,
    "load": 2.0848869333093107
  },
  {
    "temp": 188.67071533203125,
    "speed": 1.7337031364440918,
    "load": 2.341556916998872
  },
  {
    "temp": 188.6617889404297,
    "speed": 1.732501745223999,
    "load": 2.890568764949176
  },
  {
    "temp": 188.6653289794922,
    "speed": 1.732501745223999,
    "load": 3.1533677862152443
  },
  {
    "temp": 188.67796325683594,
    "speed": 1.7844396829605103,
    "load": 3.348438737571131
  },
  {
    "temp": 188.67782592773438,
    "speed": 1.7818959951400757,
    "load": 3.4461064946356172
  },
  {
    "temp": 188.66748046875,
    "speed": 1.7844396829605103,
    "load": 3.5146282528650588
  },
  {
    "temp": 188.652587890625,
    "speed": 1.7844396829605103,
    "load": 3.6366357850535174
  },
  {
    "temp": 188.65753173828125,
    "speed": 1.7818959951400757,
    "load": 3.6921498736061977
  },
  {
    "temp": 188.65646362304688,
    "speed": 1.7349063158035278,
    "load": 3.775531240924005
  },
  {
    "temp": 188.67086791992188,
    "speed": 1.7337031364440918,
    "load": 3.8641597699080314
  },
  {
    "temp": 188.6619110107422,
    "speed": 1.7337031364440918,
    "load": 3.955301645236382
  },
  {
    "temp": 188.6649932861328,
    "speed": 1.7831668853759766,
    "load": 3.9165431989791877
  },
  {
    "temp": 188.6776123046875,
    "speed": 1.7337031364440918,
    "load": 4.07770602158447
  },
  {
    "temp": 188.6673126220703,
    "speed": 1.7349063158035278,
    "load": 4.103236329187331
  },
  {
    "temp": 188.6693115234375,
    "speed": 1.7337031364440918,
    "load": 4.220217168687142
  },
  {
    "temp": 188.66195678710938,
    "speed": 1.7337031364440918,
    "load": 4.251744232479968
  },
  {
    "temp": 188.65478515625,
    "speed": 1.7337031364440918,
    "load": 4.4155526828161165
  },
  {
    "temp": 188.6628875732422,
    "speed": 1.7337031364440918,
    "load": 4.464364514450603
  },
  {
    "temp": 188.665771484375,
    "speed": 1.7831668853759766,
    "load": 4.534473649318564
  },
  {
    "temp": 188.6514892578125,
    "speed": 1.7831668853759766,
    "load": 4.572747063825098
  },
  {
    "temp": 188.6464080810547,
    "speed": 0,
    "load": 4.575789535715595
  },
  {
    "temp": 188.6472930908203,
    "speed": 0,
    "load": 3.505015805442911
  },
  {
    "temp": 188.64305114746094,
    "speed": 0,
    "load": 1.175805151188082
  },
  {
    "temp": 188.63966369628906,
    "speed": 0,
    "load": 0.8472181870144677
  },
  {
    "temp": 188.64501953125,
    "speed": 0,
    "load": 0.6694320035002423
  },
  {
    "temp": 188.6412353515625,
    "speed": 0,
    "load": 0.49230722691873297
  },
  {
    "temp": 188.63821411132812,
    "speed": 0,
    "load": 0.44305445732910265
  },
  {
    "temp": 188.63385009765625,
    "speed": 0,
    "load": 0.3874521811853917
  },
  {
    "temp": 188.63230895996094,
    "speed": 0,
    "load": 0.3458276382197596
  },
  {
    "temp": 188.63107299804688,
    "speed": 0,
    "load": 0.2688839650470607
  },
  {
    "temp": 188.62928771972656,
    "speed": 0,
    "load": 0.24692525488086936
  },
  {
    "temp": 188.62864685058594,
    "speed": 0,
    "load": 0.23519630527402757
  },
  {
    "temp": 188.62814331054688,
    "speed": 0,
    "load": 0.199788987475932
  },
  {
    "temp": 188.63796997070312,
    "speed": 0,
    "load": 0.18903010137040788
  },
  {
    "temp": 188.6337127685547,
    "speed": 0,
    "load": 0.18179871890603927
  },
  {
    "temp": 188.63218688964844,
    "speed": 0,
    "load": 0.16640998427149967
  },
  {
    "temp": 188.63096618652344,
    "speed": 0,
    "load": 0.16085416603668
  },
  {
    "temp": 188.62921142578125,
    "speed": 0,
    "load": 0.15088896825041687
  },
  {
    "temp": 188.6285858154297,
    "speed": 0,
    "load": 0.1497866233625551
  },
  {
    "temp": 188.63833618164062,
    "speed": 0,
    "load": 0.14370167958156266
  },
  {
    "temp": 188.63394165039062,
    "speed": 0,
    "load": 0.14489221206045233
  },
  {
    "temp": 188.6323699951172,
    "speed": 0,
    "load": 0.13999780075834956
  },
  {
    "temp": 188.63011169433594,
    "speed": 0,
    "load": 0.14057102010003675
  },
  {
    "temp": 188.6293182373047,
    "speed": 0,
    "load": 0.12870978910665265
  },
  {
    "temp": 188.62867736816406,
    "speed": 0,
    "load": 0.10348813807239221
  },
  {
    "temp": 188.6195526123047,
    "speed": 0,
    "load": 0.09515441072016273
  },
  {
    "temp": 188.62086486816406,
    "speed": 0,
    "load": 0.09594809903942281
  },
  {
    "temp": 188.62191772460938,
    "speed": 0,
    "load": 0.10273854354864653
  },
  {
    "temp": 188.6227569580078,
    "speed": 0,
    "load": 0.10353223186790661
  },
  {
    "temp": 188.62396240234375,
    "speed": 0,
    "load": 0.0960803804259669
  },
  {
    "temp": 188.61415100097656,
    "speed": 0,
    "load": 0.09391978444575866
  },
  {
    "temp": 188.61654663085938,
    "speed": 0,
    "load": 0.09762366326897176
  },
  {
    "temp": 188.6184539794922,
    "speed": 0,
    "load": 0.09563944247082201
  },
  {
    "temp": 188.61997985839844,
    "speed": 0,
    "load": 0.09568353626633641
  },
  {
    "temp": 188.62120056152344,
    "speed": 0,
    "load": 0.09383159685472986
  },
  {
    "temp": 188.62217712402344,
    "speed": 0,
    "load": 0.08576243227558678
  },
  {
    "temp": 188.6229705810547,
    "speed": 0,
    "load": 0.08558605709352918
  },
  {
    "temp": 188.6240997314453,
    "speed": 0,
    "load": 0.08558605709352918
  },
  {
    "temp": 188.62449645996094,
    "speed": 0,
    "load": 0.08615927643521726
  },
  {
    "temp": 188.6350555419922,
    "speed": 0,
    "load": 0.08346955490883623
  },
  {
    "temp": 188.64207458496094,
    "speed": 0,
    "load": 0.08254358520303295
  },
  {
    "temp": 188.63888549804688,
    "speed": 0,
    "load": 0.08474827497875559
  },
  {
    "temp": 188.6568145751953,
    "speed": 0,
    "load": 0.08166170929274408
  },
  {
    "temp": 188.64576721191406,
    "speed": 0,
    "load": 0.0771200483547565
  },
  {
    "temp": 188.64183044433594,
    "speed": 0,
    "load": 0.08355774249986503
  },
  {
    "temp": 188.65460205078125,
    "speed": 0,
    "load": 0.08289633556714904
  },
  {
    "temp": 188.65914916992188,
    "speed": 0,
    "load": 0.07822239324261737
  },
  {
    "temp": 188.66278076171875,
    "speed": 0,
    "load": 0.0804711768138544
  },
  {
    "temp": 188.67823791503906,
    "speed": 0,
    "load": 0.0805593644048832
  },
  {
    "temp": 188.6780548095703,
    "speed": 0,
    "load": 0.07786964287850218
  },
  {
    "temp": 188.6779022216797,
    "speed": 0,
    "load": 0.07786964287850218
  },
  {
    "temp": 188.7042999267578,
    "speed": 0,
    "load": 0.07090282318722085
  },
  {
    "temp": 188.70913696289062,
    "speed": 0,
    "load": 0.07240201223471132
  },
  {
    "temp": 188.7130126953125,
    "speed": 0,
    "load": 0.07460670201043396
  },
  {
    "temp": 188.7161102294922,
    "speed": 0,
    "load": 0.07010913486796078
  },
  {
    "temp": 188.74716186523438,
    "speed": 0,
    "load": 0.07341616953154428
  },
  {
    "temp": 188.74342346191406,
    "speed": 0,
    "load": 0.07169651150648093
  },
  {
    "temp": 188.7506561279297,
    "speed": 0,
    "load": 0.0731075129629426
  },
  {
    "temp": 188.76669311523438,
    "speed": 0,
    "load": 0.07178469909750973
  },
  {
    "temp": 188.76112365722656,
    "speed": 0,
    "load": 0.07257838741676892
  },
  {
    "temp": 188.77505493164062,
    "speed": 0,
    "load": 0.07429804544183227
  },
  {
    "temp": 188.77671813964844,
    "speed": 0,
    "load": 0.07209335566611053
  },
  {
    "temp": 188.78753662109375,
    "speed": 0,
    "load": 0.0733279819405146
  },
  {
    "temp": 188.7961883544922,
    "speed": 0,
    "load": 0.07372482610014508
  },
  {
    "temp": 188.80865478515625,
    "speed": 0,
    "load": 0.07134376114236485
  },
  {
    "temp": 188.81307983398438,
    "speed": 0,
    "load": 0.07024141625450397
  },
  {
    "temp": 188.81661987304688,
    "speed": 0,
    "load": 0.07235791843919692
  },
  {
    "temp": 188.8194580078125,
    "speed": 0,
    "load": 0.0691831651621575
  },
  {
    "temp": 188.82354736328125,
    "speed": 0,
    "load": 0.0656115677254876
  },
  {
    "temp": 188.8249969482422,
    "speed": 0,
    "load": 0.07174060530199533
  },
  {
    "temp": 188.82708740234375,
    "speed": 0,
    "load": 0.07213744946162493
  },
  {
    "temp": 188.8278350830078,
    "speed": 0,
    "load": 0.07138785493787925
  },
  {
    "temp": 188.82843017578125,
    "speed": 0,
    "load": 0.07222563705265372
  },
  {
    "temp": 188.8289031982422,
    "speed": 0,
    "load": 0.06592022429408928
  },
  {
    "temp": 188.82928466796875,
    "speed": 0,
    "load": 0.06702256918194927
  },
  {
    "temp": 188.8216552734375,
    "speed": 0,
    "load": 0.06763988231915175
  },
  {
    "temp": 188.823486328125,
    "speed": 0,
    "load": 0.06737531954606535
  },
  {
    "temp": 188.824951171875,
    "speed": 0,
    "load": 0.0653910987479156
  },
  {
    "temp": 188.8261260986328,
    "speed": 0,
    "load": 0.06865403961598382
  },
  {
    "temp": 188.8278045654297,
    "speed": 0,
    "load": 0.06790444509223903
  },
  {
    "temp": 188.8181610107422,
    "speed": 0,
    "load": 0.06084943780992802
  },
  {
    "temp": 188.82069396972656,
    "speed": 0,
    "load": 0.05829199767009019
  },
  {
    "temp": 188.81411743164062,
    "speed": 0,
    "load": 0.05688099621362852
  },
  {
    "temp": 188.8174591064453,
    "speed": 0,
    "load": 0.05494086921099317
  },
  {
    "temp": 188.82012939453125,
    "speed": 0,
    "load": 0.05286846082181462
  },
  {
    "temp": 188.822265625,
    "speed": 0,
    "load": 0.05106061520572247
  },
  {
    "temp": 188.823974609375,
    "speed": 0,
    "load": 0.045637078357446015
  },
  {
    "temp": 188.8048858642578,
    "speed": 0,
    "load": 0.05088424002366487
  },
  {
    "temp": 188.7753448486328,
    "speed": 0,
    "load": -0.0014550952519769567
  },
  {
    "temp": 188.76597595214844,
    "speed": 0,
    "load": -0.011111636469639308
  },
  {
    "temp": 188.76870727539062,
    "speed": 0,
    "load": -0.013933639382563534
  },
  {
    "temp": 188.7644500732422,
    "speed": 0,
    "load": -0.007804601806056688
  },
  {
    "temp": 188.7470245361328,
    "speed": 0,
    "load": -0.008245539761200682
  },
  {
    "temp": 188.7330780029297,
    "speed": 0,
    "load": -0.010847073696552911
  },
  {
    "temp": 188.747802734375,
    "speed": 0,
    "load": -0.0062613189630509325
  },
  {
    "temp": 188.75416564941406,
    "speed": 0,
    "load": -0.005026692688646861
  },
  {
    "temp": 188.74903869628906,
    "speed": 0,
    "load": -0.008510102534287967
  },
  {
    "temp": 188.7416534423828,
    "speed": 0,
    "load": -0.006966819691282211
  },
  {
    "temp": 188.7185516357422,
    "speed": 0,
    "load": -0.0036156912321843038
  },
  {
    "temp": 188.68527221679688,
    "speed": 0,
    "load": -0.0006614069327168792
  },
  {
    "temp": 188.67344665527344,
    "speed": 0,
    "load": -0.003527503641155505
  },
  {
    "temp": 188.68446350097656,
    "speed": 0,
    "load": 0.0012787200699184709
  },
  {
    "temp": 188.681884765625,
    "speed": 0,
    "load": 0.0014991890474904679
  },
  {
    "temp": 188.6707305908203,
    "speed": 0,
    "load": 0.0025133463443225423
  },
  {
    "temp": 188.6720428466797,
    "speed": 0,
    "load": 0.003659785027698703
  },
  {
    "temp": 188.66285705566406,
    "speed": 0,
    "load": 0.0052030678707035705
  },
  {
    "temp": 188.66574096679688,
    "speed": 0,
    "load": 0.003659785027698703
  },
  {
    "temp": 188.65966796875,
    "speed": 0,
    "load": 0.0031747532770394216
  },
  {
    "temp": 188.6529541015625,
    "speed": 0,
    "load": 0.0007495945237447899
  },
  {
    "temp": 188.66806030273438,
    "speed": 0,
    "load": 0.006261318963050044
  },
  {
    "temp": 188.66319274902344,
    "speed": 0,
    "load": 0.00586447480342045
  },
  {
    "temp": 188.666015625,
    "speed": 0,
    "load": 0.003836160209756301
  },
  {
    "temp": 188.66189575195312,
    "speed": 0,
    "load": 0.004850317506588375
  },
  {
    "temp": 188.6752166748047,
    "speed": 0,
    "load": 0.006084943780992447
  },
  {
    "temp": 188.67562866210938,
    "speed": 0,
    "load": 0.0069227258957669235
  },
  {
    "temp": 188.65780639648438,
    "speed": 0,
    "load": 0.0116407620158121
  },
  {
    "temp": 188.6719512939453,
    "speed": 0,
    "load": 0.008245539761199794
  },
  {
    "temp": 188.66278076171875,
    "speed": 0,
    "load": 0.007099101077824521
  },
  {
    "temp": 188.66799926757812,
    "speed": 0,
    "load": 0.0116407620158121
  },
  {
    "temp": 188.6596221923828,
    "speed": 0,
    "load": 0.0155210160210828
  },
  {
    "temp": 188.6631622314453,
    "speed": 0,
    "load": 0.010758886105523224
  },
  {
    "temp": 188.6580047607422,
    "speed": 0,
    "load": 0.008774665307373475
  },
  {
    "temp": 188.65162658691406,
    "speed": 0,
    "load": 0.010626604718980026
  },
  {
    "temp": 188.6465301513672,
    "speed": 0,
    "load": 0.014065920769105844
  },
  {
    "temp": 188.6555633544922,
    "speed": 0,
    "load": 0.013448607631904252
  },
  {
    "temp": 188.67015075683594,
    "speed": 0,
    "load": 0.015344640839025203
  },
  {
    "temp": 188.68182373046875,
    "speed": 0,
    "load": 0.016976111273059757
  },
  {
    "temp": 188.69044494628906,
    "speed": 0,
    "load": 0.016579267113429275
  },
  {
    "temp": 188.6878204345703,
    "speed": 0,
    "load": 0.018563487911579024
  },
  {
    "temp": 188.7024688720703,
    "speed": 0,
    "load": 0.015741484998654798
  },
  {
    "temp": 188.6974334716797,
    "speed": 0,
    "load": 0.012169887561984893
  },
  {
    "temp": 188.68199157714844,
    "speed": 0,
    "load": 0.015344640839025203
  },
  {
    "temp": 188.69129943847656,
    "speed": 0,
    "load": 0.017946174774376544
  },
  {
    "temp": 188.708984375,
    "speed": 0,
    "load": 0.024207493737427477
  },
  {
    "temp": 188.712890625,
    "speed": 0,
    "load": 0.02583896417146203
  },
  {
    "temp": 188.72874450683594,
    "speed": 0,
    "load": 0.02266421089442261
  },
  {
    "temp": 188.73892211914062,
    "speed": 0,
    "load": 0.02526574482977395
  },
  {
    "temp": 188.73683166503906,
    "speed": 0,
    "load": 0.027029496650351703
  },
  {
    "temp": 188.7501983642578,
    "speed": 0,
    "load": 0.02447205651051476
  },
  {
    "temp": 188.74586486816406,
    "speed": 0,
    "load": 0.02592715176249083
  },
  {
    "temp": 188.7423858642578,
    "speed": 0,
    "load": 0.025045275852201954
  },
  {
    "temp": 188.7742156982422,
    "speed": 0,
    "load": 0.02985149956327593
  },
  {
    "temp": 188.77529907226562,
    "speed": 0,
    "load": 0.02403111855536988
  },
  {
    "temp": 188.78640747070312,
    "speed": 0,
    "load": 0.02654446489969331
  },
  {
    "temp": 188.79420471191406,
    "speed": 0,
    "load": 0.030689281678050406
  },
  {
    "temp": 188.80152893066406,
    "speed": 0,
    "load": 0.024824806874629957
  },
  {
    "temp": 188.78692626953125,
    "speed": 0,
    "load": 0.025442120011831548
  },
  {
    "temp": 188.79452514648438,
    "speed": 0,
    "load": 0.03734744480073093
  },
  {
    "temp": 188.7813262939453,
    "speed": 0,
    "load": 0.03734744480073093
  },
  {
    "temp": 188.7991485595703,
    "speed": 0,
    "load": 0.03183572036142568
  },
  {
    "temp": 188.80548095703125,
    "speed": 0,
    "load": 0.03192390795245448
  },
  {
    "temp": 188.7900848388672,
    "speed": 0,
    "load": 0.032100283134512964
  },
  {
    "temp": 188.79823303222656,
    "speed": 0,
    "load": 0.03606872473081246
  },
  {
    "temp": 188.80177307128906,
    "speed": 0,
    "load": 0.03373175356854663
  },
  {
    "temp": 188.80758666992188,
    "speed": 0,
    "load": 0.03514275502500919
  },
  {
    "temp": 188.80198669433594,
    "speed": 0,
    "load": 0.03355537838648903
  },
  {
    "temp": 188.79393005371094,
    "speed": 0,
    "load": 0.03443725429677791
  },
  {
    "temp": 188.7910614013672,
    "speed": 0,
    "load": 0.035892349548754865
  },
  {
    "temp": 188.7887725830078,
    "speed": 0,
    "load": 0.03756791377830293
  },
  {
    "temp": 188.79571533203125,
    "speed": 0,
    "load": 0.03827341450653421
  },
  {
    "temp": 188.7822723388672,
    "speed": 0,
    "load": 0.03941985318990948
  },
  {
    "temp": 188.78173828125,
    "speed": 0,
    "load": 0.04096313603291524
  },
  {
    "temp": 188.78099060058594,
    "speed": 0,
    "load": 0.04347648237723867
  },
  {
    "temp": 188.78073120117188,
    "speed": 0,
    "load": 0.04083085464637204
  },
  {
    "temp": 188.7803192138672,
    "speed": 0,
    "load": 0.041051323623944036
  },
  {
    "temp": 188.76995849609375,
    "speed": 0,
    "load": 0.03941985318990948
  },
  {
    "temp": 188.77191162109375,
    "speed": 0,
    "load": 0.04096313603291524
  },
  {
    "temp": 188.75628662109375,
    "speed": 0,
    "load": 0.043123732013122584
  },
  {
    "temp": 188.750732421875,
    "speed": 0,
    "load": 0.04449063967407074
  },
  {
    "temp": 188.736572265625,
    "speed": 0,
    "load": 0.04400560792341146
  },
  {
    "temp": 188.73495483398438,
    "speed": 0,
    "load": 0.040566291873284754
  },
  {
    "temp": 188.7131805419922,
    "speed": 0,
    "load": 0.04255051267143539
  },
  {
    "temp": 188.69822692871094,
    "speed": 0,
    "load": 0.04025763530468396
  },
  {
    "temp": 188.68380737304688,
    "speed": 0,
    "load": 0.05189839732049606
  },
  {
    "temp": 188.68251037597656,
    "speed": 0,
    "load": 0.05061967725057759
  },
  {
    "temp": 188.69906616210938,
    "speed": 0,
    "load": 0.05352986775453061
  },
  {
    "temp": 188.68447875976562,
    "speed": 0,
    "load": 0.060496687445812825
  },
  {
    "temp": 188.68304443359375,
    "speed": 0,
    "load": 0.020591802505243173
  },
  {
    "temp": 188.67074584960938,
    "speed": 0,
    "load": 0.016667454704458073
  },
  {
    "temp": 188.6822967529297,
    "speed": 0,
    "load": 0.01627061054482848
  },
  {
    "temp": 188.6710662841797,
    "speed": 0,
    "load": 0.01428638974667873
  },
  {
    "temp": 188.65489196777344,
    "speed": 0,
    "load": 0.007672320419512602
  },
  {
    "temp": 188.6593780517578,
    "speed": 0,
    "load": 0.007716414215027001
  },
  {
    "temp": 188.65272521972656,
    "speed": 0,
    "load": 0.008157352170170995
  },
  {
    "temp": 188.6431427001953,
    "speed": 0,
    "load": 0.009524259831119153
  },
  {
    "temp": 188.63973999023438,
    "speed": 0,
    "load": 0.011773043402355299
  },
  {
    "temp": 188.64724731445312,
    "speed": 0,
    "load": 0.008289633556714193
  },
  {
    "temp": 188.64987182617188,
    "speed": 0,
    "load": 0.015829672589683597
  },
  {
    "temp": 188.65536499023438,
    "speed": 0,
    "load": 0.019621739003925498
  },
  {
    "temp": 188.66326904296875,
    "speed": 0,
    "load": 0.015873766385197996
  },
  {
    "temp": 188.6763153076172,
    "speed": 0,
    "load": 0.013139951063303457
  },
  {
    "temp": 188.676513671875,
    "speed": 0,
    "load": 0.017990268569890944
  },
  {
    "temp": 188.6665496826172,
    "speed": 0,
    "load": 0.02530983862528835
  },
  {
    "temp": 188.668701171875,
    "speed": 0,
    "load": 0.023016961258537805
  },
  {
    "temp": 188.67042541503906,
    "speed": 0,
    "load": 0.019798114185983096
  },
  {
    "temp": 188.6728973388672,
    "speed": 0,
    "load": 0.015344640839025203
  },
  {
    "temp": 188.6737823486328,
    "speed": 0,
    "load": 0.01305176347227377
  },
  {
    "temp": 188.6744842529297,
    "speed": 0,
    "load": 0.013272232449846655
  },
  {
    "temp": 188.68368530273438,
    "speed": 0,
    "load": 0.011773043402355299
  },
  {
    "temp": 188.68240356445312,
    "speed": 0,
    "load": 0.01882805068466631
  },
  {
    "temp": 188.68138122558594,
    "speed": 0,
    "load": 0.023016961258537805
  },
  {
    "temp": 188.68057250976562,
    "speed": 0,
    "load": 0.019798114185983096
  },
  {
    "temp": 188.7106170654297,
    "speed": 0,
    "load": 0.022223272939277727
  },
  {
    "temp": 188.69862365722656,
    "speed": 0,
    "load": 0.02151777221104645
  },
  {
    "temp": 188.71482849121094,
    "speed": 0,
    "load": 0.022840586076480207
  },
  {
    "temp": 188.7073211669922,
    "speed": 0,
    "load": 0.01807845616092063
  },
  {
    "temp": 188.73202514648438,
    "speed": 0,
    "load": 0.015124171861453206
  },
  {
    "temp": 188.7313232421875,
    "speed": 0,
    "load": 0.020283145936642377
  },
  {
    "temp": 188.7487335205078,
    "speed": 0,
    "load": 0.021650053597589647
  },
  {
    "temp": 188.75491333007812,
    "speed": 0,
    "load": 0.021738241188618446
  },
  {
    "temp": 188.75985717773438,
    "speed": 0,
    "load": 0.022928773667509006
  },
  {
    "temp": 188.76698303222656,
    "speed": 0,
    "load": 0.022399648121335325
  },
  {
    "temp": 188.76951599121094,
    "speed": 0,
    "load": 0.021782334984132845
  },
  {
    "temp": 188.78176879882812,
    "speed": 0,
    "load": 0.02403111855536988
  },
  {
    "temp": 188.78134155273438,
    "speed": 0,
    "load": 0.024912994465658755
  },
  {
    "temp": 188.78074645996094,
    "speed": 0,
    "load": 0.02910190503953025
  },
  {
    "temp": 188.780517578125,
    "speed": 0,
    "load": 0.026853121468294106
  },
  {
    "temp": 188.79861450195312,
    "speed": 0,
    "load": 0.024251587532941876
  },
  {
    "temp": 188.79481506347656,
    "speed": 0,
    "load": 0.024119306146398678
  },
  {
    "temp": 188.80201721191406,
    "speed": 0,
    "load": 0.027602715992039784
  },
  {
    "temp": 188.7975311279297,
    "speed": 0,
    "load": 0.02522165103425955
  },
  {
    "temp": 188.80133056640625,
    "speed": 0,
    "load": 0.02522165103425955
  },
  {
    "temp": 188.7969970703125,
    "speed": 0,
    "load": 0.024251587532941876
  },
  {
    "temp": 188.8037567138672,
    "speed": 0,
    "load": 0.02469252548808676
  },
  {
    "temp": 188.81350708007812,
    "speed": 0,
    "load": 0.025750776580433232
  },
  {
    "temp": 188.7965087890625,
    "speed": 0,
    "load": 0.024119306146398678
  },
  {
    "temp": 188.7931365966797,
    "speed": 0,
    "load": 0.0272940594234381
  },
  {
    "temp": 188.78826904296875,
    "speed": 0,
    "load": 0.025530307602860347
  },
  {
    "temp": 188.79678344726562,
    "speed": 0,
    "load": 0.031306594815252886
  },
  {
    "temp": 188.79335021972656,
    "speed": 0,
    "load": 0.03408450393266271
  },
  {
    "temp": 188.79661560058594,
    "speed": 0,
    "load": 0.029675124381218332
  },
  {
    "temp": 188.79322814941406,
    "speed": 0,
    "load": 0.025750776580433232
  },
  {
    "temp": 188.80075073242188,
    "speed": 0,
    "load": 0.030953844451136803
  },
  {
    "temp": 188.79653930664062,
    "speed": 0,
    "load": 0.02844049810681426
  },
  {
    "temp": 188.7904510498047,
    "speed": 0,
    "load": 0.029498749199160734
  },
  {
    "temp": 188.77806091308594,
    "speed": 0,
    "load": 0.029057811244015852
  },
  {
    "temp": 188.78860473632812,
    "speed": 0,
    "load": 0.027426340809981298
  },
  {
    "temp": 188.77719116210938,
    "speed": 0,
    "load": 0.03174753277039688
  },
  {
    "temp": 188.77767944335938,
    "speed": 0,
    "load": 0.04290326303555059
  },
  {
    "temp": 188.78042602539062,
    "speed": 0,
    "load": 0.04418198310546906
  },
  {
    "temp": 188.77003479003906,
    "speed": 0,
    "load": 0.02927828022158785
  },
  {
    "temp": 188.77195739746094,
    "speed": 0,
    "load": 0.028264122924756663
  },
  {
    "temp": 188.7563018798828,
    "speed": 0,
    "load": 0.032805783862743354
  },
  {
    "temp": 188.76097106933594,
    "speed": 0,
    "load": 0.0310420320421656
  },
  {
    "temp": 188.7646942138672,
    "speed": 0,
    "load": 0.031438876201796084
  },
  {
    "temp": 188.7434844970703,
    "speed": 0,
    "load": 0.04021354150916956
  },
  {
    "temp": 188.73025512695312,
    "speed": 0,
    "load": 0.03756791377830293
  },
  {
    "temp": 188.71939086914062,
    "speed": 0,
    "load": 0.03576006816221167
  },
  {
    "temp": 188.73143005371094,
    "speed": 0,
    "load": 0.03814113311999101
  },
  {
    "temp": 188.72061157226562,
    "speed": 0,
    "load": 0.03576006816221167
  },
  {
    "temp": 188.70501708984375,
    "speed": 0,
    "load": 0.03368765977303223
  },
  {
    "temp": 188.68923950195312,
    "speed": 0,
    "load": 0.037259257209702135
  },
  {
    "temp": 188.67662048339844,
    "speed": 0,
    "load": 0.03897891523476549
  },
  {
    "temp": 188.6789093017578,
    "speed": 0,
    "load": 0.03540731779809558
  },
  {
    "temp": 188.6785888671875,
    "speed": 0,
    "load": 0.03633328750389886
  },
  {
    "temp": 188.6680908203125,
    "speed": 0,
    "load": 0.03893482143925109
  },
  {
    "temp": 188.65969848632812,
    "speed": 0,
    "load": 0.037126975823158936
  },
  {
    "temp": 188.64761352539062,
    "speed": 0,
    "load": 0.04197729332974731
  },
  {
    "temp": 188.643310546875,
    "speed": 0,
    "load": 0.03814113311999101
  },
  {
    "temp": 188.63987731933594,
    "speed": 0,
    "load": 0.035980537139783664
  },
  {
    "temp": 188.64736938476562,
    "speed": 0,
    "load": 0.03606872473081246
  },
  {
    "temp": 188.63970947265625,
    "speed": 0,
    "load": 0.029057811244015852
  },
  {
    "temp": 188.63699340820312,
    "speed": 0,
    "load": 0.032629408680685756
  },
  {
    "temp": 188.6348114013672,
    "speed": 0,
    "load": 0.034745910865378704
  },
  {
    "temp": 188.63168334960938,
    "speed": 0,
    "load": 0.03417269152369151
  },
  {
    "temp": 188.6305694580078,
    "speed": 0,
    "load": 0.03553959918463878
  },
  {
    "temp": 188.6371612548828,
    "speed": 0,
    "load": 0.035319130207066785
  },
  {
    "temp": 188.63494873046875,
    "speed": 0,
    "load": 0.03805294552896221
  },
  {
    "temp": 188.6331787109375,
    "speed": 0,
    "load": 0.0348781922519219
  },
  {
    "temp": 188.63882446289062,
    "speed": 0,
    "load": 0.040434010486741556
  },
  {
    "temp": 188.64651489257812,
    "speed": 0,
    "load": 0.037126975823158936
  },
  {
    "temp": 188.64244079589844,
    "speed": 0,
    "load": 0.03452544188780671
  },
  {
    "temp": 188.63656616210938,
    "speed": 0,
    "load": 0.034745910865378704
  },
  {
    "temp": 188.6344757080078,
    "speed": 0,
    "load": 0.041712730556660915
  },
  {
    "temp": 188.6519317626953,
    "speed": 0,
    "load": 0.03734744480073093
  },
  {
    "temp": 188.66725158691406,
    "speed": 0,
    "load": 0.03955213457645357
  },
  {
    "temp": 188.6692657470703,
    "speed": 0,
    "load": 0.039860791145054364
  },
  {
    "temp": 188.66062927246094,
    "speed": 0,
    "load": 0.04382923274135386
  },
  {
    "temp": 188.67420959472656,
    "speed": 0,
    "load": 0.04202138712526171
  },
  {
    "temp": 188.67532348632812,
    "speed": 0,
    "load": 0.043564669968267467
  },
  {
    "temp": 188.67572021484375,
    "speed": 0,
    "load": 0.04255051267143539
  },
  {
    "temp": 188.69650268554688,
    "speed": 0,
    "load": 0.04127179260151603
  },
  {
    "temp": 188.71620178222656,
    "speed": 0,
    "load": 0.03955213457645357
  },
  {
    "temp": 188.7084197998047,
    "speed": 0,
    "load": 0.03827341450653421
  },
  {
    "temp": 188.72267150878906,
    "speed": 0,
    "load": 0.0387143524616782
  },
  {
    "temp": 188.7340545654297,
    "speed": 0,
    "load": 0.04224185610283371
  },
  {
    "temp": 188.76889038085938,
    "speed": 0,
    "load": 0.039728509758511166
  },
  {
    "temp": 188.78128051757812,
    "speed": 0,
    "load": 0.04488748383370034
  },
  {
    "temp": 188.79910278320312,
    "speed": 0,
    "load": 0.05031102068197679
  },
  {
    "temp": 188.7952117919922,
    "speed": 0,
    "load": 0.045725265948474814
  },
  {
    "temp": 188.79209899902344,
    "speed": 0,
    "load": 0.039155290416823085
  },
  {
    "temp": 188.79580688476562,
    "speed": 0,
    "load": 0.040478104282255956
  },
  {
    "temp": 188.79258728027344,
    "speed": 0,
    "load": 0.042506418875920104
  },
  {
    "temp": 188.80023193359375,
    "speed": 0,
    "load": 0.041712730556660915
  },
  {
    "temp": 188.8063507080078,
    "speed": 0,
    "load": 0.04140407398806012
  },
  {
    "temp": 188.81515502929688,
    "speed": 0,
    "load": 0.04550479697090282
  },
  {
    "temp": 188.8182830810547,
    "speed": 0,
    "load": 0.04347648237723867
  },
  {
    "temp": 188.82078552246094,
    "speed": 0,
    "load": 0.04352057617275307
  },
  {
    "temp": 188.8243865966797,
    "speed": 0,
    "load": 0.04682761083633569
  },
  {
    "temp": 188.82566833496094,
    "speed": 0,
    "load": 0.049605519953745514
  },
  {
    "temp": 188.82669067382812,
    "speed": 0,
    "load": 0.046915798427364486
  },
  {
    "temp": 188.8281707763672,
    "speed": 0,
    "load": 0.04845908127037024
  },
  {
    "temp": 188.82870483398438,
    "speed": 0,
    "load": 0.04647486047222049
  },
  {
    "temp": 188.8294677734375,
    "speed": 0,
    "load": 0.04987008272683191
  },
  {
    "temp": 188.8294677734375,
    "speed": 0,
    "load": 0.04991417652234631
  },
  {
    "temp": 188.8299560546875,
    "speed": 0,
    "load": 0.04550479697090282
  },
  {
    "temp": 188.8301239013672,
    "speed": 0,
    "load": 0.047621299155595764
  },
  {
    "temp": 188.8200225830078,
    "speed": 0,
    "load": 0.04859136265691344
  },
  {
    "temp": 188.82217407226562,
    "speed": 0,
    "load": 0.04607801631259001
  },
  {
    "temp": 188.82528686523438,
    "speed": 0,
    "load": 0.04925276958963032
  },
  {
    "temp": 188.82638549804688,
    "speed": 0,
    "load": 0.048238612292798244
  },
  {
    "temp": 188.81703186035156,
    "speed": 0,
    "load": 0.046254391494647606
  },
  {
    "temp": 188.81175231933594,
    "speed": 0,
    "load": 0.04382923274135386
  },
  {
    "temp": 188.80532836914062,
    "speed": 0,
    "load": 0.043785138945839464
  },
  {
    "temp": 188.8104248046875,
    "speed": 0,
    "load": 0.047489017769052566
  },
  {
    "temp": 188.79115295410156,
    "speed": 0,
    "load": 0.04612211010810441
  },
  {
    "temp": 188.78884887695312,
    "speed": 0,
    "load": 0.04801814331522536
  },
  {
    "temp": 188.78700256347656,
    "speed": 0,
    "load": 0.04537251558435962
  },
  {
    "temp": 188.77529907226562,
    "speed": 0,
    "load": 0.043079638217608185
  },
  {
    "temp": 188.75025939941406,
    "speed": 0,
    "load": 0.04391742033238266
  },
  {
    "temp": 188.75613403320312,
    "speed": 0,
    "load": 0.04863545645242784
  },
  {
    "temp": 188.7506103515625,
    "speed": 0,
    "load": 0.04784176813316776
  },
  {
    "temp": 188.74618530273438,
    "speed": 0,
    "load": 0.04735673638250937
  },
  {
    "temp": 188.73162841796875,
    "speed": 0,
    "load": 0.045637078357446015
  },
  {
    "temp": 188.72076416015625,
    "speed": 0,
    "load": 0.04281507544452179
  },
  {
    "temp": 188.72230529785156,
    "speed": 0,
    "load": 0.04215366851180491
  },
  {
    "temp": 188.7133026123047,
    "speed": 0,
    "load": 0.03770019516484702
  },
  {
    "temp": 188.7061004638672,
    "speed": 0,
    "load": 0.042374137489376906
  },
  {
    "temp": 188.71058654785156,
    "speed": 0,
    "load": 0.04449063967407074
  },
  {
    "temp": 188.7244110107422,
    "speed": 0,
    "load": 0.043608763763781866
  },
  {
    "temp": 188.72523498535156,
    "speed": 0,
    "load": 0.04920867579411592
  },
  {
    "temp": 188.69979858398438,
    "speed": 0,
    "load": 0.04524023419781642
  },
  {
    "temp": 188.68505859375,
    "speed": 0,
    "load": 0.045548890766417216
  },
  {
    "temp": 188.674072265625,
    "speed": 0,
    "load": 0.04016944771365516
  },
  {
    "temp": 188.67471313476562,
    "speed": 0,
    "load": 0.04038991669122716
  },
  {
    "temp": 188.69569396972656,
    "speed": 0,
    "load": 0.04603392251707561
  },
  {
    "temp": 188.6920166015625,
    "speed": 0,
    "load": 0.04091904223740084
  },
  {
    "temp": 188.69931030273438,
    "speed": 0,
    "load": 0.040566291873284754
  },
  {
    "temp": 188.7051544189453,
    "speed": 0,
    "load": 0.04678351704082129
  },
  {
    "temp": 188.67669677734375,
    "speed": 0,
    "load": 0.039155290416823085
  },
  {
    "temp": 188.69728088378906,
    "speed": 0,
    "load": 0.037832476551390215
  },
  {
    "temp": 188.67166137695312,
    "speed": 0,
    "load": 0.039199384212337485
  },
  {
    "temp": 188.67279052734375,
    "speed": 0,
    "load": 0.04259460646694979
  },
  {
    "temp": 188.67369079589844,
    "speed": 0,
    "load": 0.04078676085085764
  },
  {
    "temp": 188.65655517578125,
    "speed": 0,
    "load": 0.043652857559296265
  },
  {
    "temp": 188.6709442138672,
    "speed": 0,
    "load": 0.04409379551444026
  },
  {
    "temp": 188.66197204589844,
    "speed": 0,
    "load": 0.04581345353950361
  },
  {
    "temp": 188.66749572753906,
    "speed": 0,
    "load": 0.04484339003818594
  },
  {
    "temp": 188.6592254638672,
    "speed": 0,
    "load": 0.04140407398806012
  },
  {
    "temp": 188.66574096679688,
    "speed": 0,
    "load": 0.03818522691550541
  },
  {
    "temp": 188.65782165527344,
    "speed": 0,
    "load": 0.04003716632711196
  },
  {
    "temp": 188.66171264648438,
    "speed": 0,
    "load": 0.03540731779809558
  },
  {
    "temp": 188.6591339111328,
    "speed": 0,
    "load": 0.040434010486741556
  },
  {
    "temp": 188.65252685546875,
    "speed": 0,
    "load": 0.037788382755875816
  },
  {
    "temp": 188.65748596191406,
    "speed": 0,
    "load": 0.04038991669122716
  },
  {
    "temp": 188.65643310546875,
    "speed": 0,
    "load": 0.04259460646694979
  },
  {
    "temp": 188.66061401367188,
    "speed": 0,
    "load": 0.03642147509492766
  },
  {
    "temp": 188.67481994628906,
    "speed": 0,
    "load": 0.034745910865378704
  },
  {
    "temp": 188.67532348632812,
    "speed": 0,
    "load": 0.03606872473081246
  },
  {
    "temp": 188.6859588623047,
    "speed": 0,
    "load": 0.03611281852632686
  },
  {
    "temp": 188.6951141357422,
    "speed": 0,
    "load": 0.0349663798429507
  },
  {
    "temp": 188.6813201904297,
    "speed": 0,
    "load": 0.03615691232184126
  },
  {
    "temp": 188.70098876953125,
    "speed": 0,
    "load": 0.03844978968859181
  },
  {
    "temp": 188.7064971923828,
    "speed": 0,
    "load": 0.037215163414187735
  },
  {
    "temp": 188.6877899169922,
    "speed": 0,
    "load": 0.04524023419781642
  },
  {
    "temp": 188.69593811035156,
    "speed": 0,
    "load": 0.03955213457645357
  },
  {
    "temp": 188.68197631835938,
    "speed": 0,
    "load": 0.03615691232184126
  },
  {
    "temp": 188.7007598876953,
    "speed": 0,
    "load": 0.03800885173344781
  },
  {
    "temp": 188.69607543945312,
    "speed": 0,
    "load": 0.04920867579411592
  },
  {
    "temp": 188.71278381347656,
    "speed": 0,
    "load": 0.05427946227827629
  },
  {
    "temp": 188.71844482421875,
    "speed": 0,
    "load": 0.05238342907115534
  },
  {
    "temp": 188.73068237304688,
    "speed": 0,
    "load": 0.05749830935083011
  },
  {
    "temp": 188.740478515625,
    "speed": 0,
    "load": 0.057366027964286914
  },
  {
    "temp": 188.71978759765625,
    "speed": 0,
    "load": 0.05485268161996437
  },
  {
    "temp": 188.73175048828125,
    "speed": 0,
    "load": 0.052074772502554545
  },
  {
    "temp": 188.7413330078125,
    "speed": 0,
    "load": 0.05282436702630022
  },
  {
    "temp": 188.74900817871094,
    "speed": 0,
    "load": 0.05674871482708532
  },
  {
    "temp": 188.755126953125,
    "speed": 0,
    "load": 0.053309398776958616
  },
  {
    "temp": 188.7721405029297,
    "speed": 0,
    "load": 0.054014899505189895
  },
  {
    "temp": 188.76341247558594,
    "speed": 0,
    "load": 0.05873293562523507
  },
  {
    "temp": 188.77688598632812,
    "speed": 0,
    "load": 0.05670462103157092
  },
  {
    "temp": 188.7876739501953,
    "speed": 0,
    "load": 0.05516133818856517
  },
  {
    "temp": 188.78477478027344,
    "speed": 0,
    "load": 0.0614667509471305
  },
  {
    "temp": 188.76327514648438,
    "speed": 0,
    "load": 0.05172202213843846
  },
  {
    "temp": 188.76654052734375,
    "speed": 0,
    "load": 0.04806223711073976
  },
  {
    "temp": 188.78147888183594,
    "speed": 0,
    "load": 0.05820381007906139
  },
  {
    "temp": 188.79135131835938,
    "speed": 0,
    "load": 0.055337713370622765
  },
  {
    "temp": 188.7992401123047,
    "speed": 0,
    "load": 0.04925276958963032
  },
  {
    "temp": 188.7921905517578,
    "speed": 0,
    "load": 0.053309398776958616
  },
  {
    "temp": 188.7896728515625,
    "speed": 0,
    "load": 0.05260389804872734
  },
  {
    "temp": 188.7840118408203,
    "speed": 0,
    "load": 0.049473238567202316
  },
  {
    "temp": 188.7729034423828,
    "speed": 0,
    "load": 0.04832679988382704
  },
  {
    "temp": 188.78448486328125,
    "speed": 0,
    "load": 0.051457459365352065
  },
  {
    "temp": 188.7835235595703,
    "speed": 0,
    "load": 0.04806223711073976
  },
  {
    "temp": 188.78211975097656,
    "speed": 0,
    "load": 0.047533111564566966
  },
  {
    "temp": 188.79185485839844,
    "speed": 0,
    "load": 0.05167792834292406
  },
  {
    "temp": 188.78541564941406,
    "speed": 0,
    "load": 0.04704807981390857
  },
  {
    "temp": 188.7842559814453,
    "speed": 0,
    "load": 0.04215366851180491
  },
  {
    "temp": 188.7833251953125,
    "speed": 0,
    "load": 0.04682761083633569
  },
  {
    "temp": 188.79281616210938,
    "speed": 0,
    "load": 0.04594573492604681
  },
  {
    "temp": 188.7880859375,
    "speed": 0,
    "load": 0.049473238567202316
  },
  {
    "temp": 188.7761688232422,
    "speed": 0,
    "load": 0.04872364404345664
  },
  {
    "temp": 188.7563934326172,
    "speed": 0,
    "load": 0.04634257908567729
  },
  {
    "temp": 188.75453186035156,
    "speed": 0,
    "load": 0.04484339003818594
  },
  {
    "temp": 188.72885131835938,
    "speed": 0,
    "load": 0.04576935974398921
  },
  {
    "temp": 188.71853637695312,
    "speed": 0,
    "load": 0.04038991669122716
  },
  {
    "temp": 188.7323455810547,
    "speed": 0,
    "load": 0.037920664142419014
  },
  {
    "temp": 188.73158264160156,
    "speed": 0,
    "load": 0.04338829478620987
  },
  {
    "temp": 188.72073364257812,
    "speed": 0,
    "load": 0.046915798427364486
  },
  {
    "temp": 188.7222900390625,
    "speed": 0,
    "load": 0.04127179260151603
  },
  {
    "temp": 188.70608520507812,
    "speed": 0,
    "load": 0.045107952811272334
  },
  {
    "temp": 188.7105712890625,
    "speed": 0,
    "load": 0.04158044917011772
  },
  {
    "temp": 188.70391845703125,
    "speed": 0,
    "load": 0.043167825808636984
  },
  {
    "temp": 188.7127685546875,
    "speed": 0,
    "load": 0.04815042470176856
  },
  {
    "temp": 188.70567321777344,
    "speed": 0,
    "load": 0.04532842178884522
  },
  {
    "temp": 188.71388244628906,
    "speed": 0,
    "load": 0.041183605010487234
  },
  {
    "temp": 188.71681213378906,
    "speed": 0,
    "load": 0.043564669968267467
  },
  {
    "temp": 188.7089080810547,
    "speed": 0,
    "load": 0.04259460646694979
  },
  {
    "temp": 188.7025909423828,
    "speed": 0,
    "load": 0.04210957471629051
  },
  {
    "temp": 188.69349670410156,
    "speed": 0,
    "load": 0.04709217360942297
  },
  {
    "temp": 188.71072387695312,
    "speed": 0,
    "load": 0.045637078357446015
  },
  {
    "temp": 188.7142791748047,
    "speed": 0,
    "load": 0.04462292106061394
  },
  {
    "temp": 188.70301818847656,
    "speed": 0,
    "load": 0.04475520244715714
  },
  {
    "temp": 188.70811462402344,
    "speed": 0,
    "load": 0.03840569589307741
  },
  {
    "temp": 188.7019500732422,
    "speed": 0,
    "load": 0.04193319953423291
  },
  {
    "temp": 188.69308471679688,
    "speed": 0,
    "load": 0.041712730556660915
  },
  {
    "temp": 188.71038818359375,
    "speed": 0,
    "load": 0.04012535391814076
  },
  {
    "temp": 188.6935272216797,
    "speed": 0,
    "load": 0.04219776230731931
  },
  {
    "temp": 188.69027709960938,
    "speed": 0,
    "load": 0.04418198310546906
  },
  {
    "temp": 188.68356323242188,
    "speed": 0,
    "load": 0.03836160209756301
  },
  {
    "temp": 188.70277404785156,
    "speed": 0,
    "load": 0.04471110865164274
  },
  {
    "temp": 188.70791625976562,
    "speed": 0,
    "load": 0.038493883484106206
  },
  {
    "temp": 188.7235107421875,
    "speed": 0,
    "load": 0.036553756481470856
  },
  {
    "temp": 188.71426391601562,
    "speed": 0,
    "load": 0.041095417419458435
  },
  {
    "temp": 188.7171173095703,
    "speed": 0,
    "load": 0.042462325080405705
  },
  {
    "temp": 188.71302795410156,
    "speed": 0,
    "load": 0.04519614040230202
  },
  {
    "temp": 188.7058868408203,
    "speed": 0,
    "load": 0.04532842178884522
  },
  {
    "temp": 188.7104034423828,
    "speed": 0,
    "load": 0.04427017069649786
  },
  {
    "temp": 188.70872497558594,
    "speed": 0,
    "load": 0.040478104282255956
  },
  {
    "temp": 188.72291564941406,
    "speed": 0,
    "load": 0.03941985318990948
  },
  {
    "temp": 188.73104858398438,
    "speed": 0,
    "load": 0.04158044917011772
  },
  {
    "temp": 188.7407684326172,
    "speed": 0,
    "load": 0.04197729332974731
  },
  {
    "temp": 188.75877380371094,
    "speed": 0,
    "load": 0.042991450626579386
  },
  {
    "temp": 188.76295471191406,
    "speed": 0,
    "load": 0.04321191960415138
  },
  {
    "temp": 188.76077270507812,
    "speed": 0,
    "load": 0.04338829478620987
  },
  {
    "temp": 188.7747802734375,
    "speed": 0,
    "load": 0.04193319953423291
  },
  {
    "temp": 188.75527954101562,
    "speed": 0,
    "load": 0.04158044917011772
  },
  {
    "temp": 188.76016235351562,
    "speed": 0,
    "load": 0.040566291873284754
  },
  {
    "temp": 188.76718139648438,
    "speed": 0,
    "load": 0.03611281852632686
  },
  {
    "temp": 188.7799072265625,
    "speed": 0,
    "load": 0.034569535683321106
  },
  {
    "temp": 188.77777099609375,
    "speed": 0,
    "load": 0.03933166559888068
  },
  {
    "temp": 188.76791381835938,
    "speed": 0,
    "load": 0.04281507544452179
  },
  {
    "temp": 188.7395477294922,
    "speed": 0,
    "load": 0.03836160209756301
  },
  {
    "temp": 188.73556518554688,
    "speed": 0,
    "load": 0.036730131663528454
  },
  {
    "temp": 188.744384765625,
    "speed": 0,
    "load": 0.05957071774000955
  },
  {
    "temp": 188.75503540039062,
    "speed": 0,
    "load": 0.055381807166137165
  },
  {
    "temp": 188.75994873046875,
    "speed": 0,
    "load": 0.055293619575108366
  },
  {
    "temp": 188.76388549804688,
    "speed": 0,
    "load": 0.05070786484160639
  },
  {
    "temp": 188.76702880859375,
    "speed": 0,
    "load": 0.051369271774323266
  },
  {
    "temp": 188.75315856933594,
    "speed": 0,
    "load": 0.05895340460280707
  },
  {
    "temp": 188.76869201660156,
    "speed": 0,
    "load": 0.0577628721239174
  },
  {
    "temp": 188.7708740234375,
    "speed": 0,
    "load": 0.045548890766417216
  },
  {
    "temp": 188.76380920410156,
    "speed": 0,
    "load": 0.04938505097617352
  },
  {
    "temp": 188.77720642089844,
    "speed": 0,
    "load": 0.05119289659226567
  },
  {
    "temp": 188.7777099609375,
    "speed": 0,
    "load": 0.05225114768461214
  },
  {
    "temp": 188.7678680419922,
    "speed": 0,
    "load": 0.048900019225514235
  },
  {
    "temp": 188.75369262695312,
    "speed": 0,
    "load": 0.05035511447749119
  },
  {
    "temp": 188.73841857910156,
    "speed": 0,
    "load": 0.052692085639757025
  },
  {
    "temp": 188.7466583251953,
    "speed": 0,
    "load": 0.04581345353950361
  },
  {
    "temp": 188.74012756347656,
    "speed": 0,
    "load": 0.05114880279675127
  },
  {
    "temp": 188.74803161621094,
    "speed": 0,
    "load": 0.04964961374925991
  },
  {
    "temp": 188.7543487548828,
    "speed": 0,
    "load": 0.047621299155595764
  },
  {
    "temp": 188.75527954101562,
    "speed": 0,
    "load": 0.050178739295433594
  },
  {
    "temp": 188.76014709472656,
    "speed": 0,
    "load": 0.05551408855268036
  },
  {
    "temp": 188.75381469726562,
    "speed": 0,
    "load": 0.05520543198407957
  },
  {
    "temp": 188.74264526367188,
    "speed": 0,
    "load": 0.05106061520572247
  },
  {
    "temp": 188.7398223876953,
    "speed": 0,
    "load": 0.04669532944979249
  },
  {
    "temp": 188.73756408691406,
    "speed": 0,
    "load": 0.04806223711073976
  },
  {
    "temp": 188.73223876953125,
    "speed": 0,
    "load": 0.048238612292798244
  },
  {
    "temp": 188.7314910888672,
    "speed": 0,
    "load": 0.04621029769913321
  },
  {
    "temp": 188.73089599609375,
    "speed": 0,
    "load": 0.04515204660678762
  },
  {
    "temp": 188.7198028564453,
    "speed": 0,
    "load": 0.04682761083633569
  },
  {
    "temp": 188.7113037109375,
    "speed": 0,
    "load": 0.04585754733501801
  },
  {
    "temp": 188.71473693847656,
    "speed": 0,
    "load": 0.05114880279675127
  },
  {
    "temp": 188.72174072265625,
    "speed": 0,
    "load": 0.04867955024794224
  },
  {
    "temp": 188.7230987548828,
    "speed": 0,
    "load": 0.04792995572419656
  },
  {
    "temp": 188.72418212890625,
    "speed": 0,
    "load": 0.04528432799333082
  },
  {
    "temp": 188.73391723632812,
    "speed": 0,
    "load": 0.047489017769052566
  },
  {
    "temp": 188.74307250976562,
    "speed": 0,
    "load": 0.049429144771687916
  },
  {
    "temp": 188.7401580810547,
    "speed": 0,
    "load": 0.04784176813316776
  },
  {
    "temp": 188.73391723632812,
    "speed": 0,
    "load": 0.04343238858172427
  },
  {
    "temp": 188.72259521484375,
    "speed": 0,
    "load": 0.05132517797880887
  },
  {
    "temp": 188.71353149414062,
    "speed": 0,
    "load": 0.05044330206851999
  },
  {
    "temp": 188.7189178466797,
    "speed": 0,
    "load": 0.04810633090625416
  },
  {
    "temp": 188.72084045410156,
    "speed": 0,
    "load": 0.04806223711073976
  },
  {
    "temp": 188.70721435546875,
    "speed": 0,
    "load": 0.05282436702630022
  },
  {
    "temp": 188.70123291015625,
    "speed": 0,
    "load": 0.04621029769913321
  },
  {
    "temp": 188.70668029785156,
    "speed": 0,
    "load": 0.04607801631259001
  },
  {
    "temp": 188.71453857421875,
    "speed": 0,
    "load": 0.045725265948474814
  },
  {
    "temp": 188.72756958007812,
    "speed": 0,
    "load": 0.04603392251707561
  },
  {
    "temp": 188.72775268554688,
    "speed": 0,
    "load": 0.050134645499919195
  },
  {
    "temp": 188.7300567626953,
    "speed": 0,
    "load": 0.047577205360081365
  },
  {
    "temp": 188.72975158691406,
    "speed": 0,
    "load": 0.04158044917011772
  },
  {
    "temp": 188.72950744628906,
    "speed": 0,
    "load": 0.03999307253159756
  },
  {
    "temp": 188.72914123535156,
    "speed": 0,
    "load": 0.039111196621308686
  },
  {
    "temp": 188.7392578125,
    "speed": 0,
    "load": 0.043167825808636984
  },
  {
    "temp": 188.72686767578125,
    "speed": 0,
    "load": 0.04219776230731931
  },
  {
    "temp": 188.72540283203125,
    "speed": 0,
    "load": 0.04964961374925991
  },
  {
    "temp": 188.73626708984375,
    "speed": 0,
    "load": 0.049473238567202316
  },
  {
    "temp": 188.72447204589844,
    "speed": 0,
    "load": 0.046298485290162006
  },
  {
    "temp": 188.70748901367188,
    "speed": 0,
    "load": 0.04850317506588464
  },
  {
    "temp": 188.70144653320312,
    "speed": 0,
    "load": 0.045019765220243535
  },
  {
    "temp": 188.69662475585938,
    "speed": 0,
    "load": 0.04682761083633569
  },
  {
    "temp": 188.69276428222656,
    "speed": 0,
    "load": 0.04422607690098346
  },
  {
    "temp": 188.68966674804688,
    "speed": 0,
    "load": 0.04462292106061394
  },
  {
    "temp": 188.68719482421875,
    "speed": 0,
    "load": 0.04576935974398921
  },
  {
    "temp": 188.69544982910156,
    "speed": 0,
    "load": 0.04722445499596617
  },
  {
    "temp": 188.69915771484375,
    "speed": 0,
    "load": 0.04837089367934144
  },
  {
    "temp": 188.72549438476562,
    "speed": 0,
    "load": 0.05039920827300559
  },
  {
    "temp": 188.72608947753906,
    "speed": 0,
    "load": 0.049605519953745514
  },
  {
    "temp": 188.72695922851562,
    "speed": 0,
    "load": 0.050178739295433594
  },
  {
    "temp": 188.7375030517578,
    "speed": 0,
    "load": 0.04779767433765336
  },
  {
    "temp": 188.7254638671875,
    "speed": 0,
    "load": 0.04872364404345664
  },
  {
    "temp": 188.7265625,
    "speed": 0,
    "load": 0.04643076667670609
  },
  {
    "temp": 188.72694396972656,
    "speed": 0,
    "load": 0.04087494844188644
  },
  {
    "temp": 188.7295379638672,
    "speed": 0,
    "load": 0.04806223711073976
  },
  {
    "temp": 188.7293243408203,
    "speed": 0,
    "load": 0.051986584911525746
  },
  {
    "temp": 188.7393798828125,
    "speed": 0,
    "load": 0.04987008272683191
  },
  {
    "temp": 188.75765991210938,
    "speed": 0,
    "load": 0.04987008272683191
  },
  {
    "temp": 188.75534057617188,
    "speed": 0,
    "load": 0.04850317506588464
  },
  {
    "temp": 188.7704315185547,
    "speed": 0,
    "load": 0.047577205360081365
  },
  {
    "temp": 188.7722625732422,
    "speed": 0,
    "load": 0.04277098164900739
  },
  {
    "temp": 188.76467895507812,
    "speed": 0,
    "load": 0.04854726886139904
  },
  {
    "temp": 188.7779083251953,
    "speed": 0,
    "load": 0.05026692688646239
  },
  {
    "temp": 188.78848266601562,
    "speed": 0,
    "load": 0.049561426158231114
  },
  {
    "temp": 188.79554748535156,
    "speed": 0,
    "load": 0.04259460646694979
  },
  {
    "temp": 188.7923583984375,
    "speed": 0,
    "load": 0.04867955024794224
  },
  {
    "temp": 188.800048828125,
    "speed": 0,
    "load": 0.04837089367934144
  },
  {
    "temp": 188.81112670898438,
    "speed": 0,
    "load": 0.04541660937987402
  },
  {
    "temp": 188.80482482910156,
    "speed": 0,
    "load": 0.04546070317538842
  },
  {
    "temp": 188.81002807617188,
    "speed": 0,
    "load": 0.04845908127037024
  },
  {
    "temp": 188.79908752441406,
    "speed": 0,
    "load": 0.05004645790888951
  },
  {
    "temp": 188.79519653320312,
    "speed": 0,
    "load": 0.04810633090625416
  },
  {
    "temp": 188.79208374023438,
    "speed": 0,
    "load": 0.054103087096218694
  },
  {
    "temp": 188.7895965576172,
    "speed": 0,
    "load": 0.053485773959016214
  },
  {
    "temp": 188.78805541992188,
    "speed": 0,
    "load": 0.052780273230785824
  },
  {
    "temp": 188.78636169433594,
    "speed": 0,
    "load": 0.04621029769913321
  },
  {
    "temp": 188.76455688476562,
    "speed": 0,
    "load": 0.04863545645242784
  },
  {
    "temp": 188.76998901367188,
    "speed": 0,
    "load": 0.04916458199860152
  },
  {
    "temp": 188.75144958496094,
    "speed": 0,
    "load": 0.04929686338514472
  },
  {
    "temp": 188.72637939453125,
    "speed": 0,
    "load": 0.047489017769052566
  },
  {
    "temp": 188.71690368652344,
    "speed": 0,
    "load": 0.04488748383370034
  },
  {
    "temp": 188.708984375,
    "speed": 0,
    "load": 0.05004645790888951
  },
  {
    "temp": 188.712890625,
    "speed": 0,
    "load": 0.05485268161996437
  },
  {
    "temp": 188.71646118164062,
    "speed": 0,
    "load": 0.05414718089173309
  },
  {
    "temp": 188.70863342285156,
    "speed": 0,
    "load": 0.04810633090625416
  },
  {
    "temp": 188.7178192138672,
    "speed": 0,
    "load": 0.04541660937987402
  },
  {
    "temp": 188.71995544433594,
    "speed": 0,
    "load": 0.05551408855268036
  },
  {
    "temp": 188.71142578125,
    "speed": 0,
    "load": 0.05560227614370916
  },
  {
    "temp": 188.70733642578125,
    "speed": 0,
    "load": 0.048855925429999836
  },
  {
    "temp": 188.70132446289062,
    "speed": 0,
    "load": 0.04898820681654392
  },
  {
    "temp": 188.6906280517578,
    "speed": 0,
    "load": 0.050222833090947994
  },
  {
    "temp": 188.6981964111328,
    "speed": 0,
    "load": 0.05251571045769854
  },
  {
    "temp": 188.70425415039062,
    "speed": 0,
    "load": 0.04964961374925991
  },
  {
    "temp": 188.7047882080078,
    "speed": 0,
    "load": 0.04964961374925991
  },
  {
    "temp": 188.70953369140625,
    "speed": 0,
    "load": 0.04537251558435962
  },
  {
    "temp": 188.7133331298828,
    "speed": 0,
    "load": 0.04929686338514472
  },
  {
    "temp": 188.71263122558594,
    "speed": 0,
    "load": 0.047489017769052566
  },
  {
    "temp": 188.70556640625,
    "speed": 0,
    "load": 0.04722445499596617
  },
  {
    "temp": 188.69992065429688,
    "speed": 0,
    "load": 0.05048739586403439
  },
  {
    "temp": 188.69540405273438,
    "speed": 0,
    "load": 0.052162960093583344
  },
  {
    "temp": 188.7073211669922,
    "speed": 0,
    "load": 0.05194249111601046
  },
  {
    "temp": 188.73202514648438,
    "speed": 0,
    "load": 0.05189839732049606
  },
  {
    "temp": 188.72108459472656,
    "speed": 0,
    "load": 0.05128108418329447
  },
  {
    "temp": 188.72169494628906,
    "speed": 0,
    "load": 0.050222833090947994
  },
  {
    "temp": 188.7332763671875,
    "speed": 0,
    "load": 0.05502905680202197
  },
  {
    "temp": 188.73973083496094,
    "speed": 0,
    "load": 0.04964961374925991
  },
  {
    "temp": 188.7477264404297,
    "speed": 0,
    "load": 0.05260389804872734
  },
  {
    "temp": 188.7541046142578,
    "speed": 0,
    "load": 0.05119289659226567
  },
  {
    "temp": 188.7489776611328,
    "speed": 0,
    "load": 0.054588118846877975
  },
  {
    "temp": 188.74160766601562,
    "speed": 0,
    "load": 0.05454402505136269
  },
  {
    "temp": 188.74920654296875,
    "speed": 0,
    "load": 0.05158974075189526
  },
  {
    "temp": 188.7450714111328,
    "speed": 0,
    "load": 0.04656304806324929
  },
  {
    "temp": 188.75198364257812,
    "speed": 0,
    "load": 0.05308892979938662
  },
  {
    "temp": 188.7575225830078,
    "speed": 0,
    "load": 0.05573455753025236
  },
  {
    "temp": 188.74913024902344,
    "speed": 0,
    "load": 0.05383852432313141
  },
  {
    "temp": 188.76547241210938,
    "speed": 0,
    "load": 0.057277840373258115
  },
  {
    "temp": 188.7705535888672,
    "speed": 0,
    "load": 0.05608730789436844
  },
  {
    "temp": 188.77236938476562,
    "speed": 0,
    "load": 0.055866838916796446
  },
  {
    "temp": 188.77381896972656,
    "speed": 0,
    "load": 0.05247161666218414
  },
  {
    "temp": 188.75750732421875,
    "speed": 0,
    "load": 0.05229524148012654
  },
  {
    "temp": 188.76193237304688,
    "speed": 0,
    "load": 0.04973780134028871
  },
  {
    "temp": 188.76829528808594,
    "speed": 0,
    "load": 0.05114880279675127
  },
  {
    "temp": 188.7603302001953,
    "speed": 0,
    "load": 0.048282706088312644
  },
  {
    "temp": 188.77442932128906,
    "speed": 0,
    "load": 0.045063859015757934
  },
  {
    "temp": 188.7578887939453,
    "speed": 0,
    "load": 0.05048739586403439
  },
  {
    "temp": 188.76223754882812,
    "speed": 0,
    "load": 0.04845908127037024
  },
  {
    "temp": 188.76031494140625,
    "speed": 0,
    "load": 0.048900019225514235
  },
  {
    "temp": 188.76417541503906,
    "speed": 0,
    "load": 0.04775358054213896
  },
  {
    "temp": 188.7672576904297,
    "speed": 0,
    "load": 0.04903230061205832
  },
  {
    "temp": 188.76966857910156,
    "speed": 0,
    "load": 0.05158974075189526
  },
  {
    "temp": 188.7614288330078,
    "speed": 0,
    "load": 0.05026692688646239
  },
  {
    "temp": 188.77529907226562,
    "speed": 0,
    "load": 0.05194249111601046
  },
  {
    "temp": 188.78506469726562,
    "speed": 0,
    "load": 0.05061967725057759
  },
  {
    "temp": 188.7839813232422,
    "speed": 0,
    "load": 0.046915798427364486
  },
  {
    "temp": 188.77218627929688,
    "speed": 0,
    "load": 0.04740083017802377
  },
  {
    "temp": 188.75320434570312,
    "speed": 0,
    "load": 0.04643076667670609
  },
  {
    "temp": 188.75848388671875,
    "speed": 0,
    "load": 0.050134645499919195
  },
  {
    "temp": 188.76609802246094,
    "speed": 0,
    "load": 0.04784176813316776
  },
  {
    "temp": 188.75857543945312,
    "speed": 0,
    "load": 0.05057558345506319
  },
  {
    "temp": 188.76278686523438,
    "speed": 0,
    "load": 0.04647486047222049
  },
  {
    "temp": 188.7688446044922,
    "speed": 0,
    "load": 0.05670462103157092
  },
  {
    "temp": 188.77099609375,
    "speed": 0,
    "load": 0.04867955024794224
  },
  {
    "temp": 188.7740936279297,
    "speed": 0,
    "load": 0.04978189513580311
  },
  {
    "temp": 188.7751922607422,
    "speed": 0,
    "load": 0.05110470900123687
  },
  {
    "temp": 188.76585388183594,
    "speed": 0,
    "load": 0.053926711914161096
  },
  {
    "temp": 188.74215698242188,
    "speed": 0,
    "load": 0.049561426158231114
  },
  {
    "temp": 188.72918701171875,
    "speed": 0,
    "load": 0.0616431261291881
  },
  {
    "temp": 188.71881103515625,
    "speed": 0,
    "load": 0.045725265948474814
  },
  {
    "temp": 188.72230529785156,
    "speed": 0,
    "load": 0.04797404951971096
  },
  {
    "temp": 188.72354125976562,
    "speed": 0,
    "load": 0.05185430352498166
  },
  {
    "temp": 188.7245330810547,
    "speed": 0,
    "load": 0.05308892979938662
  },
  {
    "temp": 188.74436950683594,
    "speed": 0,
    "load": 0.054058993300704294
  },
  {
    "temp": 188.7514190673828,
    "speed": 0,
    "load": 0.04810633090625416
  },
  {
    "temp": 188.74684143066406,
    "speed": 0,
    "load": 0.04845908127037024
  },
  {
    "temp": 188.75660705566406,
    "speed": 0,
    "load": 0.042418231284891306
  },
  {
    "temp": 188.76123046875,
    "speed": 0,
    "load": 0.04819451849728296
  },
  {
    "temp": 188.7546844482422,
    "speed": 0,
    "load": 0.04285916924003619
  },
  {
    "temp": 188.76571655273438,
    "speed": 0,
    "load": 0.04647486047222049
  },
  {
    "temp": 188.75827026367188,
    "speed": 0,
    "load": 0.045681172152960414
  },
  {
    "temp": 188.7523193359375,
    "speed": 0,
    "load": 0.04841498747485584
  },
  {
    "temp": 188.75192260742188,
    "speed": 0,
    "load": 0.05061967725057759
  },
  {
    "temp": 188.73699951171875,
    "speed": 0,
    "load": 0.059350248762436664
  },
  {
    "temp": 188.7353057861328,
    "speed": 0,
    "load": 0.05441174366481949
  },
  {
    "temp": 188.74417114257812,
    "speed": 0,
    "load": 0.057321934168772515
  },
  {
    "temp": 188.72830200195312,
    "speed": 0,
    "load": 0.04682761083633569
  },
  {
    "temp": 188.71810913085938,
    "speed": 0,
    "load": 0.04325601339966667
  },
  {
    "temp": 188.70994567871094,
    "speed": 0,
    "load": 0.04651895426773489
  },
  {
    "temp": 188.70639038085938,
    "speed": 0,
    "load": 0.05035511447749119
  },
  {
    "temp": 188.72103881835938,
    "speed": 0,
    "load": 0.05167792834292406
  },
  {
    "temp": 188.7073516845703,
    "speed": 0,
    "load": 0.04845908127037024
  },
  {
    "temp": 188.71157836914062,
    "speed": 0,
    "load": 0.050134645499919195
  },
  {
    "temp": 188.72520446777344,
    "speed": 0,
    "load": 0.047621299155595764
  },
  {
    "temp": 188.71615600585938,
    "speed": 0,
    "load": 0.04281507544452179
  },
  {
    "temp": 188.72885131835938,
    "speed": 0,
    "load": 0.05480858782444997
  },
  {
    "temp": 188.72877502441406,
    "speed": 0,
    "load": 0.04973780134028871
  },
  {
    "temp": 188.71023559570312,
    "speed": 0,
    "load": 0.04704807981390857
  },
  {
    "temp": 188.71388244628906,
    "speed": 0,
    "load": 0.049473238567202316
  },
  {
    "temp": 188.7170867919922,
    "speed": 0,
    "load": 0.052780273230785824
  },
  {
    "temp": 188.7296142578125,
    "speed": 0,
    "load": 0.0538826181186467
  },
  {
    "temp": 188.71914672851562,
    "speed": 0,
    "load": 0.055910932712310846
  },
  {
    "temp": 188.72251892089844,
    "speed": 0,
    "load": 0.05802743489700379
  },
  {
    "temp": 188.73394775390625,
    "speed": 0,
    "load": 0.05912977978486467
  },
  {
    "temp": 188.72262573242188,
    "speed": 0,
    "load": 0.059967561899639144
  },
  {
    "temp": 188.74314880371094,
    "speed": 0,
    "load": 0.04987008272683191
  },
  {
    "temp": 188.7504425048828,
    "speed": 0,
    "load": 0.05092833381917927
  },
  {
    "temp": 188.75071716308594,
    "speed": 0,
    "load": 0.04916458199860152
  },
  {
    "temp": 188.75650024414062,
    "speed": 0,
    "load": 0.04907639440757272
  },
  {
    "temp": 188.77301025390625,
    "speed": 0,
    "load": 0.046959892222878885
  },
  {
    "temp": 188.77435302734375,
    "speed": 0,
    "load": 0.05326530498144422
  },
  {
    "temp": 188.7651824951172,
    "speed": 0,
    "load": 0.05573455753025236
  },
  {
    "temp": 188.76808166503906,
    "speed": 0,
    "load": 0.05449993125584829
  },
  {
    "temp": 188.78042602539062,
    "speed": 0,
    "load": 0.05242752286666974
  },
  {
    "temp": 188.7802734375,
    "speed": 0,
    "load": 0.05551408855268036
  },
  {
    "temp": 188.7984619140625,
    "speed": 0,
    "load": 0.05674871482708532
  },
  {
    "temp": 188.804931640625,
    "speed": 0,
    "load": 0.05229524148012654
  },
  {
    "temp": 188.79986572265625,
    "speed": 0,
    "load": 0.05419127468724749
  },
  {
    "temp": 188.7926025390625,
    "speed": 0,
    "load": 0.047621299155595764
  },
  {
    "temp": 188.79002380371094,
    "speed": 0,
    "load": 0.049517332362716715
  },
  {
    "temp": 188.79818725585938,
    "speed": 0,
    "load": 0.05044330206851999
  },
  {
    "temp": 188.7944793701172,
    "speed": 0,
    "load": 0.04400560792341146
  },
  {
    "temp": 188.78094482421875,
    "speed": 0,
    "load": 0.04524023419781642
  },
  {
    "temp": 188.7704620361328,
    "speed": 0,
    "load": 0.05039920827300559
  },
  {
    "temp": 188.76206970214844,
    "speed": 0,
    "load": 0.05260389804872734
  },
  {
    "temp": 188.77044677734375,
    "speed": 0,
    "load": 0.05229524148012654
  },
  {
    "temp": 188.77227783203125,
    "speed": 0,
    "load": 0.05961481153552395
  },
  {
    "temp": 188.77374267578125,
    "speed": 0,
    "load": 0.09436072240090354
  }
]