[
  {
    "temp": 188.77163696289062,
    "speed": 0,
    "load": 0.0007055007282321668
  },
  {
    "temp": 188.766357421875,
    "speed": 0,
    "load": 0.0010141572968329626
  },
  {
    "temp": 188.7792510986328,
    "speed": 0,
    "load": 0.001719658025063353
  },
  {
    "temp": 188.77735900878906,
    "speed": 0,
    "load": 0.009480166035604753
  },
  {
    "temp": 188.77783203125,
    "speed": 0,
    "load": 0.0065699755316526165
  },
  {
    "temp": 188.76795959472656,
    "speed": 0,
    "load": 0.006658163122681415
  },
  {
    "temp": 188.76397705078125,
    "speed": 0,
    "load": 0.006173131372023022
  },
  {
    "temp": 188.7568817138672,
    "speed": 6.925207614898682,
    "load": 0.008069164579143973
  },
  {
    "temp": 188.7466583251953,
    "speed": 6.234414100646973,
    "load": 0.941358440437801
  },
  {
    "temp": 188.72254943847656,
    "speed": 6.234414100646973,
    "load": 9.26811897297586
  },
  {
    "temp": 188.70326232910156,
    "speed": 6.94444465637207,
    "load": 33.34399273079333
  },
  {
    "temp": 188.70211791992188,
    "speed": 6.25,
    "load": 35.220007354750734
  },
  {
    "temp": 188.69715881347656,
    "speed": 6.25,
    "load": 30.00767978698867
  },
  {
    "temp": 188.7248077392578,
    "speed": 6.234414100646973,
    "load": 28.407471853974098
  },
  {
    "temp": 188.74600219726562,
    "speed": 6.25,
    "load": 27.66942990465338
  },
  {
    "temp": 188.7527313232422,
    "speed": 6.25,
    "load": 27.594779108847437
  },
  {
    "temp": 188.7542266845703,
    "speed": 6.234414100646973,
    "load": 27.488601249248664
  },
  {
    "temp": 188.75930786132812,
    "speed": 6.94444465637207,
    "load": 27.619251165357948
  },
  {
    "temp": 188.74290466308594,
    "speed": 6.94444465637207,
    "load": 27.71934408117573
  },
  {
    "temp": 188.7377166748047,
    "speed": 6.94444465637207,
    "load": 27.930024236143726
  },
  {
    "temp": 188.73587036132812,
    "speed": 6.9637885093688965,
    "load": 28.31469850821171
  },
  {
    "temp": 188.7139129638672,
    "speed": 6.94444465637207,
    "load": 28.44129179513367
  },
  {
    "temp": 188.70892333984375,
    "speed": 6.234414100646973,
    "load": 28.71224816856991
  },
  {
    "temp": 188.69236755371094,
    "speed": 6.188118934631348,
    "load": 29.159447442677372
  },
  {
    "temp": 188.6791229248047,
    "speed": 6.94444465637207,
    "load": 29.289524139444968
  },
  {
    "temp": 188.66851806640625,
    "speed": 6.25,
    "load": 29.556732540262484
  },
  {
    "temp": 188.66143798828125,
    "speed": 6.94444465637207,
    "load": 29.808640394036484
  },
  {
    "temp": 188.6543731689453,
    "speed": 6.94444465637207,
    "load": 29.973551189260494
  },
  {
    "temp": 188.6487274169922,
    "speed": 6.265664100646973,
    "load": 30.113725365200903
  },
  {
    "temp": 188.64059448242188,
    "speed": 6.234414100646973,
    "load": 30.422073277233384
  },
  {
    "temp": 188.6376953125,
    "speed": 6.94444465637207,
    "load": 30.699114594450617
  },
  {
    "temp": 188.61305236816406,
    "speed": 6.94444465637207,
    "load": 31.075058295006745
  },
  {
    "temp": 188.61566162109375,
    "speed": 6.925207614898682,
    "load": 31.145079242283675
  },
  {
    "temp": 188.60751342773438,
    "speed": 6.25,
    "load": 31.45435312402196
  },
  {
    "temp": 188.59075927734375,
    "speed": 6.25,
    "load": 31.84811071796592
  },
  {
    "temp": 188.5645751953125,
    "speed": 6.265664100646973,
    "load": 31.99564855775724
  },
  {
    "temp": 188.54617309570312,
    "speed": 6.25,
    "load": 32.41431914616686
  },
  {
    "temp": 188.54168701171875,
    "speed": 6.25,
    "load": 33.05063670923576
  },
  {
    "temp": 188.5167999267578,
    "speed": 6.9637885093688965,
    "load": 33.25315951203358
  },
  {
    "temp": 188.5181884765625,
    "speed": 6.25,
    "load": 33.512695592431584
  },
  {
    "temp": 188.50906372070312,
    "speed": 6.94444465637207,
    "load": 34.24227153301352
  },
  {
    "temp": 188.47747802734375,
    "speed": 6.94444465637207,
    "load": 34.82316319512077
  },
  {
    "temp": 188.4560089111328,
    "speed": 6.234414100646973,
    "load": 35.17705999791967
  },
  {
    "temp": 188.44908142089844,
    "speed": 6.9637885093688965,
    "load": 36.04063698307
  },
  {
    "temp": 188.41041564941406,
    "speed": 0,
    "load": 36.43245445001132
  },
  {
    "temp": 188.39212036132812,
    "speed": 0,
    "load": 36.46711217328567
  },
  {
    "temp": 188.3774871826172,
    "speed": 0,
    "load": 27.512544180213002
  },
  {
    "temp": 188.32777404785156,
    "speed": 0,
    "load": 19.253599905176156
  },
  {
    "temp": 188.3055419921875,
    "speed": 0,
    "load": 12.269804102621425
  },
  {
    "temp": 188.27752685546875,
    "speed": 0,
    "load": 10.567122188831288
  },
  {
    "temp": 188.24537658691406,
    "speed": 0,
    "load": 9.34567995928576
  },
  {
    "temp": 188.21914672851562,
    "speed": 0,
    "load": 8.401014484184376
  },
  {
    "temp": 188.1981658935547,
    "speed": 0,
    "load": 6.9685393493067345
  },
  {
    "temp": 188.19161987304688,
    "speed": 0,
    "load": 6.384561121513478
  },
  {
    "temp": 188.1822052001953,
    "speed": 0,
    "load": 5.376576956053359
  },
  {
    "temp": 188.16860961914062,
    "speed": 0,
    "load": 4.9515127672941475
  },
  {
    "temp": 188.14085388183594,
    "speed": 0,
    "load": 4.57949341453881
  },
  {
    "temp": 188.1252899169922,
    "speed": 0,
    "load": 3.8977592420900375
  },
  {
    "temp": 188.10260009765625,
    "speed": 0,
    "load": 3.565997524639384
  },
  {
    "temp": 188.1049346923828,
    "speed": 0,
    "load": 3.2259020798365015
  },
  {
    "temp": 188.0816650390625,
    "speed": 0,
    "load": 2.6689092548980824
  },
  {
    "temp": 188.0677032470703,
    "speed": 0,
    "load": 2.507570057110744
  },
  {
    "temp": 188.05784606933594,
    "speed": 0,
    "load": 2.2848082021717886
  },
  {
    "temp": 188.06912231445312,
    "speed": 0,
    "load": 2.1919025750228602
  },
  {
    "temp": 188.0587615966797,
    "speed": 0,
    "load": 2.020862742222345
  },
  {
    "temp": 188.0596160888672,
    "speed": 0,
    "load": 1.942067129638037
  },
  {
    "temp": 188.05006408691406,
    "speed": 0,
    "load": 1.8705910871091298
  },
  {
    "temp": 188.08340454101562,
    "speed": 0,
    "load": 1.7509646198784523
  },
  {
    "temp": 188.0998077392578,
    "speed": 0,
    "load": 1.6925844346173307
  },
  {
    "temp": 188.11293029785156,
    "speed": 0,
    "load": 1.5960190224407054
  },
  {
    "temp": 188.1502685546875,
    "speed": 0,
    "load": 1.553688978746841
  },
  {
    "temp": 188.15330505371094,
    "speed": 0,
    "load": 1.5118880605991514
  },
  {
    "temp": 188.16790771484375,
    "speed": 0,
    "load": 1.4457914611230045
  },
  {
    "temp": 188.1776580810547,
    "speed": 0,
    "load": 1.4222894681138083
  },
  {
    "temp": 188.18545532226562,
    "speed": 0,
    "load": 1.3826050521508115
  },
  {
    "temp": 188.20193481445312,
    "speed": 0,
    "load": 1.3702146956112529
  },
  {
    "temp": 188.25430297851562,
    "speed": 0,
    "load": 1.3502843000387266
  },
  {
    "temp": 188.28770446777344,
    "speed": 0,
    "load": 1.322946146819774
  },
  {
    "temp": 188.31443786621094,
    "speed": 0,
    "load": 1.3150533574226877
  },
  {
    "temp": 188.33448791503906,
    "speed": 0,
    "load": 1.3100266647340426
  },
  {
    "temp": 188.3518524169922,
    "speed": 0,
    "load": 1.2950788680546452
  },
  {
    "temp": 188.36575317382812,
    "speed": 0,
    "load": 1.2850695764728677
  },
  {
    "temp": 188.41444396972656,
    "speed": 0,
    "load": 1.2744870655494012
  },
  {
    "temp": 188.446533203125,
    "speed": 0,
    "load": 1.268578496950468
  },
  {
    "temp": 188.46197509765625,
    "speed": 0,
    "load": 1.2625817407605027
  },
  {
    "temp": 188.5128631591797,
    "speed": 0,
    "load": 1.2590542371193472
  },
  {
    "temp": 188.53550720214844,
    "speed": 0,
    "load": 1.2534102312935005
  },
  {
    "temp": 188.5536346435547,
    "speed": 0,
    "load": 1.247854413058679
  },
  {
    "temp": 188.5899658203125,
    "speed": 0,
    "load": 1.2381978718410167
  },
  {
    "temp": 188.62789916992188,
    "speed": 0,
    "load": 1.2341412426536884
  },
  {
    "temp": 188.66615295410156,
    "speed": 0,
    "load": 1.2187525080191488
  },
  {
    "temp": 188.69908142089844,
    "speed": 0,
    "load": 1.211962063509926
  },
  {
    "temp": 188.71519470214844,
    "speed": 0,
    "load": 1.2016000215640315
  },
  {
    "temp": 188.75680541992188,
    "speed": 0,
    "load": 1.1846239102909717
  },
  {
    "temp": 188.7716064453125,
    "speed": 0,
    "load": 1.1731154296617028
  },
  {
    "temp": 188.8134002685547,
    "speed": 0,
    "load": 1.152655908543002
  },
  {
    "temp": 188.8373565673828,
    "speed": 0,
    "load": 1.141808834846449
  },
  {
    "temp": 188.87185668945312,
    "speed": 0,
    "load": 1.1152643699467557
  },
  {
    "temp": 188.88412475585938,
    "speed": 0,
    "load": 1.1029622009982276
  },
  {
    "temp": 188.9041748046875,
    "speed": 0,
    "load": 1.0834727433808453
  },
  {
    "temp": 188.9202117919922,
    "speed": 0,
    "load": 1.0569723722766646
  },
  {
    "temp": 188.95150756835938,
    "speed": 0,
    "load": 1.0363805697714206
  },
  {
    "temp": 188.96832275390625,
    "speed": 0,
    "load": 1.0245193387780365
  },
  {
    "temp": 188.9822998046875,
    "speed": 0,
    "load": 0.9945796516237309
  },
  {
    "temp": 188.99295043945312,
    "speed": 0,
    "load": 0.9824979516527748
  },
  {
    "temp": 189.00830078125,
    "speed": 0,
    "load": 0.9509267940644346
  },
  {
    "temp": 189.01376342773438,
    "speed": 0,
    "load": 0.9318341806066819
  },
  {
    "temp": 189.02981567382812,
    "speed": 0,
    "load": 0.8976614890829886
  },
  {
    "temp": 189.03097534179688,
    "speed": 0,
    "load": 0.8844774442241707
  },
  {
    "temp": 189.03189086914062,
    "speed": 0,
    "load": 0.857668416551391
  },
  {
    "temp": 189.0531005859375,
    "speed": 0,
    "load": 0.8423237757123658
  },
  {
    "temp": 189.04678344726562,
    "speed": 0,
    "load": 0.827023228668855
  },
  {
    "temp": 189.04454040527344,
    "speed": 0,
    "load": 0.8025070783628259
  },
  {
    "temp": 189.0325164794922,
    "speed": 0,
    "load": 0.787867938252031
  },
  {
    "temp": 189.0336151123047,
    "speed": 0,
    "load": 0.7547094040251725
  },
  {
    "temp": 189.0340118408203,
    "speed": 0,
    "load": 0.7416576405528978
  },
  {
    "temp": 189.03457641601562,
    "speed": 0,
    "load": 0.7303255351056865
  },
  {
    "temp": 189.03477478027344,
    "speed": 0,
    "load": 0.7058093847996574
  },
  {
    "temp": 189.03494262695312,
    "speed": 0,
    "load": 0.6968583443102254
  },
  {
    "temp": 189.02493286132812,
    "speed": 0,
    "load": 0.6631265907416797
  },
  {
    "temp": 189.006591796875,
    "speed": 0,
    "load": 0.6550574261625357
  },
  {
    "temp": 188.9883575439453,
    "speed": 0,
    "load": 0.6305853696520209
  },
  {
    "temp": 188.98756408691406,
    "speed": 0,
    "load": 0.6206642656612722
  },
  {
    "temp": 188.96644592285156,
    "speed": 0,
    "load": 0.6145352280847654
  },
  {
    "temp": 188.92581176757812,
    "speed": 0,
    "load": 0.5850364788856037
  },
  {
    "temp": 188.91705322265625,
    "speed": 0,
    "load": 0.575335843872427
  },
  {
    "temp": 188.89981079101562,
    "speed": 0,
    "load": 0.568060367612544
  },
  {
    "temp": 188.87496948242188,
    "speed": 0,
    "load": 0.5484386286086185
  },
  {
    "temp": 188.8661346435547,
    "speed": 0,
    "load": 0.5360923658645742
  },
  {
    "temp": 188.85906982421875,
    "speed": 0,
    "load": 0.515368281972787
  },
  {
    "temp": 188.84890747070312,
    "speed": 0,
    "load": 0.5047857710493204
  },
  {
    "temp": 188.8452911376953,
    "speed": 0,
    "load": 0.49265997728284994
  },
  {
    "temp": 188.84239196777344,
    "speed": 0,
    "load": 0.4793436510374889
  },
  {
    "temp": 188.8095703125,
    "speed": 0,
    "load": 0.46854067113645037
  },
  {
    "temp": 188.80357360839844,
    "speed": 0,
    "load": 0.4630289466971451
  },
  {
    "temp": 188.7783203125,
    "speed": 0,
    "load": 0.4364844817974518
  },
  {
    "temp": 188.74195861816406,
    "speed": 0,
    "load": 0.42748934751250545
  },
  {
    "temp": 188.7187957763672,
    "speed": 0,
    "load": 0.4130706763792844
  },
  {
    "temp": 188.69361877441406,
    "speed": 0,
    "load": 0.40760304573549355
  },
  {
    "temp": 188.68011474609375,
    "speed": 0,
    "load": 0.38978915234765843
  },
  {
    "temp": 188.6693115234375,
    "speed": 0,
    "load": 0.3801767049255105
  },
  {
    "temp": 188.6537628173828,
    "speed": 0,
    "load": 0.3712697582315947
  },
  {
    "temp": 188.6482391357422,
    "speed": 0,
    "load": 0.3593644334426944
  },
  {
    "temp": 188.64381408691406,
    "speed": 0,
    "load": 0.35372042761684597
  },
  {
    "temp": 188.627197265625,
    "speed": 0,
    "load": 0.34640085756144856
  },
  {
    "temp": 188.62698364257812,
    "speed": 0,
    "load": 0.33017434081213537
  },
  {
    "temp": 188.60824584960938,
    "speed": 0,
    "load": 0.3248830853504021
  },
  {
    "temp": 188.60157775878906,
    "speed": 0,
    "load": 0.3127572915839316
  },
  {
    "temp": 188.6064910888672,
    "speed": 0,
    "load": 0.2998819032937128
  },
  {
    "temp": 188.61041259765625,
    "speed": 0,
    "load": 0.29198911389662996
  },
  {
    "temp": 188.61607360839844,
    "speed": 0,
    "load": 0.2795105697660425
  },
  {
    "temp": 188.5976104736328,
    "speed": 0,
    "load": 0.28118613399559145
  },
  {
    "temp": 188.58944702148438,
    "speed": 0,
    "load": 0.2637690847673859
  },
  {
    "temp": 188.5865478515625,
    "speed": 0,
    "load": 0.2611675508320346
  },
  {
    "temp": 188.59446716308594,
    "speed": 0,
    "load": 0.2592715176249136
  },
  {
    "temp": 188.58743286132812,
    "speed": 0,
    "load": 0.24436781474103242
  },
  {
    "temp": 188.57469177246094,
    "speed": 0,
    "load": 0.23872380891518397
  },
  {
    "temp": 188.58497619628906,
    "speed": 0,
    "load": 0.23241839615661952
  },
  {
    "temp": 188.58135986328125,
    "speed": 0,
    "load": 0.2179997250233967
  },
  {
    "temp": 188.56983947753906,
    "speed": 0,
    "load": 0.2217476976421242
  },
  {
    "temp": 188.57086181640625,
    "speed": 0,
    "load": 0.21896978852471527
  },
  {
    "temp": 188.58050537109375,
    "speed": 0,
    "load": 0.2071526513268438
  },
  {
    "temp": 188.5793914794922,
    "speed": 0,
    "load": 0.2021700524337131
  },
  {
    "temp": 188.58872985839844,
    "speed": 0,
    "load": 0.19634967142580706
  },
  {
    "temp": 188.58596801757812,
    "speed": 0,
    "load": 0.18475300320550758
  },
  {
    "temp": 188.59017944335938,
    "speed": 0,
    "load": 0.184135690068306
  },
  {
    "temp": 188.5973663330078,
    "speed": 0,
    "load": 0.17068708243640174
  },
  {
    "temp": 188.6077117919922,
    "speed": 0,
    "load": 0.16680682843113104
  },
  {
    "temp": 188.61138916015625,
    "speed": 0,
    "load": 0.1641171069047509
  },
  {
    "temp": 188.6143341064453,
    "speed": 0,
    "load": 0.15900222662507524
  },
  {
    "temp": 188.6267547607422,
    "speed": 0,
    "load": 0.15097715584144744
  },
  {
    "temp": 188.6266326904297,
    "speed": 0,
    "load": 0.15075668686387544
  },
  {
    "temp": 188.62652587890625,
    "speed": 0,
    "load": 0.14339302301296186
  },
  {
    "temp": 188.6263885498047,
    "speed": 0,
    "load": 0.13580889018447806
  },
  {
    "temp": 188.62632751464844,
    "speed": 0,
    "load": 0.12796019458290786
  },
  {
    "temp": 188.62628173828125,
    "speed": 0,
    "load": 0.12072881211853925
  },
  {
    "temp": 188.63645935058594,
    "speed": 0,
    "load": 0.11477614972409
  },
  {
    "temp": 188.6548614501953,
    "speed": 0,
    "load": 0.11658399534018216
  },
  {
    "temp": 188.6593475341797,
    "speed": 0,
    "load": 0.11755405884150072
  },
  {
    "temp": 188.66580200195312,
    "speed": 0,
    "load": 0.11041086396816091
  },
  {
    "temp": 188.6783447265625,
    "speed": 0,
    "load": 0.10551645266605902
  },
  {
    "temp": 188.67813110351562,
    "speed": 0,
    "load": 0.10525188989297263
  },
  {
    "temp": 188.69419860839844,
    "speed": 0,
    "load": 0.09740319429140065
  },
  {
    "temp": 188.70106506347656,
    "speed": 0,
    "load": 0.09321428371752916
  },
  {
    "temp": 188.72702026367188,
    "speed": 0,
    "load": 0.0918032822610666
  },
  {
    "temp": 188.76437377929688,
    "speed": 0,
    "load": 0.08721752752756551
  },
  {
    "temp": 188.7776641845703,
    "speed": 0,
    "load": 0.08580652607110295
  },
  {
    "temp": 188.7967987060547,
    "speed": 0,
    "load": 0.0805152706093697
  },
  {
    "temp": 188.79336547851562,
    "speed": 0,
    "load": 0.08108848995105689
  },
  {
    "temp": 188.8008575439453,
    "speed": 0,
    "load": 0.07531220273866523
  },
  {
    "temp": 188.80142211914062,
    "speed": 0,
    "load": 0.07112329216479374
  },
  {
    "temp": 188.8072967529297,
    "speed": 0,
    "load": 0.06724303815952304
  },
  {
    "temp": 188.81576538085938,
    "speed": 0,
    "load": 0.05912977978486644
  },
  {
    "temp": 188.82901000976562,
    "speed": 0,
    "load": 0.05529361957511014
  },
  {
    "temp": 188.83786010742188,
    "speed": 0,
    "load": 0.05608730789436933
  },
  {
    "temp": 188.83645629882812,
    "speed": 0,
    "load": 0.0528684608218164
  },
  {
    "temp": 188.8353271484375,
    "speed": 0,
    "load": 0.04188910573872029
  },
  {
    "temp": 188.8439483642578,
    "speed": 0,
    "load": 0.04197729332974909
  },
  {
    "temp": 188.84132385253906,
    "speed": 0,
    "load": 0.042903263035551475
  },
  {
    "temp": 188.83921813964844,
    "speed": 0,
    "load": 0.039596228371969744
  },
  {
    "temp": 188.83619689941406,
    "speed": 0,
    "load": 0.03924347800785455
  },
  {
    "temp": 188.83511352539062,
    "speed": 0,
    "load": 0.03862616487065118
  },
  {
    "temp": 188.8335723876953,
    "speed": 0,
    "load": 0.03377584736406192
  },
  {
    "temp": 188.83302307128906,
    "speed": 0,
    "load": 0.02702949665035348
  },
  {
    "temp": 188.83258056640625,
    "speed": 0,
    "load": 0.019401270026355277
  },
  {
    "temp": 188.8322296142578,
    "speed": 0,
    "load": 0.018122549956435918
  },
  {
    "temp": 188.8317108154297,
    "speed": 0,
    "load": 0.018475300320551113
  },
  {
    "temp": 188.83152770996094,
    "speed": 0,
    "load": 0.018343018934007915
  },
  {
    "temp": 188.81092834472656,
    "speed": 0,
    "load": 0.011332105447213081
  },
  {
    "temp": 188.80467224121094,
    "speed": 0,
    "load": 0.008069164579143973
  },
  {
    "temp": 188.8140869140625,
    "speed": 0,
    "load": 0.006481787940623818
  },
  {
    "temp": 188.8174285888672,
    "speed": 0,
    "load": 0.003924347800786876
  },
  {
    "temp": 188.82009887695312,
    "speed": 0,
    "load": 0.00705500728231101
  },
  {
    "temp": 188.81370544433594,
    "speed": 0,
    "load": 0.0005732193416889686
  },
  {
    "temp": 188.80690002441406,
    "speed": 0,
    "load": 0.003483409845642882
  },
  {
    "temp": 188.79913330078125,
    "speed": 0,
    "load": 0.00004409379551617576
  },
  {
    "temp": 188.8054656982422,
    "speed": 0,
    "load": 0.00017637518205937397
  },
  {
    "temp": 188.81053161621094,
    "speed": 0,
    "load": -0.0024251587532937435
  },
  {
    "temp": 188.8014678955078,
    "speed": 0,
    "load": -0.005776287212391651
  },
  {
    "temp": 188.78688049316406,
    "speed": 0,
    "load": -0.006922725895766035
  },
  {
    "temp": 188.78543090820312,
    "speed": 0,
    "load": -0.009921103990748747
  },
  {
    "temp": 188.79153442382812,
    "speed": 0,
    "load": -0.010891167492065534
  },
  {
    "temp": 188.7789306640625,
    "speed": 0,
    "load": -0.012125793766470494
  },
  {
    "temp": 188.77906799316406,
    "speed": 0,
    "load": -0.0195776452084111
  },
  {
    "temp": 188.76904296875,
    "speed": 0,
    "load": -0.0195335514128967
  },
  {
    "temp": 188.7711639404297,
    "speed": 0,
    "load": -0.0195776452084111
  },
  {
    "temp": 188.74761962890625,
    "speed": 0,
    "load": -0.015961953976226795
  },
  {
    "temp": 188.74378967285156,
    "speed": 0,
    "load": -0.02411930614639779
  },
  {
    "temp": 188.7202606201172,
    "speed": 0,
    "load": -0.026764933877265307
  },
  {
    "temp": 188.69456481933594,
    "speed": 0,
    "load": -0.028881436061958254
  },
  {
    "temp": 188.67811584472656,
    "speed": 0,
    "load": -0.02835231051578546
  },
  {
    "temp": 188.66770935058594,
    "speed": 0,
    "load": -0.032056189338998564
  },
  {
    "temp": 188.65939331054688,
    "speed": 0,
    "load": -0.032276658316568785
  },
  {
    "temp": 188.65765380859375,
    "speed": 0,
    "load": -0.03320262802237295
  },
  {
    "temp": 188.66159057617188,
    "speed": 0,
    "load": -0.03377584736406014
  },
  {
    "temp": 188.6544952392578,
    "speed": 0,
    "load": -0.04038991669122716
  },
  {
    "temp": 188.64427185058594,
    "speed": 0,
    "load": -0.04166863676114474
  },
  {
    "temp": 188.64064025878906,
    "speed": 0,
    "load": -0.04078676085085675
  },
  {
    "temp": 188.65821838378906,
    "speed": 0,
    "load": -0.0429914506265785
  },
  {
    "temp": 188.65484619140625,
    "speed": 0,
    "load": -0.050178739295432706
  },
  {
    "temp": 188.6490936279297,
    "speed": 0,
    "load": -0.05167792834292406
  },
  {
    "temp": 188.64450073242188,
    "speed": 0,
    "load": -0.04934095718065734
  },
  {
    "temp": 188.63787841796875,
    "speed": 0,
    "load": -0.05114880279674949
  },
  {
    "temp": 188.63552856445312,
    "speed": 0,
    "load": -0.0582479038745749
  },
  {
    "temp": 188.63365173339844,
    "speed": 0,
    "load": -0.06032031226375523
  },
  {
    "temp": 188.63912963867188,
    "speed": 0,
    "load": -0.05882112321626387
  },
  {
    "temp": 188.6365203857422,
    "speed": 0,
    "load": -0.06146675094712961
  },
  {
    "temp": 188.6245880126953,
    "speed": 0,
    "load": -0.05939434255795106
  },
  {
    "temp": 188.62489318847656,
    "speed": 0,
    "load": -0.06415647247350975
  },
  {
    "temp": 188.6353759765625,
    "speed": 0,
    "load": -0.05965890533103746
  },
  {
    "temp": 188.63352966308594,
    "speed": 0,
    "load": -0.06155493853815841
  },
  {
    "temp": 188.630859375,
    "speed": 0,
    "load": -0.06852175822944062
  },
  {
    "temp": 188.62991333007812,
    "speed": 0,
    "load": -0.06940363413972861
  },
  {
    "temp": 188.629150390625,
    "speed": 0,
    "load": -0.06565566152100111
  },
  {
    "temp": 188.63624572753906,
    "speed": 0,
    "load": -0.06953591552627181
  },
  {
    "temp": 188.6444549560547,
    "speed": 0,
    "load": -0.07425395164631787
  },
  {
    "temp": 188.6378631591797,
    "speed": 0,
    "load": -0.07125557355133516
  },
  {
    "temp": 188.645751953125,
    "speed": 0,
    "load": -0.06812491406980925
  },
  {
    "temp": 188.65206909179688,
    "speed": 0,
    "load": -0.07914836294841976
  },
  {
    "temp": 188.6509246826172,
    "speed": 0,
    "load": -0.07932473813047736
  },
  {
    "temp": 188.64596557617188,
    "speed": 0,
    "load": -0.07495945237454826
  },
  {
    "temp": 188.67567443847656,
    "speed": 0,
    "load": -0.07623817244446762
  },
  {
    "temp": 188.67599487304688,
    "speed": 0,
    "load": -0.07632636003549642
  },
  {
    "temp": 188.68649291992188,
    "speed": 0,
    "load": -0.08241130381648887
  },
  {
    "temp": 188.6949005126953,
    "speed": 0,
    "load": -0.08144124031517208
  },
  {
    "temp": 188.68113708496094,
    "speed": 0,
    "load": -0.08377821147743703
  },
  {
    "temp": 188.69000244140625,
    "speed": 0,
    "load": -0.08492465016081141
  },
  {
    "temp": 188.6977081298828,
    "speed": 0,
    "load": -0.08770255927822213
  },
  {
    "temp": 188.70387268066406,
    "speed": 0,
    "load": -0.09325837751304178
  },
  {
    "temp": 188.7311553955078,
    "speed": 0,
    "load": -0.09660950597213969
  },
  {
    "temp": 188.75108337402344,
    "speed": 0,
    "load": -0.09722681910934128
  },
  {
    "temp": 188.74656677246094,
    "speed": 0,
    "load": -0.09123006291937763
  },
  {
    "temp": 188.74209594726562,
    "speed": 0,
    "load": -0.08743799650513573
  },
  {
    "temp": 188.74961853027344,
    "speed": 0,
    "load": -0.09660950597213969
  },
  {
    "temp": 188.75563049316406,
    "speed": 0,
    "load": -0.1038408884365083
  },
  {
    "temp": 188.76043701171875,
    "speed": 0,
    "load": -0.10317948150379053
  },
  {
    "temp": 188.77450561523438,
    "speed": 0,
    "load": -0.10159210486527037
  },
  {
    "temp": 188.78659057617188,
    "speed": 0,
    "load": -0.10445820157370989
  },
  {
    "temp": 188.7852020263672,
    "speed": 0,
    "load": -0.09625675560802449
  },
  {
    "temp": 188.7913818359375,
    "speed": 0,
    "load": -0.11155730265153352
  },
  {
    "temp": 188.7992706298828,
    "speed": 0,
    "load": -0.11186595922013609
  },
  {
    "temp": 188.80557250976562,
    "speed": 0,
    "load": -0.11279192892593848
  },
  {
    "temp": 188.80038452148438,
    "speed": 0,
    "load": -0.11063133294573113
  },
  {
    "temp": 188.8031463623047,
    "speed": 0,
    "load": -0.10692745412251803
  },
  {
    "temp": 188.80868530273438,
    "speed": 0,
    "load": -0.10780933003280779
  },
  {
    "temp": 188.816650390625,
    "speed": 0,
    "load": -0.11265964753939528
  },
  {
    "temp": 188.81948852539062,
    "speed": 0,
    "load": -0.1116013964470497
  },
  {
    "temp": 188.82174682617188,
    "speed": 0,
    "load": -0.11279192892593848
  },
  {
    "temp": 188.8168182373047,
    "speed": 0,
    "load": -0.1112486460829345
  },
  {
    "temp": 188.80938720703125,
    "speed": 0,
    "load": -0.11221870958425129
  },
  {
    "temp": 188.80343627929688,
    "speed": 0,
    "load": -0.11839184095627253
  },
  {
    "temp": 188.8030548095703,
    "speed": 0,
    "load": -0.11896506029795972
  },
  {
    "temp": 188.79837036132812,
    "speed": 0,
    "load": -0.11764224643252774
  },
  {
    "temp": 188.78439331054688,
    "speed": 0,
    "load": -0.1153934628612916
  },
  {
    "temp": 188.8011016845703,
    "speed": 0,
    "load": -0.11561393183886359
  },
  {
    "temp": 188.7865753173828,
    "speed": 0,
    "load": -0.1232862522583762
  },
  {
    "temp": 188.78407287597656,
    "speed": 0,
    "load": -0.11980284241273509
  },
  {
    "temp": 188.79342651367188,
    "speed": 0,
    "load": -0.12236028255257203
  },
  {
    "temp": 188.79066467285156,
    "speed": 0,
    "load": -0.1225366577346314
  },
  {
    "temp": 188.77850341796875,
    "speed": 0,
    "load": -0.12870978910665265
  },
  {
    "temp": 188.7787322998047,
    "speed": 0,
    "load": -0.1271665062636469
  },
  {
    "temp": 188.76869201660156,
    "speed": 0,
    "load": -0.1265932869219597
  },
  {
    "temp": 188.7624053955078,
    "speed": 0,
    "load": -0.12602006758027073
  },
  {
    "temp": 188.75563049316406,
    "speed": 0,
    "load": -0.12972394640348384
  },
  {
    "temp": 188.7604217529297,
    "speed": 0,
    "load": -0.12822475735599426
  },
  {
    "temp": 188.75404357910156,
    "speed": 0,
    "load": -0.1272106000591613
  },
  {
    "temp": 188.7653045654297,
    "speed": 0,
    "load": -0.13245776172538015
  },
  {
    "temp": 188.74771118164062,
    "speed": 0,
    "load": -0.1351915770472747
  },
  {
    "temp": 188.7428436279297,
    "speed": 0,
    "load": -0.13682304748130925
  },
  {
    "temp": 188.729736328125,
    "speed": 0,
    "load": -0.13386876318184093
  },
  {
    "temp": 188.7108612060547,
    "speed": 0,
    "load": -0.137704923391599
  },
  {
    "temp": 188.7041473388672,
    "speed": 0,
    "load": -0.1380576737557142
  },
  {
    "temp": 188.68853759765625,
    "speed": 0,
    "load": -0.1391159248480598
  },
  {
    "temp": 188.69268798828125,
    "speed": 0,
    "load": -0.13638210952616525
  },
  {
    "temp": 188.69984436035156,
    "speed": 0,
    "load": -0.1347947328876451
  },
  {
    "temp": 188.68968200683594,
    "speed": 0,
    "load": -0.13320735624912494
  },
  {
    "temp": 188.67697143554688,
    "speed": 0,
    "load": -0.1429079912623017
  },
  {
    "temp": 188.65866088867188,
    "speed": 0,
    "load": -0.1458181817662556
  },
  {
    "temp": 188.66238403320312,
    "speed": 0,
    "load": -0.14343711680847449
  },
  {
    "temp": 188.6575164794922,
    "speed": 0,
    "load": -0.1452890562200828
  },
  {
    "temp": 188.65122985839844,
    "speed": 0,
    "load": -0.1417615525789273
  },
  {
    "temp": 188.64620971679688,
    "speed": 0,
    "load": -0.1496984357715263
  },
  {
    "temp": 188.6492156982422,
    "speed": 0,
    "load": -0.1503598427042423
  },
  {
    "temp": 188.64459228515625,
    "speed": 0,
    "load": -0.1503157489087279
  },
  {
    "temp": 188.65113830566406,
    "speed": 0,
    "load": -0.15132990620556086
  },
  {
    "temp": 188.6563720703125,
    "speed": 0,
    "load": -0.14797877774646295
  },
  {
    "temp": 188.66390991210938,
    "speed": 0,
    "load": -0.14899293504329592
  },
  {
    "temp": 188.66659545898438,
    "speed": 0,
    "load": -0.15106534343247446
  },
  {
    "temp": 188.6584930419922,
    "speed": 0,
    "load": -0.15516606641531716
  },
  {
    "temp": 188.655029296875,
    "speed": 0,
    "load": -0.15578337955251875
  },
  {
    "temp": 188.6492462158203,
    "speed": 0,
    "load": -0.15155037518313286
  },
  {
    "temp": 188.65115356445312,
    "speed": 0,
    "load": -0.1504039364997567
  },
  {
    "temp": 188.65638732910156,
    "speed": 0,
    "load": -0.15296137663959541
  },
  {
    "temp": 188.6605682373047,
    "speed": 0,
    "load": -0.15132990620556086
  },
  {
    "temp": 188.6741485595703,
    "speed": 0,
    "load": -0.15944316458021746
  },
  {
    "temp": 188.69371032714844,
    "speed": 0,
    "load": -0.1570620996224381
  },
  {
    "temp": 188.70066833496094,
    "speed": 0,
    "load": -0.15684163064486611
  },
  {
    "temp": 188.68576049804688,
    "speed": 0,
    "load": -0.15476922225568757
  },
  {
    "temp": 188.68270874023438,
    "speed": 0,
    "load": -0.1507566868638719
  },
  {
    "temp": 188.68162536621094,
    "speed": 0,
    "load": -0.15168265656967606
  },
  {
    "temp": 188.6909942626953,
    "speed": 0,
    "load": -0.15119762481901766
  },
  {
    "temp": 188.6942596435547,
    "speed": 0,
    "load": -0.16036913428602162
  },
  {
    "temp": 188.6908721923828,
    "speed": 0,
    "load": -0.16733595397730205
  },
  {
    "temp": 188.69418334960938,
    "speed": 0,
    "load": -0.1575471313730965
  },
  {
    "temp": 188.7010498046875,
    "speed": 0,
    "load": -0.16411710690474735
  },
  {
    "temp": 188.69630432128906,
    "speed": 0,
    "load": -0.1647785138374651
  },
  {
    "temp": 188.71812438964844,
    "speed": 0,
    "load": -0.1686587678427358
  },
  {
    "temp": 188.7304229736328,
    "speed": 0,
    "load": -0.17006976929919837
  },
  {
    "temp": 188.73004150390625,
    "speed": 0,
    "load": -0.16707139120421566
  },
  {
    "temp": 188.74586486816406,
    "speed": 0,
    "load": -0.16830601747862062
  },
  {
    "temp": 188.7526092529297,
    "speed": 0,
    "load": -0.17403821089549787
  },
  {
    "temp": 188.75802612304688,
    "speed": 0,
    "load": -0.17827121526488376
  },
  {
    "temp": 188.76234436035156,
    "speed": 0,
    "load": -0.1729358660076361
  },
  {
    "temp": 188.76580810546875,
    "speed": 0,
    "load": -0.17183352111977612
  },
  {
    "temp": 188.7707977294922,
    "speed": 0,
    "load": -0.17086345761845756
  },
  {
    "temp": 188.77256774902344,
    "speed": 0,
    "load": -0.17809484008282617
  },
  {
    "temp": 188.7637481689453,
    "speed": 0,
    "load": -0.17844759044694136
  },
  {
    "temp": 188.7612762451172,
    "speed": 0,
    "load": -0.17796255869628297
  },
  {
    "temp": 188.7649383544922,
    "speed": 0,
    "load": -0.17628699446673401
  },
  {
    "temp": 188.76788330078125,
    "speed": 0,
    "load": -0.17963812292583192
  },
  {
    "temp": 188.7618865966797,
    "speed": 0,
    "load": -0.17880034081105656
  },
  {
    "temp": 188.7654266357422,
    "speed": 0,
    "load": -0.17831530906039816
  },
  {
    "temp": 188.77850341796875,
    "speed": 0,
    "load": -0.176507463444306
  },
  {
    "temp": 188.76051330566406,
    "speed": 0,
    "load": -0.18246012583875526
  },
  {
    "temp": 188.7541046142578,
    "speed": 0,
    "load": -0.18581125429785317
  },
  {
    "temp": 188.7592010498047,
    "speed": 0,
    "load": -0.18708997436777253
  },
  {
    "temp": 188.7645263671875,
    "speed": 0,
    "load": -0.18775138130048852
  },
  {
    "temp": 188.7777862548828,
    "speed": 0,
    "load": -0.18647266123056916
  },
  {
    "temp": 188.78839111328125,
    "speed": 0,
    "load": -0.18695769298122755
  },
  {
    "temp": 188.78524780273438,
    "speed": 0,
    "load": -0.1810932181778071
  },
  {
    "temp": 188.7943572998047,
    "speed": 0,
    "load": -0.1880600378690893
  },
  {
    "temp": 188.78118896484375,
    "speed": 0,
    "load": -0.19026472764481106
  },
  {
    "temp": 188.78062438964844,
    "speed": 0,
    "load": -0.18378293970418902
  },
  {
    "temp": 188.77020263671875,
    "speed": 0,
    "load": -0.18986788348518147
  },
  {
    "temp": 188.76185607910156,
    "speed": 0,
    "load": -0.18845688202872068
  },
  {
    "temp": 188.78668212890625,
    "speed": 0,
    "load": -0.19370404369493777
  },
  {
    "temp": 188.78526306152344,
    "speed": 0,
    "load": -0.19132297873715842
  },
  {
    "temp": 188.77391052246094,
    "speed": 0,
    "load": -0.19083794698650003
  },
  {
    "temp": 188.757568359375,
    "speed": 0,
    "load": -0.19405679405905296
  },
  {
    "temp": 188.7517547607422,
    "speed": 0,
    "load": -0.19392451267250976
  },
  {
    "temp": 188.75732421875,
    "speed": 0,
    "load": -0.19555598310654432
  },
  {
    "temp": 188.73670959472656,
    "speed": 0,
    "load": -0.19163163530575922
  },
  {
    "temp": 188.72482299804688,
    "speed": 0,
    "load": -0.19789295426880926
  },
  {
    "temp": 188.71591186523438,
    "speed": 0,
    "load": -0.19621739003926209
  },
  {
    "temp": 188.70819091796875,
    "speed": 0,
    "load": -0.19374813749045217
  },
  {
    "temp": 188.72247314453125,
    "speed": 0,
    "load": -0.18708997436777253
  },
  {
    "temp": 188.74305725097656,
    "speed": 0,
    "load": -0.1960410148572045
  },
  {
    "temp": 188.7299041748047,
    "speed": 0,
    "load": -0.20265508418436973
  },
  {
    "temp": 188.72962951660156,
    "speed": 0,
    "load": -0.2036251476856883
  },
  {
    "temp": 188.70260620117188,
    "speed": 0,
    "load": -0.19776067288226606
  },
  {
    "temp": 188.69754028320312,
    "speed": 0,
    "load": -0.19917167433872862
  },
  {
    "temp": 188.6902618408203,
    "speed": 0,
    "load": -0.20530071191523547
  },
  {
    "temp": 188.67742919921875,
    "speed": 0,
    "load": -0.20278736557091293
  },
  {
    "temp": 188.6671600341797,
    "speed": 0,
    "load": -0.20256689659334093
  },
  {
    "temp": 188.68104553222656,
    "speed": 0,
    "load": -0.20525661811972107
  },
  {
    "temp": 188.69053649902344,
    "speed": 0,
    "load": -0.21628006699833158
  },
  {
    "temp": 188.66734313964844,
    "speed": 0,
    "load": -0.21597141042973078
  },
  {
    "temp": 188.66934204101562,
    "speed": 0,
    "load": -0.21676509874898997
  },
  {
    "temp": 188.6606903076172,
    "speed": 0,
    "load": -0.21178249985585929
  },
  {
    "temp": 188.67425537109375,
    "speed": 0,
    "load": -0.20794633964610298
  },
  {
    "temp": 188.67330932617188,
    "speed": 0,
    "load": -0.21195887503791688
  },
  {
    "temp": 188.67410278320312,
    "speed": 0,
    "load": -0.21976347684397268
  },
  {
    "temp": 188.6670684814453,
    "speed": 0,
    "load": -0.21570684765664438
  },
  {
    "temp": 188.6691131591797,
    "speed": 0,
    "load": -0.21958710166191509
  },
  {
    "temp": 188.67074584960938,
    "speed": 0,
    "load": -0.21742650568170774
  },
  {
    "temp": 188.67205810546875,
    "speed": 0,
    "load": -0.21773516225030853
  },
  {
    "temp": 188.7276153564453,
    "speed": 0,
    "load": -0.2268184841262837
  },
  {
    "temp": 188.72755432128906,
    "speed": 0,
    "load": -0.23550496184262748
  },
  {
    "temp": 188.72789001464844,
    "speed": 0,
    "load": -0.23665140052600364
  },
  {
    "temp": 188.72801208496094,
    "speed": 0,
    "load": -0.23691596329909004
  },
  {
    "temp": 188.7384033203125,
    "speed": 0,
    "load": -0.2425158753294241
  },
  {
    "temp": 188.73641967773438,
    "speed": 0,
    "load": -0.23290342790727614
  },
  {
    "temp": 188.72459411621094,
    "speed": 0,
    "load": -0.23744508884526283
  },
  {
    "temp": 188.72537231445312,
    "speed": 0,
    "load": -0.23907655927929738
  },
  {
    "temp": 188.73468017578125,
    "speed": 0,
    "load": -0.24401506437691545
  },
  {
    "temp": 188.7222137451172,
    "speed": 0,
    "load": -0.24035527934921674
  },
  {
    "temp": 188.7234649658203,
    "speed": 0,
    "load": -0.2453378782423492
  },
  {
    "temp": 188.7142333984375,
    "speed": 0,
    "load": -0.2463961293346948
  },
  {
    "temp": 188.70684814453125,
    "speed": 0,
    "load": -0.2425599691249385
  },
  {
    "temp": 188.711181640625,
    "speed": 0,
    "load": -0.24375050160382905
  },
  {
    "temp": 188.7146453857422,
    "speed": 0,
    "load": -0.24679297349432439
  },
  {
    "temp": 188.71963500976562,
    "speed": 0,
    "load": -0.24370640780831465
  },
  {
    "temp": 188.72140502929688,
    "speed": 0,
    "load": -0.24723391144947016
  },
  {
    "temp": 188.7239532470703,
    "speed": 0,
    "load": -0.24458828371860264
  },
  {
    "temp": 188.71463012695312,
    "speed": 0,
    "load": -0.2427804381025105
  },
  {
    "temp": 188.70716857910156,
    "speed": 0,
    "load": -0.24785122458667175
  },
  {
    "temp": 188.73326110839844,
    "speed": 0,
    "load": -0.24441190853654504
  },
  {
    "temp": 188.74253845214844,
    "speed": 0,
    "load": -0.2428686256935393
  },
  {
    "temp": 188.73748779296875,
    "speed": 0,
    "load": -0.2456024410154356
  },
  {
    "temp": 188.74591064453125,
    "speed": 0,
    "load": -0.2493945074296775
  },
  {
    "temp": 188.742431640625,
    "speed": 0,
    "load": -0.24414734576345865
  },
  {
    "temp": 188.71897888183594,
    "speed": 0,
    "load": -0.24785122458667175
  },
  {
    "temp": 188.72088623046875,
    "speed": 0,
    "load": -0.24476465890066024
  },
  {
    "temp": 188.72157287597656,
    "speed": 0,
    "load": -0.2490417570655623
  },
  {
    "temp": 188.72296142578125,
    "speed": 0,
    "load": -0.25552354500618435
  },
  {
    "temp": 188.71383666992188,
    "speed": 0,
    "load": -0.25512670084655475
  },
  {
    "temp": 188.70652770996094,
    "speed": 0,
    "load": -0.2493504136341631
  },
  {
    "temp": 188.71092224121094,
    "speed": 0,
    "load": -0.2534952304125202
  },
  {
    "temp": 188.7090606689453,
    "speed": 0,
    "load": -0.25446529391383876
  },
  {
    "temp": 188.7027130126953,
    "speed": 0,
    "load": -0.25499441946001156
  },
  {
    "temp": 188.6976318359375,
    "speed": 0,
    "load": -0.25966836178454145
  },
  {
    "temp": 188.6882781982422,
    "speed": 0,
    "load": -0.25971245558005585
  },
  {
    "temp": 188.69631958007812,
    "speed": 0,
    "load": -0.25843373551013826
  },
  {
    "temp": 188.7027587890625,
    "speed": 0,
    "load": -0.25878648587425346
  },
  {
    "temp": 188.70382690429688,
    "speed": 0,
    "load": -0.25565582639272755
  },
  {
    "temp": 188.70875549316406,
    "speed": 0,
    "load": -0.2603297687172592
  },
  {
    "temp": 188.71270751953125,
    "speed": 0,
    "load": -0.25565582639272755
  },
  {
    "temp": 188.710205078125,
    "speed": 0,
    "load": -0.2510700716592247
  },
  {
    "temp": 188.70362854003906,
    "speed": 0,
    "load": -0.2609029880589464
  },
  {
    "temp": 188.70860290527344,
    "speed": 0,
    "load": -0.2565377023030173
  },
  {
    "temp": 188.70960998535156,
    "speed": 0,
    "load": -0.26046205010380064
  },
  {
    "temp": 188.71339416503906,
    "speed": 0,
    "load": -0.2611234570365184
  },
  {
    "temp": 188.69593811035156,
    "speed": 0,
    "load": -0.26332814681224015
  },
  {
    "temp": 188.70245361328125,
    "speed": 0,
    "load": -0.26310767783466815
  },
  {
    "temp": 188.730224609375,
    "speed": 0,
    "load": -0.25891876726079666
  },
  {
    "temp": 188.7093963623047,
    "speed": 0,
    "load": -0.25949198660248385
  },
  {
    "temp": 188.70297241210938,
    "speed": 0,
    "load": -0.26288720885709616
  },
  {
    "temp": 188.68350219726562,
    "speed": 0,
    "load": -0.2649155234507603
  },
  {
    "temp": 188.68226623535156,
    "speed": 0,
    "load": -0.2579046099639637
  },
  {
    "temp": 188.70094299316406,
    "speed": 0,
    "load": -0.2606825190813744
  },
  {
    "temp": 188.7166748046875,
    "speed": 0,
    "load": -0.25883057966976786
  },
  {
    "temp": 188.72926330566406,
    "speed": 0,
    "load": -0.254685762891409
  },
  {
    "temp": 188.73922729492188,
    "speed": 0,
    "load": -0.25869829828322466
  },
  {
    "temp": 188.73707580566406,
    "speed": 0,
    "load": -0.25874239207873906
  },
  {
    "temp": 188.72512817382812,
    "speed": 0,
    "load": -0.25949198660248385
  },
  {
    "temp": 188.72633361816406,
    "speed": 0,
    "load": -0.26262264608400976
  },
  {
    "temp": 188.7369842529297,
    "speed": 0,
    "load": -0.26372499097186974
  },
  {
    "temp": 188.7455291748047,
    "speed": 0,
    "load": -0.26332814681224015
  },
  {
    "temp": 188.75779724121094,
    "speed": 0,
    "load": -0.26310767783466815
  },
  {
    "temp": 188.75193786621094,
    "speed": 0,
    "load": -0.26654699388479486
  },
  {
    "temp": 188.76771545410156,
    "speed": 0,
    "load": -0.27033906029903676
  },
  {
    "temp": 188.76177978515625,
    "speed": 0,
    "load": -0.2688839650470598
  },
  {
    "temp": 188.76535034179688,
    "speed": 0,
    "load": -0.27095637343623835
  },
  {
    "temp": 188.7786865234375,
    "speed": 0,
    "load": -0.267913901545743
  },
  {
    "temp": 188.77886962890625,
    "speed": 0,
    "load": -0.2660619621341347
  },
  {
    "temp": 188.7892608642578,
    "speed": 0,
    "load": -0.2649596172462747
  },
  {
    "temp": 188.76739501953125,
    "speed": 0,
    "load": -0.27091227964072395
  },
  {
    "temp": 188.7800750732422,
    "speed": 0,
    "load": -0.2730287818254169
  },
  {
    "temp": 188.76976013183594,
    "speed": 0,
    "load": -0.2771295048082614
  },
  {
    "temp": 188.77330017089844,
    "speed": 0,
    "load": -0.2766444730576012
  },
  {
    "temp": 188.76434326171875,
    "speed": 0,
    "load": -0.27395475153122106
  },
  {
    "temp": 188.75717163085938,
    "speed": 0,
    "load": -0.2761153475114284
  },
  {
    "temp": 188.76165771484375,
    "speed": 0,
    "load": -0.27774681794546296
  },
  {
    "temp": 188.7681121826172,
    "speed": 0,
    "load": -0.27752634896789097
  },
  {
    "temp": 188.78065490722656,
    "speed": 0,
    "load": -0.27748225517237657
  },
  {
    "temp": 188.7804412841797,
    "speed": 0,
    "load": -0.28153888435970487
  },
  {
    "temp": 188.78013610839844,
    "speed": 0,
    "load": -0.2800396953122135
  },
  {
    "temp": 188.79026794433594,
    "speed": 0,
    "load": -0.27889325662883735
  },
  {
    "temp": 188.7779083251953,
    "speed": 0,
    "load": -0.27765863035443417
  },
  {
    "temp": 188.7764892578125,
    "speed": 0,
    "load": -0.2833026361802826
  },
  {
    "temp": 188.7668914794922,
    "speed": 0,
    "load": -0.2767767544441444
  },
  {
    "temp": 188.75921630859375,
    "speed": 0,
    "load": -0.28960804893884706
  },
  {
    "temp": 188.75633239746094,
    "speed": 0,
    "load": -0.28956395514333266
  },
  {
    "temp": 188.75076293945312,
    "speed": 0,
    "load": -0.28599235770666276
  },
  {
    "temp": 188.73606872558594,
    "speed": 0,
    "load": -0.28630101427526355
  },
  {
    "temp": 188.7435760498047,
    "speed": 0,
    "load": -0.28616873288872036
  },
  {
    "temp": 188.76101684570312,
    "speed": 0,
    "load": -0.2911954255773672
  },
  {
    "temp": 188.7545166015625,
    "speed": 0,
    "load": -0.28519866938740357
  },
  {
    "temp": 188.76356506347656,
    "speed": 0,
    "load": -0.2830821672027106
  },
  {
    "temp": 188.7565460205078,
    "speed": 0,
    "load": -0.28189163472382006
  },
  {
    "temp": 188.7509307861328,
    "speed": 0,
    "load": -0.28312626099822324
  },
  {
    "temp": 188.74285888671875,
    "speed": 0,
    "load": -0.28656557704834995
  },
  {
    "temp": 188.739990234375,
    "speed": 0,
    "load": -0.28533095077394677
  },
  {
    "temp": 188.73768615722656,
    "speed": 0,
    "load": -0.2850222942053442
  },
  {
    "temp": 188.73439025878906,
    "speed": 0,
    "load": -0.2839199493174842
  },
  {
    "temp": 188.73321533203125,
    "speed": 0,
    "load": -0.28541913836497557
  },
  {
    "temp": 188.7315216064453,
    "speed": 0,
    "load": -0.2878002033227549
  },
  {
    "temp": 188.72067260742188,
    "speed": 0,
    "load": -0.2882852350734133
  },
  {
    "temp": 188.69482421875,
    "speed": 0,
    "load": -0.28951986134781826
  },
  {
    "temp": 188.69131469726562,
    "speed": 0,
    "load": -0.28969623652987586
  },
  {
    "temp": 188.68850708007812,
    "speed": 0,
    "load": -0.28652148325283733
  },
  {
    "temp": 188.68626403808594,
    "speed": 0,
    "load": -0.291945020101112
  },
  {
    "temp": 188.6748504638672,
    "speed": 0,
    "load": -0.2926064270338298
  },
  {
    "temp": 188.6753387451172,
    "speed": 0,
    "load": -0.2924741456472866
  },
  {
    "temp": 188.6757354736328,
    "speed": 0,
    "load": -0.2914158945549392
  },
  {
    "temp": 188.67630004882812,
    "speed": 0,
    "load": -0.29340011535308896
  },
  {
    "temp": 188.67649841308594,
    "speed": 0,
    "load": -0.2915922697369968
  },
  {
    "temp": 188.6665496826172,
    "speed": 0,
    "load": -0.28634510807077795
  },
  {
    "temp": 188.65846252441406,
    "speed": 0,
    "load": -0.2918568325100832
  },
  {
    "temp": 188.67247009277344,
    "speed": 0,
    "load": -0.29362058433066096
  },
  {
    "temp": 188.67625427246094,
    "speed": 0,
    "load": -0.29304736498897377
  },
  {
    "temp": 188.66622924804688,
    "speed": 0,
    "load": -0.2884616102554709
  },
  {
    "temp": 188.658203125,
    "speed": 0,
    "load": -0.2953402423557243
  },
  {
    "temp": 188.6548309326172,
    "speed": 0,
    "load": -0.2946347416274939
  },
  {
    "temp": 188.67979431152344,
    "speed": 0,
    "load": -0.29317964637551697
  },
  {
    "temp": 188.6895294189453,
    "speed": 0,
    "load": -0.2964425872435861
  },
  {
    "temp": 188.6667022705078,
    "speed": 0,
    "load": -0.2926064270338298
  },
  {
    "temp": 188.6688232421875,
    "speed": 0,
    "load": -0.29040173725810803
  },
  {
    "temp": 188.68075561523438,
    "speed": 0,
    "load": -0.28947576755230386
  },
  {
    "temp": 188.68975830078125,
    "speed": 0,
    "load": -0.2922095828742002
  },
  {
    "temp": 188.68727111816406,
    "speed": 0,
    "load": -0.291283613168396
  },
  {
    "temp": 188.6939239501953,
    "speed": 0,
    "load": -0.2911954255773672
  },
  {
    "temp": 188.70083618164062,
    "speed": 0,
    "load": -0.2966630562211581
  },
  {
    "temp": 188.7063751220703,
    "speed": 0,
    "load": -0.30173384270531756
  },
  {
    "temp": 188.70614624023438,
    "speed": 0,
    "load": -0.2947670230140371
  },
  {
    "temp": 188.7106170654297,
    "speed": 0,
    "load": -0.29441427264992015
  },
  {
    "temp": 188.69862365722656,
    "speed": 0,
    "load": -0.3026157186156073
  },
  {
    "temp": 188.71484375,
    "speed": 0,
    "load": -0.299000027383423
  },
  {
    "temp": 188.7175750732422,
    "speed": 0,
    "load": -0.2963984934480717
  },
  {
    "temp": 188.7235565185547,
    "speed": 0,
    "load": -0.2920773014876552
  },
  {
    "temp": 188.7347869873047,
    "speed": 0,
    "load": -0.2963103058570411
  },
  {
    "temp": 188.73353576660156,
    "speed": 0,
    "load": -0.2991323087699662
  },
  {
    "temp": 188.71328735351562,
    "speed": 0,
    "load": -0.30182203029634636
  },
  {
    "temp": 188.72654724121094,
    "speed": 0,
    "load": -0.30142518613671676
  },
  {
    "temp": 188.72694396972656,
    "speed": 0,
    "load": -0.30102834197708717
  },
  {
    "temp": 188.73568725585938,
    "speed": 0,
    "load": -0.3034094069348665
  },
  {
    "temp": 188.72401428222656,
    "speed": 0,
    "load": -0.30565819050610443
  },
  {
    "temp": 188.73585510253906,
    "speed": 0,
    "load": -0.30173384270531756
  },
  {
    "temp": 188.73439025878906,
    "speed": 0,
    "load": -0.30446765802721387
  },
  {
    "temp": 188.73321533203125,
    "speed": 0,
    "load": -0.3004551226354
  },
  {
    "temp": 188.7315216064453,
    "speed": 0,
    "load": -0.3034094069348665
  },
  {
    "temp": 188.7309112548828,
    "speed": 0,
    "load": -0.3042030952541275
  },
  {
    "temp": 188.7218475341797,
    "speed": 0,
    "load": -0.30565819050610443
  },
  {
    "temp": 188.7129364013672,
    "speed": 0,
    "load": -0.307598317508738
  },
  {
    "temp": 188.71604919433594,
    "speed": 0,
    "load": -0.31324232333458824
  },
  {
    "temp": 188.71234130859375,
    "speed": 0,
    "load": -0.3068046291894788
  },
  {
    "temp": 188.72579956054688,
    "speed": 0,
    "load": -0.30870066239659977
  },
  {
    "temp": 188.7058563232422,
    "speed": 0,
    "load": -0.3099352886710047
  },
  {
    "temp": 188.7119598388672,
    "speed": 0,
    "load": -0.3100234762620335
  },
  {
    "temp": 188.7050323486328,
    "speed": 0,
    "load": -0.31236044742429847
  },
  {
    "temp": 188.69505310058594,
    "speed": 0,
    "load": -0.3113903839229799
  },
  {
    "temp": 188.7017364501953,
    "speed": 0,
    "load": -0.30984710107997593
  },
  {
    "temp": 188.70709228515625,
    "speed": 0,
    "load": -0.30945025692034633
  },
  {
    "temp": 188.69090270996094,
    "speed": 0,
    "load": -0.30918569414725994
  },
  {
    "temp": 188.69419860839844,
    "speed": 0,
    "load": -0.3159761386564828
  },
  {
    "temp": 188.69082641601562,
    "speed": 0,
    "load": -0.30984710107997593
  },
  {
    "temp": 188.68812561035156,
    "speed": 0,
    "load": -0.30922978794277256
  },
  {
    "temp": 188.67604064941406,
    "speed": 0,
    "load": -0.3114344777184961
  },
  {
    "temp": 188.6660614013672,
    "speed": 0,
    "load": -0.3076424113042542
  },
  {
    "temp": 188.66830444335938,
    "speed": 0,
    "load": -0.3070250981670508
  },
  {
    "temp": 188.6797332763672,
    "speed": 0,
    "load": -0.3081274430549126
  },
  {
    "temp": 188.6792449951172,
    "speed": 0,
    "load": -0.3151824503372218
  },
  {
    "temp": 188.6686248779297,
    "speed": 0,
    "load": -0.3156233882923676
  },
  {
    "temp": 188.6703643798828,
    "speed": 0,
    "load": -0.315887951065454
  },
  {
    "temp": 188.67286682128906,
    "speed": 0,
    "load": -0.3184453912052909
  },
  {
    "temp": 188.66351318359375,
    "speed": 0,
    "load": -0.3225461141881354
  },
  {
    "temp": 188.66627502441406,
    "speed": 0,
    "load": -0.3181367346366901
  },
  {
    "temp": 188.6620635986328,
    "speed": 0,
    "load": -0.31615251383854037
  },
  {
    "temp": 188.65487670898438,
    "speed": 0,
    "load": -0.31319822953907206
  },
  {
    "temp": 188.65936279296875,
    "speed": 0,
    "load": -0.3190186105469799
  },
  {
    "temp": 188.6473846435547,
    "speed": 0,
    "load": -0.31734304631743093
  },
  {
    "temp": 188.6533660888672,
    "speed": 0,
    "load": -0.31337460472113143
  },
  {
    "temp": 188.64791870117188,
    "speed": 0,
    "load": -0.316108420043026
  },
  {
    "temp": 188.65029907226562,
    "speed": 0,
    "load": -0.3153147317237668
  },
  {
    "temp": 188.65570068359375,
    "speed": 0,
    "load": -0.3157997634744252
  },
  {
    "temp": 188.6614227294922,
    "speed": 0,
    "load": -0.31619660763405477
  },
  {
    "temp": 188.65435791015625,
    "speed": 0,
    "load": -0.31725485872640213
  },
  {
    "temp": 188.64871215820312,
    "speed": 0,
    "load": -0.3186658601828647
  },
  {
    "temp": 188.6405792236328,
    "speed": 0,
    "load": -0.32104692514064403
  },
  {
    "temp": 188.63768005371094,
    "speed": 0,
    "load": -0.32042961200344067
  },
  {
    "temp": 188.64559936523438,
    "speed": 0,
    "load": -0.3180926408411757
  },
  {
    "temp": 188.64883422851562,
    "speed": 0,
    "load": -0.31712257733985894
  },
  {
    "temp": 188.644287109375,
    "speed": 0,
    "load": -0.32832240140052704
  },
  {
    "temp": 188.6561737060547,
    "speed": 0,
    "load": -0.3316294360641088
  },
  {
    "temp": 188.65016174316406,
    "speed": 0,
    "load": -0.3302625284031606
  },
  {
    "temp": 188.64535522460938,
    "speed": 0,
    "load": -0.32413349082665377
  },
  {
    "temp": 188.638427734375,
    "speed": 0,
    "load": -0.3268673061485501
  },
  {
    "temp": 188.63597106933594,
    "speed": 0,
    "load": -0.3337900320443161
  },
  {
    "temp": 188.63400268554688,
    "speed": 0,
    "load": -0.32876333935567104
  },
  {
    "temp": 188.64266967773438,
    "speed": 0,
    "load": -0.3293806524928726
  },
  {
    "temp": 188.6448974609375,
    "speed": 0,
    "load": -0.3237807404625386
  },
  {
    "temp": 188.64114379882812,
    "speed": 0,
    "load": -0.3263822743978899
  },
  {
    "temp": 188.6562042236328,
    "speed": 0,
    "load": -0.3301302470166192
  },
  {
    "temp": 188.67066955566406,
    "speed": 0,
    "load": -0.3314089670865368
  },
  {
    "temp": 188.68223571777344,
    "speed": 0,
    "load": -0.3313648732910224
  },
  {
    "temp": 188.69068908691406,
    "speed": 0,
    "load": -0.32916018351530063
  },
  {
    "temp": 188.68801879882812,
    "speed": 0,
    "load": -0.3304829973807344
  },
  {
    "temp": 188.6944122314453,
    "speed": 0,
    "load": -0.3342309699994619
  },
  {
    "temp": 188.70123291015625,
    "speed": 0,
    "load": -0.3334372816802009
  },
  {
    "temp": 188.69644165039062,
    "speed": 0,
    "load": -0.3317176236551376
  },
  {
    "temp": 188.72637939453125,
    "speed": 0,
    "load": -0.3309680291313928
  },
  {
    "temp": 188.70632934570312,
    "speed": 0,
    "load": -0.34375522983058104
  },
  {
    "temp": 188.7429656982422,
    "speed": 0,
    "load": -0.34379932362609544
  },
  {
    "temp": 188.7400665283203,
    "speed": 0,
    "load": -0.3389930999150206
  },
  {
    "temp": 188.7377471923828,
    "speed": 0,
    "load": -0.33599472182003964
  },
  {
    "temp": 188.76101684570312,
    "speed": 0,
    "load": -0.33674431634378443
  },
  {
    "temp": 188.7749786376953,
    "speed": 0,
    "load": -0.33934585027913755
  },
  {
    "temp": 188.76568603515625,
    "speed": 0,
    "load": -0.33656794116172684
  },
  {
    "temp": 188.75230407714844,
    "speed": 0,
    "load": -0.3381112240047326
  },
  {
    "temp": 188.76800537109375,
    "speed": 0,
    "load": -0.3390812875060494
  },
  {
    "temp": 188.7742462158203,
    "speed": 0,
    "load": -0.3421237593965465
  },
  {
    "temp": 188.7753143310547,
    "speed": 0,
    "load": -0.34357885464852345
  },
  {
    "temp": 188.77618408203125,
    "speed": 0,
    "load": -0.3423001345786041
  },
  {
    "temp": 188.78561401367188,
    "speed": 0,
    "load": -0.34366704223955225
  },
  {
    "temp": 188.78440856933594,
    "speed": 0,
    "load": -0.3462685761749036
  },
  {
    "temp": 188.783447265625,
    "speed": 0,
    "load": -0.34437254296778264
  },
  {
    "temp": 188.78004455566406,
    "speed": 0,
    "load": -0.34481348092292663
  },
  {
    "temp": 188.7799530029297,
    "speed": 0,
    "load": -0.3424765097606617
  },
  {
    "temp": 188.77989196777344,
    "speed": 0,
    "load": -0.346753607925562
  },
  {
    "temp": 188.78797912597656,
    "speed": 0,
    "load": -0.3455630754466732
  },
  {
    "temp": 188.7760772705078,
    "speed": 0,
    "load": -0.3494874232474583
  },
  {
    "temp": 188.77734375,
    "speed": 0,
    "load": -0.3504574867487751
  },
  {
    "temp": 188.77781677246094,
    "speed": 0,
    "load": -0.34750320244930855
  },
  {
    "temp": 188.7764434814453,
    "speed": 0,
    "load": -0.35125117506803605
  },
  {
    "temp": 188.76686096191406,
    "speed": 0,
    "load": -0.35433774075404756
  },
  {
    "temp": 188.7489471435547,
    "speed": 0,
    "load": -0.35107479988597845
  },
  {
    "temp": 188.7333984375,
    "speed": 0,
    "load": -0.35191258200075204
  },
  {
    "temp": 188.74266052246094,
    "speed": 0,
    "load": -0.34701817069865015
  },
  {
    "temp": 188.71913146972656,
    "speed": 0,
    "load": -0.3539849903899306
  },
  {
    "temp": 188.70053100585938,
    "speed": 0,
    "load": -0.35980537139783664
  },
  {
    "temp": 188.7061309814453,
    "speed": 0,
    "load": -0.35861483891894785
  },
  {
    "temp": 188.71060180664062,
    "speed": 0,
    "load": -0.3572920250535141
  },
  {
    "temp": 188.70394897460938,
    "speed": 0,
    "load": -0.3577329630086581
  },
  {
    "temp": 188.6841278076172,
    "speed": 0,
    "load": -0.35636605534770993
  },
  {
    "temp": 188.68276977539062,
    "speed": 0,
    "load": -0.3581739009638021
  },
  {
    "temp": 188.672607421875,
    "speed": 0,
    "load": -0.3609077162856984
  },
  {
    "temp": 188.67355346679688,
    "speed": 0,
    "load": -0.36333287503899214
  },
  {
    "temp": 188.67489624023438,
    "speed": 0,
    "load": -0.3605108721260688
  },
  {
    "temp": 188.67538452148438,
    "speed": 0,
    "load": -0.35883530789651985
  },
  {
    "temp": 188.66552734375,
    "speed": 0,
    "load": -0.3577770568041725
  },
  {
    "temp": 188.65133666992188,
    "speed": 0,
    "load": -0.36033449694400943
  },
  {
    "temp": 188.6462860107422,
    "speed": 0,
    "load": -0.3612163728542992
  },
  {
    "temp": 188.65249633789062,
    "speed": 0,
    "load": -0.36650762831603245
  },
  {
    "temp": 188.6429901123047,
    "speed": 0,
    "load": -0.36280374949281935
  },
  {
    "temp": 188.63961791992188,
    "speed": 0,
    "load": -0.36619897174743166
  },
  {
    "temp": 188.6369171142578,
    "speed": 0,
    "load": -0.3647438764954547
  },
  {
    "temp": 188.63302612304688,
    "speed": 0,
    "load": -0.3602904031484968
  },
  {
    "temp": 188.6316375732422,
    "speed": 0,
    "load": -0.35839436994137586
  }
]