[
  {
    "temp": 208.56362915039062,
    "speed": 0,
    "load": 0.001719658025063353
  },
  {
    "temp": 208.56146240234375,
    "speed": 0,
    "load": -0.0010141572968320745
  },
  {
    "temp": 208.56007385253906,
    "speed": 0,
    "load": -0.0030424718904962234
  },
  {
    "temp": 208.55958557128906,
    "speed": 0,
    "load": 0.003218847072554709
  },
  {
    "temp": 208.55918884277344,
    "speed": 0,
    "load": 0.005555818234819654
  },
  {
    "temp": 208.55860900878906,
    "speed": 0,
    "load": 0.0001322813865431982
  },
  {
    "temp": 208.57119750976562,
    "speed": 0,
    "load": -0.0078486956015702
  },
  {
    "temp": 208.5684814453125,
    "speed": 5.197504997253418,
    "load": -0.006614069327166128
  },
  {
    "temp": 208.5773468017578,
    "speed": 5.197504997253418,
    "load": 0.546233938832895
  },
  {
    "temp": 208.5702362060547,
    "speed": 5.208333492279053,
    "load": 4.672046291323619
  },
  {
    "temp": 208.5677032470703,
    "speed": 4.798464298248291,
    "load": 11.18571404610338
  },
  {
    "temp": 208.56568908691406,
    "speed": 5.197504997253418,
    "load": 14.806652439953757
  },
  {
    "temp": 208.56277465820312,
    "speed": 5.197504997253418,
    "load": 13.684244875133663
  },
  {
    "temp": 208.56173706054688,
    "speed": 5.197504997253418,
    "load": 12.78120394299791
  },
  {
    "temp": 208.57369995117188,
    "speed": 5.197504997253418,
    "load": 12.1530878258947
  },
  {
    "temp": 208.56790161132812,
    "speed": 4.798464298248291,
    "load": 11.663470320502347
  },
  {
    "temp": 208.55303955078125,
    "speed": 5.197504997253418,
    "load": 11.45239332137472
  },
  {
    "temp": 208.553955078125,
    "speed": 5.197504997253418,
    "load": 11.400098079894592
  },
  {
    "temp": 208.5655059814453,
    "speed": 5.197504997253418,
    "load": 11.541727351086974
  },
  {
    "temp": 208.5639190673828,
    "speed": 5.197504997253418,
    "load": 11.667615137280704
  },
  {
    "temp": 208.56265258789062,
    "speed": 4.789271831512451,
    "load": 11.828954335068046
  },
  {
    "temp": 208.5608367919922,
    "speed": 5.197504997253418,
    "load": 11.95819324972087
  },
  {
    "temp": 208.56019592285156,
    "speed": 5.197504997253418,
    "load": 12.085932975326207
  },
  {
    "temp": 208.5724639892578,
    "speed": 4.798464298248291,
    "load": 12.143607659859095
  },
  {
    "temp": 208.56948852539062,
    "speed": 5.208333492279053,
    "load": 12.218963956393276
  },
  {
    "temp": 208.56520080566406,
    "speed": 4.798464298248291,
    "load": 12.239511665103004
  },
  {
    "temp": 208.5636749267578,
    "speed": 5.197504997253418,
    "load": 12.373468615875877
  },
  {
    "temp": 208.58705139160156,
    "speed": 5.197504997253418,
    "load": 12.428497672677898
  },
  {
    "temp": 208.58116149902344,
    "speed": 5.208333492279053,
    "load": 12.556369679669777
  },
  {
    "temp": 208.5892333984375,
    "speed": 4.798464298248291,
    "load": 12.680758276816016
  },
  {
    "temp": 208.58290100097656,
    "speed": 4.798464298248291,
    "load": 12.742842340900348
  },
  {
    "temp": 208.58657836914062,
    "speed": 4.798464298248291,
    "load": 12.752146131753895
  },
  {
    "temp": 208.58078002929688,
    "speed": 5.197504997253418,
    "load": 12.95546262287098
  },
  {
    "temp": 208.5724334716797,
    "speed": 4.789271831512451,
    "load": 12.99329509942237
  },
  {
    "temp": 208.55667114257812,
    "speed": 4.798464298248291,
    "load": 13.002334327502831
  },
  {
    "temp": 208.55685424804688,
    "speed": 4.807692527770996,
    "load": 13.016532529658482
  },
  {
    "temp": 208.54420471191406,
    "speed": 4.789271831512451,
    "load": 13.146212382266453
  },
  {
    "temp": 208.53622436523438,
    "speed": 5.197504997253418,
    "load": 13.12094663743668
  },
  {
    "temp": 208.52769470214844,
    "speed": 4.807692527770996,
    "load": 13.26067987542194
  },
  {
    "temp": 208.49240112304688,
    "speed": 4.798464298248291,
    "load": 13.1997863438165
  },
  {
    "temp": 208.4542694091797,
    "speed": 5.197504997253418,
    "load": 13.324880441690967
  },
  {
    "temp": 208.4237518310547,
    "speed": 5.197504997253418,
    "load": 13.307860236622394
  },
  {
    "temp": 208.39259338378906,
    "speed": 5.197504997253418,
    "load": 13.473697001552205
  },
  {
    "temp": 208.38720703125,
    "speed": 4.798464298248291,
    "load": 13.555094148071865
  },
  {
    "temp": 208.35643005371094,
    "speed": 0,
    "load": 13.720489975046531
  },
  {
    "temp": 208.34548950195312,
    "speed": 0,
    "load": 13.022176535484332
  },
  {
    "temp": 208.33673095703125,
    "speed": 0,
    "load": 9.076310962488039
  },
  {
    "temp": 208.32412719726562,
    "speed": 0,
    "load": 3.449193060321628
  },
  {
    "temp": 208.29405212402344,
    "speed": 0,
    "load": 2.6091180681805
  },
  {
    "temp": 208.2955780029297,
    "speed": 0,
    "load": 2.0952048814596917
  },
  {
    "temp": 208.261962890625,
    "speed": 0,
    "load": 1.4634289793287802
  },
  {
    "temp": 208.2571258544922,
    "speed": 0,
    "load": 1.238903372569247
  },
  {
    "temp": 208.21487426757812,
    "speed": 0,
    "load": 1.0523425237476474
  },
  {
    "temp": 208.15403747558594,
    "speed": 0,
    "load": 0.7928064433496491
  },
  {
    "temp": 208.13241577148438,
    "speed": 0,
    "load": 0.7086754815080951
  },
  {
    "temp": 208.12789916992188,
    "speed": 0,
    "load": 0.6313790579712801
  },
  {
    "temp": 208.1114959716797,
    "speed": 0,
    "load": 0.5546999475716667
  },
  {
    "temp": 208.08787536621094,
    "speed": 0,
    "load": 0.402488165455817
  },
  {
    "temp": 208.07948303222656,
    "speed": 0,
    "load": 0.338155317800247
  },
  {
    "temp": 208.05459594726562,
    "speed": 0,
    "load": 0.2641218351315011
  },
  {
    "temp": 208.04005432128906,
    "speed": 0,
    "load": 0.23938521584789996
  },
  {
    "temp": 208.04122924804688,
    "speed": 0,
    "load": 0.21226753160651857
  },
  {
    "temp": 208.0301055908203,
    "speed": 0,
    "load": 0.20009764404453279
  },
  {
    "temp": 208.03326416015625,
    "speed": 0,
    "load": 0.17791846490076857
  },
  {
    "temp": 208.03579711914062,
    "speed": 0,
    "load": 0.17200989630183372
  },
  {
    "temp": 208.02919006347656,
    "speed": 0,
    "load": 0.16297066822137385
  },
  {
    "temp": 208.03253173828125,
    "speed": 0,
    "load": 0.150007092340128
  },
  {
    "temp": 208.0352020263672,
    "speed": 0,
    "load": 0.14251114710267299
  },
  {
    "temp": 208.03904724121094,
    "speed": 0,
    "load": 0.13576479638896366
  },
  {
    "temp": 208.04042053222656,
    "speed": 0,
    "load": 0.1186123099338463
  },
  {
    "temp": 208.04151916503906,
    "speed": 0,
    "load": 0.11296830410799785
  },
  {
    "temp": 208.0430908203125,
    "speed": 0,
    "load": 0.11036677017264562
  },
  {
    "temp": 208.0436553955078,
    "speed": 0,
    "load": 0.10185666763835854
  },
  {
    "temp": 208.0572509765625,
    "speed": 0,
    "load": 0.0959921928349381
  },
  {
    "temp": 208.08055114746094,
    "speed": 0,
    "load": 0.08977496766740156
  },
  {
    "temp": 208.08641052246094,
    "speed": 0,
    "load": 0.08488055636529879
  },
  {
    "temp": 208.11785888671875,
    "speed": 0,
    "load": 0.08646793300381894
  },
  {
    "temp": 208.12904357910156,
    "speed": 0,
    "load": 0.08263177279406264
  },
  {
    "temp": 208.1379852294922,
    "speed": 0,
    "load": 0.08003023885871041
  },
  {
    "temp": 208.18414306640625,
    "speed": 0,
    "load": 0.07892789397084954
  },
  {
    "temp": 208.20765686035156,
    "speed": 0,
    "load": 0.07103510457376494
  },
  {
    "temp": 208.22647094726562,
    "speed": 0,
    "load": 0.0690067899800999
  },
  {
    "temp": 208.25355529785156,
    "speed": 0,
    "load": 0.07099101077825054
  },
  {
    "temp": 208.27597045898438,
    "speed": 0,
    "load": 0.07090282318722085
  },
  {
    "temp": 208.30670166015625,
    "speed": 0,
    "load": 0.07218154325713932
  },
  {
    "temp": 208.35096740722656,
    "speed": 0,
    "load": 0.06547928633894529
  },
  {
    "temp": 208.37948608398438,
    "speed": 0,
    "load": 0.062480908243962574
  },
  {
    "temp": 208.4151153564453,
    "speed": 0,
    "load": 0.06406828488248273
  },
  {
    "temp": 208.4561767578125,
    "speed": 0,
    "load": 0.06450922283762672
  },
  {
    "temp": 208.47645568847656,
    "speed": 0,
    "load": 0.06080534401441362
  },
  {
    "temp": 208.50567626953125,
    "speed": 0,
    "load": 0.057498309350831
  },
  {
    "temp": 208.5160675048828,
    "speed": 0,
    "load": 0.061114000583015304
  },
  {
    "temp": 208.5371551513672,
    "speed": 0,
    "load": 0.06353915933630994
  },
  {
    "temp": 208.54124450683594,
    "speed": 0,
    "load": 0.06389190970042513
  },
  {
    "temp": 208.5572967529297,
    "speed": 0,
    "load": 0.06336278415425145
  },
  {
    "temp": 208.60601806640625,
    "speed": 0,
    "load": 0.05890931080729267
  },
  {
    "temp": 208.6219024658203,
    "speed": 0,
    "load": 0.06155493853816019
  },
  {
    "temp": 208.63461303710938,
    "speed": 0,
    "load": 0.05987937430861123
  },
  {
    "temp": 208.6785125732422,
    "speed": 0,
    "load": 0.058556560443177474
  },
  {
    "temp": 208.6927032470703,
    "speed": 0,
    "load": 0.056572339645027725
  },
  {
    "temp": 208.7040557861328,
    "speed": 0,
    "load": 0.0536621491410747
  },
  {
    "temp": 208.74342346191406,
    "speed": 0,
    "load": 0.05630777687194133
  },
  {
    "temp": 208.75741577148438,
    "speed": 0,
    "load": 0.05613140168988373
  },
  {
    "temp": 208.75582885742188,
    "speed": 0,
    "load": 0.05613140168988373
  },
  {
    "temp": 208.79957580566406,
    "speed": 0,
    "load": 0.05696918380465732
  },
  {
    "temp": 208.80233764648438,
    "speed": 0,
    "load": 0.0499582703178616
  },
  {
    "temp": 208.79176330566406,
    "speed": 0,
    "load": 0.043564669968267467
  },
  {
    "temp": 208.799560546875,
    "speed": 0,
    "load": 0.05101652141020807
  },
  {
    "temp": 208.81512451171875,
    "speed": 0,
    "load": 0.05251571045769943
  },
  {
    "temp": 208.8477783203125,
    "speed": 0,
    "load": 0.05251571045769943
  },
  {
    "temp": 208.84091186523438,
    "speed": 0,
    "load": 0.03734744480073182
  },
  {
    "temp": 208.84820556640625,
    "speed": 0,
    "load": 0.03359947218200432
  },
  {
    "temp": 208.85403442382812,
    "speed": 0,
    "load": 0.043564669968267467
  },
  {
    "temp": 208.84963989257812,
    "speed": 0,
    "load": 0.039067102825795175
  },
  {
    "temp": 208.8551788330078,
    "speed": 0,
    "load": 0.03809703932447661
  },
  {
    "temp": 208.84014892578125,
    "speed": 0,
    "load": 0.04118360501048812
  },
  {
    "temp": 208.84759521484375,
    "speed": 0,
    "load": 0.03858207107513589
  },
  {
    "temp": 208.84075927734375,
    "speed": 0,
    "load": 0.038537977279621494
  },
  {
    "temp": 208.83091735839844,
    "speed": 0,
    "load": 0.03831750830204861
  },
  {
    "temp": 208.81463623046875,
    "speed": 0,
    "load": 0.04083085464637293
  },
  {
    "temp": 208.81419372558594,
    "speed": 0,
    "load": 0.035186848820524474
  },
  {
    "temp": 208.8140411376953,
    "speed": 0,
    "load": 0.03567188057118287
  },
  {
    "temp": 208.80113220214844,
    "speed": 0,
    "load": 0.038537977279621494
  },
  {
    "temp": 208.80555725097656,
    "speed": 0,
    "load": 0.036597850276986144
  },
  {
    "temp": 208.80712890625,
    "speed": 0,
    "load": 0.037038788232131026
  },
  {
    "temp": 208.80838012695312,
    "speed": 0,
    "load": 0.035142755025010075
  },
  {
    "temp": 208.78717041015625,
    "speed": 0,
    "load": 0.03606872473081246
  },
  {
    "temp": 208.76683044433594,
    "speed": 0,
    "load": 0.037920664142419014
  },
  {
    "temp": 208.73777770996094,
    "speed": 0,
    "load": 0.039155290416823973
  },
  {
    "temp": 208.72918701171875,
    "speed": 0,
    "load": 0.04197729332974731
  },
  {
    "temp": 208.72044372558594,
    "speed": 0,
    "load": 0.030865656860108004
  },
  {
    "temp": 208.72625732421875,
    "speed": 0,
    "load": 0.03611281852632686
  },
  {
    "temp": 208.71156311035156,
    "speed": 0,
    "load": 0.037876570346904614
  },
  {
    "temp": 208.68077087402344,
    "speed": 0,
    "load": 0.03752381998278942
  },
  {
    "temp": 208.66893005371094,
    "speed": 0,
    "load": 0.037171069618674224
  },
  {
    "temp": 208.6288604736328,
    "speed": 0,
    "load": 0.03721516341418862
  },
  {
    "temp": 208.6273956298828,
    "speed": 0,
    "load": 0.03479000466089399
  },
  {
    "temp": 208.61343383789062,
    "speed": 0,
    "load": 0.037126975823159825
  },
  {
    "temp": 208.5933380126953,
    "speed": 0,
    "load": 0.03174753277039777
  },
  {
    "temp": 208.58619689941406,
    "speed": 0,
    "load": 0.03509866122949479
  },
  {
    "temp": 208.58047485351562,
    "speed": 0,
    "load": 0.03165934517936897
  },
  {
    "temp": 208.57223510742188,
    "speed": 0,
    "load": 0.030248343722906412
  },
  {
    "temp": 208.55650329589844,
    "speed": 0,
    "load": 0.030733375473564806
  },
  {
    "temp": 208.54391479492188,
    "speed": 0,
    "load": 0.03104203204216649
  },
  {
    "temp": 208.53858947753906,
    "speed": 0,
    "load": 0.02901371744850234
  },
  {
    "temp": 208.5295867919922,
    "speed": 0,
    "load": 0.02914599883504554
  },
  {
    "temp": 208.5396728515625,
    "speed": 0,
    "load": 0.02522165103426044
  },
  {
    "temp": 208.5432586669922,
    "speed": 0,
    "load": 0.028925529857472654
  },
  {
    "temp": 208.49212646484375,
    "speed": 0,
    "load": 0.018475300320551113
  },
  {
    "temp": 208.49241638183594,
    "speed": 0,
    "load": 0.021650053597590535
  },
  {
    "temp": 208.49264526367188,
    "speed": 0,
    "load": 0.02253192950787941
  },
  {
    "temp": 208.49298095703125,
    "speed": 0,
    "load": 0.01873986309363751
  },
  {
    "temp": 208.48031616210938,
    "speed": 0,
    "load": 0.018872144480180708
  },
  {
    "temp": 208.45738220214844,
    "speed": 0,
    "load": 0.021076834255902455
  },
  {
    "temp": 208.4320526123047,
    "speed": 0,
    "load": 0.02839640431129986
  },
  {
    "temp": 208.44436645507812,
    "speed": 0,
    "load": 0.023369711622653888
  },
  {
    "temp": 208.44142150878906,
    "speed": 0,
    "load": 0.020150864550100067
  },
  {
    "temp": 208.43206787109375,
    "speed": 0,
    "load": 0.021076834255902455
  },
  {
    "temp": 208.43157958984375,
    "speed": 0,
    "load": 0.020239052141128866
  },
  {
    "temp": 208.456787109375,
    "speed": 0,
    "load": 0.015873766385198884
  },
  {
    "temp": 208.447021484375,
    "speed": 0,
    "load": 0.014947796679395609
  },
  {
    "temp": 208.44354248046875,
    "speed": 0,
    "load": 0.02142958462001765
  },
  {
    "temp": 208.46156311035156,
    "speed": 0,
    "load": 0.020239052141128866
  },
  {
    "temp": 208.4423828125,
    "speed": 0,
    "load": 0.019268988639810303
  },
  {
    "temp": 208.43983459472656,
    "speed": 0,
    "load": 0.01759342441026135
  },
  {
    "temp": 208.44895935058594,
    "speed": 0,
    "load": 0.019268988639810303
  },
  {
    "temp": 208.4578857421875,
    "speed": 0,
    "load": 0.017902080978863033
  },
  {
    "temp": 208.42665100097656,
    "speed": 0,
    "load": 0.015961953976227683
  },
  {
    "temp": 208.44003295898438,
    "speed": 0,
    "load": 0.013801357996019448
  },
  {
    "temp": 208.44908142089844,
    "speed": 0,
    "load": 0.017769799592319835
  },
  {
    "temp": 208.45797729492188,
    "speed": 0,
    "load": 0.018960332071209507
  },
  {
    "temp": 208.46826171875,
    "speed": 0,
    "load": 0.017990268569891832
  },
  {
    "temp": 208.47332763671875,
    "speed": 0,
    "load": 0.02253192950787941
  },
  {
    "temp": 208.47738647460938,
    "speed": 0,
    "load": 0.01754933061474695
  },
  {
    "temp": 208.4857940673828,
    "speed": 0,
    "load": 0.012081699970956983
  },
  {
    "temp": 208.4873504638672,
    "speed": 0,
    "load": 0.015476922225568401
  },
  {
    "temp": 208.50140380859375,
    "speed": 0,
    "load": 0.018960332071209507
  },
  {
    "temp": 208.49859619140625,
    "speed": 0,
    "load": 0.014683233906309212
  },
  {
    "temp": 208.51039123535156,
    "speed": 0,
    "load": 0.010406135741408029
  },
  {
    "temp": 208.51983642578125,
    "speed": 0,
    "load": 0.012125793766471382
  },
  {
    "temp": 208.53343200683594,
    "speed": 0,
    "load": 0.013713170404990649
  },
  {
    "temp": 208.53826904296875,
    "speed": 0,
    "load": 0.010670698514495314
  },
  {
    "temp": 208.54522705078125,
    "speed": 0,
    "load": 0.009259697058032756
  },
  {
    "temp": 208.54769897460938,
    "speed": 0,
    "load": 0.012654919312645063
  },
  {
    "temp": 208.5496826171875,
    "speed": 0,
    "load": 0.0072313824643686075
  },
  {
    "temp": 208.54229736328125,
    "speed": 0,
    "load": 0.0028220029129242263
  },
  {
    "temp": 208.5453643798828,
    "speed": 0,
    "load": 0.008510102534287078
  },
  {
    "temp": 208.5478057861328,
    "speed": 0,
    "load": 0.01093526128758171
  },
  {
    "temp": 208.55133056640625,
    "speed": 0,
    "load": 0.00978882260420555
  },
  {
    "temp": 208.57815551757812,
    "speed": 0,
    "load": 0.013404513836389853
  },
  {
    "temp": 208.5835418701172,
    "speed": 0,
    "load": 0.008289633556715081
  },
  {
    "temp": 208.57835388183594,
    "speed": 0,
    "load": 0.0078486956015702
  },
  {
    "temp": 208.57420349121094,
    "speed": 0,
    "load": 0.007187288668854208
  },
  {
    "temp": 208.56822204589844,
    "speed": 0,
    "load": 0.012390356539557779
  },
  {
    "temp": 208.56610107421875,
    "speed": 0,
    "load": 0.01688792368203096
  },
  {
    "temp": 208.5644073486328,
    "speed": 0,
    "load": 0.0077605080105414
  },
  {
    "temp": 208.56304931640625,
    "speed": 0,
    "load": 0.009877010195234348
  },
  {
    "temp": 208.5619659423828,
    "speed": 0,
    "load": 0.010406135741408029
  },
  {
    "temp": 208.5706329345703,
    "speed": 0,
    "load": 0.008289633556715081
  },
  {
    "temp": 208.580810546875,
    "speed": 0,
    "load": 0.007892789397084599
  },
  {
    "temp": 208.60174560546875,
    "speed": 0,
    "load": 0.006922725895767812
  },
  {
    "temp": 208.5986328125,
    "speed": 0,
    "load": 0.004453473346957892
  },
  {
    "temp": 208.59042358398438,
    "speed": 0,
    "load": 0.004541660937987579
  },
  {
    "temp": 208.59664916992188,
    "speed": 0,
    "load": 0.0052912554617332574
  },
  {
    "temp": 208.60560607910156,
    "speed": 0,
    "load": 0.011288011651696905
  },
  {
    "temp": 208.59600830078125,
    "speed": 0,
    "load": 0.008598290125315877
  },
  {
    "temp": 208.5883331298828,
    "speed": 0,
    "load": 0.011288011651696905
  },
  {
    "temp": 208.59005737304688,
    "speed": 0,
    "load": 0.008025070783627797
  },
  {
    "temp": 208.5963592529297,
    "speed": 0,
    "load": 0.006129037576506846
  },
  {
    "temp": 208.6013946533203,
    "speed": 0,
    "load": 0.00833372735222948
  },
  {
    "temp": 208.608642578125,
    "speed": 0,
    "load": 0.006834538304739013
  },
  {
    "temp": 208.63681030273438,
    "speed": 0,
    "load": 0.008069164579142196
  },
  {
    "temp": 208.63375854492188,
    "speed": 0,
    "load": 0.0031747532770403097
  },
  {
    "temp": 208.6165771484375,
    "speed": 0,
    "load": 0.0019842207981497495
  },
  {
    "temp": 208.61756896972656,
    "speed": 0,
    "load": 0.008289633556715081
  },
  {
    "temp": 208.61900329589844,
    "speed": 0,
    "load": 0.002910190503953025
  },
  {
    "temp": 208.65829467773438,
    "speed": 0,
    "load": -0.0006173131372015916
  },
  {
    "temp": 208.66372680664062,
    "speed": 0,
    "load": 0.001278720069919359
  },
  {
    "temp": 208.6425018310547,
    "speed": 0,
    "load": -0.0035715974366699044
  },
  {
    "temp": 208.64773559570312,
    "speed": 0,
    "load": -0.0005732193416871922
  },
  {
    "temp": 208.6680908203125,
    "speed": 0,
    "load": -0.0011464386833752727
  },
  {
    "temp": 208.65878295898438,
    "speed": 0,
    "load": -0.0030424718904962234
  },
  {
    "temp": 208.6223602294922,
    "speed": 0,
    "load": -0.004100722982842697
  },
  {
    "temp": 208.60940551757812,
    "speed": 0,
    "load": -0.0061731313720212455
  },
  {
    "temp": 208.63742065429688,
    "speed": 0,
    "load": -0.00833372735222948
  },
  {
    "temp": 208.64703369140625,
    "speed": 0,
    "load": -0.0070109134867966105
  },
  {
    "temp": 208.64041137695312,
    "speed": 0,
    "load": -0.008025070783627797
  },
  {
    "temp": 208.6238555908203,
    "speed": 0,
    "load": -0.008774665307374363
  },
  {
    "temp": 208.6460418701172,
    "speed": 0,
    "load": -0.008289633556715081
  },
  {
    "temp": 208.64114379882812,
    "speed": 0,
    "load": -0.01366907660947625
  },
  {
    "temp": 208.63722229003906,
    "speed": 0,
    "load": -0.012566731721616264
  },
  {
    "temp": 208.61878967285156,
    "speed": 0,
    "load": -0.009127415671489558
  },
  {
    "temp": 208.6321258544922,
    "speed": 0,
    "load": -0.012125793766471382
  },
  {
    "temp": 208.6300048828125,
    "speed": 0,
    "load": -0.012125793766471382
  },
  {
    "temp": 208.61672973632812,
    "speed": 0,
    "load": -0.010802979901038512
  },
  {
    "temp": 208.6049041748047,
    "speed": 0,
    "load": -0.011905324788898497
  },
  {
    "temp": 208.6108856201172,
    "speed": 0,
    "load": -0.015741484998654798
  },
  {
    "temp": 208.61302185058594,
    "speed": 0,
    "load": -0.01366907660947625
  },
  {
    "temp": 208.60194396972656,
    "speed": 0,
    "load": -0.013095857267789057
  },
  {
    "temp": 208.5859832763672,
    "speed": 0,
    "load": -0.012699013108159463
  },
  {
    "temp": 208.5930938720703,
    "speed": 0,
    "load": -0.014991890474910008
  },
  {
    "temp": 208.580322265625,
    "speed": 0,
    "load": -0.014595046315280413
  },
  {
    "temp": 208.57577514648438,
    "speed": 0,
    "load": -0.014065920769106732
  },
  {
    "temp": 208.5721435546875,
    "speed": 0,
    "load": -0.015168265656967606
  },
  {
    "temp": 208.56690979003906,
    "speed": 0,
    "load": -0.011596668220297701
  },
  {
    "temp": 208.56504821777344,
    "speed": 0,
    "load": -0.013933639382563534
  },
  {
    "temp": 208.5763397216797,
    "speed": 0,
    "load": -0.011111636469639308
  },
  {
    "temp": 208.56959533691406,
    "speed": 0,
    "load": -0.01424229595116433
  },
  {
    "temp": 208.56719970703125,
    "speed": 0,
    "load": -0.012081699970956983
  },
  {
    "temp": 208.56527709960938,
    "speed": 0,
    "load": -0.014110014564621132
  },
  {
    "temp": 208.56251525878906,
    "speed": 0,
    "load": -0.013228138654332255
  },
  {
    "temp": 208.56153869628906,
    "speed": 0,
    "load": -0.013316326245361054
  },
  {
    "temp": 208.56011962890625,
    "speed": 0,
    "load": -0.011861230993384098
  },
  {
    "temp": 208.5596160888672,
    "speed": 0,
    "load": -0.015388734634539603
  },
  {
    "temp": 208.55921936035156,
    "speed": 0,
    "load": -0.018210737547464717
  },
  {
    "temp": 208.5586395263672,
    "speed": 0,
    "load": -0.014065920769106732
  },
  {
    "temp": 208.5584259033203,
    "speed": 0,
    "load": -0.016491079522401364
  },
  {
    "temp": 208.55825805664062,
    "speed": 0,
    "load": -0.015829672589684485
  },
  {
    "temp": 208.55801391601562,
    "speed": 0,
    "load": -0.015344640839025203
  },
  {
    "temp": 208.5579376220703,
    "speed": 0,
    "load": -0.018960332071209507
  },
  {
    "temp": 208.55787658691406,
    "speed": 0,
    "load": -0.015741484998654798
  },
  {
    "temp": 208.5578155517578,
    "speed": 0,
    "load": -0.016006047771742082
  },
  {
    "temp": 208.5577392578125,
    "speed": 0,
    "load": -0.018166643751950318
  },
  {
    "temp": 208.55770874023438,
    "speed": 0,
    "load": -0.019268988639810303
  },
  {
    "temp": 208.5576934814453,
    "speed": 0,
    "load": -0.01869576929812311
  },
  {
    "temp": 208.5576629638672,
    "speed": 0,
    "load": -0.013801357996019448
  },
  {
    "temp": 208.55764770507812,
    "speed": 0,
    "load": -0.011817137197869698
  },
  {
    "temp": 208.54483032226562,
    "speed": 0,
    "load": -0.014110014564621132
  },
  {
    "temp": 208.54942321777344,
    "speed": 0,
    "load": -0.01754933061474695
  },
  {
    "temp": 208.55105590820312,
    "speed": 0,
    "load": -0.01869576929812311
  },
  {
    "temp": 208.5662078857422,
    "speed": 0,
    "load": -0.022311460530307414
  },
  {
    "temp": 208.56448364257812,
    "speed": 0,
    "load": -0.021826428779648133
  },
  {
    "temp": 208.5631103515625,
    "speed": 0,
    "load": -0.02138549082450325
  },
  {
    "temp": 208.56201171875,
    "speed": 0,
    "load": -0.0193571762308391
  },
  {
    "temp": 208.5604248046875,
    "speed": 0,
    "load": -0.02270830468993701
  },
  {
    "temp": 208.5598602294922,
    "speed": 0,
    "load": -0.019048519662238306
  },
  {
    "temp": 208.5594024658203,
    "speed": 0,
    "load": -0.02006267695907127
  },
  {
    "temp": 208.571533203125,
    "speed": 0,
    "load": -0.027073590445866103
  },
  {
    "temp": 208.56874084472656,
    "speed": 0,
    "load": -0.02764680978755507
  },
  {
    "temp": 208.57496643066406,
    "speed": 0,
    "load": -0.021473678415532937
  },
  {
    "temp": 208.5714874267578,
    "speed": 0,
    "load": -0.019004425866723906
  },
  {
    "temp": 208.56871032714844,
    "speed": 0,
    "load": -0.02067999009627286
  },
  {
    "temp": 208.5792694091797,
    "speed": 0,
    "load": -0.022972867463023405
  },
  {
    "temp": 208.57147216796875,
    "speed": 0,
    "load": -0.02381064957779877
  },
  {
    "temp": 208.56869506835938,
    "speed": 0,
    "load": -0.02570668278491972
  },
  {
    "temp": 208.5664825439453,
    "speed": 0,
    "load": -0.028925529857472654
  },
  {
    "temp": 208.56329345703125,
    "speed": 0,
    "load": -0.022179179143764216
  },
  {
    "temp": 208.56214904785156,
    "speed": 0,
    "load": -0.018210737547464717
  },
  {
    "temp": 208.5612335205078,
    "speed": 0,
    "load": -0.022135085348249817
  },
  {
    "temp": 208.55992126464844,
    "speed": 0,
    "load": -0.01860758170709431
  },
  {
    "temp": 208.57225036621094,
    "speed": 0,
    "load": -0.024163399941913966
  },
  {
    "temp": 208.56932067871094,
    "speed": 0,
    "load": -0.022355554325821814
  },
  {
    "temp": 208.56509399414062,
    "speed": 0,
    "load": -0.020988646664873656
  },
  {
    "temp": 208.57638549804688,
    "speed": 0,
    "load": -0.027470434605496585
  },
  {
    "temp": 208.5696258544922,
    "speed": 0,
    "load": -0.025662588989404433
  },
  {
    "temp": 208.5672149658203,
    "speed": 0,
    "load": -0.027073590445866103
  },
  {
    "temp": 208.56529235839844,
    "speed": 0,
    "load": -0.025353932420803638
  },
  {
    "temp": 208.57530212402344,
    "speed": 0,
    "load": -0.029234186426074338
  },
  {
    "temp": 208.57176208496094,
    "speed": 0,
    "load": -0.02848459190232866
  },
  {
    "temp": 208.5817108154297,
    "speed": 0,
    "load": -0.028220029129242263
  },
  {
    "temp": 208.57302856445312,
    "speed": 0,
    "load": -0.025971245558006117
  },
  {
    "temp": 208.5699462890625,
    "speed": 0,
    "load": -0.028616873288871858
  },
  {
    "temp": 208.59304809570312,
    "speed": 0,
    "load": -0.030116062336363214
  },
  {
    "temp": 208.5802764892578,
    "speed": 0,
    "load": -0.03364356597751872
  },
  {
    "temp": 208.57574462890625,
    "speed": 0,
    "load": -0.03029243751842081
  },
  {
    "temp": 208.5692138671875,
    "speed": 0,
    "load": -0.024780713079115557
  },
  {
    "temp": 208.56689453125,
    "speed": 0,
    "load": -0.029278280221588737
  },
  {
    "temp": 208.56503295898438,
    "speed": 0,
    "load": -0.026897215263808505
  },
  {
    "temp": 208.5853729248047,
    "speed": 0,
    "load": -0.024427962715000362
  },
  {
    "temp": 208.57981872558594,
    "speed": 0,
    "load": -0.03311444043134504
  },
  {
    "temp": 208.6076202392578,
    "speed": 0,
    "load": -0.030689281678050406
  },
  {
    "temp": 208.6103973388672,
    "speed": 0,
    "load": -0.030689281678050406
  },
  {
    "temp": 208.6254119873047,
    "speed": 0,
    "load": -0.033908128750605115
  },
  {
    "temp": 208.61378479003906,
    "speed": 0,
    "load": -0.031218407224224087
  },
  {
    "temp": 208.6281280517578,
    "speed": 0,
    "load": -0.03725925720970302
  },
  {
    "temp": 208.62319946289062,
    "speed": 0,
    "load": -0.03474591086537959
  },
  {
    "temp": 208.62286376953125,
    "speed": 0,
    "load": -0.03090975065562329
  },
  {
    "temp": 208.6098175048828,
    "speed": 0,
    "load": -0.035848255753240466
  },
  {
    "temp": 208.59938049316406,
    "speed": 0,
    "load": -0.04069857325982884
  },
  {
    "temp": 208.6038055419922,
    "speed": 0,
    "load": -0.044975671424730024
  },
  {
    "temp": 208.6101837158203,
    "speed": 0,
    "load": -0.043785138945839464
  },
  {
    "temp": 208.59967041015625,
    "speed": 0,
    "load": -0.04025763530468396
  },
  {
    "temp": 208.5912628173828,
    "speed": 0,
    "load": -0.04193319953423291
  },
  {
    "temp": 208.59193420410156,
    "speed": 0,
    "load": -0.048679550247943126
  },
  {
    "temp": 208.5978546142578,
    "speed": 0,
    "load": -0.04903230061205832
  },
  {
    "temp": 208.58335876464844,
    "speed": 0,
    "load": -0.04854726886139993
  },
  {
    "temp": 208.5782012939453,
    "speed": 0,
    "load": -0.046827610836336575
  },
  {
    "temp": 208.5868682861328,
    "speed": 0,
    "load": -0.0498700827268328
  },
  {
    "temp": 208.58656311035156,
    "speed": 0,
    "load": -0.044799296242672426
  },
  {
    "temp": 208.5935516357422,
    "speed": 0,
    "load": -0.048238612292798244
  },
  {
    "temp": 208.59339904785156,
    "speed": 0,
    "load": -0.04158044917011772
  },
  {
    "temp": 208.59902954101562,
    "speed": 0,
    "load": -0.04321191960415227
  },
  {
    "temp": 208.59690856933594,
    "speed": 0,
    "load": -0.050046457908890396
  },
  {
    "temp": 208.60183715820312,
    "speed": 0,
    "load": -0.051369271774323266
  },
  {
    "temp": 208.58590698242188,
    "speed": 0,
    "load": -0.046871704631850974
  },
  {
    "temp": 208.5802459716797,
    "speed": 0,
    "load": -0.05282436702630022
  },
  {
    "temp": 208.57571411132812,
    "speed": 0,
    "load": -0.05255980425321383
  },
  {
    "temp": 208.5819854736328,
    "speed": 0,
    "load": -0.05172202213843935
  },
  {
    "temp": 208.5898895263672,
    "speed": 0,
    "load": -0.052030678707040146
  },
  {
    "temp": 208.58343505859375,
    "speed": 0,
    "load": -0.04859136265691433
  },
  {
    "temp": 208.57412719726562,
    "speed": 0,
    "load": -0.051501553160866465
  },
  {
    "temp": 208.57081604003906,
    "speed": 0,
    "load": -0.05599912030334053
  },
  {
    "temp": 208.56605529785156,
    "speed": 0,
    "load": -0.047665392951110164
  },
  {
    "temp": 208.5771484375,
    "speed": 0,
    "load": -0.04890001922551512
  },
  {
    "temp": 208.58602905273438,
    "speed": 0,
    "load": -0.04660714185876458
  },
  {
    "temp": 208.57579040527344,
    "speed": 0,
    "load": -0.046915798427365374
  },
  {
    "temp": 208.57215881347656,
    "speed": 0,
    "load": -0.04788586192868305
  },
  {
    "temp": 208.56924438476562,
    "speed": 0,
    "load": -0.049561426158231114
  },
  {
    "temp": 208.56690979003906,
    "speed": 0,
    "load": -0.04307963821760907
  },
  {
    "temp": 208.5763397216797,
    "speed": 0,
    "load": -0.04501976522024442
  },
  {
    "temp": 208.5725860595703,
    "speed": 0,
    "load": -0.043608763763781866
  },
  {
    "temp": 208.56719970703125,
    "speed": 0,
    "load": -0.05114880279675127
  },
  {
    "temp": 208.57806396484375,
    "speed": 0,
    "load": -0.05119289659226567
  },
  {
    "temp": 208.573974609375,
    "speed": 0,
    "load": -0.04462292106061483
  },
  {
    "temp": 208.5808563232422,
    "speed": 0,
    "load": -0.043785138945839464
  },
  {
    "temp": 208.5889892578125,
    "speed": 0,
    "load": -0.048150424701769445
  },
  {
    "temp": 208.5955047607422,
    "speed": 0,
    "load": -0.04744492397353817
  },
  {
    "temp": 208.5818634033203,
    "speed": 0,
    "load": -0.04934095718065912
  },
  {
    "temp": 208.57701110839844,
    "speed": 0,
    "load": -0.05423536848276278
  },
  {
    "temp": 208.5828094482422,
    "speed": 0,
    "load": -0.04964961374925991
  },
  {
    "temp": 208.57777404785156,
    "speed": 0,
    "load": -0.05119289659226567
  },
  {
    "temp": 208.57374572753906,
    "speed": 0,
    "load": -0.050090551704404795
  },
  {
    "temp": 208.56793212890625,
    "speed": 0,
    "load": -0.05516133818856517
  },
  {
    "temp": 208.5658721923828,
    "speed": 0,
    "load": -0.056528245849513326
  },
  {
    "temp": 208.56422424316406,
    "speed": 0,
    "load": -0.0536180553455603
  },
  {
    "temp": 208.56289672851562,
    "speed": 0,
    "load": -0.05247161666218503
  },
  {
    "temp": 208.5609893798828,
    "speed": 0,
    "load": -0.05233933527564183
  },
  {
    "temp": 208.56031799316406,
    "speed": 0,
    "load": -0.053441680163501815
  },
  {
    "temp": 208.5725555419922,
    "speed": 0,
    "load": -0.05599912030334053
  },
  {
    "temp": 208.56716918945312,
    "speed": 0,
    "load": -0.06181950131124658
  },
  {
    "temp": 208.5652618408203,
    "speed": 0,
    "load": -0.05674871482708532
  },
  {
    "temp": 208.56373596191406,
    "speed": 0,
    "load": -0.06327459656322265
  },
  {
    "temp": 208.55128479003906,
    "speed": 0,
    "load": -0.06181950131124658
  },
  {
    "temp": 208.55255126953125,
    "speed": 0,
    "load": -0.0612903757650729
  },
  {
    "temp": 208.5543670654297,
    "speed": 0,
    "load": -0.06309822138116505
  },
  {
    "temp": 208.5550079345703,
    "speed": 0,
    "load": -0.06446512904211232
  },
  {
    "temp": 208.55593872070312,
    "speed": 0,
    "load": -0.06155493853816019
  },
  {
    "temp": 208.56906127929688,
    "speed": 0,
    "load": -0.06530291115688769
  },
  {
    "temp": 208.5667724609375,
    "speed": 0,
    "load": -0.06803672647878223
  },
  {
    "temp": 208.5634765625,
    "speed": 0,
    "load": -0.06627297465820448
  },
  {
    "temp": 208.5623016357422,
    "speed": 0,
    "load": -0.06860994582047031
  },
  {
    "temp": 208.5613555908203,
    "speed": 0,
    "load": -0.07085872939170645
  },
  {
    "temp": 208.5600128173828,
    "speed": 0,
    "load": -0.07037369764104806
  },
  {
    "temp": 208.5595245361328,
    "speed": 0,
    "load": -0.07513582755660764
  },
  {
    "temp": 208.55914306640625,
    "speed": 0,
    "load": -0.07769326769644458
  },
  {
    "temp": 208.55859375,
    "speed": 0,
    "load": -0.07403348266874588
  },
  {
    "temp": 208.5583953857422,
    "speed": 0,
    "load": -0.07328388814500109
  },
  {
    "temp": 208.55824279785156,
    "speed": 0,
    "load": -0.07103510457376405
  },
  {
    "temp": 208.55812072753906,
    "speed": 0,
    "load": -0.07235791843919781
  },
  {
    "temp": 208.5579376220703,
    "speed": 0,
    "load": -0.07500354617006444
  },
  {
    "temp": 208.55787658691406,
    "speed": 0,
    "load": -0.06750760093260944
  },
  {
    "temp": 208.56800842285156,
    "speed": 0,
    "load": -0.0728429501898562
  },
  {
    "temp": 208.56593322753906,
    "speed": 0,
    "load": -0.07085872939170645
  },
  {
    "temp": 208.56427001953125,
    "speed": 0,
    "load": -0.07363663850911628
  },
  {
    "temp": 208.56187438964844,
    "speed": 0,
    "load": -0.07941292572150793
  },
  {
    "temp": 208.5738067626953,
    "speed": 0,
    "load": -0.07729642353681498
  },
  {
    "temp": 208.57057189941406,
    "speed": 0,
    "load": -0.08033889542731121
  },
  {
    "temp": 208.5786895751953,
    "speed": 0,
    "load": -0.07817829944710386
  },
  {
    "temp": 208.57447814941406,
    "speed": 0,
    "load": -0.08598290125315966
  },
  {
    "temp": 208.5684051513672,
    "speed": 0,
    "load": -0.08457189979669799
  },
  {
    "temp": 208.5662384033203,
    "speed": 0,
    "load": -0.07826648703813266
  },
  {
    "temp": 208.56451416015625,
    "speed": 0,
    "load": -0.0765909228085837
  },
  {
    "temp": 208.57481384277344,
    "speed": 0,
    "load": -0.08765846548270861
  },
  {
    "temp": 208.5841522216797,
    "speed": 0,
    "load": -0.08011842644973921
  },
  {
    "temp": 208.5916290283203,
    "speed": 0,
    "load": -0.07972158229010873
  },
  {
    "temp": 208.58482360839844,
    "speed": 0,
    "load": -0.08082392717797049
  },
  {
    "temp": 208.5750274658203,
    "speed": 0,
    "load": -0.08280814797612024
  },
  {
    "temp": 208.57154846191406,
    "speed": 0,
    "load": -0.08523330672941398
  },
  {
    "temp": 208.56875610351562,
    "speed": 0,
    "load": -0.08329317972677863
  },
  {
    "temp": 208.5647430419922,
    "speed": 0,
    "load": -0.08201445965686016
  },
  {
    "temp": 208.56216430664062,
    "speed": 0,
    "load": -0.08646793300381894
  },
  {
    "temp": 208.57403564453125,
    "speed": 0,
    "load": -0.08258767899854824
  },
  {
    "temp": 208.5835418701172,
    "speed": 0,
    "load": -0.08461599359221239
  },
  {
    "temp": 208.57420349121094,
    "speed": 0,
    "load": -0.08333727352229303
  },
  {
    "temp": 208.5708770751953,
    "speed": 0,
    "load": -0.08677658957241974
  },
  {
    "temp": 208.56610107421875,
    "speed": 0,
    "load": -0.08880490416608389
  },
  {
    "temp": 208.5644073486328,
    "speed": 0,
    "load": -0.08761437168719421
  },
  {
    "temp": 208.56304931640625,
    "speed": 0,
    "load": -0.08333727352229303
  },
  {
    "temp": 208.56109619140625,
    "speed": 0,
    "load": -0.08686477716344854
  },
  {
    "temp": 208.56039428710938,
    "speed": 0,
    "load": -0.08479236877426999
  },
  {
    "temp": 208.55982971191406,
    "speed": 0,
    "load": -0.08417505563706751
  },
  {
    "temp": 208.55938720703125,
    "speed": 0,
    "load": -0.08677658957241974
  },
  {
    "temp": 208.55874633789062,
    "speed": 0,
    "load": -0.08717343373204933
  },
  {
    "temp": 208.5585174560547,
    "speed": 0,
    "load": -0.08743799650513662
  },
  {
    "temp": 208.5711212158203,
    "speed": 0,
    "load": -0.09374340926370195
  },
  {
    "temp": 208.5764923095703,
    "speed": 0,
    "load": -0.08496874395632759
  },
  {
    "temp": 208.5727081298828,
    "speed": 0,
    "load": -0.084351430819126
  },
  {
    "temp": 208.56968688964844,
    "speed": 0,
    "load": -0.08712933993653493
  },
  {
    "temp": 208.56533813476562,
    "speed": 0,
    "load": -0.09162690707900811
  },
  {
    "temp": 208.5637969970703,
    "speed": 0,
    "load": -0.09528669210670682
  },
  {
    "temp": 208.56256103515625,
    "speed": 0,
    "load": -0.0960803804259669
  },
  {
    "temp": 208.5615692138672,
    "speed": 0,
    "load": -0.091847376056581
  },
  {
    "temp": 208.5601348876953,
    "speed": 0,
    "load": -0.0843073370236116
  },
  {
    "temp": 208.55963134765625,
    "speed": 0,
    "load": -0.08942221730328637
  },
  {
    "temp": 208.55889892578125,
    "speed": 0,
    "load": -0.08373411768192351
  },
  {
    "temp": 208.58421325683594,
    "speed": 0,
    "load": -0.08677658957241974
  },
  {
    "temp": 208.58741760253906,
    "speed": 0,
    "load": -0.08699705854999173
  },
  {
    "temp": 208.60702514648438,
    "speed": 0,
    "load": -0.08563015088904447
  },
  {
    "temp": 208.59713745117188,
    "speed": 0,
    "load": -0.08752618409616542
  },
  {
    "temp": 208.5931396484375,
    "speed": 0,
    "load": -0.08457189979669799
  },
  {
    "temp": 208.58602905273438,
    "speed": 0,
    "load": -0.08739390270962222
  },
  {
    "temp": 208.58033752441406,
    "speed": 0,
    "load": -0.09145053189695052
  },
  {
    "temp": 208.5951690673828,
    "speed": 0,
    "load": -0.09162690707900811
  },
  {
    "temp": 208.58766174316406,
    "speed": 0,
    "load": -0.08942221730328637
  },
  {
    "temp": 208.58164978027344,
    "speed": 0,
    "load": -0.08668840198139094
  },
  {
    "temp": 208.572998046875,
    "speed": 0,
    "load": -0.09325837751304267
  },
  {
    "temp": 208.58270263671875,
    "speed": 0,
    "load": -0.08911356073468468
  },
  {
    "temp": 208.5776824951172,
    "speed": 0,
    "load": -0.08876081037056949
  },
  {
    "temp": 208.5992431640625,
    "speed": 0,
    "load": -0.08567424468455886
  },
  {
    "temp": 208.60726928710938,
    "speed": 0,
    "load": -0.09034818700908964
  },
  {
    "temp": 208.5973358154297,
    "speed": 0,
    "load": -0.09343475269510026
  },
  {
    "temp": 208.6021728515625,
    "speed": 0,
    "load": -0.09405206583230274
  },
  {
    "temp": 208.5861358642578,
    "speed": 0,
    "load": -0.08981906146291596
  },
  {
    "temp": 208.5932159423828,
    "speed": 0,
    "load": -0.091847376056581
  },
  {
    "temp": 208.598876953125,
    "speed": 0,
    "load": -0.09647722458559649
  },
  {
    "temp": 208.5968017578125,
    "speed": 0,
    "load": -0.09762366326897265
  },
  {
    "temp": 208.60174560546875,
    "speed": 0,
    "load": -0.09356703408164346
  },
  {
    "temp": 208.60569763183594,
    "speed": 0,
    "load": -0.09272925196686899
  },
  {
    "temp": 208.59608459472656,
    "speed": 0,
    "load": -0.0956835362663373
  },
  {
    "temp": 208.62826538085938,
    "speed": 0,
    "load": -0.0958599114483949
  },
  {
    "temp": 208.6141357421875,
    "speed": 0,
    "load": -0.09665359976765409
  },
  {
    "temp": 208.60401916503906,
    "speed": 0,
    "load": -0.09674178735868288
  },
  {
    "temp": 208.60752868652344,
    "speed": 0,
    "load": -0.09656541217662529
  },
  {
    "temp": 208.59754943847656,
    "speed": 0,
    "load": -0.09638903699456769
  },
  {
    "temp": 208.59339904785156,
    "speed": 0,
    "load": -0.09383159685473075
  },
  {
    "temp": 208.58624267578125,
    "speed": 0,
    "load": -0.09484575415156193
  },
  {
    "temp": 208.5933074951172,
    "speed": 0,
    "load": -0.09903466472543432
  },
  {
    "temp": 208.59068298339844,
    "speed": 0,
    "load": -0.0955953486753085
  },
  {
    "temp": 208.5840606689453,
    "speed": 0,
    "load": -0.09506622312913482
  },
  {
    "temp": 208.57876586914062,
    "speed": 0,
    "load": -0.09802050742860224
  },
  {
    "temp": 208.5941619873047,
    "speed": 0,
    "load": -0.09652131838111089
  },
  {
    "temp": 208.59963989257812,
    "speed": 0,
    "load": -0.10048975997741039
  },
  {
    "temp": 208.5912322998047,
    "speed": 0,
    "load": -0.10071022895498327
  },
  {
    "temp": 208.59190368652344,
    "speed": 0,
    "load": -0.09427253480987474
  },
  {
    "temp": 208.5978240966797,
    "speed": 0,
    "load": -0.09528669210670682
  },
  {
    "temp": 208.58978271484375,
    "speed": 0,
    "load": -0.09308200233098507
  },
  {
    "temp": 208.60121154785156,
    "speed": 0,
    "load": -0.09365522167267226
  },
  {
    "temp": 208.5924835205078,
    "speed": 0,
    "load": -0.09854963297477504
  },
  {
    "temp": 208.57992553710938,
    "speed": 0,
    "load": -0.09718272531382777
  },
  {
    "temp": 208.57545471191406,
    "speed": 0,
    "load": -0.09361112787715786
  },
  {
    "temp": 208.57188415527344,
    "speed": 0,
    "load": -0.09806460122411664
  },
  {
    "temp": 208.56903076171875,
    "speed": 0,
    "load": -0.0999165406357232
  },
  {
    "temp": 208.56674194335938,
    "speed": 0,
    "load": -0.10137163588770015
  },
  {
    "temp": 208.5839080810547,
    "speed": 0,
    "load": -0.10071022895498327
  },
  {
    "temp": 208.57864379882812,
    "speed": 0,
    "load": -0.10578101543914364
  },
  {
    "temp": 208.58384704589844,
    "speed": 0,
    "load": -0.10031338479535279
  },
  {
    "temp": 208.5913848876953,
    "speed": 0,
    "load": -0.10048975997741039
  },
  {
    "temp": 208.58462524414062,
    "speed": 0,
    "load": -0.09621266181251009
  },
  {
    "temp": 208.5851287841797,
    "speed": 0,
    "load": -0.09757956947345825
  },
  {
    "temp": 208.57962036132812,
    "speed": 0,
    "load": -0.10194485522938734
  },
  {
    "temp": 208.57521057128906,
    "speed": 0,
    "load": -0.10538417127951405
  },
  {
    "temp": 208.57168579101562,
    "speed": 0,
    "load": -0.10410545120959469
  },
  {
    "temp": 208.5793914794922,
    "speed": 0,
    "load": -0.10816208039692388
  },
  {
    "temp": 208.5750274658203,
    "speed": 0,
    "load": -0.10560464025708605
  },
  {
    "temp": 208.57899475097656,
    "speed": 0,
    "load": -0.10847073696552467
  },
  {
    "temp": 208.57472229003906,
    "speed": 0,
    "load": -0.10613376580325884
  },
  {
    "temp": 208.57130432128906,
    "speed": 0,
    "load": -0.10410545120959469
  },
  {
    "temp": 208.5685577392578,
    "speed": 0,
    "load": -0.10159210486527215
  },
  {
    "temp": 208.56460571289062,
    "speed": 0,
    "load": -0.11477614972409
  },
  {
    "temp": 208.57598876953125,
    "speed": 0,
    "load": -0.1154816504523204
  },
  {
    "temp": 208.58509826660156,
    "speed": 0,
    "load": -0.11362971104071384
  },
  {
    "temp": 208.58543395996094,
    "speed": 0,
    "load": -0.10414954500510909
  },
  {
    "temp": 208.57986450195312,
    "speed": 0,
    "load": -0.10877939353412636
  },
  {
    "temp": 208.57540893554688,
    "speed": 0,
    "load": -0.11310058549454105
  },
  {
    "temp": 208.5718536376953,
    "speed": 0,
    "load": -0.11645171395363896
  },
  {
    "temp": 208.55392456054688,
    "speed": 0,
    "load": -0.11402655520034433
  },
  {
    "temp": 208.55465698242188,
    "speed": 0,
    "load": -0.1112045522874201
  },
  {
    "temp": 208.5552520751953,
    "speed": 0,
    "load": -0.1108077081277905
  },
  {
    "temp": 208.5663299560547,
    "speed": 0,
    "load": -0.11257145994836826
  },
  {
    "temp": 208.56459045410156,
    "speed": 0,
    "load": -0.1107636143322761
  },
  {
    "temp": 208.5631866455078,
    "speed": 0,
    "load": -0.11424702417791632
  },
  {
    "temp": 208.57395935058594,
    "speed": 0,
    "load": -0.11402655520034433
  },
  {
    "temp": 208.57069396972656,
    "speed": 0,
    "load": -0.10922033148927035
  },
  {
    "temp": 208.5680694580078,
    "speed": 0,
    "load": -0.10886758112515516
  },
  {
    "temp": 208.5745391845703,
    "speed": 0,
    "load": -0.1151289000882052
  },
  {
    "temp": 208.57115173339844,
    "speed": 0,
    "load": -0.11279192892594025
  },
  {
    "temp": 208.5892791748047,
    "speed": 0,
    "load": -0.1114250212649921
  },
  {
    "temp": 208.58294677734375,
    "speed": 0,
    "load": -0.1069274541225198
  },
  {
    "temp": 208.577880859375,
    "speed": 0,
    "load": -0.10939670667132795
  },
  {
    "temp": 208.58660888671875,
    "speed": 0,
    "load": -0.11213052199322338
  },
  {
    "temp": 208.576171875,
    "speed": 0,
    "load": -0.11706902709084055
  },
  {
    "temp": 208.5852508544922,
    "speed": 0,
    "load": -0.10930851908029915
  },
  {
    "temp": 208.57972717285156,
    "speed": 0,
    "load": -0.11199824060668018
  },
  {
    "temp": 208.57176208496094,
    "speed": 0,
    "load": -0.11199824060668018
  },
  {
    "temp": 208.5689239501953,
    "speed": 0,
    "load": -0.10917623769375595
  },
  {
    "temp": 208.56666564941406,
    "speed": 0,
    "load": -0.10851483076103907
  },
  {
    "temp": 208.5634002685547,
    "speed": 0,
    "load": -0.10996992601301603
  },
  {
    "temp": 208.56224060058594,
    "speed": 0,
    "load": -0.1109840833098481
  },
  {
    "temp": 208.58102416992188,
    "speed": 0,
    "load": -0.11067542674124731
  },
  {
    "temp": 208.5763397216797,
    "speed": 0,
    "load": -0.11182186542462169
  },
  {
    "temp": 208.56959533691406,
    "speed": 0,
    "load": -0.10939670667132795
  },
  {
    "temp": 208.56719970703125,
    "speed": 0,
    "load": -0.10816208039692388
  },
  {
    "temp": 208.56527709960938,
    "speed": 0,
    "load": -0.11579030702092208
  },
  {
    "temp": 208.56251525878906,
    "speed": 0,
    "load": -0.1149084311106332
  },
  {
    "temp": 208.56153869628906,
    "speed": 0,
    "load": -0.11583440081643648
  },
  {
    "temp": 208.5607452392578,
    "speed": 0,
    "load": -0.11658399534018216
  },
  {
    "temp": 208.58262634277344,
    "speed": 0,
    "load": -0.11199824060668018
  },
  {
    "temp": 208.5904083251953,
    "speed": 0,
    "load": -0.11570211942989328
  },
  {
    "temp": 208.57859802246094,
    "speed": 0,
    "load": -0.12068471832302485
  },
  {
    "temp": 208.57440185546875,
    "speed": 0,
    "load": -0.12222800116603061
  },
  {
    "temp": 208.571044921875,
    "speed": 0,
    "load": -0.12169887561985693
  },
  {
    "temp": 208.58921813964844,
    "speed": 0,
    "load": -0.12363900262249228
  },
  {
    "temp": 208.58290100097656,
    "speed": 0,
    "load": -0.12447678473726675
  },
  {
    "temp": 208.5778350830078,
    "speed": 0,
    "load": -0.12055243693648166
  },
  {
    "temp": 208.570556640625,
    "speed": 0,
    "load": -0.12059653073199605
  },
  {
    "temp": 208.57867431640625,
    "speed": 0,
    "load": -0.1224043763480882
  },
  {
    "temp": 208.574462890625,
    "speed": 0,
    "load": -0.12209571977948741
  },
  {
    "temp": 208.58387756347656,
    "speed": 0,
    "load": -0.12522637926101243
  },
  {
    "temp": 208.58465576171875,
    "speed": 0,
    "load": -0.1260200675802725
  },
  {
    "temp": 208.59202575683594,
    "speed": 0,
    "load": -0.12430040955520916
  },
  {
    "temp": 208.58514404296875,
    "speed": 0,
    "load": -0.12901844567525433
  },
  {
    "temp": 208.59568786621094,
    "speed": 0,
    "load": -0.12765153801430706
  },
  {
    "temp": 208.58807373046875,
    "speed": 0,
    "load": -0.12385947160006516
  },
  {
    "temp": 208.5947723388672,
    "speed": 0,
    "load": -0.1260641613757869
  },
  {
    "temp": 208.58139038085938,
    "speed": 0,
    "load": -0.12853341392459505
  },
  {
    "temp": 208.60220336914062,
    "speed": 0,
    "load": -0.12430040955520916
  },
  {
    "temp": 208.60606384277344,
    "speed": 0,
    "load": -0.1186564037293607
  },
  {
    "temp": 208.59884643554688,
    "speed": 0,
    "load": -0.122492563939117
  },
  {
    "temp": 208.59059143066406,
    "speed": 0,
    "load": -0.12553503582961323
  },
  {
    "temp": 208.6095733642578,
    "speed": 0,
    "load": -0.12743106903673418
  },
  {
    "temp": 208.6266632080078,
    "speed": 0,
    "load": -0.12161068802882813
  },
  {
    "temp": 208.61285400390625,
    "speed": 0,
    "load": -0.1268578496950461
  },
  {
    "temp": 208.61341857910156,
    "speed": 0,
    "load": -0.1266814745129885
  },
  {
    "temp": 208.6150360107422,
    "speed": 0,
    "load": -0.12407994057763716
  },
  {
    "temp": 208.60714721679688,
    "speed": 0,
    "load": -0.12222800116603061
  },
  {
    "temp": 208.5972442626953,
    "speed": 0,
    "load": -0.1268137558995317
  },
  {
    "temp": 208.6020965576172,
    "speed": 0,
    "load": -0.12813656976496546
  },
  {
    "temp": 208.60910034179688,
    "speed": 0,
    "load": -0.1302971657451728
  },
  {
    "temp": 208.61158752441406,
    "speed": 0,
    "load": -0.12923891465282633
  },
  {
    "temp": 208.6007843017578,
    "speed": 0,
    "load": -0.13192863617920736
  },
  {
    "temp": 208.59547424316406,
    "speed": 0,
    "load": -0.12809247596945106
  },
  {
    "temp": 208.60069274902344,
    "speed": 0,
    "load": -0.12403584678212276
  },
  {
    "temp": 208.58517456054688,
    "speed": 0,
    "load": -0.12901844567525433
  },
  {
    "temp": 208.60523986816406,
    "speed": 0,
    "load": -0.13126722924649048
  },
  {
    "temp": 208.6212921142578,
    "speed": 0,
    "load": -0.13157588581509216
  },
  {
    "temp": 208.60855102539062,
    "speed": 0,
    "load": -0.1262405365578445
  },
  {
    "temp": 208.62600708007812,
    "speed": 0,
    "load": -0.12879797669768234
  },
  {
    "temp": 208.61231994628906,
    "speed": 0,
    "load": -0.13095857267788968
  },
  {
    "temp": 208.61416625976562,
    "speed": 0,
    "load": -0.1307821974958321
  },
  {
    "temp": 208.61427307128906,
    "speed": 0,
    "load": -0.13611754675307886
  },
  {
    "temp": 208.61572265625,
    "speed": 0,
    "load": -0.1347065452966172
  },
  {
    "temp": 208.5948028564453,
    "speed": 0,
    "load": -0.13135541683751928
  },
  {
    "temp": 208.6001434326172,
    "speed": 0,
    "load": -0.14061511389555204
  },
  {
    "temp": 208.6044158935547,
    "speed": 0,
    "load": -0.13924820623460477
  },
  {
    "temp": 208.5950469970703,
    "speed": 0,
    "load": -0.13999780075834956
  },
  {
    "temp": 208.600341796875,
    "speed": 0,
    "load": -0.13479473288764598
  },
  {
    "temp": 208.59774780273438,
    "speed": 0,
    "load": -0.13739626682299821
  },
  {
    "temp": 208.5897216796875,
    "speed": 0,
    "load": -0.13329554384015552
  },
  {
    "temp": 208.60118103027344,
    "speed": 0,
    "load": -0.137704923391599
  },
  {
    "temp": 208.59246826171875,
    "speed": 0,
    "load": -0.14061511389555204
  },
  {
    "temp": 208.5926971435547,
    "speed": 0,
    "load": -0.1374403606185126
  },
  {
    "temp": 208.5984649658203,
    "speed": 0,
    "load": -0.14004189455386395
  },
  {
    "temp": 208.59397888183594,
    "speed": 0,
    "load": -0.14273161608024587
  },
  {
    "temp": 208.5994873046875,
    "speed": 0,
    "load": -0.1424670533071586
  },
  {
    "temp": 208.5911102294922,
    "speed": 0,
    "load": -0.14286389746678907
  },
  {
    "temp": 208.58441162109375,
    "speed": 0,
    "load": -0.14740555840477576
  },
  {
    "temp": 208.58499145507812,
    "speed": 0,
    "load": -0.14855199708815192
  },
  {
    "temp": 208.5795135498047,
    "speed": 0,
    "load": -0.14665596388103097
  },
  {
    "temp": 208.57513427734375,
    "speed": 0,
    "load": -0.14352530439950506
  },
  {
    "temp": 208.57162475585938,
    "speed": 0,
    "load": -0.14264342848921618
  },
  {
    "temp": 208.57936096191406,
    "speed": 0,
    "load": -0.14489221206045322
  },
  {
    "temp": 208.57501220703125,
    "speed": 0,
    "load": -0.14709690183617496
  },
  {
    "temp": 208.571533203125,
    "speed": 0,
    "load": -0.14647958869897337
  },
  {
    "temp": 208.58152770996094,
    "speed": 0,
    "load": -0.14405442994567874
  },
  {
    "temp": 208.57290649414062,
    "speed": 0,
    "load": -0.14670005767654537
  },
  {
    "temp": 208.56983947753906,
    "speed": 0,
    "load": -0.1461709321303717
  },
  {
    "temp": 208.56739807128906,
    "speed": 0,
    "load": -0.14273161608024587
  },
  {
    "temp": 208.57411193847656,
    "speed": 0,
    "load": -0.14811105913300704
  },
  {
    "temp": 208.58360290527344,
    "speed": 0,
    "load": -0.14894884124778152
  },
  {
    "temp": 208.57839965820312,
    "speed": 0,
    "load": -0.1462591197214005
  },
  {
    "temp": 208.5811309814453,
    "speed": 0,
    "load": -0.1493456854074111
  },
  {
    "temp": 208.57643127441406,
    "speed": 0,
    "load": -0.14643549490345809
  },
  {
    "temp": 208.59823608398438,
    "speed": 0,
    "load": -0.15080078065938807
  },
  {
    "temp": 208.5963897705078,
    "speed": 0,
    "load": -0.1534905021857691
  },
  {
    "temp": 208.58863830566406,
    "speed": 0,
    "load": -0.1532700332081962
  },
  {
    "temp": 208.5774688720703,
    "speed": 0,
    "load": -0.14775830876889184
  },
  {
    "temp": 208.57350158691406,
    "speed": 0,
    "load": -0.1491252164298391
  },
  {
    "temp": 208.57032775878906,
    "speed": 0,
    "load": -0.14868427847469512
  },
  {
    "temp": 208.5785369873047,
    "speed": 0,
    "load": -0.14396624235464994
  },
  {
    "temp": 208.58714294433594,
    "speed": 0,
    "load": -0.1500952799311568
  },
  {
    "temp": 208.59402465820312,
    "speed": 0,
    "load": -0.15110943722798886
  },
  {
    "temp": 208.58091735839844,
    "speed": 0,
    "load": -0.13871908068843108
  },
  {
    "temp": 208.5890350341797,
    "speed": 0,
    "load": -0.1495220605894687
  },
  {
    "temp": 208.58274841308594,
    "speed": 0,
    "load": -0.14758193358683336
  },
  {
    "temp": 208.5904998779297,
    "speed": 0,
    "load": -0.14683233906308857
  },
  {
    "temp": 208.59144592285156,
    "speed": 0,
    "load": -0.1459063693572853
  },
  {
    "temp": 208.5846710205078,
    "speed": 0,
    "load": -0.14475993067391002
  },
  {
    "temp": 208.592041015625,
    "speed": 0,
    "load": -0.14780240256440624
  },
  {
    "temp": 208.58987426757812,
    "speed": 0,
    "load": -0.1494338729984399
  },
  {
    "temp": 208.5834197998047,
    "speed": 0,
    "load": -0.15252043868445142
  },
  {
    "temp": 208.57826232910156,
    "speed": 0,
    "load": -0.14850790329263752
  },
  {
    "temp": 208.57081604003906,
    "speed": 0,
    "load": -0.14868427847469512
  },
  {
    "temp": 208.58096313476562,
    "speed": 0,
    "load": -0.14868427847469512
  },
  {
    "temp": 208.5762939453125,
    "speed": 0,
    "load": -0.150007092340128
  },
  {
    "temp": 208.5725555419922,
    "speed": 0,
    "load": -0.15459284707362997
  },
  {
    "temp": 208.56716918945312,
    "speed": 0,
    "load": -0.15128581241004646
  },
  {
    "temp": 208.5652618408203,
    "speed": 0,
    "load": -0.15058031168181607
  },
  {
    "temp": 208.56251525878906,
    "speed": 0,
    "load": -0.15234406350239382
  },
  {
    "temp": 208.56153869628906,
    "speed": 0,
    "load": -0.1491252164298391
  },
  {
    "temp": 208.5607452392578,
    "speed": 0,
    "load": -0.14661187008551657
  },
  {
    "temp": 208.5596160888672,
    "speed": 0,
    "load": -0.14511268103802522
  },
  {
    "temp": 208.55921936035156,
    "speed": 0,
    "load": -0.150007092340128
  },
  {
    "temp": 208.5586395263672,
    "speed": 0,
    "load": -0.14828743431506464
  },
  {
    "temp": 208.5584259033203,
    "speed": 0,
    "load": -0.14356939819501946
  },
  {
    "temp": 208.55812072753906,
    "speed": 0,
    "load": -0.14855199708815192
  },
  {
    "temp": 208.55801391601562,
    "speed": 0,
    "load": -0.15106534343247446
  },
  {
    "temp": 208.5579376220703,
    "speed": 0,
    "load": -0.1500511861356424
  },
  {
    "temp": 208.5578155517578,
    "speed": 0,
    "load": -0.14771421497337744
  },
  {
    "temp": 208.55776977539062,
    "speed": 0,
    "load": -0.1456859003797124
  },
  {
    "temp": 208.5577392578125,
    "speed": 0,
    "load": -0.14326074162641866
  },
  {
    "temp": 208.55770874023438,
    "speed": 0,
    "load": -0.15282909525305222
  },
  {
    "temp": 208.5576934814453,
    "speed": 0,
    "load": -0.15498969123325956
  },
  {
    "temp": 208.5576629638672,
    "speed": 0,
    "load": -0.15401962773194278
  },
  {
    "temp": 208.55764770507812,
    "speed": 0,
    "load": -0.153137751821653
  },
  {
    "temp": 208.57041931152344,
    "speed": 0,
    "load": -0.15203540693379214
  },
  {
    "temp": 208.56581115722656,
    "speed": 0,
    "load": -0.157503037577583
  },
  {
    "temp": 208.5641632080078,
    "speed": 0,
    "load": -0.15931088319367515
  },
  {
    "temp": 208.56179809570312,
    "speed": 0,
    "load": -0.1577676003506694
  },
  {
    "temp": 208.5609588623047,
    "speed": 0,
    "load": -0.15560700437046204
  },
  {
    "temp": 208.56028747558594,
    "speed": 0,
    "load": -0.15895813282955906
  },
  {
    "temp": 208.559326171875,
    "speed": 0,
    "load": -0.16543992077018288
  },
  {
    "temp": 208.55897521972656,
    "speed": 0,
    "load": -0.16566038974775488
  },
  {
    "temp": 208.55848693847656,
    "speed": 0,
    "load": -0.16812964229656302
  },
  {
    "temp": 208.5710906982422,
    "speed": 0,
    "load": -0.17112802039154573
  },
  {
    "temp": 208.56838989257812,
    "speed": 0,
    "load": -0.16821782988759182
  },
  {
    "temp": 208.56451416015625,
    "speed": 0,
    "load": -0.16711548499973095
  },
  {
    "temp": 208.56312561035156,
    "speed": 0,
    "load": -0.17112802039154573
  },
  {
    "temp": 208.56114196777344,
    "speed": 0,
    "load": -0.172715397030065
  },
  {
    "temp": 208.56044006347656,
    "speed": 0,
    "load": -0.16702729740870215
  },
  {
    "temp": 208.55941772460938,
    "speed": 0,
    "load": -0.17469961782821475
  },
  {
    "temp": 208.55905151367188,
    "speed": 0,
    "load": -0.16967292513956878
  },
  {
    "temp": 208.58433532714844,
    "speed": 0,
    "load": -0.16812964229656302
  },
  {
    "temp": 208.57899475097656,
    "speed": 0,
    "load": -0.17403821089549787
  },
  {
    "temp": 208.57130432128906,
    "speed": 0,
    "load": -0.1763751820577637
  },
  {
    "temp": 208.5813446044922,
    "speed": 0,
    "load": -0.17589015030710442
  },
  {
    "temp": 208.57659912109375,
    "speed": 0,
    "load": -0.1759783378981341
  },
  {
    "temp": 208.5727996826172,
    "speed": 0,
    "load": -0.17774208971871097
  },
  {
    "temp": 208.5801239013672,
    "speed": 0,
    "load": -0.17893262219760153
  },
  {
    "temp": 208.57562255859375,
    "speed": 0,
    "load": -0.17813893387834145
  },
  {
    "temp": 208.572021484375,
    "speed": 0,
    "load": -0.17580196271607562
  },
  {
    "temp": 208.57705688476562,
    "speed": 0,
    "load": -0.1838270334997043
  },
  {
    "temp": 208.5731658935547,
    "speed": 0,
    "load": -0.1836065645221323
  },
  {
    "temp": 208.56756591796875,
    "speed": 0,
    "load": -0.1836506583176467
  },
  {
    "temp": 208.56556701660156,
    "speed": 0,
    "load": -0.18263650102081463
  },
  {
    "temp": 208.56398010253906,
    "speed": 0,
    "load": -0.17906490358414473
  },
  {
    "temp": 208.56167602539062,
    "speed": 0,
    "load": -0.18162234372398256
  },
  {
    "temp": 208.5608673095703,
    "speed": 0,
    "load": -0.18250421963427144
  },
  {
    "temp": 208.572998046875,
    "speed": 0,
    "load": -0.179990873289948
  },
  {
    "temp": 208.5674591064453,
    "speed": 0,
    "load": -0.17434686746409955
  },
  {
    "temp": 208.56549072265625,
    "speed": 0,
    "load": -0.1803436236540632
  },
  {
    "temp": 208.5639190673828,
    "speed": 0,
    "load": -0.18638447363954214
  },
  {
    "temp": 208.5948944091797,
    "speed": 0,
    "load": -0.179990873289948
  },
  {
    "temp": 208.6002197265625,
    "speed": 0,
    "load": -0.17791846490076946
  },
  {
    "temp": 208.6172637939453,
    "speed": 0,
    "load": -0.18162234372398256
  },
  {
    "temp": 208.6181182861328,
    "speed": 0,
    "load": -0.17928537256171673
  },
  {
    "temp": 208.61935424804688,
    "speed": 0,
    "load": -0.17549330614747483
  },
  {
    "temp": 208.6070098876953,
    "speed": 0,
    "load": -0.17399411709998347
  },
  {
    "temp": 208.5971221923828,
    "speed": 0,
    "load": -0.1765074634443069
  },
  {
    "temp": 208.6084747314453,
    "speed": 0,
    "load": -0.17857987183348634
  },
  {
    "temp": 208.611083984375,
    "speed": 0,
    "load": -0.18109321817780888
  },
  {
    "temp": 208.59182739257812,
    "speed": 0,
    "load": -0.1798144981078904
  },
  {
    "temp": 208.6105499267578,
    "speed": 0,
    "load": -0.17496418060130203
  },
  {
    "temp": 208.6127471923828,
    "speed": 0,
    "load": -0.17813893387834145
  },
  {
    "temp": 208.60311889648438,
    "speed": 0,
    "load": -0.1765074634443069
  },
  {
    "temp": 208.59400939941406,
    "speed": 0,
    "load": -0.17690430760393738
  },
  {
    "temp": 208.59951782226562,
    "speed": 0,
    "load": -0.17575786892056122
  },
  {
    "temp": 208.60488891601562,
    "speed": 0,
    "load": -0.1765956510353357
  }
]