[
  {
    "temp": 178.77444458007812,
    "speed": 0,
    "load": -0.003218847072554709
  },
  {
    "temp": 178.76792907714844,
    "speed": 0,
    "load": -0.008466008738772679
  },
  {
    "temp": 178.76271057128906,
    "speed": 0,
    "load": -0.010450229536922429
  },
  {
    "temp": 178.7620391845703,
    "speed": 0,
    "load": -0.011905324788899385
  },
  {
    "temp": 178.76654052734375,
    "speed": 0,
    "load": -0.010273854354864831
  },
  {
    "temp": 178.7701416015625,
    "speed": 0,
    "load": -0.00643769414510853
  },
  {
    "temp": 178.78155517578125,
    "speed": 0,
    "load": -0.008157352170171883
  },
  {
    "temp": 178.7809295654297,
    "speed": 0,
    "load": -0.008289633556715081
  },
  {
    "temp": 178.7731170654297,
    "speed": 5.694760799407959,
    "load": 0.007010913486795722
  },
  {
    "temp": 178.77540588378906,
    "speed": 5.197504997253418,
    "load": 1.2378892152724141
  },
  {
    "temp": 178.77186584472656,
    "speed": 5.681818008422852,
    "load": 8.458115949375578
  },
  {
    "temp": 178.7744140625,
    "speed": 5.197504997253418,
    "load": 40.878167288959304
  },
  {
    "temp": 178.7678985595703,
    "speed": 5.208333492279053,
    "load": 47.790751611758225
  },
  {
    "temp": 178.77391052246094,
    "speed": 5.208333492279053,
    "load": 45.76746371078258
  },
  {
    "temp": 178.7760467529297,
    "speed": 5.208333492279053,
    "load": 38.041569329719806
  },
  {
    "temp": 178.78628540039062,
    "speed": 5.197504997253418,
    "load": 37.54617553711506
  },
  {
    "temp": 178.79249572753906,
    "speed": 5.668934345245361,
    "load": 40.15432354179424
  },
  {
    "temp": 178.7994384765625,
    "speed": 5.694760799407959,
    "load": 41.98456880600766
  },
  {
    "temp": 178.7964630126953,
    "speed": 5.681818008422852,
    "load": 41.19943468307753
  },
  {
    "temp": 178.8026123046875,
    "speed": 5.681818008422852,
    "load": 40.83848287299631
  },
  {
    "temp": 178.8075408935547,
    "speed": 5.681818008422852,
    "load": 40.515451727057524
  },
  {
    "temp": 178.7992706298828,
    "speed": 5.681818008422852,
    "load": 40.33457897785728
  },
  {
    "temp": 178.8048553466797,
    "speed": 5.197504997253418,
    "load": 40.21927370258702
  },
  {
    "temp": 178.809326171875,
    "speed": 5.681818008422852,
    "load": 40.35980062889155
  },
  {
    "temp": 178.81578063964844,
    "speed": 5.681818008422852,
    "load": 40.406980990091995
  },
  {
    "temp": 178.8180694580078,
    "speed": 5.681818008422852,
    "load": 40.5929245257764
  },
  {
    "temp": 178.81137084960938,
    "speed": 5.681818008422852,
    "load": 40.58392939149145
  },
  {
    "temp": 178.8102569580078,
    "speed": 5.668934345245361,
    "load": 40.707392018931884
  },
  {
    "temp": 178.8136444091797,
    "speed": 5.720823764801025,
    "load": 40.78923010340668
  },
  {
    "temp": 178.8163604736328,
    "speed": 5.668934345245361,
    "load": 40.82490198397787
  },
  {
    "temp": 178.81173706054688,
    "speed": 5.681818008422852,
    "load": 40.86079433352663
  },
  {
    "temp": 178.80630493164062,
    "speed": 5.668934345245361,
    "load": 40.71603440285271
  },
  {
    "temp": 178.7934112548828,
    "speed": 5.681818008422852,
    "load": 40.45314719399562
  },
  {
    "temp": 178.8055877685547,
    "speed": 5.681818008422852,
    "load": 39.97808064112303
  },
  {
    "temp": 178.80992126464844,
    "speed": 5.668934345245361,
    "load": 40.12857276521382
  },
  {
    "temp": 178.8048553466797,
    "speed": 5.681818008422852,
    "load": 40.05475975152264
  },
  {
    "temp": 178.80079650878906,
    "speed": 5.208333492279053,
    "load": 39.97940345498846
  },
  {
    "temp": 178.79754638671875,
    "speed": 5.208333492279053,
    "load": 39.857175453822435
  },
  {
    "temp": 178.78433227539062,
    "speed": 5.681818008422852,
    "load": 39.87569484793849
  },
  {
    "temp": 178.7843780517578,
    "speed": 5.208333492279053,
    "load": 39.71038720855486
  },
  {
    "temp": 178.76734924316406,
    "speed": 5.681818008422852,
    "load": 39.79557642148876
  },
  {
    "temp": 178.75372314453125,
    "speed": 5.681818008422852,
    "load": 39.79178435507451
  },
  {
    "temp": 178.7255401611328,
    "speed": 5.208333492279053,
    "load": 39.914497387991204
  },
  {
    "temp": 178.71173095703125,
    "speed": 5.208333492279053,
    "load": 40.532295556944035
  },
  {
    "temp": 178.70068359375,
    "speed": 5.681818008422852,
    "load": 40.9285224034368
  },
  {
    "temp": 178.6918487548828,
    "speed": 5.208333492279053,
    "load": 41.048016589280934
  },
  {
    "temp": 178.67910766601562,
    "speed": 5.681818008422852,
    "load": 41.337271887855664
  },
  {
    "temp": 178.66604614257812,
    "speed": 0,
    "load": 41.66995957501213
  },
  {
    "temp": 178.65560913085938,
    "speed": 0,
    "load": 39.98460652285917
  },
  {
    "temp": 178.64724731445312,
    "speed": 0,
    "load": 32.37234185283711
  },
  {
    "temp": 178.61984252929688,
    "speed": 0,
    "load": 24.666025116982752
  },
  {
    "temp": 178.593017578125,
    "speed": 0,
    "load": 15.320345157696995
  },
  {
    "temp": 178.58863830566406,
    "speed": 0,
    "load": 12.775471749581033
  },
  {
    "temp": 178.56805419921875,
    "speed": 0,
    "load": 10.935790413127528
  },
  {
    "temp": 178.53842163085938,
    "speed": 0,
    "load": 9.503403465840915
  },
  {
    "temp": 178.51934814453125,
    "speed": 0,
    "load": 7.343557080157055
  },
  {
    "temp": 178.5126190185547,
    "speed": 0,
    "load": 6.512829972664985
  },
  {
    "temp": 178.5072479248047,
    "speed": 0,
    "load": 5.781931218217611
  },
  {
    "temp": 178.490966796875,
    "speed": 0,
    "load": 4.588091704664123
  },
  {
    "temp": 178.4899139404297,
    "speed": 0,
    "load": 4.138864115962999
  },
  {
    "temp": 178.4720001220703,
    "speed": 0,
    "load": 3.7601425062894656
  },
  {
    "temp": 178.4530487060547,
    "speed": 0,
    "load": 3.1188423443274367
  },
  {
    "temp": 178.4510498046875,
    "speed": 0,
    "load": 2.831130328595709
  },
  {
    "temp": 178.43238830566406,
    "speed": 0,
    "load": 2.5567346391093437
  },
  {
    "temp": 178.4362335205078,
    "speed": 0,
    "load": 2.017776176536332
  },
  {
    "temp": 178.4119873046875,
    "speed": 0,
    "load": 1.8061259580670157
  },
  {
    "temp": 178.40113830566406,
    "speed": 0,
    "load": 1.642273413935353
  },
  {
    "temp": 178.37013244628906,
    "speed": 0,
    "load": 1.3804885499661168
  },
  {
    "temp": 178.35910034179688,
    "speed": 0,
    "load": 1.2670352141074606
  },
  {
    "temp": 178.35882568359375,
    "speed": 0,
    "load": 1.1636793574216107
  },
  {
    "temp": 178.3585968017578,
    "speed": 0,
    "load": 0.9840853282912931
  },
  {
    "temp": 178.3497314453125,
    "speed": 0,
    "load": 0.9141084748098756
  },
  {
    "temp": 178.34278869628906,
    "speed": 0,
    "load": 0.8604904194643144
  },
  {
    "temp": 178.35430908203125,
    "speed": 0,
    "load": 0.817278499860163
  },
  {
    "temp": 178.363525390625,
    "speed": 0,
    "load": 0.7464638642639709
  },
  {
    "temp": 178.36236572265625,
    "speed": 0,
    "load": 0.7271066880331309
  },
  {
    "temp": 178.3692169189453,
    "speed": 0,
    "load": 0.7078817931888342
  },
  {
    "temp": 178.36691284179688,
    "speed": 0,
    "load": 0.699371690654548
  },
  {
    "temp": 178.38214111328125,
    "speed": 0,
    "load": 0.6793090136954767
  },
  {
    "temp": 178.3943328857422,
    "speed": 0,
    "load": 0.6723421940041954
  },
  {
    "temp": 178.41261291503906,
    "speed": 0,
    "load": 0.6655076556994572
  },
  {
    "temp": 178.43893432617188,
    "speed": 0,
    "load": 0.6604809630108104
  },
  {
    "temp": 178.4482879638672,
    "speed": 0,
    "load": 0.6544842068208467
  },
  {
    "temp": 178.45578002929688,
    "speed": 0,
    "load": 0.6575266787113438
  },
  {
    "temp": 178.47032165527344,
    "speed": 0,
    "load": 0.6533818619329859
  },
  {
    "temp": 178.49807739257812,
    "speed": 0,
    "load": 0.6551015199580483
  },
  {
    "temp": 178.504150390625,
    "speed": 0,
    "load": 0.6558070206862805
  },
  {
    "temp": 178.50901794433594,
    "speed": 0,
    "load": 0.6582762732350886
  },
  {
    "temp": 178.5313720703125,
    "speed": 0,
    "load": 0.6550133323670195
  },
  {
    "temp": 178.54786682128906,
    "speed": 0,
    "load": 0.6569093655741405
  },
  {
    "temp": 178.56959533691406,
    "speed": 0,
    "load": 0.6565566152100253
  },
  {
    "temp": 178.6008758544922,
    "speed": 0,
    "load": 0.642887538600549
  },
  {
    "temp": 178.61199951171875,
    "speed": 0,
    "load": 0.6490606699725703
  },
  {
    "temp": 178.6208953857422,
    "speed": 0,
    "load": 0.6494134203366855
  },
  {
    "temp": 178.6365509033203,
    "speed": 0,
    "load": 0.6482228878577967
  },
  {
    "temp": 178.65760803222656,
    "speed": 0,
    "load": 0.6459300104910453
  },
  {
    "temp": 178.6793975830078,
    "speed": 0,
    "load": 0.6409474115979137
  },
  {
    "temp": 178.68336486816406,
    "speed": 0,
    "load": 0.6381695024805039
  },
  {
    "temp": 178.71214294433594,
    "speed": 0,
    "load": 0.6416970061216585
  },
  {
    "temp": 178.7467498779297,
    "speed": 0,
    "load": 0.6376844707298446
  },
  {
    "temp": 178.76284790039062,
    "speed": 0,
    "load": 0.6338924043156027
  },
  {
    "temp": 178.77572631835938,
    "speed": 0,
    "load": 0.6290861806045287
  },
  {
    "temp": 178.8028106689453,
    "speed": 0,
    "load": 0.6253382079858012
  },
  {
    "temp": 178.8162384033203,
    "speed": 0,
    "load": 0.6256027707588885
  },
  {
    "temp": 178.83551025390625,
    "speed": 0,
    "load": 0.6146234156757924
  },
  {
    "temp": 178.85472106933594,
    "speed": 0,
    "load": 0.6091116912364871
  },
  {
    "temp": 178.87484741210938,
    "speed": 0,
    "load": 0.6096849105781743
  },
  {
    "temp": 178.89947509765625,
    "speed": 0,
    "load": 0.6104345051019209
  },
  {
    "temp": 178.92640686035156,
    "speed": 0,
    "load": 0.6073479394159094
  },
  {
    "temp": 178.93218994140625,
    "speed": 0,
    "load": 0.5953985208314965
  },
  {
    "temp": 178.9368133544922,
    "speed": 0,
    "load": 0.5926647055096002
  },
  {
    "temp": 178.95883178710938,
    "speed": 0,
    "load": 0.5914741730307105
  },
  {
    "temp": 178.96665954589844,
    "speed": 0,
    "load": 0.5903277343473352
  },
  {
    "temp": 178.96438598632812,
    "speed": 0,
    "load": 0.5863151989555213
  },
  {
    "temp": 178.97109985351562,
    "speed": 0,
    "load": 0.5863151989555213
  },
  {
    "temp": 178.98077392578125,
    "speed": 0,
    "load": 0.5767027515333734
  },
  {
    "temp": 178.9842071533203,
    "speed": 0,
    "load": 0.5741012175980211
  },
  {
    "temp": 178.98695373535156,
    "speed": 0,
    "load": 0.5675753358618838
  },
  {
    "temp": 178.99769592285156,
    "speed": 0,
    "load": 0.5672225854977686
  },
  {
    "temp": 179.004638671875,
    "speed": 0,
    "load": 0.5543471972075515
  },
  {
    "temp": 179.00331115722656,
    "speed": 0,
    "load": 0.5497173486785352
  },
  {
    "temp": 179.0107879638672,
    "speed": 0,
    "load": 0.5477331278803854
  },
  {
    "temp": 179.0215606689453,
    "speed": 0,
    "load": 0.5466307829925245
  },
  {
    "temp": 179.016845703125,
    "speed": 0,
    "load": 0.5393553067326415
  },
  {
    "temp": 179.02162170410156,
    "speed": 0,
    "load": 0.53437270783951
  },
  {
    "temp": 179.0168914794922,
    "speed": 0,
    "load": 0.5302719848566664
  },
  {
    "temp": 179.0100860595703,
    "speed": 0,
    "load": 0.5254657611455924
  },
  {
    "temp": 179.00765991210938,
    "speed": 0,
    "load": 0.5233051651653851
  },
  {
    "temp": 179.00572204589844,
    "speed": 0,
    "load": 0.5211886629806921
  },
  {
    "temp": 179.0029296875,
    "speed": 0,
    "load": 0.5125021852643474
  },
  {
    "temp": 179.00193786621094,
    "speed": 0,
    "load": 0.5113557465809713
  },
  {
    "temp": 179.0011444091797,
    "speed": 0,
    "load": 0.5064172414833541
  },
  {
    "temp": 179,
    "speed": 0,
    "load": 0.5035511447749155
  },
  {
    "temp": 178.99105834960938,
    "speed": 0,
    "load": 0.5027574564556554
  },
  {
    "temp": 178.98391723632812,
    "speed": 0,
    "load": 0.4987008272683271
  },
  {
    "temp": 178.98672485351562,
    "speed": 0,
    "load": 0.48573725138708124
  },
  {
    "temp": 178.98043823242188,
    "speed": 0,
    "load": 0.48507584445436436
  },
  {
    "temp": 178.97140502929688,
    "speed": 0,
    "load": 0.48538450102296604
  },
  {
    "temp": 178.9681854248047,
    "speed": 0,
    "load": 0.48106330906255046
  },
  {
    "temp": 178.95706176757812,
    "speed": 0,
    "load": 0.4796523076060879
  },
  {
    "temp": 178.94105529785156,
    "speed": 0,
    "load": 0.47810902476308303
  },
  {
    "temp": 178.94390869140625,
    "speed": 0,
    "load": 0.468143826976819
  },
  {
    "temp": 178.9205780029297,
    "speed": 0,
    "load": 0.4718036120045177
  },
  {
    "temp": 178.886962890625,
    "speed": 0,
    "load": 0.4688493277050503
  },
  {
    "temp": 178.89208984375,
    "speed": 0,
    "load": 0.4613533824675953
  },
  {
    "temp": 178.88766479492188,
    "speed": 0,
    "load": 0.45910459889635913
  },
  {
    "temp": 178.87557983398438,
    "speed": 0,
    "load": 0.45866366094121425
  },
  {
    "temp": 178.86500549316406,
    "speed": 0,
    "load": 0.457517222257839
  },
  {
    "temp": 178.85745239257812,
    "speed": 0,
    "load": 0.4568999091206365
  },
  {
    "temp": 178.85140991210938,
    "speed": 0,
    "load": 0.45099134052170164
  },
  {
    "temp": 178.84657287597656,
    "speed": 0,
    "load": 0.448125243813263
  },
  {
    "temp": 178.839599609375,
    "speed": 0,
    "load": 0.44737564928951734
  },
  {
    "temp": 178.83712768554688,
    "speed": 0,
    "load": 0.44340720769321784
  },
  {
    "temp": 178.8266143798828,
    "speed": 0,
    "load": 0.4408497675533809
  },
  {
    "temp": 178.81820678710938,
    "speed": 0,
    "load": 0.43935057850588954
  },
  {
    "temp": 178.82000732421875,
    "speed": 0,
    "load": 0.43926239091486075
  },
  {
    "temp": 178.8140869140625,
    "speed": 0,
    "load": 0.43877735916420146
  },
  {
    "temp": 178.8081817626953,
    "speed": 0,
    "load": 0.43833642120905747
  },
  {
    "temp": 178.803466796875,
    "speed": 0,
    "load": 0.43463254238584437
  },
  {
    "temp": 178.78811645507812,
    "speed": 0,
    "load": 0.4261665336470717
  },
  {
    "temp": 178.78741455078125,
    "speed": 0,
    "load": 0.42757753510353336
  },
  {
    "temp": 178.77830505371094,
    "speed": 0,
    "load": 0.42466734459958033
  },
  {
    "temp": 178.75393676757812,
    "speed": 0,
    "load": 0.4253287515322972
  },
  {
    "temp": 178.74105834960938,
    "speed": 0,
    "load": 0.4228154051879738
  },
  {
    "temp": 178.72413635253906,
    "speed": 0,
    "load": 0.41981702709299196
  },
  {
    "temp": 178.72767639160156,
    "speed": 0,
    "load": 0.4181855566589583
  },
  {
    "temp": 178.71343994140625,
    "speed": 0,
    "load": 0.41298248878825383
  },
  {
    "temp": 178.70204162597656,
    "speed": 0,
    "load": 0.41289430119722503
  },
  {
    "temp": 178.7095489501953,
    "speed": 0,
    "load": 0.4074707643489486
  },
  {
    "temp": 178.7074737548828,
    "speed": 0,
    "load": 0.41245336324208015
  },
  {
    "temp": 178.70449829101562,
    "speed": 0,
    "load": 0.40839673405475185
  },
  {
    "temp": 178.7034454345703,
    "speed": 0,
    "load": 0.40456057384499555
  },
  {
    "temp": 178.6940460205078,
    "speed": 0,
    "load": 0.4027527282289034
  },
  {
    "temp": 178.68653869628906,
    "speed": 0,
    "load": 0.40473694902705315
  },
  {
    "temp": 178.68426513671875,
    "speed": 0,
    "load": 0.4020472275006721
  },
  {
    "temp": 178.6787109375,
    "speed": 0,
    "load": 0.39728509758511255
  },
  {
    "temp": 178.69134521484375,
    "speed": 0,
    "load": 0.3960504713107085
  },
  {
    "temp": 178.69586181640625,
    "speed": 0,
    "load": 0.39763784794922863
  },
  {
    "temp": 178.696533203125,
    "speed": 0,
    "load": 0.3908914972355184
  },
  {
    "temp": 178.71414184570312,
    "speed": 0,
    "load": 0.3880254005270807
  },
  {
    "temp": 178.71115112304688,
    "speed": 0,
    "load": 0.3910678724175769
  },
  {
    "temp": 178.70684814453125,
    "speed": 0,
    "load": 0.3865262114795893
  },
  {
    "temp": 178.72239685058594,
    "speed": 0,
    "load": 0.3866143990706181
  },
  {
    "temp": 178.73483276367188,
    "speed": 0,
    "load": 0.3823813947012322
  },
  {
    "temp": 178.73623657226562,
    "speed": 0,
    "load": 0.3843215217038676
  },
  {
    "temp": 178.74681091308594,
    "speed": 0,
    "load": 0.38167589397300095
  },
  {
    "temp": 178.74581909179688,
    "speed": 0,
    "load": 0.38088220565374087
  },
  {
    "temp": 178.7364959716797,
    "speed": 0,
    "load": 0.38511521002312676
  },
  {
    "temp": 178.754638671875,
    "speed": 0,
    "load": 0.3840569589307803
  },
  {
    "temp": 178.7520751953125,
    "speed": 0,
    "load": 0.3791625476286775
  },
  {
    "temp": 178.75003051757812,
    "speed": 0,
    "load": 0.37713423303501337
  },
  {
    "temp": 178.76246643066406,
    "speed": 0,
    "load": 0.3711374768450497
  },
  {
    "temp": 178.7668914794922,
    "speed": 0,
    "load": 0.37373901078040106
  },
  {
    "temp": 178.7618865966797,
    "speed": 0,
    "load": 0.3788097972645623
  },
  {
    "temp": 178.77005004882812,
    "speed": 0,
    "load": 0.37382719837142986
  },
  {
    "temp": 178.77294921875,
    "speed": 0,
    "load": 0.37338626041628586
  },
  {
    "temp": 178.78379821777344,
    "speed": 0,
    "load": 0.3749295432592916
  },
  {
    "temp": 178.80625915527344,
    "speed": 0,
    "load": 0.3757232315785508
  },
  {
    "temp": 178.81045532226562,
    "speed": 0,
    "load": 0.37854523449147504
  },
  {
    "temp": 178.80528259277344,
    "speed": 0,
    "load": 0.3724602907104826
  },
  {
    "temp": 178.80967712402344,
    "speed": 0,
    "load": 0.3722398217329106
  },
  {
    "temp": 178.8159942626953,
    "speed": 0,
    "load": 0.3712697582315929
  },
  {
    "temp": 178.8182373046875,
    "speed": 0,
    "load": 0.36681628488463414
  },
  {
    "temp": 178.82003784179688,
    "speed": 0,
    "load": 0.36178959219598816
  },
  {
    "temp": 178.82147216796875,
    "speed": 0,
    "load": 0.36240690533318975
  },
  {
    "temp": 178.81500244140625,
    "speed": 0,
    "load": 0.3640824695627387
  },
  {
    "temp": 178.81744384765625,
    "speed": 0,
    "load": 0.36267146810627615
  },
  {
    "temp": 178.81939697265625,
    "speed": 0,
    "load": 0.3635974378120803
  },
  {
    "temp": 178.8209686279297,
    "speed": 0,
    "load": 0.35958490242026553
  },
  {
    "temp": 178.82322692871094,
    "speed": 0,
    "load": 0.35473458491367715
  },
  {
    "temp": 178.8240203857422,
    "speed": 0,
    "load": 0.3525298951379554
  },
  {
    "temp": 178.81613159179688,
    "speed": 0,
    "load": 0.35874712030549105
  },
  {
    "temp": 178.81834411621094,
    "speed": 0,
    "load": 0.3612163728543001
  },
  {
    "temp": 178.821533203125,
    "speed": 0,
    "load": 0.3605108721260688
  },
  {
    "temp": 178.8226776123047,
    "speed": 0,
    "load": 0.3535881462303019
  },
  {
    "temp": 178.82359313964844,
    "speed": 0,
    "load": 0.353147208275157
  },
  {
    "temp": 178.8249053955078,
    "speed": 0,
    "load": 0.35063386193083446
  },
  {
    "temp": 178.8253631591797,
    "speed": 0,
    "load": 0.3497519860205456
  },
  {
    "temp": 178.8342742919922,
    "speed": 0,
    "load": 0.3456071692421876
  },
  {
    "temp": 178.8385772705078,
    "speed": 0,
    "load": 0.3445048243543267
  },
  {
    "temp": 178.8363037109375,
    "speed": 0,
    "load": 0.35032520536223366
  },
  {
    "temp": 178.83448791503906,
    "speed": 0,
    "load": 0.35477867870919155
  },
  {
    "temp": 178.83303833007812,
    "speed": 0,
    "load": 0.3530590206841282
  },
  {
    "temp": 178.83094787597656,
    "speed": 0,
    "load": 0.34278516632926426
  },
  {
    "temp": 178.8302001953125,
    "speed": 0,
    "load": 0.3450339499005004
  },
  {
    "temp": 178.82960510253906,
    "speed": 0,
    "load": 0.34684179551659255
  },
  {
    "temp": 178.82875061035156,
    "speed": 0,
    "load": 0.34750320244930855
  },
  {
    "temp": 178.8284454345703,
    "speed": 0,
    "load": 0.3442402615812403
  },
  {
    "temp": 178.8367462158203,
    "speed": 0,
    "load": 0.33987497582531034
  },
  {
    "temp": 178.8348388671875,
    "speed": 0,
    "load": 0.3411977896907441
  },
  {
    "temp": 178.83209228515625,
    "speed": 0,
    "load": 0.33603881561555404
  },
  {
    "temp": 178.83111572265625,
    "speed": 0,
    "load": 0.33903719371053676
  },
  {
    "temp": 178.83033752441406,
    "speed": 0,
    "load": 0.3371411605034158
  },
  {
    "temp": 178.82920837402344,
    "speed": 0,
    "load": 0.3334372816802027
  },
  {
    "temp": 178.8373565673828,
    "speed": 0,
    "load": 0.33603881561555404
  },
  {
    "temp": 178.8353271484375,
    "speed": 0,
    "load": 0.33484828313666437
  },
  {
    "temp": 178.82559204101562,
    "speed": 0,
    "load": 0.33207037401925454
  },
  {
    "temp": 178.82591247558594,
    "speed": 0,
    "load": 0.33127668569999447
  },
  {
    "temp": 178.826171875,
    "speed": 0,
    "load": 0.3344955327725492
  },
  {
    "temp": 178.82638549804688,
    "speed": 0,
    "load": 0.3288956207422151
  },
  {
    "temp": 178.82669067382812,
    "speed": 0,
    "load": 0.32726415030818057
  },
  {
    "temp": 178.82679748535156,
    "speed": 0,
    "load": 0.3255885860786316
  },
  {
    "temp": 178.818359375,
    "speed": 0,
    "load": 0.32325161491636667
  },
  {
    "temp": 178.82012939453125,
    "speed": 0,
    "load": 0.3260736178292909
  },
  {
    "temp": 178.8226776123047,
    "speed": 0,
    "load": 0.32744052549023817
  },
  {
    "temp": 178.82359313964844,
    "speed": 0,
    "load": 0.3255885860786316
  },
  {
    "temp": 178.82432556152344,
    "speed": 0,
    "load": 0.3265586495799493
  },
  {
    "temp": 178.8249053955078,
    "speed": 0,
    "load": 0.32417758462216995
  },
  {
    "temp": 178.8253631591797,
    "speed": 0,
    "load": 0.3226343017791642
  },
  {
    "temp": 178.8175048828125,
    "speed": 0,
    "load": 0.31751942149948853
  },
  {
    "temp": 178.81944274902344,
    "speed": 0,
    "load": 0.31712257733985894
  },
  {
    "temp": 178.8209991455078,
    "speed": 0,
    "load": 0.31213997844672736
  },
  {
    "temp": 178.82225036621094,
    "speed": 0,
    "load": 0.31341869851664583
  },
  {
    "temp": 178.81471252441406,
    "speed": 0,
    "load": 0.31355097990318903
  },
  {
    "temp": 178.81239318847656,
    "speed": 0,
    "load": 0.30949435071586073
  },
  {
    "temp": 178.8153533935547,
    "speed": 0,
    "load": 0.31346279231216023
  },
  {
    "temp": 178.81773376464844,
    "speed": 0,
    "load": 0.30495268977787315
  },
  {
    "temp": 178.7972412109375,
    "speed": 0,
    "load": 0.30534953393750364
  },
  {
    "temp": 178.79470825195312,
    "speed": 0,
    "load": 0.3065841602119077
  },
  {
    "temp": 178.80120849609375,
    "speed": 0,
    "load": 0.3118313218781257
  },
  {
    "temp": 178.78668212890625,
    "speed": 0,
    "load": 0.3038944386855267
  },
  {
    "temp": 178.7777099609375,
    "speed": 0,
    "load": 0.3041149076630987
  },
  {
    "temp": 178.78761291503906,
    "speed": 0,
    "load": 0.30446765802721476
  },
  {
    "temp": 178.7847900390625,
    "speed": 0,
    "load": 0.2998378094981984
  },
  {
    "temp": 178.79327392578125,
    "speed": 0,
    "load": 0.29763311972247664
  },
  {
    "temp": 178.79153442382812,
    "speed": 0,
    "load": 0.29820633906416383
  },
  {
    "temp": 178.78160095214844,
    "speed": 0,
    "load": 0.3026598124111226
  },
  {
    "temp": 178.7741241455078,
    "speed": 0,
    "load": 0.29736855694938935
  },
  {
    "temp": 178.77621459960938,
    "speed": 0,
    "load": 0.2957811803108701
  },
  {
    "temp": 178.7864227294922,
    "speed": 0,
    "load": 0.29423789746786433
  },
  {
    "temp": 178.78404235839844,
    "speed": 0,
    "load": 0.2913718007594257
  },
  {
    "temp": 178.7926788330078,
    "speed": 0,
    "load": 0.2919450201011138
  },
  {
    "temp": 178.7910614013672,
    "speed": 0,
    "load": 0.28577188872909165
  },
  {
    "temp": 178.78121948242188,
    "speed": 0,
    "load": 0.28546323216048997
  },
  {
    "temp": 178.7824249267578,
    "speed": 0,
    "load": 0.28616873288872124
  },
  {
    "temp": 178.77430725097656,
    "speed": 0,
    "load": 0.2872269839810677
  },
  {
    "temp": 178.767822265625,
    "speed": 0,
    "load": 0.2878442971182702
  },
  {
    "temp": 178.7806854248047,
    "speed": 0,
    "load": 0.27867278765126713
  },
  {
    "temp": 178.7899932861328,
    "speed": 0,
    "load": 0.2810538526090465
  },
  {
    "temp": 178.7974395751953,
    "speed": 0,
    "load": 0.2797751325391271
  },
  {
    "temp": 178.79962158203125,
    "speed": 0,
    "load": 0.2799074139256712
  },
  {
    "temp": 178.80514526367188,
    "speed": 0,
    "load": 0.27757044276340537
  },
  {
    "temp": 178.80955505371094,
    "speed": 0,
    "load": 0.2801719766987576
  },
  {
    "temp": 178.8045654296875,
    "speed": 0,
    "load": 0.2833908237713114
  },
  {
    "temp": 178.80589294433594,
    "speed": 0,
    "load": 0.27721769239929017
  },
  {
    "temp": 178.81016540527344,
    "speed": 0,
    "load": 0.26976584095734957
  },
  {
    "temp": 178.81358337402344,
    "speed": 0,
    "load": 0.26980993475286397
  },
  {
    "temp": 178.81631469726562,
    "speed": 0,
    "load": 0.2717500617554993
  },
  {
    "temp": 178.8048858642578,
    "speed": 0,
    "load": 0.27413112671327866
  },
  {
    "temp": 178.80935668945312,
    "speed": 0,
    "load": 0.272499656279245
  },
  {
    "temp": 178.8043975830078,
    "speed": 0,
    "load": 0.272279187301673
  },
  {
    "temp": 178.8040771484375,
    "speed": 0,
    "load": 0.2718382493465281
  },
  {
    "temp": 178.8001708984375,
    "speed": 0,
    "load": 0.2714414051868985
  },
  {
    "temp": 178.8055877685547,
    "speed": 0,
    "load": 0.2674288697950846
  },
  {
    "temp": 178.80992126464844,
    "speed": 0,
    "load": 0.26663518147582455
  },
  {
    "temp": 178.81614685058594,
    "speed": 0,
    "load": 0.268354839500887
  },
  {
    "temp": 178.80982971191406,
    "speed": 0,
    "load": 0.2653564614059052
  },
  {
    "temp": 178.8133087158203,
    "speed": 0,
    "load": 0.2646509606776739
  },
  {
    "temp": 178.80978393554688,
    "speed": 0,
    "load": 0.2640336475404723
  },
  {
    "temp": 178.8218231201172,
    "speed": 0,
    "load": 0.2653564614059052
  },
  {
    "temp": 178.82290649414062,
    "speed": 0,
    "load": 0.26958946577529197
  },
  {
    "temp": 178.8237762451172,
    "speed": 0,
    "load": 0.2648714296552468
  },
  {
    "temp": 178.82501220703125,
    "speed": 0,
    "load": 0.2635927095853283
  },
  {
    "temp": 178.82545471191406,
    "speed": 0,
    "load": 0.26619424352067966
  },
  {
    "temp": 178.80873107910156,
    "speed": 0,
    "load": 0.26354861578981303
  },
  {
    "temp": 178.8153839111328,
    "speed": 0,
    "load": 0.2615203011961489
  },
  {
    "temp": 178.8177490234375,
    "speed": 0,
    "load": 0.2523046979336314
  },
  {
    "temp": 178.81964111328125,
    "speed": 0,
    "load": 0.25821326653256627
  },
  {
    "temp": 178.82237243652344,
    "speed": 0,
    "load": 0.25878648587425346
  },
  {
    "temp": 178.82334899902344,
    "speed": 0,
    "load": 0.25442120011832436
  },
  {
    "temp": 178.8155975341797,
    "speed": 0,
    "load": 0.25834554791910946
  },
  {
    "temp": 178.81124877929688,
    "speed": 0,
    "load": 0.2537597931856075
  },
  {
    "temp": 178.81443786621094,
    "speed": 0,
    "load": 0.24604337897058048
  },
  {
    "temp": 178.81700134277344,
    "speed": 0,
    "load": 0.24595519137955169
  },
  {
    "temp": 178.8190460205078,
    "speed": 0,
    "load": 0.24824806874630223
  },
  {
    "temp": 178.8206787109375,
    "speed": 0,
    "load": 0.25071732129511126
  },
  {
    "temp": 178.8230438232422,
    "speed": 0,
    "load": 0.2490858508610767
  },
  {
    "temp": 178.82388305664062,
    "speed": 0,
    "load": 0.24666069210778296
  },
  {
    "temp": 178.81602478027344,
    "speed": 0,
    "load": 0.244985127878234
  },
  {
    "temp": 178.81826782226562,
    "speed": 0,
    "load": 0.24838035013284543
  },
  {
    "temp": 178.82005310058594,
    "speed": 0,
    "load": 0.24811578735975903
  },
  {
    "temp": 178.81410217285156,
    "speed": 0,
    "load": 0.2451615030602916
  },
  {
    "temp": 178.80819702148438,
    "speed": 0,
    "load": 0.2453819720378636
  },
  {
    "temp": 178.803466796875,
    "speed": 0,
    "load": 0.24595519137955169
  },
  {
    "temp": 178.81201171875,
    "speed": 0,
    "load": 0.2451174092647772
  },
  {
    "temp": 178.81504821777344,
    "speed": 0,
    "load": 0.24039937314473203
  },
  {
    "temp": 178.81748962402344,
    "speed": 0,
    "load": 0.23894427789275507
  },
  {
    "temp": 178.81944274902344,
    "speed": 0,
    "load": 0.24392687678588665
  },
  {
    "temp": 178.8209991455078,
    "speed": 0,
    "load": 0.23956159102995755
  },
  {
    "temp": 178.81642150878906,
    "speed": 0,
    "load": 0.2339175852041091
  },
  {
    "temp": 178.81005859375,
    "speed": 0,
    "load": 0.2342703355682243
  },
  {
    "temp": 178.81349182128906,
    "speed": 0,
    "load": 0.2340498665906523
  },
  {
    "temp": 178.8162384033203,
    "speed": 0,
    "load": 0.23140423885978567
  },
  {
    "temp": 178.8184356689453,
    "speed": 0,
    "load": 0.22880270492443344
  },
  {
    "temp": 178.82159423828125,
    "speed": 0,
    "load": 0.2298609560167808
  },
  {
    "temp": 178.82272338867188,
    "speed": 0,
    "load": 0.22800901660517425
  },
  {
    "temp": 178.81509399414062,
    "speed": 0,
    "load": 0.23105148849567048
  },
  {
    "temp": 178.80899047851562,
    "speed": 0,
    "load": 0.22959639324369352
  },
  {
    "temp": 178.80410766601562,
    "speed": 0,
    "load": 0.22942001806163592
  },
  {
    "temp": 178.8124237060547,
    "speed": 0,
    "load": 0.23197745820147375
  },
  {
    "temp": 178.8153839111328,
    "speed": 0,
    "load": 0.22840586076480385
  },
  {
    "temp": 178.8177490234375,
    "speed": 0,
    "load": 0.2259807020115101
  },
  {
    "temp": 178.81964111328125,
    "speed": 0,
    "load": 0.22434923157747555
  },
  {
    "temp": 178.81553649902344,
    "speed": 0,
    "load": 0.22518701369225003
  },
  {
    "temp": 178.80934143066406,
    "speed": 0,
    "load": 0.22161541625558012
  },
  {
    "temp": 178.8129119873047,
    "speed": 0,
    "load": 0.22461379435056195
  },
  {
    "temp": 178.8072509765625,
    "speed": 0,
    "load": 0.22818539178723185
  },
  {
    "temp": 178.8076171875,
    "speed": 0,
    "load": 0.22205635421072412
  },
  {
    "temp": 178.81153869628906,
    "speed": 0,
    "load": 0.2221445418017538
  },
  {
    "temp": 178.81468200683594,
    "speed": 0,
    "load": 0.2228500425299842
  },
  {
    "temp": 178.80865478515625,
    "speed": 0,
    "load": 0.21971938304845917
  },
  {
    "temp": 178.8085174560547,
    "speed": 0,
    "load": 0.21650053597590535
  },
  {
    "temp": 178.812255859375,
    "speed": 0,
    "load": 0.21632416079384686
  },
  {
    "temp": 178.81524658203125,
    "speed": 0,
    "load": 0.2153100034970148
  },
  {
    "temp": 178.81956481933594,
    "speed": 0,
    "load": 0.21570684765664438
  },
  {
    "temp": 178.8210906982422,
    "speed": 0,
    "load": 0.21429584620018272
  },
  {
    "temp": 178.8223114013672,
    "speed": 0,
    "load": 0.21297303233474985
  },
  {
    "temp": 178.8232879638672,
    "speed": 0,
    "load": 0.21601550422524607
  },
  {
    "temp": 178.82470703125,
    "speed": 0,
    "load": 0.2144722213822403
  },
  {
    "temp": 178.81668090820312,
    "speed": 0,
    "load": 0.2150895345194428
  },
  {
    "temp": 178.81878662109375,
    "speed": 0,
    "load": 0.2154863786790724
  },
  {
    "temp": 178.8204803466797,
    "speed": 0,
    "load": 0.21231162540203297
  },
  {
    "temp": 178.8160858154297,
    "speed": 0,
    "load": 0.210636061172484
  },
  {
    "temp": 178.80978393554688,
    "speed": 0,
    "load": 0.20957781008013754
  },
  {
    "temp": 178.8132781982422,
    "speed": 0,
    "load": 0.20979827905770954
  },
  {
    "temp": 178.8075408935547,
    "speed": 0,
    "load": 0.21248800058409056
  },
  {
    "temp": 178.80609130859375,
    "speed": 0,
    "load": 0.21394309583606752
  },
  {
    "temp": 178.81031799316406,
    "speed": 0,
    "load": 0.20825499621470467
  },
  {
    "temp": 178.80517578125,
    "speed": 0,
    "load": 0.21314940751680744
  },
  {
    "temp": 178.80105590820312,
    "speed": 0,
    "load": 0.21420765860915392
  },
  {
    "temp": 178.8104705810547,
    "speed": 0,
    "load": 0.21226753160651857
  },
  {
    "temp": 178.81382751464844,
    "speed": 0,
    "load": 0.21341397028989384
  },
  {
    "temp": 178.81651306152344,
    "speed": 0,
    "load": 0.21178249985585929
  },
  {
    "temp": 178.81011962890625,
    "speed": 0,
    "load": 0.2067999009627277
  },
  {
    "temp": 178.8094482421875,
    "speed": 0,
    "load": 0.20865184037433426
  },
  {
    "temp": 178.81300354003906,
    "speed": 0,
    "load": 0.20640305680309812
  },
  {
    "temp": 178.80731201171875,
    "speed": 0,
    "load": 0.20538889950626604
  },
  {
    "temp": 178.81448364257812,
    "speed": 0,
    "load": 0.20190548966062494
  },
  {
    "temp": 178.80850219726562,
    "speed": 0,
    "load": 0.2038015228677459
  },
  {
    "temp": 178.795166015625,
    "speed": 0,
    "load": 0.2069321823492709
  },
  {
    "temp": 178.78280639648438,
    "speed": 0,
    "load": 0.20605030643898203
  },
  {
    "temp": 178.79168701171875,
    "speed": 0,
    "load": 0.20433064841391868
  },
  {
    "temp": 178.78172302246094,
    "speed": 0,
    "load": 0.19828979842844063
  },
  {
    "temp": 178.77374267578125,
    "speed": 0,
    "load": 0.19476229478728513
  },
  {
    "temp": 178.76910400390625,
    "speed": 0,
    "load": 0.20503614914214996
  },
  {
    "temp": 178.77220153808594,
    "speed": 0,
    "load": 0.2027873655709138
  },
  {
    "temp": 178.77467346191406,
    "speed": 0,
    "load": 0.19837798601946943
  },
  {
    "temp": 178.78506469726562,
    "speed": 0,
    "load": 0.20058267579519118
  },
  {
    "temp": 178.77642822265625,
    "speed": 0,
    "load": 0.19427726303662674
  },
  {
    "temp": 178.760986328125,
    "speed": 0,
    "load": 0.1950709513558868
  },
  {
    "temp": 178.76263427734375,
    "speed": 0,
    "load": 0.19291035537567858
  },
  {
    "temp": 178.76702880859375,
    "speed": 0,
    "load": 0.19392451267251154
  },
  {
    "temp": 178.76199340820312,
    "speed": 0,
    "load": 0.19330719953530906
  },
  {
    "temp": 178.76651000976562,
    "speed": 0,
    "load": 0.19229304223847699
  },
  {
    "temp": 178.76158142089844,
    "speed": 0,
    "load": 0.1915434477147313
  },
  {
    "temp": 178.7630157470703,
    "speed": 0,
    "load": 0.19308673055773617
  },
  {
    "temp": 178.77586364746094,
    "speed": 0,
    "load": 0.19295444917119298
  },
  {
    "temp": 178.77760314941406,
    "speed": 0,
    "load": 0.18726634954983012
  },
  {
    "temp": 178.77899169921875,
    "speed": 0,
    "load": 0.1874427247318886
  },
  {
    "temp": 178.78782653808594,
    "speed": 0,
    "load": 0.18885372618835028
  },
  {
    "temp": 178.77862548828125,
    "speed": 0,
    "load": 0.1881041316646046
  },
  {
    "temp": 178.7627410888672,
    "speed": 0,
    "load": 0.18479709700102198
  },
  {
    "temp": 178.7774200439453,
    "speed": 0,
    "load": 0.1878395688915182
  },
  {
    "temp": 178.7788543701172,
    "speed": 0,
    "load": 0.18501756597859398
  },
  {
    "temp": 178.77999877929688,
    "speed": 0,
    "load": 0.17853577803797105
  },
  {
    "temp": 178.77236938476562,
    "speed": 0,
    "load": 0.17937356015274553
  },
  {
    "temp": 178.76626586914062,
    "speed": 0,
    "load": 0.17844759044694225
  },
  {
    "temp": 178.76773071289062,
    "speed": 0,
    "load": 0.17818302767385585
  },
  {
    "temp": 178.76255798339844,
    "speed": 0,
    "load": 0.17337680396278188
  },
  {
    "temp": 178.77549743652344,
    "speed": 0,
    "load": 0.17778618351422537
  },
  {
    "temp": 178.78729248046875,
    "speed": 0,
    "load": 0.17584605651159002
  },
  {
    "temp": 178.7867431640625,
    "speed": 0,
    "load": 0.17364136673586827
  },
  {
    "temp": 178.77777099609375,
    "speed": 0,
    "load": 0.1727594908255794
  },
  {
    "temp": 178.7791290283203,
    "speed": 0,
    "load": 0.17099573900500165
  },
  {
    "temp": 178.7810821533203,
    "speed": 0,
    "load": 0.17333271016726748
  },
  {
    "temp": 178.79031372070312,
    "speed": 0,
    "load": 0.17223036527940572
  },
  {
    "temp": 178.79769897460938,
    "speed": 0,
    "load": 0.16751232915936143
  },
  {
    "temp": 178.79507446289062,
    "speed": 0,
    "load": 0.16773279813693343
  },
  {
    "temp": 178.806640625,
    "speed": 0,
    "load": 0.16372026274511953
  },
  {
    "temp": 178.81076049804688,
    "speed": 0,
    "load": 0.16724776638627414
  },
  {
    "temp": 178.80552673339844,
    "speed": 0,
    "load": 0.1692760809799383
  },
  {
    "temp": 178.80650329589844,
    "speed": 0,
    "load": 0.1647785138374651
  },
  {
    "temp": 178.8021240234375,
    "speed": 0,
    "load": 0.16442576347334992
  },
  {
    "temp": 178.79861450195312,
    "speed": 0,
    "load": 0.1651312642015812
  },
  {
    "temp": 178.79356384277344,
    "speed": 0,
    "load": 0.16275019924380096
  },
  {
    "temp": 178.80029296875,
    "speed": 0,
    "load": 0.16058960326359362
  },
  {
    "temp": 178.79714965820312,
    "speed": 0,
    "load": 0.16812964229656302
  },
  {
    "temp": 178.7946319580078,
    "speed": 0,
    "load": 0.1648667014284948
  },
  {
    "temp": 178.79783630371094,
    "speed": 0,
    "load": 0.16319113719894585
  },
  {
    "temp": 178.8037109375,
    "speed": 0,
    "load": 0.1612951039918249
  },
  {
    "temp": 178.80841064453125,
    "speed": 0,
    "load": 0.15935497698918955
  },
  {
    "temp": 178.80665588378906,
    "speed": 0,
    "load": 0.15961953976227594
  },
  {
    "temp": 178.80224609375,
    "speed": 0,
    "load": 0.1653958269746676
  },
  {
    "temp": 178.80723571777344,
    "speed": 0,
    "load": 0.15679753684935172
  },
  {
    "temp": 178.80760192871094,
    "speed": 0,
    "load": 0.15618022371215012
  },
  {
    "temp": 178.8115234375,
    "speed": 0,
    "load": 0.15481331605120197
  },
  {
    "temp": 178.80613708496094,
    "speed": 0,
    "load": 0.15618022371215012
  },
  {
    "temp": 178.80181884765625,
    "speed": 0,
    "load": 0.15476922225568757
  },
  {
    "temp": 178.80413818359375,
    "speed": 0,
    "load": 0.15595975473457724
  },
  {
    "temp": 178.80023193359375,
    "speed": 0,
    "load": 0.15053621788630167
  },
  {
    "temp": 178.79710388183594,
    "speed": 0,
    "load": 0.15481331605120197
  },
  {
    "temp": 178.79942321777344,
    "speed": 0,
    "load": 0.153358220799225
  },
  {
    "temp": 178.8049774169922,
    "speed": 0,
    "load": 0.1539755339364275
  },
  {
    "temp": 178.80943298339844,
    "speed": 0,
    "load": 0.15538653539289005
  },
  {
    "temp": 178.81298828125,
    "speed": 0,
    "load": 0.14908112263432471
  },
  {
    "temp": 178.80731201171875,
    "speed": 0,
    "load": 0.1535345959812835
  },
  {
    "temp": 178.80276489257812,
    "speed": 0,
    "load": 0.15146218759210406
  },
  {
    "temp": 178.79058837890625,
    "speed": 0,
    "load": 0.14899293504329592
  },
  {
    "temp": 178.78842163085938,
    "speed": 0,
    "load": 0.1533141270037106
  },
  {
    "temp": 178.78765869140625,
    "speed": 0,
    "load": 0.15088896825041687
  },
  {
    "temp": 178.77850341796875,
    "speed": 0,
    "load": 0.1501393737266712
  },
  {
    "temp": 178.7882537841797,
    "speed": 0,
    "load": 0.14736146460926136
  },
  {
    "temp": 178.77838134765625,
    "speed": 0,
    "load": 0.1537109711633411
  },
  {
    "temp": 178.78814697265625,
    "speed": 0,
    "load": 0.1497425295670416
  },
  {
    "temp": 178.7788848876953,
    "speed": 0,
    "load": 0.15031574890872879
  },
  {
    "temp": 178.780029296875,
    "speed": 0,
    "load": 0.1493456854074111
  },
  {
    "temp": 178.7884979248047,
    "speed": 0,
    "load": 0.14520086862905401
  },
  {
    "temp": 178.79624938964844,
    "speed": 0,
    "load": 0.13880726827945988
  },
  {
    "temp": 178.78536987304688,
    "speed": 0,
    "load": 0.13647029711719405
  },
  {
    "temp": 178.78521728515625,
    "speed": 0,
    "load": 0.14123242703275452
  },
  {
    "temp": 178.7747344970703,
    "speed": 0,
    "load": 0.13990961316732076
  },
  {
    "temp": 178.77670288085938,
    "speed": 0,
    "load": 0.14074739528209523
  },
  {
    "temp": 178.7697296142578,
    "speed": 0,
    "load": 0.13929230003011916
  },
  {
    "temp": 178.772705078125,
    "speed": 0,
    "load": 0.14264342848921618
  },
  {
    "temp": 178.78550720214844,
    "speed": 0,
    "load": 0.13960095659871996
  },
  {
    "temp": 178.7853240966797,
    "speed": 0,
    "load": 0.13938048762114796
  },
  {
    "temp": 178.78517150878906,
    "speed": 0,
    "load": 0.13620573434410765
  },
  {
    "temp": 178.7764129638672,
    "speed": 0,
    "load": 0.13567660879793486
  },
  {
    "temp": 178.76950073242188,
    "speed": 0,
    "load": 0.13986551937180636
  },
  {
    "temp": 178.76397705078125,
    "speed": 0,
    "load": 0.13704351645888213
  },
  {
    "temp": 178.7491912841797,
    "speed": 0,
    "load": 0.12928300844834073
  },
  {
    "temp": 178.7562713623047,
    "speed": 0,
    "load": 0.13602935916205006
  },
  {
    "temp": 178.76193237304688,
    "speed": 0,
    "load": 0.13638210952616525
  },
  {
    "temp": 178.7717742919922,
    "speed": 0,
    "load": 0.13691123507233893
  },
  {
    "temp": 178.7743377685547,
    "speed": 0,
    "load": 0.13550023361587726
  },
  {
    "temp": 178.77638244628906,
    "speed": 0,
    "load": 0.13148769822406248
  },
  {
    "temp": 178.76947021484375,
    "speed": 0,
    "load": 0.1339569507728715
  },
  {
    "temp": 178.76806640625,
    "speed": 0,
    "load": 0.13316326245361143
  },
  {
    "temp": 178.7628173828125,
    "speed": 0,
    "load": 0.1307381037003168
  },
  {
    "temp": 178.7671661376953,
    "speed": 0,
    "load": 0.12760744421879178
  },
  {
    "temp": 178.7734375,
    "speed": 0,
    "load": 0.12862160151562385
  },
  {
    "temp": 178.77566528320312,
    "speed": 0,
    "load": 0.1302530719496584
  },
  {
    "temp": 178.78598022460938,
    "speed": 0,
    "load": 0.13153179201957688
  },
  {
    "temp": 178.7942352294922,
    "speed": 0,
    "load": 0.1270783186726181
  },
  {
    "temp": 178.79075622558594,
    "speed": 0,
    "load": 0.12893025808422465
  },
  {
    "temp": 178.78952026367188,
    "speed": 0,
    "load": 0.1299003215855432
  },
  {
    "temp": 178.7885284423828,
    "speed": 0,
    "load": 0.12562322342064203
  },
  {
    "temp": 178.7962646484375,
    "speed": 0,
    "load": 0.12513819166998275
  },
  {
    "temp": 178.8074188232422,
    "speed": 0,
    "load": 0.12571141101167083
  },
  {
    "temp": 178.81138610839844,
    "speed": 0,
    "load": 0.1268137558995317
  },
  {
    "temp": 178.81455993652344,
    "speed": 0,
    "load": 0.12130203146022644
  },
  {
    "temp": 178.81912231445312,
    "speed": 0,
    "load": 0.12434450335072356
  },
  {
    "temp": 178.82073974609375,
    "speed": 0,
    "load": 0.12738697524121978
  },
  {
    "temp": 178.81350708007812,
    "speed": 0,
    "load": 0.12368309641800668
  },
  {
    "temp": 178.81625366210938,
    "speed": 0,
    "load": 0.1228453143032322
  },
  {
    "temp": 178.81338500976562,
    "speed": 0,
    "load": 0.1231098770763186
  },
  {
    "temp": 178.8076171875,
    "speed": 0,
    "load": 0.1192296230710479
  },
  {
    "temp": 178.80300903320312,
    "speed": 0,
    "load": 0.12562322342064203
  },
  {
    "temp": 178.80784606933594,
    "speed": 0,
    "load": 0.1227571267122034
  },
  {
    "temp": 178.80799865722656,
    "speed": 0,
    "load": 0.12015559277685117
  },
  {
    "temp": 178.8118438720703,
    "speed": 0,
    "load": 0.11733358986392695
  },
  {
    "temp": 178.81492614746094,
    "speed": 0,
    "load": 0.12046424934545286
  },
  {
    "temp": 178.80885314941406,
    "speed": 0,
    "load": 0.1187886851159039
  },
  {
    "temp": 178.8086395263672,
    "speed": 0,
    "load": 0.11327696067659865
  },
  {
    "temp": 178.8038330078125,
    "speed": 0,
    "load": 0.10626604718980204
  },
  {
    "temp": 178.8085174560547,
    "speed": 0,
    "load": 0.11279192892594025
  },
  {
    "temp": 178.812255859375,
    "speed": 0,
    "load": 0.11274783513042586
  },
  {
    "temp": 178.81764221191406,
    "speed": 0,
    "load": 0.1113809274694777
  },
  {
    "temp": 178.81103515625,
    "speed": 0,
    "load": 0.1155698380433492
  },
  {
    "temp": 178.81427001953125,
    "speed": 0,
    "load": 0.10988173842198634
  },
  {
    "temp": 178.79978942871094,
    "speed": 0,
    "load": 0.10996992601301514
  },
  {
    "temp": 178.7943115234375,
    "speed": 0,
    "load": 0.10899986251169835
  },
  {
    "temp": 178.80088806152344,
    "speed": 0,
    "load": 0.10944080046684235
  },
  {
    "temp": 178.80615234375,
    "speed": 0,
    "load": 0.10825026798795179
  },
  {
    "temp": 178.81373596191406,
    "speed": 0,
    "load": 0.10785342382832219
  },
  {
    "temp": 178.81643676757812,
    "speed": 0,
    "load": 0.11063133294573202
  },
  {
    "temp": 178.81858825683594,
    "speed": 0,
    "load": 0.11071952053676082
  },
  {
    "temp": 178.8148651123047,
    "speed": 0,
    "load": 0.10489913952885477
  },
  {
    "temp": 178.8173370361328,
    "speed": 0,
    "load": 0.10507551471091237
  },
  {
    "temp": 178.81932067871094,
    "speed": 0,
    "load": 0.10613376580325884
  },
  {
    "temp": 178.82090759277344,
    "speed": 0,
    "load": 0.10556054646157165
  },
  {
    "temp": 178.8061065673828,
    "speed": 0,
    "load": 0.10842664317001027
  },
  {
    "temp": 178.8018035888672,
    "speed": 0,
    "load": 0.10423773259613789
  },
  {
    "temp": 178.79835510253906,
    "speed": 0,
    "load": 0.10220941800247374
  },
  {
    "temp": 178.80874633789062,
    "speed": 0,
    "load": 0.10088660413704087
  },
  {
    "temp": 178.81243896484375,
    "speed": 0,
    "load": 0.10238579318453134
  },
  {
    "temp": 178.80686950683594,
    "speed": 0,
    "load": 0.10631014098531644
  },
  {
    "temp": 178.81094360351562,
    "speed": 0,
    "load": 0.10198894902490174
  },
  {
    "temp": 178.8082733154297,
    "speed": 0,
    "load": 0.0996960716581512
  },
  {
    "temp": 178.80352783203125,
    "speed": 0,
    "load": 0.10278263734416182
  },
  {
    "temp": 178.8082733154297,
    "speed": 0,
    "load": 0.10692745412251892
  },
  {
    "temp": 178.80352783203125,
    "speed": 0,
    "load": 0.10794161141935099
  },
  {
    "temp": 178.80523681640625,
    "speed": 0,
    "load": 0.10309129391276262
  },
  {
    "temp": 178.80963134765625,
    "speed": 0,
    "load": 0.10251807457107454
  },
  {
    "temp": 178.8131561279297,
    "speed": 0,
    "load": 0.09846144538374624
  },
  {
    "temp": 178.8096923828125,
    "speed": 0,
    "load": 0.10128344829667046
  },
  {
    "temp": 178.81320190429688,
    "speed": 0,
    "load": 0.10697154791803332
  },
  {
    "temp": 178.80747985839844,
    "speed": 0,
    "load": 0.09440481619641794
  },
  {
    "temp": 178.81143188476562,
    "speed": 0,
    "load": 0.09612447422148129
  },
  {
    "temp": 178.81028747558594,
    "speed": 0,
    "load": 0.09868191436131823
  },
  {
    "temp": 178.80514526367188,
    "speed": 0,
    "load": 0.10190076143387294
  },
  {
    "temp": 178.801025390625,
    "speed": 0,
    "load": 0.10560464025708605
  },
  {
    "temp": 178.7891845703125,
    "speed": 0,
    "load": 0.10101888552358407
  },
  {
    "temp": 178.7892303466797,
    "speed": 0,
    "load": 0.09383159685472986
  },
  {
    "temp": 178.7968292236328,
    "speed": 0,
    "load": 0.09462528517398994
  },
  {
    "temp": 178.79437255859375,
    "speed": 0,
    "load": 0.09819688261065984
  },
  {
    "temp": 178.8061981201172,
    "speed": 0,
    "load": 0.09462528517398994
  },
  {
    "temp": 178.8018798828125,
    "speed": 0,
    "load": 0.09383159685472986
  },
  {
    "temp": 178.7984161376953,
    "speed": 0,
    "load": 0.09149462569246491
  },
  {
    "temp": 178.79513549804688,
    "speed": 0,
    "load": 0.0921560326251818
  },
  {
    "temp": 178.8015594482422,
    "speed": 0,
    "load": 0.09810869501963104
  },
  {
    "temp": 178.79815673828125,
    "speed": 0,
    "load": 0.09757956947345736
  },
  {
    "temp": 178.80397033691406,
    "speed": 0,
    "load": 0.09330247130855707
  },
  {
    "temp": 178.7884521484375,
    "speed": 0,
    "load": 0.09405206583230274
  },
  {
    "temp": 178.7876739501953,
    "speed": 0,
    "load": 0.09039228080460404
  },
  {
    "temp": 178.7882537841797,
    "speed": 0,
    "load": 0.09493394174259073
  },
  {
    "temp": 178.7875213623047,
    "speed": 0,
    "load": 0.09647722458559649
  },
  {
    "temp": 178.78692626953125,
    "speed": 0,
    "load": 0.09250878298929699
  },
  {
    "temp": 178.7864532470703,
    "speed": 0,
    "load": 0.09458119137847554
  },
  {
    "temp": 178.7789306640625,
    "speed": 0,
    "load": 0.09749138188242856
  },
  {
    "temp": 178.78005981445312,
    "speed": 0,
    "load": 0.09356703408164346
  },
  {
    "temp": 178.7724151611328,
    "speed": 0,
    "load": 0.08598290125315966
  },
  {
    "temp": 178.7784881591797,
    "speed": 0,
    "load": 0.08210264724788896
  },
  {
    "temp": 178.78823852539062,
    "speed": 0,
    "load": 0.08452780600118359
  },
  {
    "temp": 178.79603576660156,
    "speed": 0,
    "load": 0.0843514308191251
  },
  {
    "temp": 178.77667236328125,
    "speed": 0,
    "load": 0.08016252024525361
  },
  {
    "temp": 178.77098083496094,
    "speed": 0,
    "load": 0.08249949140751855
  },
  {
    "temp": 178.7822265625,
    "speed": 0,
    "load": 0.08532149432044278
  },
  {
    "temp": 178.79122924804688,
    "speed": 0,
    "load": 0.08668840198139094
  },
  {
    "temp": 178.78990173339844,
    "speed": 0,
    "load": 0.08633565161727574
  },
  {
    "temp": 178.77259826660156,
    "speed": 0,
    "load": 0.08673249577690534
  },
  {
    "temp": 178.77499389648438,
    "speed": 0,
    "load": 0.08413096184155311
  },
  {
    "temp": 178.76837158203125,
    "speed": 0,
    "load": 0.08192627206583136
  },
  {
    "temp": 178.76565551757812,
    "speed": 0,
    "load": 0.08752618409616542
  },
  {
    "temp": 178.76943969726562,
    "speed": 0,
    "load": 0.08518921293389958
  },
  {
    "temp": 178.78099060058594,
    "speed": 0,
    "load": 0.0843514308191251
  },
  {
    "temp": 178.77545166015625,
    "speed": 0,
    "load": 0.08457189979669799
  },
  {
    "temp": 178.76873779296875,
    "speed": 0,
    "load": 0.08404277425052431
  },
  {
    "temp": 178.77191162109375,
    "speed": 0,
    "load": 0.07769326769644458
  },
  {
    "temp": 178.76589965820312,
    "speed": 0,
    "load": 0.07645864142204051
  },
  {
    "temp": 178.77432250976562,
    "speed": 0,
    "load": 0.08042708301834
  },
  {
    "temp": 178.7763671875,
    "speed": 0,
    "load": 0.07632636003549731
  },
  {
    "temp": 178.77801513671875,
    "speed": 0,
    "load": 0.07328388814500109
  },
  {
    "temp": 178.77932739257812,
    "speed": 0,
    "load": 0.07879561258430634
  },
  {
    "temp": 178.78121948242188,
    "speed": 0,
    "load": 0.0727988563943418
  },
  {
    "temp": 178.78189086914062,
    "speed": 0,
    "load": 0.0765468290130693
  },
  {
    "temp": 178.7824249267578,
    "speed": 0,
    "load": 0.07121147975582165
  },
  {
    "temp": 178.79002380371094,
    "speed": 0,
    "load": 0.07121147975582165
  },
  {
    "temp": 178.79747009277344,
    "speed": 0,
    "load": 0.07385710748668828
  },
  {
    "temp": 178.79489135742188,
    "speed": 0,
    "load": 0.07244610603022661
  },
  {
    "temp": 178.80653381347656,
    "speed": 0,
    "load": 0.06631706845371887
  },
  {
    "temp": 178.80213928222656,
    "speed": 0,
    "load": 0.0651706297703436
  },
  {
    "temp": 178.7986297607422,
    "speed": 0,
    "load": 0.06843357063841182
  },
  {
    "temp": 178.80210876464844,
    "speed": 0,
    "load": 0.06944772793524479
  },
  {
    "temp": 178.80712890625,
    "speed": 0,
    "load": 0.06838947684289742
  },
  {
    "temp": 178.8026123046875,
    "speed": 0,
    "load": 0.06574384911203168
  },
  {
    "temp": 178.8075408935547,
    "speed": 0,
    "load": 0.06759578852363823
  },
  {
    "temp": 178.80609130859375,
    "speed": 0,
    "load": 0.06587613049857488
  },
  {
    "temp": 178.81031799316406,
    "speed": 0,
    "load": 0.06398009729145393
  },
  {
    "temp": 178.81370544433594,
    "speed": 0,
    "load": 0.06256909583499137
  },
  {
    "temp": 178.81004333496094,
    "speed": 0,
    "load": 0.06437694145108352
  },
  {
    "temp": 178.80494689941406,
    "speed": 0,
    "load": 0.0687863210025279
  },
  {
    "temp": 178.8094024658203,
    "speed": 0,
    "load": 0.06997685348141758
  },
  {
    "temp": 178.81582641601562,
    "speed": 0,
    "load": 0.0691831651621575
  },
  {
    "temp": 178.81809997558594,
    "speed": 0,
    "load": 0.0649501607927716
  },
  {
    "temp": 178.81993103027344,
    "speed": 0,
    "load": 0.0649501607927716
  },
  {
    "temp": 178.82139587402344,
    "speed": 0,
    "load": 0.06816900786532543
  },
  {
    "temp": 178.823486328125,
    "speed": 0,
    "load": 0.06856585202495502
  },
  {
    "temp": 178.81570434570312,
    "speed": 0,
    "load": 0.0615108447426449
  },
  {
    "temp": 178.81800842285156,
    "speed": 0,
    "load": 0.0652588173613724
  },
  {
    "temp": 178.81985473632812,
    "speed": 0,
    "load": 0.061731313720216896
  },
  {
    "temp": 178.822509765625,
    "speed": 0,
    "load": 0.06433284765556913
  },
  {
    "temp": 178.82345581054688,
    "speed": 0,
    "load": 0.06093762540095682
  },
  {
    "temp": 178.80712890625,
    "speed": 0,
    "load": 0.05912977978486467
  },
  {
    "temp": 178.8058319091797,
    "speed": 0,
    "load": 0.06076125021889922
  },
  {
    "temp": 178.80157470703125,
    "speed": 0,
    "load": 0.05943843635346635
  },
  {
    "temp": 178.7981719970703,
    "speed": 0,
    "load": 0.058468372852148676
  },
  {
    "temp": 178.80398559570312,
    "speed": 0,
    "load": 0.060496687445812825
  },
  {
    "temp": 178.80010986328125,
    "speed": 0,
    "load": 0.05516133818856517
  },
  {
    "temp": 178.7945098876953,
    "speed": 0,
    "load": 0.05608730789436844
  },
  {
    "temp": 178.7839813232422,
    "speed": 0,
    "load": 0.05432355607379158
  },
  {
    "temp": 178.7841033935547,
    "speed": 0,
    "load": 0.05326530498144422
  },
  {
    "temp": 178.79962158203125,
    "speed": 0,
    "load": 0.053441680163501815
  },
  {
    "temp": 178.79661560058594,
    "speed": 0,
    "load": 0.05225114768461214
  },
  {
    "temp": 178.79420471191406,
    "speed": 0,
    "load": 0.0536621491410747
  },
  {
    "temp": 178.80081176757812,
    "speed": 0,
    "load": 0.05489677541547877
  },
  {
    "temp": 178.80609130859375,
    "speed": 0,
    "load": 0.055337713370622765
  },
  {
    "temp": 178.79150390625,
    "speed": 0,
    "load": 0.05225114768461214
  },
  {
    "temp": 178.79864501953125,
    "speed": 0,
    "load": 0.052118866298068944
  },
  {
    "temp": 178.80894470214844,
    "speed": 0,
    "load": 0.05158974075189526
  },
  {
    "temp": 178.8040771484375,
    "speed": 0,
    "load": 0.046871704631850974
  },
  {
    "temp": 178.80870056152344,
    "speed": 0,
    "load": 0.043696951354810665
  },
  {
    "temp": 178.8038787841797,
    "speed": 0,
    "load": 0.04801814331522625
  },
  {
    "temp": 178.81228637695312,
    "speed": 0,
    "load": 0.04770948674662456
  },
  {
    "temp": 178.80674743652344,
    "speed": 0,
    "load": 0.04920867579411592
  },
  {
    "temp": 178.8108367919922,
    "speed": 0,
    "load": 0.04735673638250937
  },
  {
    "temp": 178.81411743164062,
    "speed": 0,
    "load": 0.046827610836336575
  },
  {
    "temp": 178.81201171875,
    "speed": 0,
    "load": 0.04462292106061394
  },
  {
    "temp": 178.8065185546875,
    "speed": 0,
    "load": 0.044975671424730024
  },
  {
    "temp": 178.7935791015625,
    "speed": 0,
    "load": 0.04598982872156121
  },
  {
    "temp": 178.7988739013672,
    "speed": 0,
    "load": 0.050222833090947994
  },
  {
    "temp": 178.7960205078125,
    "speed": 0,
    "load": 0.04673942324530689
  },
  {
    "temp": 178.79872131347656,
    "speed": 0,
    "load": 0.048679550247943126
  },
  {
    "temp": 178.7958984375,
    "speed": 0,
    "load": 0.04660714185876369
  },
  {
    "temp": 178.8021697998047,
    "speed": 0,
    "load": 0.042418231284892194
  },
  {
    "temp": 178.8026580810547,
    "speed": 0,
    "load": 0.044887483833701225
  },
  {
    "temp": 178.8075714111328,
    "speed": 0,
    "load": 0.04338829478620987
  },
  {
    "temp": 178.81150817871094,
    "speed": 0,
    "load": 0.04404970171892586
  },
  {
    "temp": 178.80612182617188,
    "speed": 0,
    "load": 0.04647486047222049
  },
  {
    "temp": 178.79837036132812,
    "speed": 0,
    "load": 0.04352057617275307
  },
  {
    "temp": 178.80413818359375,
    "speed": 0,
    "load": 0.03994897873608316
  },
  {
    "temp": 178.80023193359375,
    "speed": 0,
    "load": 0.04272688785349299
  },
  {
    "temp": 178.80995178222656,
    "speed": 0,
    "load": 0.04016944771365516
  },
  {
    "temp": 178.8134002685547,
    "speed": 0,
    "load": 0.03875844625719349
  },
  {
    "temp": 178.81155395507812,
    "speed": 0,
    "load": 0.04188910573871851
  },
  {
    "temp": 178.81468200683594,
    "speed": 0,
    "load": 0.039728509758511166
  },
  {
    "temp": 178.8171844482422,
    "speed": 0,
    "load": 0.04519614040230202
  },
  {
    "temp": 178.81919860839844,
    "speed": 0,
    "load": 0.03421678531920591
  },
  {
    "temp": 178.82208251953125,
    "speed": 0,
    "load": 0.037744288960361416
  },
  {
    "temp": 178.8145751953125,
    "speed": 0,
    "load": 0.04396151412789706
  },
  {
    "temp": 178.81710815429688,
    "speed": 0,
    "load": 0.04457882726509954
  },
  {
    "temp": 178.81222534179688,
    "speed": 0,
    "load": 0.03937575939439597
  },
  {
    "temp": 178.79815673828125,
    "speed": 0,
    "load": 0.037303351005216534
  },
  {
    "temp": 178.79544067382812,
    "speed": 0,
    "load": 0.04091904223740084
  },
  {
    "temp": 178.8018035888672,
    "speed": 0,
    "load": 0.039155290416823085
  },
  {
    "temp": 178.8109588623047,
    "speed": 0,
    "load": 0.03994897873608316
  },
  {
    "temp": 178.814208984375,
    "speed": 0,
    "load": 0.046915798427365374
  },
  {
    "temp": 178.8168182373047,
    "speed": 0,
    "load": 0.04457882726509954
  },
  {
    "temp": 178.81036376953125,
    "speed": 0,
    "load": 0.04321191960415227
  },
  {
    "temp": 178.79666137695312,
    "speed": 0,
    "load": 0.03703878823213014
  },
  {
    "temp": 178.8076629638672,
    "speed": 0,
    "load": 0.03606872473081246
  },
  {
    "temp": 178.8115692138672,
    "speed": 0,
    "load": 0.035319130207066785
  },
  {
    "temp": 178.814697265625,
    "speed": 0,
    "load": 0.03567188057118287
  },
  {
    "temp": 178.81719970703125,
    "speed": 0,
    "load": 0.03443725429677791
  },
  {
    "temp": 178.81919860839844,
    "speed": 0,
    "load": 0.03549550538912527
  },
  {
    "temp": 178.81227111816406,
    "speed": 0,
    "load": 0.039111196621308686
  },
  {
    "temp": 178.81765747070312,
    "speed": 0,
    "load": 0.03703878823213014
  },
  {
    "temp": 178.81956481933594,
    "speed": 0,
    "load": 0.04484339003818594
  },
  {
    "temp": 178.81256103515625,
    "speed": 0,
    "load": 0.04078676085085764
  },
  {
    "temp": 178.81549072265625,
    "speed": 0,
    "load": 0.035936443344269264
  },
  {
    "temp": 178.81971740722656,
    "speed": 0,
    "load": 0.03650966268595646
  },
  {
    "temp": 178.8212127685547,
    "speed": 0,
    "load": 0.03562778677566847
  },
  {
    "temp": 178.8138885498047,
    "speed": 0,
    "load": 0.03637738129941326
  },
  {
    "temp": 178.81655883789062,
    "speed": 0,
    "load": 0.03170343897488337
  },
  {
    "temp": 178.82040405273438,
    "speed": 0,
    "load": 0.03770019516484702
  },
  {
    "temp": 178.82176208496094,
    "speed": 0,
    "load": 0.038537977279621494
  },
  {
    "temp": 178.82286071777344,
    "speed": 0,
    "load": 0.03571597436669727
  },
  {
    "temp": 178.81520080566406,
    "speed": 0,
    "load": 0.026941309059322904
  },
  {
    "temp": 178.81100463867188,
    "speed": 0,
    "load": 0.026809027672779706
  },
  {
    "temp": 178.8142547607422,
    "speed": 0,
    "load": 0.02663265249072211
  },
  {
    "temp": 178.8168487548828,
    "speed": 0,
    "load": 0.029454655403646335
  },
  {
    "temp": 178.82913208007812,
    "speed": 0,
    "load": 0.03284987765825864
  },
  {
    "temp": 178.82875061035156,
    "speed": 0,
    "load": 0.025662588989404433
  },
  {
    "temp": 178.8284454345703,
    "speed": 0,
    "load": 0.03183572036142657
  },
  {
    "temp": 178.8282012939453,
    "speed": 0,
    "load": 0.02835231051578546
  },
  {
    "temp": 178.82785034179688,
    "speed": 0,
    "load": 0.02658855869520771
  },
  {
    "temp": 178.81919860839844,
    "speed": 0,
    "load": 0.030248343722906412
  },
  {
    "temp": 178.82080078125,
    "speed": 0,
    "load": 0.02451615030602916
  },
  {
    "temp": 178.82310485839844,
    "speed": 0,
    "load": 0.0271617780368949
  },
  {
    "temp": 178.8239288330078,
    "speed": 0,
    "load": 0.026279902126606913
  },
  {
    "temp": 178.8245849609375,
    "speed": 0,
    "load": 0.024383868919485963
  },
  {
    "temp": 178.81658935546875,
    "speed": 0,
    "load": 0.026323995922121313
  },
  {
    "temp": 178.82041931152344,
    "speed": 0,
    "load": 0.02407521235088428
  },
  {
    "temp": 178.82177734375,
    "speed": 0,
    "load": 0.031968001747969765
  },
  {
    "temp": 178.82286071777344,
    "speed": 0,
    "load": 0.02976331197224713
  },
  {
    "temp": 178.82373046875,
    "speed": 0,
    "load": 0.027690903583068582
  },
  {
    "temp": 178.8249969482422,
    "speed": 0,
    "load": 0.025618495193890034
  },
  {
    "temp": 178.81690979003906,
    "speed": 0,
    "load": 0.024339775123971563
  },
  {
    "temp": 178.8189697265625,
    "speed": 0,
    "load": 0.021209115642445653
  },
  {
    "temp": 178.82061767578125,
    "speed": 0,
    "load": 0.015300547043510804
  },
  {
    "temp": 178.80764770507812,
    "speed": 0,
    "load": 0.017725705796804547
  },
  {
    "temp": 178.8115692138672,
    "speed": 0,
    "load": 0.021870522575162532
  },
  {
    "temp": 178.81719970703125,
    "speed": 0,
    "load": 0.018960332071209507
  },
  {
    "temp": 178.81919860839844,
    "speed": 0,
    "load": 0.018960332071209507
  },
  {
    "temp": 178.81227111816406,
    "speed": 0,
    "load": 0.019842207981498383
  },
  {
    "temp": 178.8152618408203,
    "speed": 0,
    "load": 0.018960332071209507
  },
  {
    "temp": 178.805908203125,
    "speed": 0,
    "load": 0.01763751820577575
  },
  {
    "temp": 178.81358337402344,
    "speed": 0,
    "load": 0.013272232449846655
  },
  {
    "temp": 178.7992401123047,
    "speed": 0,
    "load": 0.007055007282310122
  },
  {
    "temp": 178.80931091308594,
    "speed": 0,
    "load": 0.012169887561985782
  },
  {
    "temp": 178.81289672851562,
    "speed": 0,
    "load": 0.014727327701823612
  },
  {
    "temp": 178.80723571777344,
    "speed": 0,
    "load": 0.010053385377291946
  },
  {
    "temp": 178.80270385742188,
    "speed": 0,
    "load": 0.010670698514494426
  },
  {
    "temp": 178.799072265625,
    "speed": 0,
    "load": 0.011905324788898497
  },
  {
    "temp": 178.80470275878906,
    "speed": 0,
    "load": 0.01097935508309611
  },
  {
    "temp": 178.79745483398438,
    "speed": 0,
    "load": 0.005070786484160372
  },
  {
    "temp": 178.7863311767578,
    "speed": 0,
    "load": 0.008245539761199794
  },
  {
    "temp": 178.78598022460938,
    "speed": 0,
    "load": 0.013228138654332255
  },
  {
    "temp": 178.7942352294922,
    "speed": 0,
    "load": 0.01613832915828528
  },
  {
    "temp": 178.79075622558594,
    "speed": 0,
    "load": 0.015300547043510804
  },
  {
    "temp": 178.7980499267578,
    "speed": 0,
    "load": 0.010273854354864831
  },
  {
    "temp": 178.8038787841797,
    "speed": 0,
    "load": 0.011420293038240104
  },
  {
    "temp": 178.79693603515625,
    "speed": 0,
    "load": 0.011508480629268902
  },
  {
    "temp": 178.79446411132812,
    "speed": 0,
    "load": 0.010714792310008825
  },
  {
    "temp": 178.80101013183594,
    "speed": 0,
    "load": 0.008730571511859075
  },
  {
    "temp": 178.81045532226562,
    "speed": 0,
    "load": 0.007363663850911806
  },
  {
    "temp": 178.80528259277344,
    "speed": 0,
    "load": 0.0026456277308657405
  },
  {
    "temp": 178.8011474609375,
    "speed": 0,
    "load": 0.0027338153218954275
  },
  {
    "temp": 178.8037109375,
    "speed": 0,
    "load": 0.0007495945237447899
  },
  {
    "temp": 178.80841064453125,
    "speed": 0,
    "load": 0.0018960332071209507
  },
  {
    "temp": 178.8121795654297,
    "speed": 0,
    "load": 0.0005732193416871922
  },
  {
    "temp": 178.815185546875,
    "speed": 0,
    "load": 0.0003527503641151952
  },
  {
    "temp": 178.79733276367188,
    "speed": 0,
    "load": 0.0007495945237447899
  },
  {
    "temp": 178.79478454589844,
    "speed": 0,
    "load": 0.0011464386833752727
  },
  {
    "temp": 178.79273986816406,
    "speed": 0,
    "load": 0.0005291255461727928
  },
  {
    "temp": 178.79110717773438,
    "speed": 0,
    "load": 0.0028660967084386257
  },
  {
    "temp": 178.78021240234375,
    "speed": 0,
    "load": 0.002248783571236146
  },
  {
    "temp": 178.7810821533203,
    "speed": 0,
    "load": -0.0006614069327168792
  }
]