[
  {
    "temp": 198.6269073486328,
    "speed": 0,
    "load": 0.000837782114775365
  },
  {
    "temp": 198.6383056640625,
    "speed": 0,
    "load": 0.0074518514419406046
  },
  {
    "temp": 198.63211059570312,
    "speed": 0,
    "load": 0.005423536848276456
  },
  {
    "temp": 198.63739013671875,
    "speed": 0,
    "load": -0.00656997553165084
  },
  {
    "temp": 198.634765625,
    "speed": 0,
    "load": -0.0037038788232131026
  },
  {
    "temp": 198.6395263671875,
    "speed": 0,
    "load": -0.002160595980207347
  },
  {
    "temp": 198.64332580566406,
    "speed": 0,
    "load": -0.0010141572968311863
  },
  {
    "temp": 198.64060974121094,
    "speed": 0,
    "load": 0.005026692688646861
  },
  {
    "temp": 198.62371826171875,
    "speed": 5.197504997253418,
    "load": 0.08871671657505509
  },
  {
    "temp": 198.6157684326172,
    "speed": 4.798464298248291,
    "load": 2.4619770725488106
  },
  {
    "temp": 198.62432861328125,
    "speed": 4.807692527770996,
    "load": 9.225744835486479
  },
  {
    "temp": 198.63116455078125,
    "speed": 4.798464298248291,
    "load": 25.33162096027324
  },
  {
    "temp": 198.64102172851562,
    "speed": 4.798464298248291,
    "load": 26.524049472370265
  },
  {
    "temp": 198.62405395507812,
    "speed": 5.197504997253418,
    "load": 20.506128260559365
  },
  {
    "temp": 198.62071228027344,
    "speed": 4.789271831512451,
    "load": 18.984627752538067
  },
  {
    "temp": 198.62828063964844,
    "speed": 4.798464298248291,
    "load": 18.447785792149745
  },
  {
    "temp": 198.62893676757812,
    "speed": 4.807692527770996,
    "load": 18.130530933423344
  },
  {
    "temp": 198.63485717773438,
    "speed": 4.807692527770996,
    "load": 18.02364757309634
  },
  {
    "temp": 198.6331329345703,
    "speed": 4.798464298248291,
    "load": 18.06386111460551
  },
  {
    "temp": 198.6279754638672,
    "speed": 4.807692527770996,
    "load": 18.152180987020934
  },
  {
    "temp": 198.63409423828125,
    "speed": 5.197504997253418,
    "load": 18.327365636599808
  },
  {
    "temp": 198.64288330078125,
    "speed": 5.208333492279053,
    "load": 18.529182938669408
  },
  {
    "temp": 198.64601135253906,
    "speed": 5.197504997253418,
    "load": 18.637697769430446
  },
  {
    "temp": 198.6485137939453,
    "speed": 4.798464298248291,
    "load": 18.779150665440774
  },
  {
    "temp": 198.6316375732422,
    "speed": 5.208333492279053,
    "load": 18.99913461126232
  },
  {
    "temp": 198.63702392578125,
    "speed": 4.807692527770996,
    "load": 19.02854517287045
  },
  {
    "temp": 198.64132690429688,
    "speed": 5.197504997253418,
    "load": 18.975985368617238
  },
  {
    "temp": 198.63934326171875,
    "speed": 4.81695556640625,
    "load": 19.205758137042984
  },
  {
    "temp": 198.6431884765625,
    "speed": 5.208333492279053,
    "load": 19.21969177642555
  },
  {
    "temp": 198.63027954101562,
    "speed": 5.208333492279053,
    "load": 19.356250261133773
  },
  {
    "temp": 198.61544799804688,
    "speed": 5.208333492279053,
    "load": 19.488884398041215
  },
  {
    "temp": 198.5838623046875,
    "speed": 5.208333492279053,
    "load": 19.565960352600456
  },
  {
    "temp": 198.55784606933594,
    "speed": 4.798464298248291,
    "load": 19.684616756329817
  },
  {
    "temp": 198.5677490234375,
    "speed": 4.798464298248291,
    "load": 19.766719403577703
  },
  {
    "temp": 198.5615234375,
    "speed": 5.197504997253418,
    "load": 20.02360985624484
  },
  {
    "temp": 198.5502166748047,
    "speed": 4.798464298248291,
    "load": 20.18583092994247
  },
  {
    "temp": 198.54116821289062,
    "speed": 4.798464298248291,
    "load": 20.559746315904924
  },
  {
    "temp": 198.5199432373047,
    "speed": 4.798464298248291,
    "load": 20.62372641319638
  },
  {
    "temp": 198.5067138671875,
    "speed": 5.197504997253418,
    "load": 20.87281226405746
  },
  {
    "temp": 198.48765563964844,
    "speed": 5.208333492279053,
    "load": 20.871180793623424
  },
  {
    "temp": 198.4808807373047,
    "speed": 5.197504997253418,
    "load": 20.97449255651376
  },
  {
    "temp": 198.4754638671875,
    "speed": 4.807692527770996,
    "load": 21.201751978595183
  },
  {
    "temp": 198.45741271972656,
    "speed": 5.1867218017578125,
    "load": 21.399292182499885
  },
  {
    "temp": 198.45668029785156,
    "speed": 4.798464298248291,
    "load": 21.56429116531492
  },
  {
    "temp": 198.44744873046875,
    "speed": 0,
    "load": 21.785421549819844
  },
  {
    "temp": 198.41799926757812,
    "speed": 0,
    "load": 18.271719266660583
  },
  {
    "temp": 198.3842010498047,
    "speed": 0,
    "load": 12.083155066208798
  },
  {
    "temp": 198.3355255126953,
    "speed": 0,
    "load": 8.498990897817466
  },
  {
    "temp": 198.3386993408203,
    "speed": 0,
    "load": 5.800318330947134
  },
  {
    "temp": 198.3207550048828,
    "speed": 0,
    "load": 5.1411160880062425
  },
  {
    "temp": 198.294921875,
    "speed": 0,
    "load": 4.287195644073579
  },
  {
    "temp": 198.28573608398438,
    "speed": 0,
    "load": 3.981361078385417
  },
  {
    "temp": 198.27838134765625,
    "speed": 0,
    "load": 3.7270280658581214
  },
  {
    "temp": 198.257568359375,
    "speed": 0,
    "load": 3.3113558555434874
  },
  {
    "temp": 198.255859375,
    "speed": 0,
    "load": 3.1293366676598744
  },
  {
    "temp": 198.22679138183594,
    "speed": 0,
    "load": 2.8031748622395547
  },
  {
    "temp": 198.2209930419922,
    "speed": 0,
    "load": 2.646597794367775
  },
  {
    "temp": 198.2061309814453,
    "speed": 0,
    "load": 2.499368611145057
  },
  {
    "temp": 198.20448303222656,
    "speed": 0,
    "load": 2.3443789199117955
  },
  {
    "temp": 198.1929168701172,
    "speed": 0,
    "load": 2.070159605607488
  },
  {
    "temp": 198.17831420898438,
    "speed": 0,
    "load": 1.9791500116656824
  },
  {
    "temp": 198.17198181152344,
    "speed": 0,
    "load": 1.9077180629322879
  },
  {
    "temp": 198.1669158935547,
    "speed": 0,
    "load": 1.806919646386275
  },
  {
    "temp": 198.1330108642578,
    "speed": 0,
    "load": 1.762429006712205
  },
  {
    "temp": 198.1357421875,
    "speed": 0,
    "load": 1.7219949962254635
  },
  {
    "temp": 198.13792419433594,
    "speed": 0,
    "load": 1.666436813877267
  },
  {
    "temp": 198.1328887939453,
    "speed": 0,
    "load": 1.6382167847480247
  },
  {
    "temp": 198.13565063476562,
    "speed": 0,
    "load": 1.5969449921465095
  },
  {
    "temp": 198.14808654785156,
    "speed": 0,
    "load": 1.5818208202850546
  },
  {
    "temp": 198.1475830078125,
    "speed": 0,
    "load": 1.5635218951465628
  },
  {
    "temp": 198.16786193847656,
    "speed": 0,
    "load": 1.5470749094196758
  },
  {
    "temp": 198.1636199951172,
    "speed": 0,
    "load": 1.5387411820674455
  },
  {
    "temp": 198.18617248535156,
    "speed": 0,
    "load": 1.531421612012048
  },
  {
    "temp": 198.19873046875,
    "speed": 0,
    "load": 1.5298342353735297
  },
  {
    "temp": 198.21682739257812,
    "speed": 0,
    "load": 1.5219414459764433
  },
  {
    "temp": 198.2232666015625,
    "speed": 0,
    "load": 1.515768314604422
  },
  {
    "temp": 198.22840881347656,
    "speed": 0,
    "load": 1.5027606449276636
  },
  {
    "temp": 198.24276733398438,
    "speed": 0,
    "load": 1.5028047387231762
  },
  {
    "temp": 198.24501037597656,
    "speed": 0,
    "load": 1.5028047387231762
  },
  {
    "temp": 198.2458038330078,
    "speed": 0,
    "load": 1.4911198829118497
  },
  {
    "temp": 198.25668334960938,
    "speed": 0,
    "load": 1.4869750661334926
  },
  {
    "temp": 198.28257751464844,
    "speed": 0,
    "load": 1.4806255595794138
  },
  {
    "temp": 198.2963409423828,
    "speed": 0,
    "load": 1.472027269454097
  },
  {
    "temp": 198.35301208496094,
    "speed": 0,
    "load": 1.472468207409241
  },
  {
    "temp": 198.3731689453125,
    "speed": 0,
    "load": 1.465765950491047
  },
  {
    "temp": 198.3892822265625,
    "speed": 0,
    "load": 1.454918876794494
  },
  {
    "temp": 198.41241455078125,
    "speed": 0,
    "load": 1.4484370888538702
  },
  {
    "temp": 198.43548583984375,
    "speed": 0,
    "load": 1.434547543266822
  },
  {
    "temp": 198.4493865966797,
    "speed": 0,
    "load": 1.4273602545979678
  },
  {
    "temp": 198.46939086914062,
    "speed": 0,
    "load": 1.415322648422526
  },
  {
    "temp": 198.49697875976562,
    "speed": 0,
    "load": 1.4047401374990596
  },
  {
    "temp": 198.50881958007812,
    "speed": 0,
    "load": 1.3901009973882648
  },
  {
    "temp": 198.52584838867188,
    "speed": 0,
    "load": 1.3760791704146733
  },
  {
    "temp": 198.55238342285156,
    "speed": 0,
    "load": 1.3614400303038803
  },
  {
    "temp": 198.5736083984375,
    "speed": 0,
    "load": 1.3454780763276517
  },
  {
    "temp": 198.60418701171875,
    "speed": 0,
    "load": 1.3360860978830758
  },
  {
    "temp": 198.6252899169922,
    "speed": 0,
    "load": 1.3256358683461524
  },
  {
    "temp": 198.64218139648438,
    "speed": 0,
    "load": 1.296401681920079
  },
  {
    "temp": 198.64544677734375,
    "speed": 0,
    "load": 1.292168677550693
  },
  {
    "temp": 198.6685333251953,
    "speed": 0,
    "load": 1.2813656976496546
  },
  {
    "temp": 198.70176696777344,
    "speed": 0,
    "load": 1.2698131232248713
  },
  {
    "temp": 198.72381591796875,
    "speed": 0,
    "load": 1.2430040955520898
  },
  {
    "temp": 198.7576141357422,
    "speed": 0,
    "load": 1.2337443984940588
  },
  {
    "temp": 198.7787322998047,
    "speed": 0,
    "load": 1.2287617996009264
  },
  {
    "temp": 198.785400390625,
    "speed": 0,
    "load": 1.2060975887065037
  },
  {
    "temp": 198.8031768798828,
    "speed": 0,
    "load": 1.1819341887645898
  },
  {
    "temp": 198.815185546875,
    "speed": 0,
    "load": 1.1756287760060253
  },
  {
    "temp": 198.83248901367188,
    "speed": 0,
    "load": 1.1656635782197622
  },
  {
    "temp": 198.83863830566406,
    "speed": 0,
    "load": 1.153096846498146
  },
  {
    "temp": 198.8435516357422,
    "speed": 0,
    "load": 1.1302121666261513
  },
  {
    "temp": 198.85772705078125,
    "speed": 0,
    "load": 1.1267728505760246
  },
  {
    "temp": 198.8690643310547,
    "speed": 0,
    "load": 1.1190564363609976
  },
  {
    "temp": 198.86697387695312,
    "speed": 0,
    "load": 1.1063133294573237
  },
  {
    "temp": 198.86622619628906,
    "speed": 0,
    "load": 1.0876175601592006
  },
  {
    "temp": 198.86563110351562,
    "speed": 0,
    "load": 1.0772996120088223
  },
  {
    "temp": 198.87501525878906,
    "speed": 0,
    "load": 1.0700241357489393
  },
  {
    "temp": 198.88290405273438,
    "speed": 0,
    "load": 1.0529598368848507
  },
  {
    "temp": 198.87896728515625,
    "speed": 0,
    "load": 1.0424214197568986
  },
  {
    "temp": 198.87330627441406,
    "speed": 0,
    "load": 1.0285318741698504
  },
  {
    "temp": 198.8712921142578,
    "speed": 0,
    "load": 1.0222705552068003
  },
  {
    "temp": 198.8696746826172,
    "speed": 0,
    "load": 1.0109384497595872
  },
  {
    "temp": 198.87863159179688,
    "speed": 0,
    "load": 1.0051621625471956
  },
  {
    "temp": 198.88333129882812,
    "speed": 0,
    "load": 0.9908757728005178
  },
  {
    "temp": 198.8793182373047,
    "speed": 0,
    "load": 0.9828066082213756
  },
  {
    "temp": 198.8760986328125,
    "speed": 0,
    "load": 0.9707690020459321
  },
  {
    "temp": 198.8714599609375,
    "speed": 0,
    "load": 0.9689611564298399
  },
  {
    "temp": 198.86981201171875,
    "speed": 0,
    "load": 0.9585991144839472
  },
  {
    "temp": 198.86744689941406,
    "speed": 0,
    "load": 0.9462969455354173
  },
  {
    "temp": 198.86660766601562,
    "speed": 0,
    "load": 0.9388010002979623
  },
  {
    "temp": 198.85569763183594,
    "speed": 0,
    "load": 0.9322751185618259
  },
  {
    "temp": 198.85841369628906,
    "speed": 0,
    "load": 0.9167981963362575
  },
  {
    "temp": 198.859375,
    "speed": 0,
    "load": 0.906877092345507
  },
  {
    "temp": 198.8607635498047,
    "speed": 0,
    "load": 0.9029968383402363
  },
  {
    "temp": 198.85101318359375,
    "speed": 0,
    "load": 0.8943103606238925
  },
  {
    "temp": 198.83297729492188,
    "speed": 0,
    "load": 0.8846097256107139
  },
  {
    "temp": 198.8172607421875,
    "speed": 0,
    "load": 0.8841246938600555
  },
  {
    "temp": 198.79574584960938,
    "speed": 0,
    "load": 0.8682509274748575
  },
  {
    "temp": 198.75657653808594,
    "speed": 0,
    "load": 0.858903042825796
  },
  {
    "temp": 198.73696899414062,
    "speed": 0,
    "load": 0.8611077326015177
  },
  {
    "temp": 198.72128295898438,
    "speed": 0,
    "load": 0.8515393789748842
  },
  {
    "temp": 198.71896362304688,
    "speed": 0,
    "load": 0.8493787829946768
  },
  {
    "temp": 198.69720458984375,
    "speed": 0,
    "load": 0.8420592129392794
  },
  {
    "temp": 198.68946838378906,
    "speed": 0,
    "load": 0.8358860815672582
  },
  {
    "temp": 198.68328857421875,
    "speed": 0,
    "load": 0.8303743571279529
  },
  {
    "temp": 198.67437744140625,
    "speed": 0,
    "load": 0.8247744450976189
  },
  {
    "temp": 198.67120361328125,
    "speed": 0,
    "load": 0.8225256615263827
  },
  {
    "temp": 198.66664123535156,
    "speed": 0,
    "load": 0.811590400238801
  },
  {
    "temp": 198.66502380371094,
    "speed": 0,
    "load": 0.8063432385725822
  },
  {
    "temp": 198.64630126953125,
    "speed": 0,
    "load": 0.8042708301834036
  },
  {
    "temp": 198.6385040283203,
    "speed": 0,
    "load": 0.8074014896649278
  },
  {
    "temp": 198.6322784423828,
    "speed": 0,
    "load": 0.8006110451557049
  },
  {
    "temp": 198.63148498535156,
    "speed": 0,
    "load": 0.7885734389802632
  },
  {
    "temp": 198.6266632080078,
    "speed": 0,
    "load": 0.789102564526436
  },
  {
    "temp": 198.622802734375,
    "speed": 0,
    "load": 0.7885734389802632
  },
  {
    "temp": 198.6197052001953,
    "speed": 0,
    "load": 0.7866333119776261
  },
  {
    "temp": 198.62548828125,
    "speed": 0,
    "load": 0.7905135659828968
  },
  {
    "temp": 198.6116180419922,
    "speed": 0,
    "load": 0.7849577477480789
  },
  {
    "temp": 198.61007690429688,
    "speed": 0,
    "load": 0.7811215875383208
  },
  {
    "temp": 198.5992889404297,
    "speed": 0,
    "load": 0.7771531459420213
  },
  {
    "temp": 198.59066772460938,
    "speed": 0,
    "load": 0.7668792915871574
  },
  {
    "temp": 198.56185913085938,
    "speed": 0,
    "load": 0.7629108499908579
  },
  {
    "temp": 198.5607147216797,
    "speed": 0,
    "load": 0.7631754127639443
  },
  {
    "temp": 198.5795440673828,
    "speed": 0,
    "load": 0.7622494430581401
  },
  {
    "temp": 198.5646209716797,
    "speed": 0,
    "load": 0.759118783576616
  },
  {
    "temp": 198.5800018310547,
    "speed": 0,
    "load": 0.7562967806636909
  },
  {
    "temp": 198.57522583007812,
    "speed": 0,
    "load": 0.7537834343193683
  },
  {
    "temp": 198.5714111328125,
    "speed": 0,
    "load": 0.7528133708180516
  },
  {
    "temp": 198.57859802246094,
    "speed": 0,
    "load": 0.7484039912666063
  },
  {
    "temp": 198.57870483398438,
    "speed": 0,
    "load": 0.7412607963932683
  },
  {
    "temp": 198.56394958496094,
    "speed": 0,
    "load": 0.7523724328629058
  },
  {
    "temp": 198.56114196777344,
    "speed": 0,
    "load": 0.7481394284935199
  },
  {
    "temp": 198.56015014648438,
    "speed": 0,
    "load": 0.7442150806927348
  },
  {
    "temp": 198.56959533691406,
    "speed": 0,
    "load": 0.7407757646426081
  },
  {
    "temp": 198.56475830078125,
    "speed": 0,
    "load": 0.7318688179486923
  },
  {
    "temp": 198.57327270507812,
    "speed": 0,
    "load": 0.7303255351056865
  },
  {
    "temp": 198.58349609375,
    "speed": 0,
    "load": 0.7316042551756041
  },
  {
    "temp": 198.58827209472656,
    "speed": 0,
    "load": 0.728914533649224
  },
  {
    "temp": 198.60232543945312,
    "speed": 0,
    "load": 0.7231382464368323
  },
  {
    "temp": 198.60333251953125,
    "speed": 0,
    "load": 0.7205367125014792
  },
  {
    "temp": 198.57611083984375,
    "speed": 0,
    "load": 0.7176265219975271
  },
  {
    "temp": 198.59259033203125,
    "speed": 0,
    "load": 0.7155100198128341
  },
  {
    "temp": 198.5955352783203,
    "speed": 0,
    "load": 0.7111006402613906
  },
  {
    "temp": 198.60183715820312,
    "speed": 0,
    "load": 0.7082786373484655
  },
  {
    "temp": 198.60293579101562,
    "speed": 0,
    "load": 0.7075731366202351
  },
  {
    "temp": 198.60247802734375,
    "speed": 0,
    "load": 0.7078817931888359
  },
  {
    "temp": 198.6136932373047,
    "speed": 0,
    "load": 0.7069117296875174
  },
  {
    "temp": 198.6124267578125,
    "speed": 0,
    "load": 0.7072644800516326
  },
  {
    "temp": 198.62083435058594,
    "speed": 0,
    "load": 0.7002976603603521
  },
  {
    "temp": 198.6283721923828,
    "speed": 0,
    "load": 0.697255188469855
  },
  {
    "temp": 198.6343994140625,
    "speed": 0,
    "load": 0.6945654669434749
  },
  {
    "temp": 198.63922119140625,
    "speed": 0,
    "load": 0.6954914366492773
  },
  {
    "temp": 198.64617919921875,
    "speed": 0,
    "load": 0.6927135275318683
  },
  {
    "temp": 198.64865112304688,
    "speed": 0,
    "load": 0.6926694337363539
  },
  {
    "temp": 198.650634765625,
    "speed": 0,
    "load": 0.6868049589329335
  },
  {
    "temp": 198.66168212890625,
    "speed": 0,
    "load": 0.6852616760899277
  },
  {
    "temp": 198.6610565185547,
    "speed": 0,
    "load": 0.681822360039801
  },
  {
    "temp": 198.66015625,
    "speed": 0,
    "load": 0.680808202742968
  },
  {
    "temp": 198.6598358154297,
    "speed": 0,
    "load": 0.6771925115107837
  },
  {
    "temp": 198.65957641601562,
    "speed": 0,
    "load": 0.6773688866928413
  },
  {
    "temp": 198.65919494628906,
    "speed": 0,
    "load": 0.6774129804883575
  },
  {
    "temp": 198.6590576171875,
    "speed": 0,
    "load": 0.6765751983735822
  },
  {
    "temp": 198.65895080566406,
    "speed": 0,
    "load": 0.6732240699144842
  },
  {
    "temp": 198.65887451171875,
    "speed": 0,
    "load": 0.6724744753907395
  },
  {
    "temp": 198.65875244140625,
    "speed": 0,
    "load": 0.675340572099179
  },
  {
    "temp": 198.65870666503906,
    "speed": 0,
    "load": 0.6729595071413979
  },
  {
    "temp": 198.65867614746094,
    "speed": 0,
    "load": 0.6642289356295397
  },
  {
    "temp": 198.6770477294922,
    "speed": 0,
    "load": 0.6640084666519659
  },
  {
    "temp": 198.68357849121094,
    "speed": 0,
    "load": 0.661451026512129
  },
  {
    "temp": 198.67857360839844,
    "speed": 0,
    "load": 0.6655076556994572
  },
  {
    "temp": 198.68478393554688,
    "speed": 0,
    "load": 0.6669186571559198
  },
  {
    "temp": 198.68353271484375,
    "speed": 0,
    "load": 0.6630384031506491
  },
  {
    "temp": 198.709228515625,
    "speed": 0,
    "load": 0.6527645487957852
  },
  {
    "temp": 198.7195587158203,
    "speed": 0,
    "load": 0.6536023309105587
  },
  {
    "temp": 198.7175750732422,
    "speed": 0,
    "load": 0.6566888965965685
  },
  {
    "temp": 198.71473693847656,
    "speed": 0,
    "load": 0.6539991750701883
  },
  {
    "temp": 198.73419189453125,
    "speed": 0,
    "load": 0.6534700495240156
  },
  {
    "temp": 198.7292938232422,
    "speed": 0,
    "load": 0.649722076905288
  },
  {
    "temp": 198.73452758789062,
    "speed": 0,
    "load": 0.6423584130543762
  },
  {
    "temp": 198.7397918701172,
    "speed": 0,
    "load": 0.643901695897382
  },
  {
    "temp": 198.7207794189453,
    "speed": 0,
    "load": 0.6398450667100537
  },
  {
    "temp": 198.7185516357422,
    "speed": 0,
    "load": 0.638081314889476
  },
  {
    "temp": 198.73724365234375,
    "speed": 0,
    "load": 0.6403300984607121
  },
  {
    "temp": 198.74368286132812,
    "speed": 0,
    "load": 0.6363616568644126
  },
  {
    "temp": 198.76759338378906,
    "speed": 0,
    "load": 0.6390072845952783
  },
  {
    "temp": 198.7560272216797,
    "speed": 0,
    "load": 0.6413883495530595
  },
  {
    "temp": 198.7495880126953,
    "speed": 0,
    "load": 0.6367585010240422
  },
  {
    "temp": 198.75184631347656,
    "speed": 0,
    "load": 0.6337160291335469
  },
  {
    "temp": 198.7264404296875,
    "speed": 0,
    "load": 0.6344656236572916
  },
  {
    "temp": 198.7230987548828,
    "speed": 0,
    "load": 0.6328341532232571
  },
  {
    "temp": 198.7408905029297,
    "speed": 0,
    "load": 0.6262200838960919
  },
  {
    "temp": 198.72967529296875,
    "speed": 0,
    "load": 0.6284247736718118
  },
  {
    "temp": 198.7359161376953,
    "speed": 0,
    "load": 0.6212374850029594
  },
  {
    "temp": 198.7183074951172,
    "speed": 0,
    "load": 0.6275428977615238
  },
  {
    "temp": 198.70635986328125,
    "speed": 0,
    "load": 0.630232619287904
  },
  {
    "temp": 198.71725463867188,
    "speed": 0,
    "load": 0.6338042167245757
  },
  {
    "temp": 198.7063446044922,
    "speed": 0,
    "load": 0.6251177390082301
  },
  {
    "temp": 198.70701599121094,
    "speed": 0,
    "load": 0.6248090824396293
  },
  {
    "temp": 198.69732666015625,
    "speed": 0,
    "load": 0.6229130492325083
  },
  {
    "temp": 198.70382690429688,
    "speed": 0,
    "load": 0.6179304503393759
  },
  {
    "temp": 198.69476318359375,
    "speed": 0,
    "load": 0.6217666105491322
  },
  {
    "temp": 198.6817169189453,
    "speed": 0,
    "load": 0.6200910463195832
  },
  {
    "temp": 198.6770782470703,
    "speed": 0,
    "load": 0.6186800448631207
  },
  {
    "temp": 198.67337036132812,
    "speed": 0,
    "load": 0.6202674215016408
  },
  {
    "temp": 198.68064880371094,
    "speed": 0,
    "load": 0.6237949251427963
  },
  {
    "temp": 198.6726837158203,
    "speed": 0,
    "load": 0.6088030346678863
  },
  {
    "temp": 198.66986083984375,
    "speed": 0,
    "load": 0.6105667864884641
  },
  {
    "temp": 198.67782592773438,
    "speed": 0,
    "load": 0.6151525412219652
  },
  {
    "temp": 198.68931579589844,
    "speed": 0,
    "load": 0.6070392828473086
  },
  {
    "temp": 198.69338989257812,
    "speed": 0,
    "load": 0.6060251255504774
  },
  {
    "temp": 198.68641662597656,
    "speed": 0,
    "load": 0.6102140361243489
  },
  {
    "temp": 198.68661499023438,
    "speed": 0,
    "load": 0.6077888773710551
  },
  {
    "temp": 198.6912384033203,
    "speed": 0,
    "load": 0.6054960000043028
  },
  {
    "temp": 198.6846923828125,
    "speed": 0,
    "load": 0.6075243145979687
  },
  {
    "temp": 198.6855010986328,
    "speed": 0,
    "load": 0.606421969710107
  },
  {
    "temp": 198.68011474609375,
    "speed": 0,
    "load": 0.60496687445813
  },
  {
    "temp": 198.67579650878906,
    "speed": 0,
    "load": 0.603644060592698
  },
  {
    "temp": 198.66958618164062,
    "speed": 0,
    "load": 0.5978677733803064
  },
  {
    "temp": 198.66737365722656,
    "speed": 0,
    "load": 0.5985291803130224
  },
  {
    "temp": 198.6656036376953,
    "speed": 0,
    "load": 0.5949575828763525
  },
  {
    "temp": 198.6732940673828,
    "speed": 0,
    "load": 0.5942520821481221
  },
  {
    "temp": 198.67034912109375,
    "speed": 0,
    "load": 0.596589053310387
  },
  {
    "temp": 198.6660919189453,
    "speed": 0,
    "load": 0.5954426146270109
  },
  {
    "temp": 198.66458129882812,
    "speed": 0,
    "load": 0.5921796737589418
  },
  {
    "temp": 198.67361450195312,
    "speed": 0,
    "load": 0.5931497372602603
  },
  {
    "temp": 198.67059326171875,
    "speed": 0,
    "load": 0.5939875193750339
  },
  {
    "temp": 198.666259765625,
    "speed": 0,
    "load": 0.5953985208314965
  },
  {
    "temp": 198.6647186279297,
    "speed": 0,
    "load": 0.5910332350755674
  },
  {
    "temp": 198.66348266601562,
    "speed": 0,
    "load": 0.5845514471349436
  },
  {
    "temp": 198.66249084472656,
    "speed": 0,
    "load": 0.589313577050504
  },
  {
    "temp": 198.66107177734375,
    "speed": 0,
    "load": 0.590415921938364
  },
  {
    "temp": 198.6605682373047,
    "speed": 0,
    "load": 0.5844632595439148
  },
  {
    "temp": 198.66015625,
    "speed": 0,
    "load": 0.5837577588156844
  },
  {
    "temp": 198.6598358154297,
    "speed": 0,
    "load": 0.5852128540676613
  },
  {
    "temp": 198.65957641601562,
    "speed": 0,
    "load": 0.5835813836336268
  },
  {
    "temp": 198.6510009765625,
    "speed": 0,
    "load": 0.5774964398526325
  },
  {
    "temp": 198.6525115966797,
    "speed": 0,
    "load": 0.5785546909449799
  },
  {
    "temp": 198.65371704101562,
    "speed": 0,
    "load": 0.5803625365610721
  },
  {
    "temp": 198.65467834472656,
    "speed": 0,
    "load": 0.5767027515333734
  },
  {
    "temp": 198.65606689453125,
    "speed": 0,
    "load": 0.5750712810993388
  },
  {
    "temp": 198.65655517578125,
    "speed": 0,
    "load": 0.5742775927800796
  },
  {
    "temp": 198.6671905517578,
    "speed": 0,
    "load": 0.5759531570096286
  },
  {
    "temp": 198.66546630859375,
    "speed": 0,
    "load": 0.575203562485882
  },
  {
    "temp": 198.6629638671875,
    "speed": 0,
    "load": 0.5741894051890508
  },
  {
    "temp": 198.66207885742188,
    "speed": 0,
    "load": 0.5718083402312697
  },
  {
    "temp": 198.661376953125,
    "speed": 0,
    "load": 0.5722051843909011
  },
  {
    "temp": 198.6603546142578,
    "speed": 0,
    "load": 0.5743657803711084
  },
  {
    "temp": 198.6599884033203,
    "speed": 0,
    "load": 0.5767909391244022
  },
  {
    "temp": 198.65969848632812,
    "speed": 0,
    "load": 0.569162712500404
  },
  {
    "temp": 198.6594696044922,
    "speed": 0,
    "load": 0.5670021165201966
  },
  {
    "temp": 198.64889526367188,
    "speed": 0,
    "load": 0.5661202406099068
  },
  {
    "temp": 198.63034057617188,
    "speed": 0,
    "load": 0.5631218625149259
  },
  {
    "temp": 198.63230895996094,
    "speed": 0,
    "load": 0.5602998596020026
  },
  {
    "temp": 198.63755798339844,
    "speed": 0,
    "load": 0.5647974267444749
  },
  {
    "temp": 198.62667846679688,
    "speed": 0,
    "load": 0.5664729909740238
  },
  {
    "temp": 198.62281799316406,
    "speed": 0,
    "load": 0.5641360198117571
  },
  {
    "temp": 198.6299591064453,
    "speed": 0,
    "load": 0.5546999475716685
  },
  {
    "temp": 198.6402587890625,
    "speed": 0,
    "load": 0.5560668552326149
  },
  {
    "temp": 198.6439208984375,
    "speed": 0,
    "load": 0.5535535088882924
  },
  {
    "temp": 198.63661193847656,
    "speed": 0,
    "load": 0.5621517990136073
  },
  {
    "temp": 198.6409912109375,
    "speed": 0,
    "load": 0.5619754238315497
  },
  {
    "temp": 198.63706970214844,
    "speed": 0,
    "load": 0.5542149158210083
  },
  {
    "temp": 198.63111877441406,
    "speed": 0,
    "load": 0.5464103140149525
  },
  {
    "temp": 198.6365966796875,
    "speed": 0,
    "load": 0.5459252822642942
  },
  {
    "temp": 198.6409912109375,
    "speed": 0,
    "load": 0.5513047253170562
  },
  {
    "temp": 198.63706970214844,
    "speed": 0,
    "load": 0.5476449402893575
  },
  {
    "temp": 198.641357421875,
    "speed": 0,
    "load": 0.5464103140149525
  },
  {
    "temp": 198.63729858398438,
    "speed": 0,
    "load": 0.5386498060044111
  },
  {
    "temp": 198.64154052734375,
    "speed": 0,
    "load": 0.5475126589028143
  },
  {
    "temp": 198.6449432373047,
    "speed": 0,
    "load": 0.5453520629226052
  },
  {
    "temp": 198.64984130859375,
    "speed": 0,
    "load": 0.5444701870123172
  },
  {
    "temp": 198.65158081054688,
    "speed": 0,
    "load": 0.5442056242392308
  },
  {
    "temp": 198.65408325195312,
    "speed": 0,
    "load": 0.5436324048975418
  },
  {
    "temp": 198.6447296142578,
    "speed": 0,
    "load": 0.5397080570967585
  },
  {
    "temp": 198.64749145507812,
    "speed": 0,
    "load": 0.5423536848276242
  },
  {
    "temp": 198.65147399902344,
    "speed": 0,
    "load": 0.5351223023632556
  },
  {
    "temp": 198.6426544189453,
    "speed": 0,
    "load": 0.5343286140439965
  },
  {
    "temp": 198.6458282470703,
    "speed": 0,
    "load": 0.5342404264529677
  },
  {
    "temp": 198.64837646484375,
    "speed": 0,
    "load": 0.5367978665928046
  },
  {
    "temp": 198.65040588378906,
    "speed": 0,
    "load": 0.5345931768170828
  },
  {
    "temp": 198.65203857421875,
    "speed": 0,
    "load": 0.5354309589318564
  },
  {
    "temp": 198.6543731689453,
    "speed": 0,
    "load": 0.536180553455603
  },
  {
    "temp": 198.65521240234375,
    "speed": 0,
    "load": 0.5345931768170828
  },
  {
    "temp": 198.64564514160156,
    "speed": 0,
    "load": 0.5337994884978219
  },
  {
    "temp": 198.64822387695312,
    "speed": 0,
    "load": 0.5272736067616854
  },
  {
    "temp": 198.6519317626953,
    "speed": 0,
    "load": 0.5258626053052229
  },
  {
    "temp": 198.65325927734375,
    "speed": 0,
    "load": 0.5275381695347718
  },
  {
    "temp": 198.64491271972656,
    "speed": 0,
    "load": 0.527229512966171
  },
  {
    "temp": 198.6374053955078,
    "speed": 0,
    "load": 0.5311097669714417
  },
  {
    "temp": 198.62454223632812,
    "speed": 0,
    "load": 0.5240547596891307
  },
  {
    "temp": 198.63134765625,
    "speed": 0,
    "load": 0.5252011983725069
  },
  {
    "temp": 198.63677978515625,
    "speed": 0,
    "load": 0.5290373585822632
  },
  {
    "temp": 198.63436889648438,
    "speed": 0,
    "load": 0.5311097669714417
  },
  {
    "temp": 198.62896728515625,
    "speed": 0,
    "load": 0.5248484480083917
  },
  {
    "temp": 198.62464904785156,
    "speed": 0,
    "load": 0.530801110402841
  },
  {
    "temp": 198.628662109375,
    "speed": 0,
    "load": 0.5274940757392574
  },
  {
    "temp": 198.61416625976562,
    "speed": 0,
    "load": 0.5186312228408543
  },
  {
    "temp": 198.623046875,
    "speed": 0,
    "load": 0.5214973195492938
  },
  {
    "temp": 198.6096649169922,
    "speed": 0,
    "load": 0.527890919898887
  },
  {
    "temp": 198.61944580078125,
    "speed": 0,
    "load": 0.5327412374054763
  },
  {
    "temp": 198.63351440429688,
    "speed": 0,
    "load": 0.52264375823267
  },
  {
    "temp": 198.62828063964844,
    "speed": 0,
    "load": 0.5238342907115587
  },
  {
    "temp": 198.63433837890625,
    "speed": 0,
    "load": 0.5252011983725069
  },
  {
    "temp": 198.64305114746094,
    "speed": 0,
    "load": 0.5196012863421728
  },
  {
    "temp": 198.6359100341797,
    "speed": 0,
    "load": 0.5173965965664511
  },
  {
    "temp": 198.64044189453125,
    "speed": 0,
    "load": 0.519292629773572
  },
  {
    "temp": 198.62852478027344,
    "speed": 0,
    "load": 0.5225996644371538
  },
  {
    "temp": 198.634521484375,
    "speed": 0,
    "load": 0.5190280670004856
  },
  {
    "temp": 198.6393280029297,
    "speed": 0,
    "load": 0.5151919067907276
  },
  {
    "temp": 198.64317321777344,
    "speed": 0,
    "load": 0.5143100308804396
  },
  {
    "temp": 198.63845825195312,
    "speed": 0,
    "load": 0.5197776615242304
  },
  {
    "temp": 198.63223266601562,
    "speed": 0,
    "load": 0.5187635042273993
  },
  {
    "temp": 198.64170837402344,
    "speed": 0,
    "load": 0.5167792834292477
  },
  {
    "temp": 198.64508056640625,
    "speed": 0,
    "load": 0.5133399673791228
  },
  {
    "temp": 198.64776611328125,
    "speed": 0,
    "load": 0.5121494349002322
  },
  {
    "temp": 198.64991760253906,
    "speed": 0,
    "load": 0.5142218432894108
  },
  {
    "temp": 198.64483642578125,
    "speed": 0,
    "load": 0.5139572805163244
  },
  {
    "temp": 198.6475830078125,
    "speed": 0,
    "load": 0.5088864940321631
  },
  {
    "temp": 198.6515350341797,
    "speed": 0,
    "load": 0.5087101188501055
  },
  {
    "temp": 198.6427001953125,
    "speed": 0,
    "load": 0.5155446571548445
  },
  {
    "temp": 198.63563537597656,
    "speed": 0,
    "load": 0.5140454681073532
  },
  {
    "temp": 198.63363647460938,
    "speed": 0,
    "load": 0.5127226542419194
  },
  {
    "temp": 198.63861083984375,
    "speed": 0,
    "load": 0.513692717743238
  },
  {
    "temp": 198.64259338378906,
    "speed": 0,
    "load": 0.5066818042564414
  },
  {
    "temp": 198.64578247070312,
    "speed": 0,
    "load": 0.5090628692142207
  },
  {
    "temp": 198.62989807128906,
    "speed": 0,
    "load": 0.5133399673791228
  },
  {
    "temp": 198.6356201171875,
    "speed": 0,
    "load": 0.5093715257828233
  },
  {
    "temp": 198.64019775390625,
    "speed": 0,
    "load": 0.5104297768751689
  },
  {
    "temp": 198.64678955078125,
    "speed": 0,
    "load": 0.5116203093540594
  },
  {
    "temp": 198.64913940429688,
    "speed": 0,
    "load": 0.5051385214134356
  },
  {
    "temp": 198.65101623535156,
    "speed": 0,
    "load": 0.5077841491443014
  },
  {
    "temp": 198.66192626953125,
    "speed": 0,
    "load": 0.5046975834582916
  },
  {
    "temp": 198.6612548828125,
    "speed": 0,
    "load": 0.5054471779820364
  },
  {
    "temp": 198.6602783203125,
    "speed": 0,
    "load": 0.5063290538923262
  },
  {
    "temp": 198.65992736816406,
    "speed": 0,
    "load": 0.5049180524358636
  },
  {
    "temp": 198.6494140625,
    "speed": 0,
    "load": 0.5043889268896908
  },
  {
    "temp": 198.6527099609375,
    "speed": 0,
    "load": 0.5092833381917945
  },
  {
    "temp": 198.65386962890625,
    "speed": 0,
    "load": 0.5081809933039327
  },
  {
    "temp": 198.65480041503906,
    "speed": 0,
    "load": 0.5041243641166044
  },
  {
    "temp": 198.65614318847656,
    "speed": 0,
    "load": 0.49989135974721854
  },
  {
    "temp": 198.6566162109375,
    "speed": 0,
    "load": 0.49702526303877903
  },
  {
    "temp": 198.64675903320312,
    "speed": 0,
    "load": 0.4955701677868021
  },
  {
    "temp": 198.64280700683594,
    "speed": 0,
    "load": 0.4989212962459
  },
  {
    "temp": 198.6459503173828,
    "speed": 0,
    "load": 0.4902789123250688
  },
  {
    "temp": 198.65048217773438,
    "speed": 0,
    "load": 0.4917781013725602
  },
  {
    "temp": 198.64186096191406,
    "speed": 0,
    "load": 0.4956142615823165
  },
  {
    "temp": 198.64520263671875,
    "speed": 0,
    "load": 0.4948205732630573
  },
  {
    "temp": 198.6478729248047,
    "speed": 0,
    "load": 0.4900143495519824
  },
  {
    "temp": 198.6414794921875,
    "speed": 0,
    "load": 0.4856931575915677
  },
  {
    "temp": 198.6448974609375,
    "speed": 0,
    "load": 0.4826506857010706
  },
  {
    "temp": 198.6395721435547,
    "speed": 0,
    "load": 0.49323319662453713
  },
  {
    "temp": 198.64337158203125,
    "speed": 0,
    "load": 0.4911607882353586
  },
  {
    "temp": 198.6259307861328,
    "speed": 0,
    "load": 0.4864868459108269
  },
  {
    "temp": 198.62220764160156,
    "speed": 0,
    "load": 0.49235132071424736
  },
  {
    "temp": 198.61685180664062,
    "speed": 0,
    "load": 0.49274816487387874
  },
  {
    "temp": 198.62518310546875,
    "speed": 0,
    "load": 0.4870159714569997
  },
  {
    "temp": 198.61671447753906,
    "speed": 0,
    "load": 0.4896615991878672
  },
  {
    "temp": 198.61483764648438,
    "speed": 0,
    "load": 0.48895609845963683
  },
  {
    "temp": 198.61334228515625,
    "speed": 0,
    "load": 0.4902789123250688
  },
  {
    "temp": 198.61322021484375,
    "speed": 0,
    "load": 0.48851516050449106
  },
  {
    "temp": 198.61204528808594,
    "speed": 0,
    "load": 0.48917656743720883
  },
  {
    "temp": 198.61109924316406,
    "speed": 0,
    "load": 0.48829469152691907
  },
  {
    "temp": 198.61180114746094,
    "speed": 0,
    "load": 0.4872364404345735
  },
  {
    "temp": 198.6109161376953,
    "speed": 0,
    "load": 0.48146015322218183
  },
  {
    "temp": 198.59996032714844,
    "speed": 0,
    "load": 0.47722714885279593
  },
  {
    "temp": 198.61080932617188,
    "speed": 0,
    "load": 0.48498765686333734
  },
  {
    "temp": 198.61012268066406,
    "speed": 0,
    "load": 0.48467900029473476
  },
  {
    "temp": 198.6095733642578,
    "speed": 0,
    "load": 0.4870600652525159
  },
  {
    "temp": 198.609130859375,
    "speed": 0,
    "load": 0.4912489758263874
  },
  {
    "temp": 198.61668395996094,
    "speed": 0,
    "load": 0.48485537547679236
  },
  {
    "temp": 198.62506103515625,
    "speed": 0,
    "load": 0.48494356306782116
  },
  {
    "temp": 198.62152099609375,
    "speed": 0,
    "load": 0.4900584433474968
  },
  {
    "temp": 198.6082305908203,
    "speed": 0,
    "load": 0.48930884882375203
  },
  {
    "temp": 198.60804748535156,
    "speed": 0,
    "load": 0.4907198502802128
  },
  {
    "temp": 198.61598205566406,
    "speed": 0,
    "load": 0.4876332845942031
  },
  {
    "temp": 198.62449645996094,
    "speed": 0,
    "load": 0.48908837984618003
  },
  {
    "temp": 198.61627197265625,
    "speed": 0,
    "load": 0.48895609845963683
  },
  {
    "temp": 198.61448669433594,
    "speed": 0,
    "load": 0.4857813451825965
  },
  {
    "temp": 198.623291015625,
    "speed": 0,
    "load": 0.48406168715753317
  },
  {
    "temp": 198.635986328125,
    "speed": 0,
    "load": 0.4829152484741588
  },
  {
    "temp": 198.6405029296875,
    "speed": 0,
    "load": 0.48838287911794787
  },
  {
    "temp": 198.6338653564453,
    "speed": 0,
    "load": 0.48913247364169443
  },
  {
    "temp": 198.63455200195312,
    "speed": 0,
    "load": 0.4826506857010706
  },
  {
    "temp": 198.63934326171875,
    "speed": 0,
    "load": 0.483267998838274
  },
  {
    "temp": 198.6431884765625,
    "speed": 0,
    "load": 0.4872805342300879
  },
  {
    "temp": 198.64625549316406,
    "speed": 0,
    "load": 0.4863104707287693
  },
  {
    "temp": 198.6322479248047,
    "speed": 0,
    "load": 0.4869277838659709
  },
  {
    "temp": 198.6272735595703,
    "speed": 0,
    "load": 0.4860459079556829
  },
  {
    "temp": 198.623291015625,
    "speed": 0,
    "load": 0.4864868459108269
  },
  {
    "temp": 198.60731506347656,
    "speed": 0,
    "load": 0.4860900017511973
  },
  {
    "temp": 198.60731506347656,
    "speed": 0,
    "load": 0.4877214721852319
  },
  {
    "temp": 198.60731506347656,
    "speed": 0,
    "load": 0.48467900029473476
  },
  {
    "temp": 198.60731506347656,
    "speed": 0,
    "load": 0.482474310519013
  },
  {
    "temp": 198.6175537109375,
    "speed": 0,
    "load": 0.4783294937406559
  },
  {
    "temp": 198.63230895996094,
    "speed": 0,
    "load": 0.48044599592534887
  },
  {
    "temp": 198.6273193359375,
    "speed": 0,
    "load": 0.4788145254913143
  },
  {
    "temp": 198.62332153320312,
    "speed": 0,
    "load": 0.4824302167234986
  },
  {
    "temp": 198.63037109375,
    "speed": 0,
    "load": 0.4777562743989687
  },
  {
    "temp": 198.63026428222656,
    "speed": 0,
    "load": 0.4721563623686347
  },
  {
    "temp": 198.6256866455078,
    "speed": 0,
    "load": 0.47669802330662137
  },
  {
    "temp": 198.63226318359375,
    "speed": 0,
    "load": 0.4784176813316847
  },
  {
    "temp": 198.6272735595703,
    "speed": 0,
    "load": 0.4786381503092567
  },
  {
    "temp": 198.60781860351562,
    "speed": 0,
    "load": 0.4704367043435713
  },
  {
    "temp": 198.60772705078125,
    "speed": 0,
    "load": 0.47330280105200906
  },
  {
    "temp": 198.597412109375,
    "speed": 0,
    "load": 0.46937845325122396
  },
  {
    "temp": 198.6091766357422,
    "speed": 0,
    "load": 0.46986348500188235
  },
  {
    "temp": 198.6088104248047,
    "speed": 0,
    "load": 0.47290595689237946
  },
  {
    "temp": 198.61647033691406,
    "speed": 0,
    "load": 0.4742728645533276
  },
  {
    "temp": 198.6248779296875,
    "speed": 0,
    "load": 0.4673060448620454
  },
  {
    "temp": 198.62136840820312,
    "speed": 0,
    "load": 0.4707012671166577
  },
  {
    "temp": 198.6060791015625,
    "speed": 0,
    "load": 0.46933435945570956
  },
  {
    "temp": 198.6165771484375,
    "speed": 0,
    "load": 0.46474860472220847
  },
  {
    "temp": 198.62496948242188,
    "speed": 0,
    "load": 0.46479269851772287
  },
  {
    "temp": 198.62144470214844,
    "speed": 0,
    "load": 0.4701721415704849
  },
  {
    "temp": 198.61862182617188,
    "speed": 0,
    "load": 0.46567457442801086
  },
  {
    "temp": 198.61456298828125,
    "speed": 0,
    "load": 0.4711422050718017
  },
  {
    "temp": 198.60287475585938,
    "speed": 0,
    "load": 0.47237683134620667
  },
  {
    "temp": 198.59353637695312,
    "speed": 0,
    "load": 0.467702889021675
  },
  {
    "temp": 198.616943359375,
    "speed": 0,
    "load": 0.47352327002958283
  },
  {
    "temp": 198.62525939941406,
    "speed": 0,
    "load": 0.46955482843328156
  },
  {
    "temp": 198.60037231445312,
    "speed": 0,
    "load": 0.4639108226074331
  },
  {
    "temp": 198.61199951171875,
    "speed": 0,
    "load": 0.46188250801376896
  },
  {
    "temp": 198.61106872558594,
    "speed": 0,
    "load": 0.46148566385413936
  },
  {
    "temp": 198.62815856933594,
    "speed": 0,
    "load": 0.4600746623976768
  },
  {
    "temp": 198.61375427246094,
    "speed": 0,
    "load": 0.4593691616694464
  },
  {
    "temp": 198.62271118164062,
    "speed": 0,
    "load": 0.4628084777195731
  },
  {
    "temp": 198.60899353027344,
    "speed": 0,
    "load": 0.45734084707578226
  },
  {
    "temp": 198.618896484375,
    "speed": 0,
    "load": 0.46201478940031215
  },
  {
    "temp": 198.6268310546875,
    "speed": 0,
    "load": 0.4558857518238053
  },
  {
    "temp": 198.61776733398438,
    "speed": 0,
    "load": 0.45729675328026786
  },
  {
    "temp": 198.62591552734375,
    "speed": 0,
    "load": 0.4550920635045461
  },
  {
    "temp": 198.62742614746094,
    "speed": 0,
    "load": 0.4591927864873888
  },
  {
    "temp": 198.63365173339844,
    "speed": 0,
    "load": 0.45694400291615267
  },
  {
    "temp": 198.6386260986328,
    "speed": 0,
    "load": 0.45116771570375924
  },
  {
    "temp": 198.6273651123047,
    "speed": 0,
    "load": 0.45341649927499716
  },
  {
    "temp": 198.6233673095703,
    "speed": 0,
    "load": 0.459545536851504
  },
  {
    "temp": 198.63040161132812,
    "speed": 0,
    "load": 0.45751722225783986
  },
  {
    "temp": 198.6360321044922,
    "speed": 0,
    "load": 0.45817862919055585
  },
  {
    "temp": 198.62570190429688,
    "speed": 0,
    "load": 0.4526228109557362
  },
  {
    "temp": 198.63226318359375,
    "speed": 0,
    "load": 0.45350468686602596
  },
  {
    "temp": 198.62533569335938,
    "speed": 0,
    "load": 0.45359287445705476
  },
  {
    "temp": 198.63197326660156,
    "speed": 0,
    "load": 0.45359287445705476
  },
  {
    "temp": 198.6372833251953,
    "speed": 0,
    "load": 0.4521377792050778
  },
  {
    "temp": 198.6449432373047,
    "speed": 0,
    "load": 0.4527550923422812
  },
  {
    "temp": 198.63742065429688,
    "speed": 0,
    "load": 0.45319603029742517
  },
  {
    "temp": 198.63140869140625,
    "speed": 0,
    "load": 0.4483457127908359
  },
  {
    "temp": 198.6368408203125,
    "speed": 0,
    "load": 0.45063859015758645
  },
  {
    "temp": 198.63441467285156,
    "speed": 0,
    "load": 0.4473315554940047
  },
  {
    "temp": 198.6328582763672,
    "speed": 0,
    "load": 0.4449504905362236
  },
  {
    "temp": 198.63800048828125,
    "speed": 0,
    "load": 0.44283398835153065
  },
  {
    "temp": 198.64210510253906,
    "speed": 0,
    "load": 0.4444654587855652
  },
  {
    "temp": 198.64801025390625,
    "speed": 0,
    "load": 0.43930648471037514
  },
  {
    "temp": 198.65011596679688,
    "speed": 0,
    "load": 0.4480811500177495
  },
  {
    "temp": 198.65179443359375,
    "speed": 0,
    "load": 0.44671424235680135
  },
  {
    "temp": 198.64398193359375,
    "speed": 0,
    "load": 0.43913010952831755
  },
  {
    "temp": 198.6468963623047,
    "speed": 0,
    "load": 0.44323083251116024
  },
  {
    "temp": 198.64923095703125,
    "speed": 0,
    "load": 0.44173164346367066
  },
  {
    "temp": 198.652587890625,
    "speed": 0,
    "load": 0.44226076900984346
  },
  {
    "temp": 198.64353942871094,
    "speed": 0,
    "load": 0.4406733923713233
  },
  {
    "temp": 198.64894104003906,
    "speed": 0,
    "load": 0.4440686146259356
  },
  {
    "temp": 198.640625,
    "speed": 0,
    "load": 0.44534733469585497
  },
  {
    "temp": 198.6237335205078,
    "speed": 0,
    "load": 0.4374545452987686
  },
  {
    "temp": 198.62806701660156,
    "speed": 0,
    "load": 0.4330451657473251
  },
  {
    "temp": 198.62391662597656,
    "speed": 0,
    "load": 0.43824823361802956
  },
  {
    "temp": 198.6261444091797,
    "speed": 0,
    "load": 0.43829232741354396
  },
  {
    "temp": 198.63262939453125,
    "speed": 0,
    "load": 0.4338388540665843
  },
  {
    "temp": 198.63172912597656,
    "speed": 0,
    "load": 0.43423569822621566
  },
  {
    "temp": 198.6370849609375,
    "speed": 0,
    "load": 0.43119322633571855
  },
  {
    "temp": 198.64137268066406,
    "speed": 0,
    "load": 0.4342797920217283
  },
  {
    "temp": 198.6393585205078,
    "speed": 0,
    "load": 0.437057701139139
  },
  {
    "temp": 198.6431884765625,
    "speed": 0,
    "load": 0.43405932304415806
  },
  {
    "temp": 198.64625549316406,
    "speed": 0,
    "load": 0.4338388540665843
  },
  {
    "temp": 198.6506805419922,
    "speed": 0,
    "load": 0.4332215409293827
  },
  {
    "temp": 198.65225219726562,
    "speed": 0,
    "load": 0.428679879991396
  },
  {
    "temp": 198.65350341796875,
    "speed": 0,
    "load": 0.4300467876523424
  },
  {
    "temp": 198.64508056640625,
    "speed": 0,
    "load": 0.437057701139139
  },
  {
    "temp": 198.64776611328125,
    "speed": 0,
    "load": 0.4300467876523424
  },
  {
    "temp": 198.64991760253906,
    "speed": 0,
    "load": 0.43132550772226175
  },
  {
    "temp": 198.6345977783203,
    "speed": 0,
    "load": 0.43062000699403136
  },
  {
    "temp": 198.63938903808594,
    "speed": 0,
    "load": 0.43211919604152094
  },
  {
    "temp": 198.64321899414062,
    "speed": 0,
    "load": 0.4296499434927128
  },
  {
    "temp": 198.63031005859375,
    "speed": 0,
    "load": 0.4294294745151408
  },
  {
    "temp": 198.62571716308594,
    "speed": 0,
    "load": 0.4254169391233269
  },
  {
    "temp": 198.61705017089844,
    "speed": 0,
    "load": 0.4256815018964133
  },
  {
    "temp": 198.62535095214844,
    "speed": 0,
    "load": 0.4255051267143557
  },
  {
    "temp": 198.60862731933594,
    "speed": 0,
    "load": 0.4229917803700314
  },
  {
    "temp": 198.59812927246094,
    "speed": 0,
    "load": 0.4215807789135706
  },
  {
    "temp": 198.61021423339844,
    "speed": 0,
    "load": 0.41915562016027685
  },
  {
    "temp": 198.61941528320312,
    "speed": 0,
    "load": 0.4146139592222884
  },
  {
    "temp": 198.61700439453125,
    "speed": 0,
    "load": 0.42043434023019444
  },
  {
    "temp": 198.60482788085938,
    "speed": 0,
    "load": 0.42471143839509473
  },
  {
    "temp": 198.6036834716797,
    "speed": 0,
    "load": 0.4179209938858719
  },
  {
    "temp": 198.6044158935547,
    "speed": 0,
    "load": 0.4176564311127855
  },
  {
    "temp": 198.60546875,
    "speed": 0,
    "load": 0.4132911453568564
  },
  {
    "temp": 198.5853729248047,
    "speed": 0,
    "load": 0.41280611360619623
  },
  {
    "temp": 198.60000610351562,
    "speed": 0,
    "load": 0.41157148733179305
  },
  {
    "temp": 198.60147094726562,
    "speed": 0,
    "load": 0.4135557081299428
  },
  {
    "temp": 198.60264587402344,
    "speed": 0,
    "load": 0.41589267929220775
  },
  {
    "temp": 198.61253356933594,
    "speed": 0,
    "load": 0.41130692455870665
  },
  {
    "temp": 198.60125732421875,
    "speed": 0,
    "load": 0.413335239152369
  },
  {
    "temp": 198.6127166748047,
    "speed": 0,
    "load": 0.420963465776369
  },
  {
    "temp": 198.6116485595703,
    "speed": 0,
    "load": 0.4186264946141023
  },
  {
    "temp": 198.610107421875,
    "speed": 0,
    "load": 0.41655408622492374
  },
  {
    "temp": 198.5993194580078,
    "speed": 0,
    "load": 0.4182737442499871
  },
  {
    "temp": 198.60092163085938,
    "speed": 0,
    "load": 0.41545174133706375
  },
  {
    "temp": 198.60220336914062,
    "speed": 0,
    "load": 0.41254155083310984
  },
  {
    "temp": 198.61428833007812,
    "speed": 0,
    "load": 0.414569865426774
  },
  {
    "temp": 198.62313842773438,
    "speed": 0,
    "load": 0.41262973842413864
  },
  {
    "temp": 198.61744689941406,
    "speed": 0,
    "load": 0.4094108913515857
  },
  {
    "temp": 198.62567138671875,
    "speed": 0,
    "load": 0.41258564462862424
  },
  {
    "temp": 198.64247131347656,
    "speed": 0,
    "load": 0.4108218928080465
  },
  {
    "temp": 198.64825439453125,
    "speed": 0,
    "load": 0.4057952001194014
  },
  {
    "temp": 198.6503143310547,
    "speed": 0,
    "load": 0.4177005249082999
  },
  {
    "temp": 198.6532745361328,
    "speed": 0,
    "load": 0.41580449170117895
  },
  {
    "temp": 198.65432739257812,
    "speed": 0,
    "load": 0.407735327122035
  },
  {
    "temp": 198.65516662597656,
    "speed": 0,
    "load": 0.4071180139848334
  },
  {
    "temp": 198.6558380126953,
    "speed": 0,
    "load": 0.40861720303232474
  },
  {
    "temp": 198.65679931640625,
    "speed": 0,
    "load": 0.40808807748615195
  },
  {
    "temp": 198.6571502685547,
    "speed": 0,
    "load": 0.4072062015758622
  },
  {
    "temp": 198.6574249267578,
    "speed": 0,
    "load": 0.4065888884386606
  },
  {
    "temp": 198.6578369140625,
    "speed": 0,
    "load": 0.40874948441886794
  },
  {
    "temp": 198.64773559570312,
    "speed": 0,
    "load": 0.4098077355112153
  },
  {
    "temp": 198.65162658691406,
    "speed": 0,
    "load": 0.40760304573549355
  },
  {
    "temp": 198.65301513671875,
    "speed": 0,
    "load": 0.405839293914914
  },
  {
    "temp": 198.65411376953125,
    "speed": 0,
    "load": 0.4100282044887873
  },
  {
    "temp": 198.65570068359375,
    "speed": 0,
    "load": 0.4035464165481635
  },
  {
    "temp": 198.65626525878906,
    "speed": 0,
    "load": 0.4098959231022441
  },
  {
    "temp": 198.65672302246094,
    "speed": 0,
    "load": 0.4069416388027758
  },
  {
    "temp": 198.64918518066406,
    "speed": 0,
    "load": 0.4102045796708449
  },
  {
    "temp": 198.6408233642578,
    "speed": 0,
    "load": 0.4102927672618737
  },
  {
    "temp": 198.64720153808594,
    "speed": 0,
    "load": 0.40910223478298313
  },
  {
    "temp": 198.65969848632812,
    "speed": 0,
    "load": 0.40486923041359724
  },
  {
    "temp": 198.6594696044922,
    "speed": 0,
    "load": 0.4018267585231019
  },
  {
    "temp": 198.6591339111328,
    "speed": 0,
    "load": 0.41223289426450904
  },
  {
    "temp": 198.6590118408203,
    "speed": 0,
    "load": 0.4107337052170177
  },
  {
    "temp": 198.65892028808594,
    "speed": 0,
    "load": 0.4057952001194014
  },
  {
    "temp": 198.65878295898438,
    "speed": 0,
    "load": 0.41223289426450904
  },
  {
    "temp": 198.6587371826172,
    "speed": 0,
    "load": 0.4069416388027758
  },
  {
    "temp": 198.65869140625,
    "speed": 0,
    "load": 0.40777942091755115
  },
  {
    "temp": 198.65863037109375,
    "speed": 0,
    "load": 0.4057952001194014
  },
  {
    "temp": 198.6586151123047,
    "speed": 0,
    "load": 0.41659818002043814
  },
  {
    "temp": 198.65859985351562,
    "speed": 0,
    "load": 0.41205651908245144
  },
  {
    "temp": 198.6585693359375,
    "speed": 0,
    "load": 0.4109982679901041
  },
  {
    "temp": 198.6585693359375,
    "speed": 0,
    "load": 0.406192044279031
  },
  {
    "temp": 198.66880798339844,
    "speed": 0,
    "load": 0.4095431727381271
  },
  {
    "temp": 198.66510009765625,
    "speed": 0,
    "load": 0.41157148733179305
  },
  {
    "temp": 198.66378784179688,
    "speed": 0,
    "load": 0.41302658258376823
  },
  {
    "temp": 198.66273498535156,
    "speed": 0,
    "load": 0.41267383221965304
  },
  {
    "temp": 198.66189575195312,
    "speed": 0,
    "load": 0.40848492164578154
  },
  {
    "temp": 198.6606903076172,
    "speed": 0,
    "load": 0.4106014238304745
  },
  {
    "temp": 198.6704864501953,
    "speed": 0,
    "load": 0.40769123332652235
  },
  {
    "temp": 198.6680908203125,
    "speed": 0,
    "load": 0.4108218928080465
  },
  {
    "temp": 198.66465759277344,
    "speed": 0,
    "load": 0.40901404719195433
  },
  {
    "temp": 198.66343688964844,
    "speed": 0,
    "load": 0.4035905103436779
  },
  {
    "temp": 198.66246032714844,
    "speed": 0,
    "load": 0.4060597628924878
  },
  {
    "temp": 198.6610565185547,
    "speed": 0,
    "load": 0.40923451616952633
  },
  {
    "temp": 198.6707763671875,
    "speed": 0,
    "load": 0.41157148733179305
  },
  {
    "temp": 198.67857360839844,
    "speed": 0,
    "load": 0.4108218928080465
  },
  {
    "temp": 198.68479919433594,
    "speed": 0,
    "load": 0.4108659866035609
  },
  {
    "temp": 198.6855926513672,
    "speed": 0,
    "load": 0.4099400168977585
  },
  {
    "temp": 198.68017578125,
    "speed": 0,
    "load": 0.407735327122035
  },
  {
    "temp": 198.67584228515625,
    "speed": 0,
    "load": 0.40808807748615195
  },
  {
    "temp": 198.67237854003906,
    "speed": 0,
    "load": 0.4069857325982902
  },
  {
    "temp": 198.6674041748047,
    "speed": 0,
    "load": 0.40835264025923834
  },
  {
    "temp": 198.66563415527344,
    "speed": 0,
    "load": 0.4063243256655742
  },
  {
    "temp": 198.66421508789062,
    "speed": 0,
    "load": 0.4096313603291559
  },
  {
    "temp": 198.6630859375,
    "speed": 0,
    "load": 0.406412513256603
  },
  {
    "temp": 198.65325927734375,
    "speed": 0,
    "load": 0.4030172910019907
  },
  {
    "temp": 198.65431213378906,
    "speed": 0,
    "load": 0.40478104282256844
  },
  {
    "temp": 198.66537475585938,
    "speed": 0,
    "load": 0.4057070125283726
  },
  {
    "temp": 198.66290283203125,
    "speed": 0,
    "load": 0.4023558840692747
  },
  {
    "temp": 198.6620330810547,
    "speed": 0,
    "load": 0.40125353918141293
  },
  {
    "temp": 198.6613311767578,
    "speed": 0,
    "load": 0.40539835595977003
  },
  {
    "temp": 198.6603240966797,
    "speed": 0,
    "load": 0.40495741800462604
  },
  {
    "temp": 198.65997314453125,
    "speed": 0,
    "load": 0.4021795088872171
  },
  {
    "temp": 198.65968322753906,
    "speed": 0,
    "load": 0.4031495723885339
  },
  {
    "temp": 198.65927124023438,
    "speed": 0,
    "load": 0.40460466764051084
  },
  {
    "temp": 198.65911865234375,
    "speed": 0,
    "load": 0.4068093574162326
  },
  {
    "temp": 198.63023376464844,
    "speed": 0,
    "load": 0.4032377599795627
  },
  {
    "temp": 198.63589477539062,
    "speed": 0,
    "load": 0.39732919138062783
  },
  {
    "temp": 198.64404296875,
    "speed": 0,
    "load": 0.39754966035819983
  },
  {
    "temp": 198.63670349121094,
    "speed": 0,
    "load": 0.3988283804281192
  },
  {
    "temp": 198.6410675048828,
    "speed": 0,
    "load": 0.399577974951864
  },
  {
    "temp": 198.64735412597656,
    "speed": 0,
    "load": 0.39305209321572754
  },
  {
    "temp": 198.6393585205078,
    "speed": 0,
    "load": 0.3914647165772074
  },
  {
    "temp": 198.6431884765625,
    "speed": 0,
    "load": 0.39671187824342624
  },
  {
    "temp": 198.63601684570312,
    "speed": 0,
    "load": 0.3959622837196797
  },
  {
    "temp": 198.63027954101562,
    "speed": 0,
    "load": 0.40041575706663934
  },
  {
    "temp": 198.64044189453125,
    "speed": 0,
    "load": 0.3918174669413226
  },
  {
    "temp": 198.63381958007812,
    "speed": 0,
    "load": 0.3955654395600501
  },
  {
    "temp": 198.63876342773438,
    "speed": 0,
    "load": 0.4037668855257355
  },
  {
    "temp": 198.6458740234375,
    "speed": 0,
    "load": 0.40116535159038413
  },
  {
    "temp": 198.63816833496094,
    "speed": 0,
    "load": 0.39657959685688304
  },
  {
    "temp": 198.6455078125,
    "speed": 0,
    "load": 0.40028347568009615
  },
  {
    "temp": 198.6276397705078,
    "speed": 0,
    "load": 0.40085669502178334
  },
  {
    "temp": 198.63876342773438,
    "speed": 0,
    "load": 0.4031936661840483
  },
  {
    "temp": 198.63247680664062,
    "speed": 0,
    "load": 0.40407554209433805
  },
  {
    "temp": 198.6376953125,
    "speed": 0,
    "load": 0.39715281619857024
  },
  {
    "temp": 198.64520263671875,
    "speed": 0,
    "load": 0.3956977209465933
  },
  {
    "temp": 198.63763427734375,
    "speed": 0,
    "load": 0.3955654395600501
  },
  {
    "temp": 198.64181518554688,
    "speed": 0,
    "load": 0.3945071884677045
  },
  {
    "temp": 198.6396484375,
    "speed": 0,
    "load": 0.3985197238595184
  },
  {
    "temp": 198.6434326171875,
    "speed": 0,
    "load": 0.3982110672909176
  },
  {
    "temp": 198.64068603515625,
    "speed": 0,
    "load": 0.3953890643779925
  },
  {
    "temp": 198.6544952392578,
    "speed": 0,
    "load": 0.39265524905609617
  },
  {
    "temp": 198.65530395507812,
    "speed": 0,
    "load": 0.39724100378959903
  },
  {
    "temp": 198.65646362304688,
    "speed": 0,
    "load": 0.398916568019148
  },
  {
    "temp": 198.64663696289062,
    "speed": 0,
    "load": 0.39322846839778514
  },
  {
    "temp": 198.63877868652344,
    "speed": 0,
    "load": 0.3944630946721883
  },
  {
    "temp": 198.63565063476562,
    "speed": 0,
    "load": 0.397902410722315
  },
  {
    "temp": 198.64022827148438,
    "speed": 0,
    "load": 0.39380168773947233
  },
  {
    "temp": 198.64682006835938,
    "speed": 0,
    "load": 0.39702053481202704
  },
  {
    "temp": 198.649169921875,
    "speed": 0,
    "load": 0.39688825342548384
  },
  {
    "temp": 198.66128540039062,
    "speed": 0,
    "load": 0.39653550306136687
  },
  {
    "temp": 198.66073608398438,
    "speed": 0,
    "load": 0.40072441363524014
  },
  {
    "temp": 198.65994262695312,
    "speed": 0,
    "load": 0.3911119662130922
  },
  {
    "temp": 198.65966796875,
    "speed": 0,
    "load": 0.390847403440004
  },
  {
    "temp": 198.65106201171875,
    "speed": 0,
    "load": 0.38983324614317283
  },
  {
    "temp": 198.65255737304688,
    "speed": 0,
    "load": 0.39305209321572754
  },
  {
    "temp": 198.6435089111328,
    "speed": 0,
    "load": 0.3915088103727218
  },
  {
    "temp": 198.64892578125,
    "speed": 0,
    "load": 0.3993134121787776
  },
  {
    "temp": 198.65084838867188,
    "speed": 0,
    "load": 0.3940662505125587
  },
  {
    "temp": 198.6523895263672,
    "speed": 0,
    "load": 0.39287571803366994
  },
  {
    "temp": 198.65460205078125,
    "speed": 0,
    "load": 0.399577974951864
  },
  {
    "temp": 198.6553955078125,
    "speed": 0,
    "load": 0.39706462860754144
  },
  {
    "temp": 198.65602111816406,
    "speed": 0,
    "load": 0.3913765289861786
  },
  {
    "temp": 198.65692138671875,
    "speed": 0,
    "load": 0.38890727643737044
  },
  {
    "temp": 198.65724182128906,
    "speed": 0,
    "load": 0.3880254005270807
  },
  {
    "temp": 198.65750122070312,
    "speed": 0,
    "load": 0.3866143990706181
  },
  {
    "temp": 198.66607666015625,
    "speed": 0,
    "load": 0.3904946530758888
  },
  {
    "temp": 198.66456604003906,
    "speed": 0,
    "load": 0.3844097092948964
  },
  {
    "temp": 198.67359924316406,
    "speed": 0,
    "load": 0.3922143111009522
  },
  {
    "temp": 198.66818237304688,
    "speed": 0,
    "load": 0.38992143373420163
  },
  {
    "temp": 198.666259765625,
    "speed": 0,
    "load": 0.3868789618437045
  },
  {
    "temp": 198.6647186279297,
    "speed": 0,
    "load": 0.390185996507288
  },
  {
    "temp": 198.654296875,
    "speed": 0,
    "load": 0.3908914972355202
  },
  {
    "temp": 198.64491271972656,
    "speed": 0,
    "load": 0.3867466804571631
  },
  {
    "temp": 198.6374053955078,
    "speed": 0,
    "load": 0.3837483023621804
  },
  {
    "temp": 198.64501953125,
    "speed": 0,
    "load": 0.3869230556392207
  },
  {
    "temp": 198.64772033691406,
    "speed": 0,
    "load": 0.3797798607658809
  },
  {
    "temp": 198.64988708496094,
    "speed": 0,
    "load": 0.38202864433711703
  },
  {
    "temp": 198.6529998779297,
    "speed": 0,
    "load": 0.38458608447695397
  },
  {
    "temp": 198.6438751220703,
    "speed": 0,
    "load": 0.391200153804121
  },
  {
    "temp": 198.6468048095703,
    "speed": 0,
    "load": 0.38868680745979667
  },
  {
    "temp": 198.638916015625,
    "speed": 0,
    "load": 0.3842774279083532
  },
  {
    "temp": 198.6357421875,
    "speed": 0,
    "load": 0.38167589397300183
  },
  {
    "temp": 198.63006591796875,
    "speed": 0,
    "load": 0.38097039324476967
  },
  {
    "temp": 198.63575744628906,
    "speed": 0,
    "load": 0.38515930381864116
  },
  {
    "temp": 198.6439666748047,
    "speed": 0,
    "load": 0.3901419027117736
  },
  {
    "temp": 198.64688110351562,
    "speed": 0,
    "load": 0.3913765289861786
  },
  {
    "temp": 198.63897705078125,
    "speed": 0,
    "load": 0.38842224468671027
  },
  {
    "temp": 198.64288330078125,
    "speed": 0,
    "load": 0.38983324614317283
  },
  {
    "temp": 198.64031982421875,
    "speed": 0,
    "load": 0.3862616487065029
  },
  {
    "temp": 198.63372802734375,
    "speed": 0,
    "load": 0.38546796038724374
  },
  {
    "temp": 198.6426544189453,
    "speed": 0,
    "load": 0.3875403687764223
  },
  {
    "temp": 198.63558959960938,
    "speed": 0,
    "load": 0.3863939300930461
  },
  {
    "temp": 198.6401824951172,
    "speed": 0,
    "load": 0.3881576819136239
  },
  {
    "temp": 198.64385986328125,
    "speed": 0,
    "load": 0.3873639935943647
  },
  {
    "temp": 198.64678955078125,
    "speed": 0,
    "load": 0.38577661695584453
  },
  {
    "temp": 198.65101623535156,
    "speed": 0,
    "load": 0.390185996507288
  },
  {
    "temp": 198.65252685546875,
    "speed": 0,
    "load": 0.390538746871405
  },
  {
    "temp": 198.6332550048828,
    "speed": 0,
    "load": 0.3946835636497621
  },
  {
    "temp": 198.63211059570312,
    "speed": 0,
    "load": 0.3946394698542459
  },
  {
    "temp": 198.63739013671875,
    "speed": 0,
    "load": 0.3878049315495087
  },
  {
    "temp": 198.64500427246094,
    "speed": 0,
    "load": 0.38577661695584453
  },
  {
    "temp": 198.647705078125,
    "speed": 0,
    "load": 0.38493883484107094
  },
  {
    "temp": 198.64987182617188,
    "speed": 0,
    "load": 0.3917733731458082
  },
  {
    "temp": 198.62432861328125,
    "speed": 0,
    "load": 0.38965687096111523
  },
  {
    "temp": 198.63116455078125,
    "speed": 0,
    "load": 0.3865703052751037
  },
  {
    "temp": 198.6366424560547,
    "speed": 0,
    "load": 0.3791625476286775
  },
  {
    "temp": 198.62054443359375,
    "speed": 0,
    "load": 0.38066173667616887
  },
  {
    "temp": 198.63421630859375,
    "speed": 0,
    "load": 0.3822050195191746
  },
  {
    "temp": 198.6390838623047,
    "speed": 0,
    "load": 0.3863057425020173
  },
  {
    "temp": 198.64608764648438,
    "speed": 0,
    "load": 0.3800885173344817
  },
  {
    "temp": 198.64857482910156,
    "speed": 0,
    "load": 0.3744886053041476
  },
  {
    "temp": 198.65057373046875,
    "speed": 0,
    "load": 0.375194106032378
  }
]