[
  {
    "temp": 198.64259338378906,
    "speed": 0,
    "load": 0.004982598893132462
  },
  {
    "temp": 198.64578247070312,
    "speed": 0,
    "load": 0.007628226623998202
  },
  {
    "temp": 198.64013671875,
    "speed": 0,
    "load": 0.007363663850911806
  },
  {
    "temp": 198.6233367919922,
    "speed": 0,
    "load": 0.004409379551445269
  },
  {
    "temp": 198.62013244628906,
    "speed": 0,
    "load": 0.009524259831119153
  },
  {
    "temp": 198.62371826171875,
    "speed": 0,
    "load": 0.010758886105524113
  },
  {
    "temp": 198.63067626953125,
    "speed": 0,
    "load": 0.008069164579143973
  },
  {
    "temp": 198.63624572753906,
    "speed": 0,
    "load": 0.00895104048943196
  },
  {
    "temp": 198.63607788085938,
    "speed": 2.497502565383911,
    "load": 0.0796774884945961
  },
  {
    "temp": 198.64056396484375,
    "speed": 2.497502565383911,
    "load": 1.3592353405281585
  },
  {
    "temp": 198.6441650390625,
    "speed": 2.497502565383911,
    "load": 4.852125352204595
  },
  {
    "temp": 198.6493377685547,
    "speed": 2.497502565383911,
    "load": 7.148927066756311
  },
  {
    "temp": 198.65118408203125,
    "speed": 2.497502565383911,
    "load": 6.172249496111444
  },
  {
    "temp": 198.65382385253906,
    "speed": 2.497502565383911,
    "load": 3.737522389190559
  },
  {
    "temp": 198.65476989746094,
    "speed": 2.4950098991394043,
    "load": 3.292527804858821
  },
  {
    "temp": 198.655517578125,
    "speed": 2.4950098991394043,
    "load": 2.9703785348303153
  },
  {
    "temp": 198.6566162109375,
    "speed": 2.497502565383911,
    "load": 2.849870191689348
  },
  {
    "temp": 198.65699768066406,
    "speed": 2.497502565383911,
    "load": 2.779055556093155
  },
  {
    "temp": 198.6573028564453,
    "speed": 2.4925224781036377,
    "load": 3.6028599376894554
  },
  {
    "temp": 198.65774536132812,
    "speed": 2.497502565383911,
    "load": 4.549862383953105
  },
  {
    "temp": 198.65789794921875,
    "speed": 2.4950098991394043,
    "load": 4.953452894296781
  },
  {
    "temp": 198.6477813720703,
    "speed": 2.497502565383911,
    "load": 5.189972013436243
  },
  {
    "temp": 198.6516571044922,
    "speed": 2.497502565383911,
    "load": 5.219338481248862
  },
  {
    "temp": 198.6530303955078,
    "speed": 2.497502565383911,
    "load": 5.291299555528429
  },
  {
    "temp": 198.6541290283203,
    "speed": 2.4950098991394043,
    "load": 5.344079828759213
  },
  {
    "temp": 198.644775390625,
    "speed": 2.497502565383911,
    "load": 5.490162573298559
  },
  {
    "temp": 198.6313018798828,
    "speed": 2.4950098991394043,
    "load": 5.543295596893458
  },
  {
    "temp": 198.63674926757812,
    "speed": 2.497502565383911,
    "load": 5.556964673502936
  },
  {
    "temp": 198.63087463378906,
    "speed": 2.497502565383911,
    "load": 5.522306950228586
  },
  {
    "temp": 198.62445068359375,
    "speed": 2.497502565383911,
    "load": 5.551937980814291
  },
  {
    "temp": 198.62103271484375,
    "speed": 2.497502565383911,
    "load": 5.747670339102893
  },
  {
    "temp": 198.6285400390625,
    "speed": 2.5,
    "load": 5.792690104323135
  },
  {
    "temp": 198.63934326171875,
    "speed": 2.497502565383911,
    "load": 5.782592625150329
  },
  {
    "temp": 198.62271118164062,
    "speed": 2.497502565383911,
    "load": 5.9004553405604305
  },
  {
    "temp": 198.61964416503906,
    "speed": 2.497502565383911,
    "load": 6.009322921685584
  },
  {
    "temp": 198.61521911621094,
    "speed": 2.4950098991394043,
    "load": 6.129654889644495
  },
  {
    "temp": 198.62388610839844,
    "speed": 2.497502565383911,
    "load": 6.147556970623359
  },
  {
    "temp": 198.62057495117188,
    "speed": 2.5,
    "load": 6.225691176274946
  },
  {
    "temp": 198.60557556152344,
    "speed": 2.497502565383911,
    "load": 6.383635151807674
  },
  {
    "temp": 198.59568786621094,
    "speed": 2.497502565383911,
    "load": 6.420365283471202
  },
  {
    "temp": 198.58778381347656,
    "speed": 2.5,
    "load": 6.439149240360354
  },
  {
    "temp": 198.56614685058594,
    "speed": 2.4950098991394043,
    "load": 6.521692825563388
  },
  {
    "temp": 198.56414794921875,
    "speed": 2.497502565383911,
    "load": 6.579764354255907
  },
  {
    "temp": 198.5420684814453,
    "speed": 2.497502565383911,
    "load": 6.648903425622549
  },
  {
    "temp": 198.51028442382812,
    "speed": 2.490039825439453,
    "load": 6.670685760606684
  },
  {
    "temp": 198.4989776611328,
    "speed": 0,
    "load": 6.70221282439951
  },
  {
    "temp": 198.48992919921875,
    "speed": 0,
    "load": 5.06611254183618
  },
  {
    "temp": 198.485107421875,
    "speed": 0,
    "load": 2.4472938386425014
  },
  {
    "temp": 198.48907470703125,
    "speed": 0,
    "load": 1.1620919807830923
  },
  {
    "temp": 198.4820098876953,
    "speed": 0,
    "load": 0.3759437005561246
  },
  {
    "temp": 198.4718475341797,
    "speed": 0,
    "load": 0.21958710166191686
  },
  {
    "temp": 198.46823120117188,
    "speed": 0,
    "load": 0.1033558566858499
  },
  {
    "temp": 198.46533203125,
    "speed": 0,
    "load": -0.032056189338998564
  },
  {
    "temp": 198.46116638183594,
    "speed": 0,
    "load": -0.07103510457376316
  },
  {
    "temp": 198.45968627929688,
    "speed": 0,
    "load": -0.09568353626633552
  },
  {
    "temp": 198.45849609375,
    "speed": 0,
    "load": -0.13973323798526316
  },
  {
    "temp": 198.43630981445312,
    "speed": 0,
    "load": -0.15635659889420594
  },
  {
    "temp": 198.4295654296875,
    "speed": 0,
    "load": -0.19119069735061522
  },
  {
    "temp": 198.42416381835938,
    "speed": 0,
    "load": -0.20071495718173438
  },
  {
    "temp": 198.40615844726562,
    "speed": 0,
    "load": -0.20913687212499354
  },
  {
    "temp": 198.4054412841797,
    "speed": 0,
    "load": -0.21729422429516454
  },
  {
    "temp": 198.4048614501953,
    "speed": 0,
    "load": -0.23166880163287118
  },
  {
    "temp": 198.40199279785156,
    "speed": 0,
    "load": -0.24450009612757384
  },
  {
    "temp": 198.412353515625,
    "speed": 0,
    "load": -0.2499677267713647
  },
  {
    "temp": 198.40016174316406,
    "speed": 0,
    "load": -0.2527897296842898
  },
  {
    "temp": 198.41127014160156,
    "speed": 0,
    "load": -0.26667927527133806
  },
  {
    "temp": 198.3992919921875,
    "speed": 0,
    "load": -0.2758066909428276
  },
  {
    "temp": 198.3999481201172,
    "speed": 0,
    "load": -0.27421931430430746
  },
  {
    "temp": 198.3927001953125,
    "speed": 0,
    "load": -0.2833026361802826
  },
  {
    "temp": 198.39466857910156,
    "speed": 0,
    "load": -0.283787667930941
  },
  {
    "temp": 198.406494140625,
    "speed": 0,
    "load": -0.291283613168396
  },
  {
    "temp": 198.40509033203125,
    "speed": 0,
    "load": -0.2871828901855533
  },
  {
    "temp": 198.4045867919922,
    "speed": 0,
    "load": -0.2919450201011138
  },
  {
    "temp": 198.4144287109375,
    "speed": 0,
    "load": -0.29317964637551697
  },
  {
    "temp": 198.4120635986328,
    "speed": 0,
    "load": -0.2998378094981984
  },
  {
    "temp": 198.4270782470703,
    "speed": 0,
    "load": -0.3042471890496419
  },
  {
    "temp": 198.4324188232422,
    "speed": 0,
    "load": -0.3144328558134788
  },
  {
    "temp": 198.4401092529297,
    "speed": 0,
    "load": -0.31646117040714117
  },
  {
    "temp": 198.44284057617188,
    "speed": 0,
    "load": -0.32087054995858644
  },
  {
    "temp": 198.4450225830078,
    "speed": 0,
    "load": -0.3191067981380087
  },
  {
    "temp": 198.4584197998047,
    "speed": 0,
    "load": -0.32497127294142913
  },
  {
    "temp": 198.45748901367188,
    "speed": 0,
    "load": -0.32395711564459617
  },
  {
    "temp": 198.4567413330078,
    "speed": 0,
    "load": -0.32805783862744065
  },
  {
    "temp": 198.47410583496094,
    "speed": 0,
    "load": -0.33043890358522
  },
  {
    "temp": 198.47003173828125,
    "speed": 0,
    "load": -0.3370970667079014
  },
  {
    "temp": 198.4744110107422,
    "speed": 0,
    "load": -0.34340247946646585
  },
  {
    "temp": 198.49075317382812,
    "speed": 0,
    "load": -0.35182439440972324
  },
  {
    "temp": 198.5038299560547,
    "speed": 0,
    "load": -0.35081023711289205
  },
  {
    "temp": 198.5144805908203,
    "speed": 0,
    "load": -0.3490023914967999
  },
  {
    "temp": 198.5125732421875,
    "speed": 0,
    "load": -0.3574243064400573
  },
  {
    "temp": 198.5212860107422,
    "speed": 0,
    "load": -0.36205415496907456
  },
  {
    "temp": 198.5543212890625,
    "speed": 0,
    "load": -0.3632887812434795
  },
  {
    "temp": 198.5546875,
    "speed": 0,
    "load": -0.3615250294229
  },
  {
    "temp": 198.5549774169922,
    "speed": 0,
    "load": -0.3617014046049576
  },
  {
    "temp": 198.59225463867188,
    "speed": 0,
    "load": -0.36672809729360445
  },
  {
    "temp": 198.6055145263672,
    "speed": 0,
    "load": -0.3759437005561228
  },
  {
    "temp": 198.61611938476562,
    "speed": 0,
    "load": -0.38238139470123045
  },
  {
    "temp": 198.62319946289062,
    "speed": 0,
    "load": -0.3764287323067812
  },
  {
    "temp": 198.63026428222656,
    "speed": 0,
    "load": -0.3759877943516372
  },
  {
    "temp": 198.63592529296875,
    "speed": 0,
    "load": -0.3833073644070346
  },
  {
    "temp": 198.6506805419922,
    "speed": 0,
    "load": -0.38476245965901157
  },
  {
    "temp": 198.65350341796875,
    "speed": 0,
    "load": -0.3830428016339482
  },
  {
    "temp": 198.65451049804688,
    "speed": 0,
    "load": -0.38480655345452597
  },
  {
    "temp": 198.66555786132812,
    "speed": 0,
    "load": -0.42815075444522144
  },
  {
    "temp": 198.6814422607422,
    "speed": 0,
    "load": -0.5080487119173878
  },
  {
    "temp": 198.68710327148438,
    "speed": 0,
    "load": -0.5104738706706833
  },
  {
    "temp": 198.681396484375,
    "speed": 0,
    "load": -0.5150596254041844
  },
  {
    "temp": 198.69155883789062,
    "speed": 0,
    "load": -0.5231287899833266
  },
  {
    "temp": 198.68495178222656,
    "speed": 0,
    "load": -0.5183666600677679
  },
  {
    "temp": 198.70013427734375,
    "speed": 0,
    "load": -0.5171320337933629
  },
  {
    "temp": 198.6953887939453,
    "speed": 0,
    "load": -0.5164265330651325
  },
  {
    "temp": 198.70848083496094,
    "speed": 0,
    "load": -0.5183666600677679
  },
  {
    "temp": 198.70872497558594,
    "speed": 0,
    "load": -0.5241429472801595
  },
  {
    "temp": 198.74591064453125,
    "speed": 0,
    "load": -0.5218941637089216
  },
  {
    "temp": 198.75914001464844,
    "speed": 0,
    "load": -0.521717788526864
  },
  {
    "temp": 198.76971435546875,
    "speed": 0,
    "load": -0.5169556586113053
  },
  {
    "temp": 198.7679443359375,
    "speed": 0,
    "load": -0.5168674710202765
  },
  {
    "temp": 198.7838134765625,
    "speed": 0,
    "load": -0.5202626932748888
  },
  {
    "temp": 198.79969787597656,
    "speed": 0,
    "load": -0.5178816283171095
  },
  {
    "temp": 198.79193115234375,
    "speed": 0,
    "load": -0.5226878520281826
  },
  {
    "temp": 198.77256774902344,
    "speed": 0,
    "load": -0.5250248231904475
  },
  {
    "temp": 198.7702178955078,
    "speed": 0,
    "load": -0.5211004753896624
  },
  {
    "temp": 198.788818359375,
    "speed": 0,
    "load": -0.5259066991007373
  },
  {
    "temp": 198.79718017578125,
    "speed": 0,
    "load": -0.5240547596891307
  },
  {
    "temp": 198.81039428710938,
    "speed": 0,
    "load": -0.5184989414543111
  },
  {
    "temp": 198.81072998046875,
    "speed": 0,
    "load": -0.5169556586113053
  },
  {
    "temp": 198.8112030029297,
    "speed": 0,
    "load": -0.5248925418039043
  },
  {
    "temp": 198.80113220214844,
    "speed": 0,
    "load": -0.5298751406970368
  },
  {
    "temp": 198.8135528564453,
    "speed": 0,
    "load": -0.528993264786747
  },
  {
    "temp": 198.81300354003906,
    "speed": 0,
    "load": -0.5241429472801595
  },
  {
    "temp": 198.79232788085938,
    "speed": 0,
    "load": -0.5213209443672344
  },
  {
    "temp": 198.78602600097656,
    "speed": 0,
    "load": -0.5277586385123421
  },
  {
    "temp": 198.77696228027344,
    "speed": 0,
    "load": -0.5271413253751405
  },
  {
    "temp": 198.77374267578125,
    "speed": 0,
    "load": -0.5251571045769907
  },
  {
    "temp": 198.75070190429688,
    "speed": 0,
    "load": -0.5255098549411059
  },
  {
    "temp": 198.73594665527344,
    "speed": 0,
    "load": -0.5292578275598352
  },
  {
    "temp": 198.73069763183594,
    "speed": 0,
    "load": -0.5319916428817297
  },
  {
    "temp": 198.7162628173828,
    "speed": 0,
    "load": -0.5377679300941214
  },
  {
    "temp": 198.71185302734375,
    "speed": 0,
    "load": -0.5308011104028392
  },
  {
    "temp": 198.70118713378906,
    "speed": 0,
    "load": -0.5340640512709083
  },
  {
    "temp": 198.69265747070312,
    "speed": 0,
    "load": -0.535386865136342
  },
  {
    "temp": 198.68856811523438,
    "speed": 0,
    "load": -0.53873799359544
  },
  {
    "temp": 198.68255615234375,
    "speed": 0,
    "load": -0.5376356487075782
  },
  {
    "temp": 198.67774963378906,
    "speed": 0,
    "load": -0.5323443932458449
  },
  {
    "temp": 198.67083740234375,
    "speed": 0,
    "load": -0.5359159906825148
  },
  {
    "temp": 198.6683807373047,
    "speed": 0,
    "load": -0.5374592735255206
  },
  {
    "temp": 198.66641235351562,
    "speed": 0,
    "load": -0.542882810373797
  },
  {
    "temp": 198.67507934570312,
    "speed": 0,
    "load": -0.5495409734964767
  },
  {
    "temp": 198.66912841796875,
    "speed": 0,
    "load": -0.5482181596310447
  },
  {
    "temp": 198.66700744628906,
    "speed": 0,
    "load": -0.5520543198407992
  },
  {
    "temp": 198.66531372070312,
    "speed": 0,
    "load": -0.554391291003066
  },
  {
    "temp": 198.6526336669922,
    "speed": 0,
    "load": -0.5520102260452866
  },
  {
    "temp": 198.65380859375,
    "speed": 0,
    "load": -0.5543031034120371
  },
  {
    "temp": 198.65475463867188,
    "speed": 0,
    "load": -0.5577424194621621
  },
  {
    "temp": 198.655517578125,
    "speed": 0,
    "load": -0.5550526979357819
  },
  {
    "temp": 198.63818359375,
    "speed": 0,
    "load": -0.558536107781423
  },
  {
    "temp": 198.6422576904297,
    "speed": 0,
    "load": -0.5635187066745537
  },
  {
    "temp": 198.6481170654297,
    "speed": 0,
    "load": -0.5638714570386707
  },
  {
    "temp": 198.6399688720703,
    "speed": 0,
    "load": -0.5598589216468568
  },
  {
    "temp": 198.63343811035156,
    "speed": 0,
    "load": -0.5630777687194097
  },
  {
    "temp": 198.60562133789062,
    "speed": 0,
    "load": -0.5676635234529126
  },
  {
    "temp": 198.60597229003906,
    "speed": 0,
    "load": -0.5613581106943464
  },
  {
    "temp": 198.61648559570312,
    "speed": 0,
    "load": -0.5692068062959166
  },
  {
    "temp": 198.6029510498047,
    "speed": 0,
    "load": -0.5634305190835249
  },
  {
    "temp": 198.6038360595703,
    "speed": 0,
    "load": -0.5632100501059547
  },
  {
    "temp": 198.59429931640625,
    "speed": 0,
    "load": -0.5638714570386707
  },
  {
    "temp": 198.5989990234375,
    "speed": 0,
    "load": -0.565370646086162
  },
  {
    "temp": 198.61090087890625,
    "speed": 0,
    "load": -0.5649297081310163
  },
  {
    "temp": 198.6101837158203,
    "speed": 0,
    "load": -0.5688099621362888
  },
  {
    "temp": 198.6112060546875,
    "speed": 0,
    "load": -0.5722051843908993
  },
  {
    "temp": 198.62066650390625,
    "speed": 0,
    "load": -0.5756004066455116
  },
  {
    "temp": 198.59751892089844,
    "speed": 0,
    "load": -0.5759090632141124
  },
  {
    "temp": 198.5908203125,
    "speed": 0,
    "load": -0.5706178077523791
  },
  {
    "temp": 198.59413146972656,
    "speed": 0,
    "load": -0.569383181477976
  },
  {
    "temp": 198.6070098876953,
    "speed": 0,
    "load": -0.5778491902167477
  },
  {
    "temp": 198.59893798828125,
    "speed": 0,
    "load": -0.5797452234238687
  },
  {
    "temp": 198.60061645507812,
    "speed": 0,
    "load": -0.574189405189049
  },
  {
    "temp": 198.60195922851562,
    "speed": 0,
    "load": -0.5747185307352218
  },
  {
    "temp": 198.59571838378906,
    "speed": 0,
    "load": -0.57608543839617
  },
  {
    "temp": 198.59803771972656,
    "speed": 0,
    "load": -0.5767027515333716
  },
  {
    "temp": 198.61163330078125,
    "speed": 0,
    "load": -0.5787310661270375
  },
  {
    "temp": 198.6210174560547,
    "speed": 0,
    "load": -0.5790397226956383
  },
  {
    "temp": 198.62852478027344,
    "speed": 0,
    "load": -0.5793042854687247
  },
  {
    "temp": 198.63113403320312,
    "speed": 0,
    "load": -0.5722933719819281
  },
  {
    "temp": 198.63661193847656,
    "speed": 0,
    "load": -0.5804507241521009
  },
  {
    "temp": 198.63075256347656,
    "speed": 0,
    "load": -0.582258569768193
  },
  {
    "temp": 198.632568359375,
    "speed": 0,
    "load": -0.5859624485914061
  },
  {
    "temp": 198.63775634765625,
    "speed": 0,
    "load": -0.584375071952886
  },
  {
    "temp": 198.6370391845703,
    "speed": 0,
    "load": -0.5862711051600069
  },
  {
    "temp": 198.64134216308594,
    "speed": 0,
    "load": -0.5838459464067114
  },
  {
    "temp": 198.63453674316406,
    "speed": 0,
    "load": -0.582479038745765
  },
  {
    "temp": 198.63934326171875,
    "speed": 0,
    "load": -0.5836695712246538
  },
  {
    "temp": 198.6431884765625,
    "speed": 0,
    "load": -0.5878143880030109
  },
  {
    "temp": 198.64625549316406,
    "speed": 0,
    "load": -0.5889167328908727
  },
  {
    "temp": 198.64248657226562,
    "speed": 0,
    "load": -0.5869766058882373
  },
  {
    "temp": 198.64569091796875,
    "speed": 0,
    "load": -0.5858742610003773
  },
  {
    "temp": 198.64825439453125,
    "speed": 0,
    "load": -0.5839341339977402
  },
  {
    "temp": 198.64376831054688,
    "speed": 0,
    "load": -0.5834491022470818
  },
  {
    "temp": 198.646728515625,
    "speed": 0,
    "load": -0.5864033865465501
  },
  {
    "temp": 198.6490936279297,
    "speed": 0,
    "load": -0.591650548212769
  },
  {
    "temp": 198.6422576904297,
    "speed": 0,
    "load": -0.5892694832549878
  },
  {
    "temp": 198.6455078125,
    "speed": 0,
    "load": -0.5920473923723986
  },
  {
    "temp": 198.6481170654297,
    "speed": 0,
    "load": -0.5895340460280742
  },
  {
    "temp": 198.65187072753906,
    "speed": 0,
    "load": -0.5957512711956117
  },
  {
    "temp": 198.6531982421875,
    "speed": 0,
    "load": -0.5949575828763507
  },
  {
    "temp": 198.65426635742188,
    "speed": 0,
    "load": -0.5935906752154025
  },
  {
    "temp": 198.6558074951172,
    "speed": 0,
    "load": -0.5906804847114504
  },
  {
    "temp": 198.65635681152344,
    "speed": 0,
    "load": -0.5952221456494371
  },
  {
    "temp": 198.65679931640625,
    "speed": 0,
    "load": -0.5938993317840051
  },
  {
    "temp": 198.6574249267578,
    "speed": 0,
    "load": -0.5949575828763507
  },
  {
    "temp": 198.65765380859375,
    "speed": 0,
    "load": -0.5972945540386156
  },
  {
    "temp": 198.6578369140625,
    "speed": 0,
    "load": -0.5991023996547078
  },
  {
    "temp": 198.6580810546875,
    "speed": 0,
    "load": -0.59980790038294
  },
  {
    "temp": 198.65817260742188,
    "speed": 0,
    "load": -0.5960158339686981
  },
  {
    "temp": 198.6582489013672,
    "speed": 0,
    "load": -0.6006015887021992
  },
  {
    "temp": 198.65835571289062,
    "speed": 0,
    "load": -0.6013070894304313
  },
  {
    "temp": 198.65838623046875,
    "speed": 0,
    "load": -0.6039086233657827
  },
  {
    "temp": 198.66868591308594,
    "speed": 0,
    "load": -0.6015275584080033
  },
  {
    "temp": 198.67689514160156,
    "speed": 0,
    "load": -0.6041731861388691
  },
  {
    "temp": 198.6702880859375,
    "speed": 0,
    "load": -0.5955308022180397
  },
  {
    "temp": 198.66793823242188,
    "speed": 0,
    "load": -0.6024535281138057
  },
  {
    "temp": 198.67478942871094,
    "speed": 0,
    "load": -0.612551007286612
  },
  {
    "temp": 198.67153930664062,
    "speed": 0,
    "load": -0.6095085353961167
  },
  {
    "temp": 198.67710876464844,
    "speed": 0,
    "load": -0.6086707532813413
  },
  {
    "temp": 198.67340087890625,
    "speed": 0,
    "load": -0.6093321602140591
  },
  {
    "temp": 198.6680450439453,
    "speed": 0,
    "load": -0.6024976219093201
  },
  {
    "temp": 198.6661376953125,
    "speed": 0,
    "load": -0.6121541631269842
  },
  {
    "temp": 198.66461181640625,
    "speed": 0,
    "load": -0.6110959120346369
  },
  {
    "temp": 198.66241455078125,
    "speed": 0,
    "load": -0.6042613737298979
  },
  {
    "temp": 198.66163635253906,
    "speed": 0,
    "load": -0.6072597518248806
  },
  {
    "temp": 198.6610107421875,
    "speed": 0,
    "load": -0.6080975339396542
  },
  {
    "temp": 198.6605224609375,
    "speed": 0,
    "load": -0.6198705773420095
  },
  {
    "temp": 198.66798400878906,
    "speed": 0,
    "load": -0.6173572309976869
  },
  {
    "temp": 198.6660919189453,
    "speed": 0,
    "load": -0.6130360390372722
  },
  {
    "temp": 198.66458129882812,
    "speed": 0,
    "load": -0.6116691313763241
  },
  {
    "temp": 198.66241455078125,
    "speed": 0,
    "load": -0.6088030346678863
  },
  {
    "temp": 198.66163635253906,
    "speed": 0,
    "load": -0.6151525412219652
  },
  {
    "temp": 198.6610107421875,
    "speed": 0,
    "load": -0.6219870795267042
  },
  {
    "temp": 198.66012573242188,
    "speed": 0,
    "load": -0.6173572309976869
  },
  {
    "temp": 198.65980529785156,
    "speed": 0,
    "load": -0.6200028587285544
  },
  {
    "temp": 198.6595458984375,
    "speed": 0,
    "load": -0.6171808558156293
  },
  {
    "temp": 198.6591796875,
    "speed": 0,
    "load": -0.6210611098209
  },
  {
    "temp": 198.6590576171875,
    "speed": 0,
    "load": -0.6191650766137791
  },
  {
    "temp": 198.65895080566406,
    "speed": 0,
    "load": -0.6256468645544011
  },
  {
    "temp": 198.6588134765625,
    "speed": 0,
    "load": -0.6197823897509807
  },
  {
    "temp": 198.65875244140625,
    "speed": 0,
    "load": -0.6196501083644375
  },
  {
    "temp": 198.65870666503906,
    "speed": 0,
    "load": -0.6193855455913511
  },
  {
    "temp": 198.66683959960938,
    "speed": 0,
    "load": -0.6239713003248539
  },
  {
    "temp": 198.66517639160156,
    "speed": 0,
    "load": -0.6225602988683914
  },
  {
    "temp": 198.6730194091797,
    "speed": 0,
    "load": -0.6247208948485987
  },
  {
    "temp": 198.6701202392578,
    "speed": 0,
    "load": -0.6208847346388424
  },
  {
    "temp": 198.67803955078125,
    "speed": 0,
    "load": -0.6245886134620555
  },
  {
    "temp": 198.68125915527344,
    "speed": 0,
    "load": -0.6288657116269558
  },
  {
    "temp": 198.6767120361328,
    "speed": 0,
    "load": -0.6258232397364605
  },
  {
    "temp": 198.68331909179688,
    "speed": 0,
    "load": -0.6240153941203683
  },
  {
    "temp": 198.66812133789062,
    "speed": 0,
    "load": -0.6248090824396275
  },
  {
    "temp": 198.6646728515625,
    "speed": 0,
    "load": -0.6286893364448982
  },
  {
    "temp": 198.6634521484375,
    "speed": 0,
    "load": -0.6334073725649443
  },
  {
    "temp": 198.6624755859375,
    "speed": 0,
    "load": -0.6353034057720652
  },
  {
    "temp": 198.6692352294922,
    "speed": 0,
    "load": -0.6243240506889691
  },
  {
    "temp": 198.66709899902344,
    "speed": 0,
    "load": -0.622295736095305
  },
  {
    "temp": 198.66539001464844,
    "speed": 0,
    "load": -0.6343774360662611
  },
  {
    "temp": 198.6629180908203,
    "speed": 0,
    "load": -0.6345097174528043
  },
  {
    "temp": 198.66204833984375,
    "speed": 0,
    "load": -0.6332750911784011
  },
  {
    "temp": 198.66134643554688,
    "speed": 0,
    "load": -0.637728564525359
  },
  {
    "temp": 198.66033935546875,
    "speed": 0,
    "load": -0.6345979050438331
  },
  {
    "temp": 198.65997314453125,
    "speed": 0,
    "load": -0.6396245977324799
  },
  {
    "temp": 198.65945434570312,
    "speed": 0,
    "load": -0.6438576021018658
  },
  {
    "temp": 198.65927124023438,
    "speed": 0,
    "load": -0.6423584130543745
  },
  {
    "temp": 198.65911865234375,
    "speed": 0,
    "load": -0.6375962831388158
  },
  {
    "temp": 198.6507110595703,
    "speed": 0,
    "load": -0.6368466886150692
  },
  {
    "temp": 198.65228271484375,
    "speed": 0,
    "load": -0.6441662586704666
  },
  {
    "temp": 198.654541015625,
    "speed": 0,
    "load": -0.6437253207153226
  },
  {
    "temp": 198.65533447265625,
    "speed": 0,
    "load": -0.6446071966256106
  },
  {
    "temp": 198.64573669433594,
    "speed": 0,
    "load": -0.6427993510095202
  },
  {
    "temp": 198.64215087890625,
    "speed": 0,
    "load": -0.6467677926058197
  },
  {
    "temp": 198.6454315185547,
    "speed": 0,
    "load": -0.6466355112192765
  },
  {
    "temp": 198.64805603027344,
    "speed": 0,
    "load": -0.6459741042865588
  },
  {
    "temp": 198.64158630371094,
    "speed": 0,
    "load": -0.6496338893142575
  },
  {
    "temp": 198.6449737548828,
    "speed": 0,
    "load": -0.6484874506308831
  },
  {
    "temp": 198.64166259765625,
    "speed": 0,
    "load": -0.6501189210649159
  },
  {
    "temp": 198.64503479003906,
    "speed": 0,
    "load": -0.6521472356585818
  },
  {
    "temp": 198.6374969482422,
    "speed": 0,
    "load": -0.6535141433195282
  },
  {
    "temp": 198.6348419189453,
    "speed": 0,
    "load": -0.653822799888129
  },
  {
    "temp": 198.63958740234375,
    "speed": 0,
    "load": -0.6480024188802247
  },
  {
    "temp": 198.64337158203125,
    "speed": 0,
    "load": -0.6513094535438064
  },
  {
    "temp": 198.62835693359375,
    "speed": 0,
    "load": -0.653161392955413
  },
  {
    "temp": 198.62416076660156,
    "speed": 0,
    "load": -0.6470323553789061
  },
  {
    "temp": 198.63104248046875,
    "speed": 0,
    "load": -0.6468559801968485
  },
  {
    "temp": 198.63275146484375,
    "speed": 0,
    "load": -0.652279517045125
  },
  {
    "temp": 198.62767028808594,
    "speed": 0,
    "load": -0.6543960192298179
  },
  {
    "temp": 198.61337280273438,
    "speed": 0,
    "load": -0.6564243338234821
  },
  {
    "temp": 198.62144470214844,
    "speed": 0,
    "load": -0.6536905185015875
  },
  {
    "temp": 198.61862182617188,
    "speed": 0,
    "load": -0.6543519254343035
  },
  {
    "temp": 198.6248016357422,
    "speed": 0,
    "load": -0.6601282126466952
  },
  {
    "temp": 198.6315460205078,
    "speed": 0,
    "load": -0.6577912414844285
  },
  {
    "temp": 198.626708984375,
    "speed": 0,
    "load": -0.6561156772548813
  },
  {
    "temp": 198.63307189941406,
    "speed": 0,
    "load": -0.6584085546216318
  },
  {
    "temp": 198.64224243164062,
    "speed": 0,
    "load": -0.6607455257838968
  },
  {
    "temp": 198.63526916503906,
    "speed": 0,
    "load": -0.6596431808960368
  },
  {
    "temp": 198.64364624023438,
    "speed": 0,
    "load": -0.659202242940891
  },
  {
    "temp": 198.63638305664062,
    "speed": 0,
    "load": -0.6584967422126606
  },
  {
    "temp": 198.64080810546875,
    "speed": 0,
    "load": -0.6611864637390426
  },
  {
    "temp": 198.63694763183594,
    "speed": 0,
    "load": -0.6603486816242672
  },
  {
    "temp": 198.6310272216797,
    "speed": 0,
    "load": -0.6608337133749256
  },
  {
    "temp": 198.6262969970703,
    "speed": 0,
    "load": -0.6610541823524976
  },
  {
    "temp": 198.63790893554688,
    "speed": 0,
    "load": -0.6617596830807297
  },
  {
    "temp": 198.64202880859375,
    "speed": 0,
    "load": -0.6659485936546012
  },
  {
    "temp": 198.64532470703125,
    "speed": 0,
    "load": -0.6615392141031577
  },
  {
    "temp": 198.64796447753906,
    "speed": 0,
    "load": -0.6582762732350886
  },
  {
    "temp": 198.64154052734375,
    "speed": 0,
    "load": -0.6591581491453766
  },
  {
    "temp": 198.63470458984375,
    "speed": 0,
    "load": -0.657658960097887
  },
  {
    "temp": 198.63946533203125,
    "speed": 0,
    "load": -0.6553219889356203
  },
  {
    "temp": 198.6381378173828,
    "speed": 0,
    "load": -0.6608337133749256
  },
  {
    "temp": 198.62173461914062,
    "speed": 0,
    "load": -0.6726067567772809
  },
  {
    "temp": 198.62908935546875,
    "speed": 0,
    "load": -0.6700052228419295
  },
  {
    "temp": 198.63150024414062,
    "speed": 0,
    "load": -0.6716366932759641
  },
  {
    "temp": 198.63690185546875,
    "speed": 0,
    "load": -0.6626856527865321
  },
  {
    "temp": 198.63099670410156,
    "speed": 0,
    "load": -0.6653312805173996
  },
  {
    "temp": 198.63272094726562,
    "speed": 0,
    "load": -0.6642289356295379
  },
  {
    "temp": 198.63787841796875,
    "speed": 0,
    "load": -0.6663895316097452
  },
  {
    "temp": 198.6420135498047,
    "speed": 0,
    "load": -0.667050938542463
  },
  {
    "temp": 198.64796447753906,
    "speed": 0,
    "load": -0.6727390381638259
  },
  {
    "temp": 198.65008544921875,
    "speed": 0,
    "load": -0.6708870987522175
  },
  {
    "temp": 198.6428985595703,
    "speed": 0,
    "load": -0.6763988231915228
  },
  {
    "temp": 198.64602661132812,
    "speed": 0,
    "load": -0.6781625750121023
  },
  {
    "temp": 198.64852905273438,
    "speed": 0,
    "load": -0.684820738134782
  },
  {
    "temp": 198.65213012695312,
    "speed": 0,
    "load": -0.6830128925186898
  },
  {
    "temp": 198.65341186523438,
    "speed": 0,
    "load": -0.6770161363287261
  },
  {
    "temp": 198.65525817871094,
    "speed": 0,
    "load": -0.6828365173366322
  },
  {
    "temp": 198.65591430664062,
    "speed": 0,
    "load": -0.6752523845081484
  },
  {
    "temp": 198.64866638183594,
    "speed": 0,
    "load": -0.6815137034711984
  },
  {
    "temp": 198.64039611816406,
    "speed": 0,
    "load": -0.681910547630828
  },
  {
    "temp": 198.64402770996094,
    "speed": 0,
    "load": -0.6797058578551063
  },
  {
    "temp": 198.6492462158203,
    "speed": 0,
    "load": -0.6791326385134191
  },
  {
    "temp": 198.66134643554688,
    "speed": 0,
    "load": -0.6797940454461351
  },
  {
    "temp": 198.6501007080078,
    "speed": 0,
    "load": -0.6783830439896725
  },
  {
    "temp": 198.65179443359375,
    "speed": 0,
    "load": -0.6859671768181563
  },
  {
    "temp": 198.65313720703125,
    "speed": 0,
    "load": -0.6875545534566783
  },
  {
    "temp": 198.64398193359375,
    "speed": 0,
    "load": -0.684379800179638
  },
  {
    "temp": 198.64923095703125,
    "speed": 0,
    "load": -0.6849530195213251
  },
  {
    "temp": 198.65109252929688,
    "speed": 0,
    "load": -0.6853498636809547
  },
  {
    "temp": 198.65377807617188,
    "speed": 0,
    "load": -0.692096214394665
  },
  {
    "temp": 198.65472412109375,
    "speed": 0,
    "load": -0.6962851249685365
  },
  {
    "temp": 198.65548706054688,
    "speed": 0,
    "load": -0.6957559994223637
  },
  {
    "temp": 198.64585876464844,
    "speed": 0,
    "load": -0.6914789012574616
  },
  {
    "temp": 198.65042114257812,
    "speed": 0,
    "load": -0.6864081147733021
  },
  {
    "temp": 198.6417999267578,
    "speed": 0,
    "load": -0.6878191162297647
  },
  {
    "temp": 198.6451416015625,
    "speed": 0,
    "load": -0.6916993702350354
  },
  {
    "temp": 198.64996337890625,
    "speed": 0,
    "load": -0.6961969373775077
  },
  {
    "temp": 198.65167236328125,
    "speed": 0,
    "load": -0.6944331855569299
  },
  {
    "temp": 198.65304565429688,
    "speed": 0,
    "load": -0.6960646559909645
  },
  {
    "temp": 198.65414428710938,
    "speed": 0,
    "load": -0.6924048709632658
  },
  {
    "temp": 198.65573120117188,
    "speed": 0,
    "load": -0.6967701567191948
  },
  {
    "temp": 198.64605712890625,
    "speed": 0,
    "load": -0.7001212851782928
  },
  {
    "temp": 198.6505584716797,
    "speed": 0,
    "load": -0.6946977483300163
  },
  {
    "temp": 198.65216064453125,
    "speed": 0,
    "load": -0.6965496877416228
  },
  {
    "temp": 198.6534423828125,
    "speed": 0,
    "load": -0.6999008162007208
  },
  {
    "temp": 198.64503479003906,
    "speed": 0,
    "load": -0.7009590672930663
  },
  {
    "temp": 198.64773559570312,
    "speed": 0,
    "load": -0.7056771034131124
  },
  {
    "temp": 198.64138793945312,
    "speed": 0,
    "load": -0.7021055059764425
  },
  {
    "temp": 198.6448211669922,
    "speed": 0,
    "load": -0.7040897267745923
  },
  {
    "temp": 198.64756774902344,
    "speed": 0,
    "load": -0.7032960384553331
  },
  {
    "temp": 198.65151977539062,
    "speed": 0,
    "load": -0.7033401322508475
  },
  {
    "temp": 198.64268493652344,
    "speed": 0,
    "load": -0.7084991063260375
  },
  {
    "temp": 198.64585876464844,
    "speed": 0,
    "load": -0.7038251640015059
  },
  {
    "temp": 198.65042114257812,
    "speed": 0,
    "load": -0.7053243530489972
  },
  {
    "temp": 198.65203857421875,
    "speed": 0,
    "load": -0.7088518566901527
  },
  {
    "temp": 198.64309692382812,
    "speed": 0,
    "load": -0.7083668249394925
  },
  {
    "temp": 198.63841247558594,
    "speed": 0,
    "load": -0.7106597023062449
  },
  {
    "temp": 198.62196350097656,
    "speed": 0,
    "load": -0.7091605132587535
  },
  {
    "temp": 198.6292724609375,
    "speed": 0,
    "load": -0.7134817052191682
  },
  {
    "temp": 198.63162231445312,
    "speed": 0,
    "load": -0.7131730486505674
  },
  {
    "temp": 198.6370086669922,
    "speed": 0,
    "load": -0.7190375234539879
  },
  {
    "temp": 198.6413116455078,
    "speed": 0,
    "load": -0.7183320227257575
  },
  {
    "temp": 198.64752197265625,
    "speed": 0,
    "load": -0.71458405010703
  },
  {
    "temp": 198.62924194335938,
    "speed": 0,
    "load": -0.7170092088603237
  },
  {
    "temp": 198.63510131835938,
    "speed": 0,
    "load": -0.7200516807508208
  },
  {
    "temp": 198.63534545898438,
    "speed": 0,
    "load": -0.7166564584962085
  },
  {
    "temp": 198.63998413085938,
    "speed": 0,
    "load": -0.7164359895186365
  },
  {
    "temp": 198.64369201660156,
    "speed": 0,
    "load": -0.7186847730898727
  },
  {
    "temp": 198.63880920410156,
    "speed": 0,
    "load": -0.7263129997138709
  },
  {
    "temp": 198.64276123046875,
    "speed": 0,
    "load": -0.7249460920529227
  },
  {
    "temp": 198.63568115234375,
    "speed": 0,
    "load": -0.7235350905964602
  },
  {
    "temp": 198.62344360351562,
    "speed": 0,
    "load": -0.7206689938880224
  },
  {
    "temp": 198.6099853515625,
    "speed": 0,
    "load": -0.7216390573893392
  },
  {
    "temp": 198.6094512939453,
    "speed": 0,
    "load": -0.7247697168708651
  },
  {
    "temp": 198.6271209716797,
    "speed": 0,
    "load": -0.7284295018985638
  },
  {
    "temp": 198.63340759277344,
    "speed": 0,
    "load": -0.7202721497283928
  },
  {
    "temp": 198.638427734375,
    "speed": 0,
    "load": -0.7153777384262892
  },
  {
    "temp": 198.6251983642578,
    "speed": 0,
    "load": -0.7211099318431664
  },
  {
    "temp": 198.6216278076172,
    "speed": 0,
    "load": -0.7246374354843219
  },
  {
    "temp": 198.6187744140625,
    "speed": 0,
    "load": -0.7300609723325984
  },
  {
    "temp": 198.61669921875,
    "speed": 0,
    "load": -0.7291350026267942
  },
  {
    "temp": 198.62506103515625,
    "speed": 0,
    "load": -0.7247256230753507
  },
  {
    "temp": 198.6317596435547,
    "speed": 0,
    "load": -0.7280767515344486
  },
  {
    "temp": 198.63116455078125,
    "speed": 0,
    "load": -0.7277680949658478
  },
  {
    "temp": 198.62640380859375,
    "speed": 0,
    "load": -0.7301932537191416
  },
  {
    "temp": 198.63282775878906,
    "speed": 0,
    "load": -0.7346467270660995
  },
  {
    "temp": 198.61341857910156,
    "speed": 0,
    "load": -0.7319570055397193
  },
  {
    "temp": 198.61219787597656,
    "speed": 0,
    "load": -0.7350876650212435
  },
  {
    "temp": 198.6206817626953,
    "speed": 0,
    "load": -0.7345144456795563
  },
  {
    "temp": 198.63430786132812,
    "speed": 0,
    "load": -0.7356608843629324
  },
  {
    "temp": 198.62892150878906,
    "speed": 0,
    "load": -0.7374687299790246
  },
  {
    "temp": 198.6348419189453,
    "speed": 0,
    "load": -0.7335884759737539
  },
  {
    "temp": 198.63958740234375,
    "speed": 0,
    "load": -0.7338089449513259
  },
  {
    "temp": 198.63002014160156,
    "speed": 0,
    "load": -0.7357931657494756
  },
  {
    "temp": 198.62548828125,
    "speed": 0,
    "load": -0.7362341037046196
  },
  {
    "temp": 198.62185668945312,
    "speed": 0,
    "load": -0.7327947876544929
  },
  {
    "temp": 198.63507080078125,
    "speed": 0,
    "load": -0.7335884759737539
  },
  {
    "temp": 198.6397705078125,
    "speed": 0,
    "load": -0.7373364485924814
  },
  {
    "temp": 198.64352416992188,
    "speed": 0,
    "load": -0.7385269810713702
  },
  {
    "temp": 198.63868713378906,
    "speed": 0,
    "load": -0.7399379825278327
  },
  {
    "temp": 198.63241577148438,
    "speed": 0,
    "load": -0.7384387934803414
  },
  {
    "temp": 198.64181518554688,
    "speed": 0,
    "load": -0.7323979434948633
  },
  {
    "temp": 198.64515686035156,
    "speed": 0,
    "load": -0.7376010113655678
  },
  {
    "temp": 198.6397247314453,
    "speed": 0,
    "load": -0.7348231022481571
  },
  {
    "temp": 198.6332550048828,
    "speed": 0,
    "load": -0.7359254471360188
  },
  {
    "temp": 198.6383056640625,
    "speed": 0,
    "load": -0.7368073230463068
  },
  {
    "temp": 198.63534545898438,
    "speed": 0,
    "load": -0.7392324817996023
  },
  {
    "temp": 198.6195068359375,
    "speed": 0,
    "load": -0.7416576405528961
  },
  {
    "temp": 198.6273193359375,
    "speed": 0,
    "load": -0.7407757646426063
  },
  {
    "temp": 198.6385498046875,
    "speed": 0,
    "load": -0.7422749536900994
  },
  {
    "temp": 198.64254760742188,
    "speed": 0,
    "load": -0.7427599854407578
  },
  {
    "temp": 198.645751953125,
    "speed": 0,
    "load": -0.7412607963932665
  },
  {
    "temp": 198.65036010742188,
    "speed": 0,
    "load": -0.737953761729683
  },
  {
    "temp": 198.65199279785156,
    "speed": 0,
    "load": -0.737512823774539
  },
  {
    "temp": 198.65330505371094,
    "speed": 0,
    "load": -0.7479630533114623
  },
  {
    "temp": 198.6441192626953,
    "speed": 0,
    "load": -0.7489331168127791
  },
  {
    "temp": 198.6367645263672,
    "speed": 0,
    "load": -0.7444796434658194
  },
  {
    "temp": 198.64459228515625,
    "speed": 0,
    "load": -0.7509614314064432
  },
  {
    "temp": 198.6473846435547,
    "speed": 0,
    "load": -0.7446119248523644
  },
  {
    "temp": 198.6411590576172,
    "speed": 0,
    "load": -0.7499913679051247
  },
  {
    "temp": 198.64463806152344,
    "speed": 0,
    "load": -0.7487126478352071
  },
  {
    "temp": 198.6474151611328,
    "speed": 0,
    "load": -0.7507850562243856
  },
  {
    "temp": 198.6432342529297,
    "speed": 0,
    "load": -0.7504763996557848
  },
  {
    "temp": 198.64630126953125,
    "speed": 0,
    "load": -0.7532543087731938
  },
  {
    "temp": 198.6404571533203,
    "speed": 0,
    "load": -0.7476984905383741
  },
  {
    "temp": 198.64407348632812,
    "speed": 0,
    "load": -0.7524165266584202
  },
  {
    "temp": 198.64697265625,
    "speed": 0,
    "load": -0.7518874011122456
  },
  {
    "temp": 198.6429443359375,
    "speed": 0,
    "load": -0.7435095799645026
  },
  {
    "temp": 198.6358184814453,
    "speed": 0,
    "load": -0.7537393405238539
  },
  {
    "temp": 198.6439971923828,
    "speed": 0,
    "load": -0.7559881240950901
  },
  {
    "temp": 198.64691162109375,
    "speed": 0,
    "load": -0.7568259062098637
  },
  {
    "temp": 198.6428985595703,
    "speed": 0,
    "load": -0.7603534098510192
  },
  {
    "temp": 198.6357879638672,
    "speed": 0,
    "load": -0.7582810014618406
  },
  {
    "temp": 198.63009643554688,
    "speed": 0,
    "load": -0.758766033212499
  },
  {
    "temp": 198.6357879638672,
    "speed": 0,
    "load": -0.7574873131425797
  },
  {
    "temp": 198.64398193359375,
    "speed": 0,
    "load": -0.7618525988985105
  },
  {
    "temp": 198.6264190673828,
    "speed": 0,
    "load": -0.7607502540106488
  },
  {
    "temp": 198.63284301757812,
    "speed": 0,
    "load": -0.7578400635066966
  },
  {
    "temp": 198.62367248535156,
    "speed": 0,
    "load": -0.7558999365040613
  },
  {
    "temp": 198.63064575195312,
    "speed": 0,
    "load": -0.7624258182401977
  },
  {
    "temp": 198.63250732421875,
    "speed": 0,
    "load": -0.7628226623998273
  },
  {
    "temp": 198.63771057128906,
    "speed": 0,
    "load": -0.7622053492626257
  },
  {
    "temp": 198.6316375732422,
    "speed": 0,
    "load": -0.7596920029183032
  },
  {
    "temp": 198.64132690429688,
    "speed": 0,
    "load": -0.7609707229882208
  },
  {
    "temp": 198.63453674316406,
    "speed": 0,
    "load": -0.7614998485343953
  },
  {
    "temp": 198.63934326171875,
    "speed": 0,
    "load": -0.7606179726241056
  },
  {
    "temp": 198.6380615234375,
    "speed": 0,
    "load": -0.7620289740805681
  },
  {
    "temp": 198.64215087890625,
    "speed": 0,
    "load": -0.7679816364750174
  },
  {
    "temp": 198.6454315185547,
    "speed": 0,
    "load": -0.7656887591082668
  },
  {
    "temp": 198.650146484375,
    "speed": 0,
    "load": -0.7684225744301614
  },
  {
    "temp": 198.65182495117188,
    "speed": 0,
    "load": -0.7634840693325451
  },
  {
    "temp": 198.6439971923828,
    "speed": 0,
    "load": -0.765380102539666
  },
  {
    "temp": 198.64691162109375,
    "speed": 0,
    "load": -0.7632195065594587
  },
  {
    "temp": 198.64923095703125,
    "speed": 0,
    "load": -0.7641895700607755
  },
  {
    "temp": 198.652587890625,
    "speed": 0,
    "load": -0.7680257302705318
  },
  {
    "temp": 198.65377807617188,
    "speed": 0,
    "load": -0.7588983145990422
  },
  {
    "temp": 198.65472412109375,
    "speed": 0,
    "load": -0.7645423204248907
  },
  {
    "temp": 198.65609741210938,
    "speed": 0,
    "load": -0.7646746018114339
  },
  {
    "temp": 198.65658569335938,
    "speed": 0,
    "load": -0.767496604724359
  },
  {
    "temp": 198.656982421875,
    "speed": 0,
    "load": -0.7663060722454684
  },
  {
    "temp": 198.65753173828125,
    "speed": 0,
    "load": -0.7686430434077351
  },
  {
    "temp": 198.65773010253906,
    "speed": 0,
    "load": -0.7727437663905761
  },
  {
    "temp": 198.6476593017578,
    "speed": 0,
    "load": -0.7705390766148561
  },
  {
    "temp": 198.65158081054688,
    "speed": 0,
    "load": -0.7691280751583935
  },
  {
    "temp": 198.65296936035156,
    "speed": 0,
    "load": -0.7728319539816049
  },
  {
    "temp": 198.65408325195312,
    "speed": 0,
    "load": -0.7698776696821383
  },
  {
    "temp": 198.6556854248047,
    "speed": 0,
    "load": -0.7701863262507391
  },
  {
    "temp": 198.65625,
    "speed": 0,
    "load": -0.7726114850040346
  },
  {
    "temp": 198.64646911621094,
    "speed": 0,
    "load": -0.7663942598364972
  },
  {
    "temp": 198.65081787109375,
    "speed": 0,
    "load": -0.7711122959565433
  },
  {
    "temp": 198.65235900878906,
    "speed": 0,
    "load": -0.7722587346399177
  },
  {
    "temp": 198.65359497070312,
    "speed": 0,
    "load": -0.7704508890238255
  },
  {
    "temp": 198.6545867919922,
    "speed": 0,
    "load": -0.7695690131135375
  },
  {
    "temp": 198.656005859375,
    "speed": 0,
    "load": -0.7677611674974454
  },
  {
    "temp": 198.65650939941406,
    "speed": 0,
    "load": -0.7691280751583935
  },
  {
    "temp": 198.65692138671875,
    "speed": 0,
    "load": -0.7729201415726354
  },
  {
    "temp": 198.65724182128906,
    "speed": 0,
    "load": -0.7720382656623457
  },
  {
    "temp": 198.65771484375,
    "speed": 0,
    "load": -0.7747279871887258
  },
  {
    "temp": 198.6578826904297,
    "speed": 0,
    "load": -0.7771972397375357
  },
  {
    "temp": 198.6581268310547,
    "speed": 0,
    "load": -0.7766240203958468
  },
  {
    "temp": 198.658203125,
    "speed": 0,
    "load": -0.7759626134631308
  },
  {
    "temp": 198.6583251953125,
    "speed": 0,
    "load": -0.7776381776926797
  },
  {
    "temp": 198.6583709716797,
    "speed": 0,
    "load": -0.7783877722164263
  },
  {
    "temp": 198.6584014892578,
    "speed": 0,
    "load": -0.7772854273285645
  },
  {
    "temp": 198.66867065429688,
    "speed": 0,
    "load": -0.7767122079868773
  },
  {
    "temp": 198.66664123535156,
    "speed": 0,
    "load": -0.774331143029098
  },
  {
    "temp": 198.66502380371094,
    "speed": 0,
    "load": -0.7774177087151077
  },
  {
    "temp": 198.66268920898438,
    "speed": 0,
    "load": -0.774992549961814
  },
  {
    "temp": 198.661865234375,
    "speed": 0,
    "load": -0.7804160868100904
  },
  {
    "temp": 198.66119384765625,
    "speed": 0,
    "load": -0.7842081532243323
  },
  {
    "temp": 198.66065979003906,
    "speed": 0,
    "load": -0.781827088266553
  },
  {
    "temp": 198.65989685058594,
    "speed": 0,
    "load": -0.7760508010541596
  },
  {
    "temp": 198.64938354492188,
    "speed": 0,
    "load": -0.7753012065304148
  },
  {
    "temp": 198.65121459960938,
    "speed": 0,
    "load": -0.7774177087151077
  },
  {
    "temp": 198.6538543701172,
    "speed": 0,
    "load": -0.78438452840639
  },
  {
    "temp": 198.65478515625,
    "speed": 0,
    "load": -0.7833262773140426
  },
  {
    "temp": 198.64529418945312,
    "speed": 0,
    "load": -0.7854427794987355
  },
  {
    "temp": 198.6500701904297,
    "speed": 0,
    "load": -0.7814302441069216
  },
  {
    "temp": 198.65176391601562,
    "speed": 0,
    "load": -0.7811656813338352
  },
  {
    "temp": 198.65420532226562,
    "speed": 0,
    "load": -0.7871183437282845
  },
  {
    "temp": 198.6550750732422,
    "speed": 0,
    "load": -0.7854427794987355
  },
  {
    "temp": 198.6460723876953,
    "speed": 0,
    "load": -0.7836349338826434
  },
  {
    "temp": 198.6485595703125,
    "speed": 0,
    "load": -0.7858837174538813
  },
  {
    "temp": 198.6300811767578,
    "speed": 0,
    "load": -0.7874710940923997
  },
  {
    "temp": 198.63214111328125,
    "speed": 0,
    "load": -0.7905135659828968
  },
  {
    "temp": 198.62718200683594,
    "speed": 0,
    "load": -0.7891025645264342
  },
  {
    "temp": 198.63345336914062,
    "speed": 0,
    "load": -0.7939087882375091
  },
  {
    "temp": 198.62823486328125,
    "speed": 0,
    "load": -0.7970835415145494
  },
  {
    "temp": 198.63095092773438,
    "speed": 0,
    "load": -0.7934237564868489
  },
  {
    "temp": 198.636474609375,
    "speed": 0,
    "load": -0.7908222225514976
  },
  {
    "temp": 198.64088439941406,
    "speed": 0,
    "load": -0.7830176207454418
  },
  {
    "temp": 198.6390380859375,
    "speed": 0,
    "load": -0.787867938252031
  },
  {
    "temp": 198.6429443359375,
    "speed": 0,
    "load": -0.7950111331253691
  },
  {
    "temp": 198.64605712890625,
    "speed": 0,
    "load": -0.7928505371451617
  },
  {
    "temp": 198.6505584716797,
    "speed": 0,
    "load": -0.791527723279728
  },
  {
    "temp": 198.65216064453125,
    "speed": 0,
    "load": -0.7918363798483306
  },
  {
    "temp": 198.64320373535156,
    "speed": 0,
    "load": -0.7878238444565149
  },
  {
    "temp": 198.6360321044922,
    "speed": 0,
    "load": -0.7955402586715437
  },
  {
    "temp": 198.64053344726562,
    "speed": 0,
    "load": -0.7945261013747107
  },
  {
    "temp": 198.6470184326172,
    "speed": 0,
    "load": -0.7969512601280044
  },
  {
    "temp": 198.64932250976562,
    "speed": 0,
    "load": -0.7951434145119123
  },
  {
    "temp": 198.63626098632812,
    "speed": 0,
    "load": -0.7959371028311732
  },
  {
    "temp": 198.64071655273438,
    "speed": 0,
    "load": -0.7949229455343403
  },
  {
    "temp": 198.644287109375,
    "speed": 0,
    "load": -0.791527723279728
  },
  {
    "temp": 198.6412353515625,
    "speed": 0,
    "load": -0.7910426915290696
  },
  {
    "temp": 198.6446990966797,
    "speed": 0,
    "load": -0.7912631605066416
  },
  {
    "temp": 198.6414794921875,
    "speed": 0,
    "load": -0.7952316021029411
  },
  {
    "temp": 198.6448974609375,
    "speed": 0,
    "load": -0.7933796626913363
  },
  {
    "temp": 198.6476287841797,
    "speed": 0,
    "load": -0.7929828185317049
  },
  {
    "temp": 198.64981079101562,
    "speed": 0,
    "load": -0.7943938199881675
  },
  {
    "temp": 198.64271545410156,
    "speed": 0,
    "load": -0.7910426915290696
  },
  {
    "temp": 198.6458740234375,
    "speed": 0,
    "load": -0.7929828185317049
  },
  {
    "temp": 198.63816833496094,
    "speed": 0,
    "load": -0.7948788517388259
  },
  {
    "temp": 198.64224243164062,
    "speed": 0,
    "load": -0.7948788517388259
  },
  {
    "temp": 198.6481170654297,
    "speed": 0,
    "load": -0.7946583827612539
  },
  {
    "temp": 198.6399688720703,
    "speed": 0,
    "load": -0.7951434145119123
  },
  {
    "temp": 198.6466522216797,
    "speed": 0,
    "load": -0.7986709181530678
  },
  {
    "temp": 198.64903259277344,
    "speed": 0,
    "load": -0.7985386367665246
  },
  {
    "temp": 198.65093994140625,
    "speed": 0,
    "load": -0.7968189787414612
  },
  {
    "temp": 198.63320922851562,
    "speed": 0,
    "load": -0.7955402586715437
  },
  {
    "temp": 198.62803649902344,
    "speed": 0,
    "load": -0.7945701951702251
  },
  {
    "temp": 198.63414001464844,
    "speed": 0,
    "load": -0.7927182557586185
  },
  {
    "temp": 198.63473510742188,
    "speed": 0,
    "load": -0.7956725400580869
  },
  {
    "temp": 198.63949584960938,
    "speed": 0,
    "load": -0.7989795747216704
  },
  {
    "temp": 198.63307189941406,
    "speed": 0,
    "load": -0.7946583827612539
  },
  {
    "temp": 198.64224243164062,
    "speed": 0,
    "load": -0.7939087882375091
  },
  {
    "temp": 198.6455078125,
    "speed": 0,
    "load": -0.796466228377346
  },
  {
    "temp": 198.63787841796875,
    "speed": 0,
    "load": -0.796686697354918
  },
  {
    "temp": 198.6420135498047,
    "speed": 0,
    "load": -0.7973921980831502
  },
  {
    "temp": 198.64796447753906,
    "speed": 0,
    "load": -0.7930269123272193
  },
  {
    "temp": 198.65008544921875,
    "speed": 0,
    "load": -0.7930269123272193
  },
  {
    "temp": 198.6517791748047,
    "speed": 0,
    "load": -0.7950552269208835
  },
  {
    "temp": 198.6542205810547,
    "speed": 0,
    "load": -0.7958489152401444
  },
  {
    "temp": 198.65509033203125,
    "speed": 0,
    "load": -0.7949229455343403
  },
  {
    "temp": 198.64813232421875,
    "speed": 0,
    "load": -0.7975685732652078
  },
  {
    "temp": 198.65020751953125,
    "speed": 0,
    "load": -0.7982740739934382
  },
  {
    "temp": 198.65187072753906,
    "speed": 0,
    "load": -0.8015811086570217
  },
  {
    "temp": 198.65426635742188,
    "speed": 0,
    "load": -0.8018456714301081
  },
  {
    "temp": 198.65512084960938,
    "speed": 0,
    "load": -0.8007874203377625
  },
  {
    "temp": 198.6461181640625,
    "speed": 0,
    "load": -0.8040062674103154
  },
  {
    "temp": 198.6486053466797,
    "speed": 0,
    "load": -0.7997732630409295
  },
  {
    "temp": 198.6505889892578,
    "speed": 0,
    "load": -0.7952756958984573
  },
  {
    "temp": 198.6534423828125,
    "speed": 0,
    "load": -0.7975685732652078
  },
  {
    "temp": 198.64422607421875,
    "speed": 0,
    "load": -0.7999496382229871
  },
  {
    "temp": 198.6470947265625,
    "speed": 0,
    "load": -0.7990677623126992
  },
  {
    "temp": 198.65121459960938,
    "speed": 0,
    "load": -0.8001701072005591
  },
  {
    "temp": 198.65267944335938,
    "speed": 0,
    "load": -0.7992000436992406
  },
  {
    "temp": 198.6538543701172,
    "speed": 0,
    "load": -0.8001701072005591
  },
  {
    "temp": 198.65553283691406,
    "speed": 0,
    "load": -0.7987591057440966
  },
  {
    "temp": 198.6561279296875,
    "speed": 0,
    "load": -0.8005228575646743
  },
  {
    "temp": 198.6566162109375,
    "speed": 0,
    "load": -0.8059904882084652
  },
  {
    "temp": 198.6573028564453,
    "speed": 0,
    "load": -0.8042708301834018
  },
  {
    "temp": 198.64730834960938,
    "speed": 0,
    "load": -0.8008315141332751
  },
  {
    "temp": 198.65135192871094,
    "speed": 0,
    "load": -0.8031684852955419
  },
  {
    "temp": 198.64254760742188,
    "speed": 0,
    "load": -0.8042267363878874
  },
  {
    "temp": 198.63551330566406,
    "speed": 0,
    "load": -0.8080628965976437
  },
  {
    "temp": 198.64012145996094,
    "speed": 0,
    "load": -0.8075778648469853
  },
  {
    "temp": 198.62831115722656,
    "speed": 0,
    "load": -0.804623580547517
  },
  {
    "temp": 198.6343536376953,
    "speed": 0,
    "load": -0.8029480163179699
  },
  {
    "temp": 198.63919067382812,
    "speed": 0,
    "load": -0.8025952659538547
  },
  {
    "temp": 198.6461639404297,
    "speed": 0,
    "load": -0.80563773784435
  },
  {
    "temp": 198.6486358642578,
    "speed": 0,
    "load": -0.8061668633905228
  },
  {
    "temp": 198.64401245117188,
    "speed": 0,
    "load": -0.8103116801688799
  },
  {
    "temp": 198.64691162109375,
    "speed": 0,
    "load": -0.8084156469617589
  },
  {
    "temp": 198.64923095703125,
    "speed": 0,
    "load": -0.8076660524380141
  },
  {
    "temp": 198.64439392089844,
    "speed": 0,
    "load": -0.8109730871015977
  },
  {
    "temp": 198.647216796875,
    "speed": 0,
    "load": -0.8093416166675631
  },
  {
    "temp": 198.64947509765625,
    "speed": 0,
    "load": -0.8084597407572751
  },
  {
    "temp": 198.65274047851562,
    "speed": 0,
    "load": -0.812472276149089
  },
  {
    "temp": 198.65390014648438,
    "speed": 0,
    "load": -0.81436830935621
  },
  {
    "temp": 198.6548309326172,
    "speed": 0,
    "load": -0.8098707422137359
  },
  {
    "temp": 198.65557861328125,
    "speed": 0,
    "load": -0.8097825546227071
  },
  {
    "temp": 198.6464080810547,
    "speed": 0,
    "load": -0.8095620856451351
  },
  {
    "temp": 198.64883422851562,
    "speed": 0,
    "load": -0.812472276149089
  },
  {
    "temp": 198.65077209472656,
    "speed": 0,
    "load": -0.8131777768773194
  },
  {
    "temp": 198.65232849121094,
    "speed": 0,
    "load": -0.8159997797902427
  },
  {
    "temp": 198.64431762695312,
    "speed": 0,
    "load": -0.8173225936556765
  },
  {
    "temp": 198.62667846679688,
    "speed": 0,
    "load": -0.814588778333782
  },
  {
    "temp": 198.61257934570312,
    "speed": 0,
    "load": -0.8179399067928799
  },
  {
    "temp": 198.62911987304688,
    "speed": 0,
    "load": -0.8123840885580584
  },
  {
    "temp": 198.62477111816406,
    "speed": 0,
    "load": -0.8155147480395843
  },
  {
    "temp": 198.63693237304688,
    "speed": 0,
    "load": -0.8161320611767877
  },
  {
    "temp": 198.64125061035156,
    "speed": 0,
    "load": -0.8183367509525095
  },
  {
    "temp": 198.62423706054688,
    "speed": 0,
    "load": -0.8176753440197935
  },
  {
    "temp": 198.62840270996094,
    "speed": 0,
    "load": -0.8149856224934116
  },
  {
    "temp": 198.61395263671875,
    "speed": 0,
    "load": -0.8178958129973637
  },
  {
    "temp": 198.62286376953125,
    "speed": 0,
    "load": -0.8126045575356322
  },
  {
    "temp": 198.6275177001953,
    "speed": 0,
    "load": -0.8151179038799548
  },
  {
    "temp": 198.63372802734375,
    "speed": 0,
    "load": -0.8202768779551448
  },
  {
    "temp": 198.6160430908203,
    "speed": 0,
    "load": -0.823407537436669
  },
  {
    "temp": 198.62454223632812,
    "speed": 0,
    "load": -0.8169698432915613
  },
  {
    "temp": 198.63134765625,
    "speed": 0,
    "load": -0.8165289053364173
  },
  {
    "temp": 198.63088989257812,
    "speed": 0,
    "load": -0.8209382848878608
  },
  {
    "temp": 198.6261749267578,
    "speed": 0,
    "load": -0.823407537436669
  },
  {
    "temp": 198.6326446533203,
    "speed": 0,
    "load": -0.8222610987532946
  },
  {
    "temp": 198.6378173828125,
    "speed": 0,
    "load": -0.8180721881794213
  },
  {
    "temp": 198.64527893066406,
    "speed": 0,
    "load": -0.8245980699155595
  },
  {
    "temp": 198.64793395996094,
    "speed": 0,
    "load": -0.8257445085989357
  },
  {
    "temp": 198.65005493164062,
    "speed": 0,
    "load": -0.8233634436411563
  },
  {
    "temp": 198.62648010253906,
    "speed": 0,
    "load": -0.8296247626042064
  },
  {
    "temp": 198.62265014648438,
    "speed": 0,
    "load": -0.8274200728284846
  },
  {
    "temp": 198.6195831298828,
    "speed": 0,
    "load": -0.8321822027440433
  },
  {
    "temp": 198.62542724609375,
    "speed": 0,
    "load": -0.8254799458258475
  },
  {
    "temp": 198.63204956054688,
    "speed": 0,
    "load": -0.8262295403495941
  },
  {
    "temp": 198.63734436035156,
    "speed": 0,
    "load": -0.8243335071424731
  },
  {
    "temp": 198.63473510742188,
    "speed": 0,
    "load": -0.8260531651675365
  },
  {
    "temp": 198.63949584960938,
    "speed": 0,
    "load": -0.8256122272123925
  },
  {
    "temp": 198.643310546875,
    "speed": 0,
    "load": -0.8259208837809933
  },
  {
    "temp": 198.6488037109375,
    "speed": 0,
    "load": -0.8295365750131776
  },
  {
    "temp": 198.64051818847656,
    "speed": 0,
    "load": -0.8313444206292697
  },
  {
    "temp": 198.6441192626953,
    "speed": 0,
    "load": -0.8286546991028878
  },
  {
    "temp": 198.64930725097656,
    "speed": 0,
    "load": -0.8289192618759742
  },
  {
    "temp": 198.65115356445312,
    "speed": 0,
    "load": -0.8299334191728072
  },
  {
    "temp": 198.64356994628906,
    "speed": 0,
    "load": -0.8315648896068417
  },
  {
    "temp": 198.6465606689453,
    "speed": 0,
    "load": -0.8339018607691067
  },
  {
    "temp": 198.62220764160156,
    "speed": 0,
    "load": -0.8292279184445768
  },
  {
    "temp": 198.6294708251953,
    "speed": 0,
    "load": -0.8314767020158129
  },
  {
    "temp": 198.61480712890625,
    "speed": 0,
    "load": -0.8320499213575001
  },
  {
    "temp": 198.6223602294922,
    "speed": 0,
    "load": -0.8326672344947017
  },
  {
    "temp": 198.6295928955078,
    "speed": 0,
    "load": -0.8371207078416614
  },
  {
    "temp": 198.6400146484375,
    "speed": 0,
    "load": -0.8340341421556499
  },
  {
    "temp": 198.6437225341797,
    "speed": 0,
    "load": -0.829007449467003
  },
  {
    "temp": 198.6466827392578,
    "speed": 0,
    "load": -0.830683013696552
  },
  {
    "temp": 198.6490478515625,
    "speed": 0,
    "load": -0.8320499213575001
  },
  {
    "temp": 198.65093994140625,
    "speed": 0,
    "load": -0.8350923932479972
  },
  {
    "temp": 198.6536865234375,
    "speed": 0,
    "load": -0.8343427987242507
  },
  {
    "temp": 198.6546630859375,
    "speed": 0,
    "load": -0.8339018607691067
  },
  {
    "temp": 198.63763427734375,
    "speed": 0,
    "load": -0.8405159300962737
  },
  {
    "temp": 198.64181518554688,
    "speed": 0,
    "load": -0.8380907713429782
  },
  {
    "temp": 198.64515686035156,
    "speed": 0,
    "load": -0.8406041176873025
  },
  {
    "temp": 198.64996337890625,
    "speed": 0,
    "load": -0.8407363990738457
  },
  {
    "temp": 198.65167236328125,
    "speed": 0,
    "load": -0.8385758030936366
  },
  {
    "temp": 198.65304565429688,
    "speed": 0,
    "load": -0.8352687684300548
  },
  {
    "temp": 198.655029296875,
    "speed": 0,
    "load": -0.8319617337664713
  },
  {
    "temp": 198.6659698486328,
    "speed": 0,
    "load": -0.8349601118614522
  },
  {
    "temp": 198.66448974609375,
    "speed": 0,
    "load": -0.8363270195224004
  },
  {
    "temp": 198.662353515625,
    "speed": 0,
    "load": -0.8393694914128975
  },
  {
    "temp": 198.64111328125,
    "speed": 0,
    "load": -0.8409568680514177
  },
  {
    "temp": 198.64459228515625,
    "speed": 0,
    "load": -0.8406041176873025
  },
  {
    "temp": 198.6496124267578,
    "speed": 0,
    "load": -0.843117464031625
  },
  {
    "temp": 198.65139770507812,
    "speed": 0,
    "load": -0.8439552461463986
  },
  {
    "temp": 198.65283203125,
    "speed": 0,
    "load": -0.8427206198719954
  },
  {
    "temp": 198.63645935058594,
    "speed": 0,
    "load": -0.8446607468746308
  },
  {
    "temp": 198.640869140625,
    "speed": 0,
    "load": -0.8469095304458669
  },
  {
    "temp": 198.6444091796875,
    "speed": 0,
    "load": -0.8482323443112989
  },
  {
    "temp": 198.6494903564453,
    "speed": 0,
    "load": -0.8453662476028612
  },
  {
    "temp": 198.6410675048828,
    "speed": 0,
    "load": -0.8429851826450818
  },
  {
    "temp": 198.64456176757812,
    "speed": 0,
    "load": -0.8406482114828151
  },
  {
    "temp": 198.64959716796875,
    "speed": 0,
    "load": -0.8473063746054965
  },
  {
    "temp": 198.65138244628906,
    "speed": 0,
    "load": -0.8481000629247575
  },
  {
    "temp": 198.65396118164062,
    "speed": 0,
    "load": -0.8430733702361106
  },
  {
    "temp": 198.64463806152344,
    "speed": 0,
    "load": -0.8454103413983756
  },
  {
    "temp": 198.64144897460938,
    "speed": 0,
    "load": -0.8445284654880876
  },
  {
    "temp": 198.63462829589844,
    "speed": 0,
    "load": -0.8453662476028612
  },
  {
    "temp": 198.6248016357422,
    "speed": 0,
    "load": -0.8455426227849188
  },
  {
    "temp": 198.6315460205078,
    "speed": 0,
    "load": -0.845013497238746
  },
  {
    "temp": 198.63694763183594,
    "speed": 0,
    "load": -0.8431615578271394
  },
  {
    "temp": 198.6344757080078,
    "speed": 0,
    "load": -0.8425883384854522
  },
  {
    "temp": 198.62904357910156,
    "speed": 0,
    "load": -0.8460276545355789
  },
  {
    "temp": 198.61305236816406,
    "speed": 0,
    "load": -0.8427647136675098
  },
  {
    "temp": 198.60166931152344,
    "speed": 0,
    "load": -0.8470418118324101
  },
  {
    "temp": 198.5852813720703,
    "speed": 0,
    "load": -0.8462040297176365
  },
  {
    "temp": 198.57945251464844,
    "speed": 0,
    "load": -0.843558401986769
  },
  {
    "temp": 198.5850372314453,
    "speed": 0,
    "load": -0.8466890614682949
  },
  {
    "temp": 198.58949279785156,
    "speed": 0,
    "load": -0.8425001508944234
  },
  {
    "temp": 198.5938720703125,
    "speed": 0,
    "load": -0.8484087194933583
  },
  {
    "temp": 198.59657287597656,
    "speed": 0,
    "load": -0.8482323443112989
  },
  {
    "temp": 198.58848571777344,
    "speed": 0,
    "load": -0.8464685924907229
  },
  {
    "temp": 198.5870819091797,
    "speed": 0,
    "load": -0.8481441567202701
  },
  {
    "temp": 198.58090209960938,
    "speed": 0,
    "load": -0.8504811278825368
  },
  {
    "temp": 198.58619689941406,
    "speed": 0,
    "load": -0.852068504521057
  },
  {
    "temp": 198.59585571289062,
    "speed": 0,
    "load": -0.8499960961318784
  },
  {
    "temp": 198.58792114257812,
    "speed": 0,
    "load": -0.8482323443112989
  },
  {
    "temp": 198.5785369873047,
    "speed": 0,
    "load": -0.8471299994234389
  },
  {
    "temp": 198.5843048095703,
    "speed": 0,
    "load": -0.8483205319023295
  },
  {
    "temp": 198.57867431640625,
    "speed": 0,
    "load": -0.8443079965105156
  },
  {
    "temp": 198.57876586914062,
    "speed": 0,
    "load": -0.852068504521057
  }
]