[
  {
    "temp": 188.66680908203125,
    "speed": 0,
    "load": 0.0033070346635826198
  },
  {
    "temp": 188.66891479492188,
    "speed": 0,
    "load": -0.0013228138654337585
  },
  {
    "temp": 188.65350341796875,
    "speed": 0,
    "load": -0.0020724083891785483
  },
  {
    "temp": 188.65826416015625,
    "speed": 0,
    "load": 0.002248783571236146
  },
  {
    "temp": 188.66207885742188,
    "speed": 0,
    "load": 0.0031747532770394216
  },
  {
    "temp": 188.6778106689453,
    "speed": 0,
    "load": -0.0055117244393052545
  },
  {
    "temp": 188.66746520996094,
    "speed": 0,
    "load": 0.00022046897757199702
  },
  {
    "temp": 188.66943359375,
    "speed": 0,
    "load": -0.007980976988114286
  },
  {
    "temp": 188.67227172851562,
    "speed": 1.950078010559082,
    "load": 0.025089369647716353
  },
  {
    "temp": 188.6835174560547,
    "speed": 1.950078010559082,
    "load": 0.4728618630968642
  },
  {
    "temp": 188.69252014160156,
    "speed": 2.0128824710845947,
    "load": 1.4031527608605394
  },
  {
    "temp": 188.71365356445312,
    "speed": 2.0128824710845947,
    "load": 3.5605739877911065
  },
  {
    "temp": 188.69615173339844,
    "speed": 2.0145044326782227,
    "load": 4.674206887303827
  },
  {
    "temp": 188.70262145996094,
    "speed": 2.0128824710845947,
    "load": 7.151616788282691
  },
  {
    "temp": 188.70578002929688,
    "speed": 2.0128824710845947,
    "load": 7.191433485632231
  },
  {
    "temp": 188.70008850097656,
    "speed": 2.0128824710845947,
    "load": 7.065060667687844
  },
  {
    "temp": 188.708251953125,
    "speed": 2.0128824710845947,
    "load": 6.4771139982982895
  },
  {
    "temp": 188.70205688476562,
    "speed": 1.950078010559082,
    "load": 6.147601064418872
  },
  {
    "temp": 188.7175750732422,
    "speed": 1.9516003131866455,
    "load": 5.918710171903408
  },
  {
    "temp": 188.71945190429688,
    "speed": 2.0128824710845947,
    "load": 5.797143577670095
  },
  {
    "temp": 188.7212677001953,
    "speed": 2.0145044326782227,
    "load": 5.774302991593615
  },
  {
    "temp": 188.73294067382812,
    "speed": 2.0128824710845947,
    "load": 5.695816035577909
  },
  {
    "temp": 188.7525177001953,
    "speed": 1.9516003131866455,
    "load": 5.675841546209867
  },
  {
    "temp": 188.74180603027344,
    "speed": 2.0128824710845947,
    "load": 5.612655137237674
  },
  {
    "temp": 188.72891235351562,
    "speed": 2.011263132095337,
    "load": 5.580466666512132
  },
  {
    "temp": 188.7390594482422,
    "speed": 2.0128824710845947,
    "load": 5.5938270865530075
  },
  {
    "temp": 188.75741577148438,
    "speed": 2.0145044326782227,
    "load": 5.613889763512077
  },
  {
    "temp": 188.74139404296875,
    "speed": 2.0145044326782227,
    "load": 5.690083842161032
  },
  {
    "temp": 188.7346954345703,
    "speed": 2.0145044326782227,
    "load": 5.696212879737539
  },
  {
    "temp": 188.75392150878906,
    "speed": 2.0145044326782227,
    "load": 5.84000274691013
  },
  {
    "temp": 188.75906372070312,
    "speed": 1.950078010559082,
    "load": 5.873822688069708
  },
  {
    "temp": 188.76852416992188,
    "speed": 1.9516003131866455,
    "load": 5.974577010820205
  },
  {
    "temp": 188.78097534179688,
    "speed": 2.0128824710845947,
    "load": 6.089441348135324
  },
  {
    "temp": 188.77047729492188,
    "speed": 2.0145044326782227,
    "load": 6.152671850903033
  },
  {
    "temp": 188.78196716308594,
    "speed": 2.0128824710845947,
    "load": 6.215637790897652
  },
  {
    "temp": 188.78150939941406,
    "speed": 2.0145044326782227,
    "load": 6.347301864303773
  },
  {
    "temp": 188.7811279296875,
    "speed": 2.0128824710845947,
    "load": 6.391704316386816
  },
  {
    "temp": 188.77059936523438,
    "speed": 2.0145044326782227,
    "load": 6.43641542503846
  },
  {
    "temp": 188.73497009277344,
    "speed": 2.0145044326782227,
    "load": 6.555556860518479
  },
  {
    "temp": 188.73367309570312,
    "speed": 2.0128824710845947,
    "load": 6.597005028302053
  },
  {
    "temp": 188.72239685058594,
    "speed": 2.0145044326782227,
    "load": 6.646213704096169
  },
  {
    "temp": 188.71640014648438,
    "speed": 1.950078010559082,
    "load": 6.691938970044646
  },
  {
    "temp": 188.69834899902344,
    "speed": 1.950078010559082,
    "load": 6.705563952858608
  },
  {
    "temp": 188.6941375732422,
    "speed": 1.9516003131866455,
    "load": 6.730741510097353
  },
  {
    "temp": 188.69076538085938,
    "speed": 1.950078010559082,
    "load": 6.750539624283338
  },
  {
    "temp": 188.677734375,
    "speed": 2.0145044326782227,
    "load": 6.784976878580114
  },
  {
    "temp": 188.6674041748047,
    "speed": 0,
    "load": 6.819899164627552
  },
  {
    "temp": 188.65914916992188,
    "speed": 0,
    "load": 5.522130575046527
  },
  {
    "temp": 188.6472625732422,
    "speed": 0,
    "load": 3.183175191983006
  },
  {
    "temp": 188.64303588867188,
    "speed": 0,
    "load": 1.8578920740009686
  },
  {
    "temp": 188.6396484375,
    "speed": 0,
    "load": 0.9472229152412197
  },
  {
    "temp": 188.63478088378906,
    "speed": 0,
    "load": 0.7560763116861189
  },
  {
    "temp": 188.63304138183594,
    "speed": 0,
    "load": 0.6262200838960901
  },
  {
    "temp": 188.6214141845703,
    "speed": 0,
    "load": 0.45844319196364225
  },
  {
    "temp": 188.6128692626953,
    "speed": 0,
    "load": 0.3954772519690204
  },
  {
    "temp": 188.60528564453125,
    "speed": 0,
    "load": 0.28638920186629413
  },
  {
    "temp": 188.58897399902344,
    "speed": 0,
    "load": 0.23581361841123005
  },
  {
    "temp": 188.5941619873047,
    "speed": 0,
    "load": 0.1960851086527189
  },
  {
    "temp": 188.60055541992188,
    "speed": 0,
    "load": 0.1154816504523204
  },
  {
    "temp": 188.56471252441406,
    "speed": 0,
    "load": 0.07588542208035243
  },
  {
    "temp": 188.54627990722656,
    "speed": 0,
    "load": 0.017372955432689352
  },
  {
    "temp": 188.5381622314453,
    "speed": 0,
    "load": -0.0021165021846929477
  },
  {
    "temp": 188.5352783203125,
    "speed": 0,
    "load": -0.03214437693002736
  },
  {
    "temp": 188.53297424316406,
    "speed": 0,
    "load": -0.04382923274135475
  },
  {
    "temp": 188.52088928222656,
    "speed": 0,
    "load": -0.055866838916797334
  },
  {
    "temp": 188.4932403564453,
    "speed": 0,
    "load": -0.07240201223471221
  },
  {
    "temp": 188.4993438720703,
    "speed": 0,
    "load": -0.09025999941806084
  },
  {
    "temp": 188.51446533203125,
    "speed": 0,
    "load": -0.09374340926370195
  },
  {
    "temp": 188.50755310058594,
    "speed": 0,
    "load": -0.1074124858731782
  },
  {
    "temp": 188.4903106689453,
    "speed": 0,
    "load": -0.1109840833098481
  },
  {
    "temp": 188.4969940185547,
    "speed": 0,
    "load": -0.1188768727069327
  },
  {
    "temp": 188.4861297607422,
    "speed": 0,
    "load": -0.1306499161092889
  },
  {
    "temp": 188.48341369628906,
    "speed": 0,
    "load": -0.1297239464034856
  },
  {
    "temp": 188.48123168945312,
    "speed": 0,
    "load": -0.13514748325176207
  },
  {
    "temp": 188.48973083496094,
    "speed": 0,
    "load": -0.14339302301296186
  },
  {
    "temp": 188.4965362548828,
    "speed": 0,
    "load": -0.1497425295670416
  },
  {
    "temp": 188.50631713867188,
    "speed": 0,
    "load": -0.1493897792029264
  },
  {
    "temp": 188.52003479003906,
    "speed": 0,
    "load": -0.15137400000107615
  },
  {
    "temp": 188.52076721191406,
    "speed": 0,
    "load": -0.15529834780186125
  },
  {
    "temp": 188.5484619140625,
    "speed": 0,
    "load": -0.16314704340343233
  },
  {
    "temp": 188.56399536132812,
    "speed": 0,
    "load": -0.16323523099446113
  },
  {
    "temp": 188.576416015625,
    "speed": 0,
    "load": -0.16658635945355815
  },
  {
    "temp": 188.57611083984375,
    "speed": 0,
    "load": -0.16790917331899102
  },
  {
    "temp": 188.59410095214844,
    "speed": 0,
    "load": -0.1721862714838922
  },
  {
    "temp": 188.6005096435547,
    "speed": 0,
    "load": -0.18135778095089616
  },
  {
    "temp": 188.60972595214844,
    "speed": 0,
    "load": -0.17364136673586827
  },
  {
    "temp": 188.61300659179688,
    "speed": 0,
    "load": -0.17531693096541723
  },
  {
    "temp": 188.61563110351562,
    "speed": 0,
    "load": -0.1832979079535315
  },
  {
    "temp": 188.629638671875,
    "speed": 0,
    "load": -0.18457662802344998
  },
  {
    "temp": 188.62893676757812,
    "speed": 0,
    "load": -0.18228375065669944
  },
  {
    "temp": 188.63815307617188,
    "speed": 0,
    "load": -0.18616400466197014
  },
  {
    "temp": 188.64598083496094,
    "speed": 0,
    "load": -0.18567897291131086
  },
  {
    "temp": 188.66249084472656,
    "speed": 0,
    "load": -0.1877072875049759
  },
  {
    "temp": 188.67601013183594,
    "speed": 0,
    "load": -0.18951513312106805
  },
  {
    "temp": 188.70697021484375,
    "speed": 0,
    "load": -0.18938285173452396
  },
  {
    "temp": 188.71127319335938,
    "speed": 0,
    "load": -0.18850097582423508
  },
  {
    "temp": 188.7147216796875,
    "speed": 0,
    "load": -0.1913670725326737
  },
  {
    "temp": 188.7196807861328,
    "speed": 0,
    "load": -0.19097022837304412
  },
  {
    "temp": 188.73167419433594,
    "speed": 0,
    "load": -0.19436545062765553
  },
  {
    "temp": 188.74893188476562,
    "speed": 0,
    "load": -0.1953796079244885
  },
  {
    "temp": 188.7653045654297,
    "speed": 0,
    "load": -0.19687879697197896
  },
  {
    "temp": 188.77841186523438,
    "speed": 0,
    "load": -0.19480638858280042
  },
  {
    "temp": 188.78704833984375,
    "speed": 0,
    "load": -0.20203777104716902
  },
  {
    "temp": 188.79580688476562,
    "speed": 0,
    "load": -0.19701107835852216
  },
  {
    "temp": 188.81304931640625,
    "speed": 0,
    "load": -0.19326310573979466
  },
  {
    "temp": 188.81944274902344,
    "speed": 0,
    "load": -0.1958205458796325
  },
  {
    "temp": 188.82171630859375,
    "speed": 0,
    "load": -0.1996126122938744
  },
  {
    "temp": 188.82498168945312,
    "speed": 0,
    "load": -0.20049448820416327
  },
  {
    "temp": 188.82614135742188,
    "speed": 0,
    "load": -0.20164092688753854
  },
  {
    "temp": 188.8270721435547,
    "speed": 0,
    "load": -0.20014173784004807
  },
  {
    "temp": 188.82781982421875,
    "speed": 0,
    "load": -0.19789295426881104
  },
  {
    "temp": 188.81866455078125,
    "speed": 0,
    "load": -0.19388041887699714
  },
  {
    "temp": 188.8210906982422,
    "speed": 0,
    "load": -0.20071495718173527
  },
  {
    "temp": 188.81436157226562,
    "speed": 0,
    "load": -0.19828979842844152
  },
  {
    "temp": 188.81765747070312,
    "speed": 0,
    "load": -0.1993039557252736
  },
  {
    "temp": 188.82028198242188,
    "speed": 0,
    "load": -0.200009456453504
  },
  {
    "temp": 188.82406616210938,
    "speed": 0,
    "load": -0.19780476667778224
  },
  {
    "temp": 188.82540893554688,
    "speed": 0,
    "load": -0.19335129333082435
  },
  {
    "temp": 188.8264923095703,
    "speed": 0,
    "load": -0.1958205458796325
  },
  {
    "temp": 188.8280487060547,
    "speed": 0,
    "load": -0.20014173784004807
  },
  {
    "temp": 188.82859802246094,
    "speed": 0,
    "load": -0.2028755531619435
  },
  {
    "temp": 188.8212127685547,
    "speed": 0,
    "load": -0.19736382872263825
  },
  {
    "temp": 188.82313537597656,
    "speed": 0,
    "load": -0.199348049520788
  },
  {
    "temp": 188.82467651367188,
    "speed": 0,
    "load": -0.1956000769020605
  },
  {
    "temp": 188.82589721679688,
    "speed": 0,
    "load": -0.1996126122938744
  },
  {
    "temp": 188.82766723632812,
    "speed": 0,
    "load": -0.19621739003926209
  },
  {
    "temp": 188.8282928466797,
    "speed": 0,
    "load": -0.19639376522132057
  },
  {
    "temp": 188.8185577392578,
    "speed": 0,
    "load": -0.19811342324638304
  },
  {
    "temp": 188.82296752929688,
    "speed": 0,
    "load": -0.19268988639810747
  },
  {
    "temp": 188.8245391845703,
    "speed": 0,
    "load": -0.19754020390469584
  },
  {
    "temp": 188.82679748535156,
    "speed": 0,
    "load": -0.20067086338622087
  },
  {
    "temp": 188.82760620117188,
    "speed": 0,
    "load": -0.19745201631366704
  },
  {
    "temp": 188.81800842285156,
    "speed": 0,
    "load": -0.20045039440864887
  },
  {
    "temp": 188.80418395996094,
    "speed": 0,
    "load": -0.1992157681342448
  },
  {
    "temp": 188.7992706298828,
    "speed": 0,
    "load": -0.1952473265379453
  },
  {
    "temp": 188.80557250976562,
    "speed": 0,
    "load": -0.19771657908675344
  },
  {
    "temp": 188.78602600097656,
    "speed": 0,
    "load": -0.19463001340074282
  },
  {
    "temp": 188.79498291015625,
    "speed": 0,
    "load": -0.1911466035551017
  },
  {
    "temp": 188.78128051757812,
    "speed": 0,
    "load": -0.19432135683214113
  },
  {
    "temp": 188.77072143554688,
    "speed": 0,
    "load": -0.1914552601237034
  },
  {
    "temp": 188.7622833251953,
    "speed": 0,
    "load": -0.19083794698650092
  },
  {
    "temp": 188.75552368164062,
    "speed": 0,
    "load": -0.19097022837304412
  },
  {
    "temp": 188.76034545898438,
    "speed": 0,
    "load": -0.1951591389469165
  },
  {
    "temp": 188.7386474609375,
    "speed": 0,
    "load": -0.18713406816328781
  },
  {
    "temp": 188.7161407470703,
    "speed": 0,
    "load": -0.19004425866724084
  },
  {
    "temp": 188.71861267089844,
    "speed": 0,
    "load": -0.1959969210616901
  },
  {
    "temp": 188.72059631347656,
    "speed": 0,
    "load": -0.1993039557252736
  },
  {
    "temp": 188.7017059326172,
    "speed": 0,
    "load": -0.19357176230839634
  },
  {
    "temp": 188.70315551757812,
    "speed": 0,
    "load": -0.19679060938095017
  },
  {
    "temp": 188.69798278808594,
    "speed": 0,
    "load": -0.19665832799440697
  },
  {
    "temp": 188.68360900878906,
    "speed": 0,
    "load": -0.199788987475932
  },
  {
    "temp": 188.66290283203125,
    "speed": 0,
    "load": -0.19736382872263825
  },
  {
    "temp": 188.65554809570312,
    "speed": 0,
    "load": -0.1955118893110317
  },
  {
    "temp": 188.649658203125,
    "speed": 0,
    "load": -0.19251351121604898
  },
  {
    "temp": 188.65518188476562,
    "speed": 0,
    "load": -0.19326310573979466
  },
  {
    "temp": 188.64471435546875,
    "speed": 0,
    "load": -0.19396860646802594
  },
  {
    "temp": 188.65122985839844,
    "speed": 0,
    "load": -0.19361585610391074
  },
  {
    "temp": 188.64620971679688,
    "speed": 0,
    "load": -0.19022063384929844
  },
  {
    "temp": 188.63897705078125,
    "speed": 0,
    "load": -0.19052929041789923
  },
  {
    "temp": 188.6363983154297,
    "speed": 0,
    "load": -0.19489457617382921
  },
  {
    "temp": 188.63433837890625,
    "speed": 0,
    "load": -0.19396860646802594
  },
  {
    "temp": 188.6326904296875,
    "speed": 0,
    "load": -0.1955118893110317
  },
  {
    "temp": 188.6303253173828,
    "speed": 0,
    "load": -0.19727564113160945
  },
  {
    "temp": 188.62948608398438,
    "speed": 0,
    "load": -0.1990393929521872
  },
  {
    "temp": 188.62881469726562,
    "speed": 0,
    "load": -0.20221414622922662
  },
  {
    "temp": 188.6278533935547,
    "speed": 0,
    "load": -0.1999653626579896
  },
  {
    "temp": 188.62750244140625,
    "speed": 0,
    "load": -0.19379223128596834
  },
  {
    "temp": 188.62722778320312,
    "speed": 0,
    "load": -0.19396860646802594
  },
  {
    "temp": 188.62681579589844,
    "speed": 0,
    "load": -0.19418907544559794
  },
  {
    "temp": 188.6369171142578,
    "speed": 0,
    "load": -0.19436545062765553
  },
  {
    "temp": 188.63475036621094,
    "speed": 0,
    "load": -0.19806932945086864
  },
  {
    "temp": 188.63983154296875,
    "speed": 0,
    "load": -0.1993921433163024
  },
  {
    "temp": 188.6370849609375,
    "speed": 0,
    "load": -0.20071495718173527
  },
  {
    "temp": 188.6348876953125,
    "speed": 0,
    "load": -0.19762839149572464
  },
  {
    "temp": 188.63172912597656,
    "speed": 0,
    "load": -0.19701107835852216
  },
  {
    "temp": 188.64083862304688,
    "speed": 0,
    "load": -0.20402199184531877
  },
  {
    "temp": 188.64813232421875,
    "speed": 0,
    "load": -0.19388041887699714
  },
  {
    "temp": 188.6504364013672,
    "speed": 0,
    "load": -0.19304263676222266
  },
  {
    "temp": 188.6558074951172,
    "speed": 0,
    "load": -0.19679060938095017
  },
  {
    "temp": 188.64987182617188,
    "speed": 0,
    "load": -0.20067086338622087
  },
  {
    "temp": 188.64132690429688,
    "speed": 0,
    "load": -0.19714335974506625
  },
  {
    "temp": 188.6587677001953,
    "speed": 0,
    "load": -0.20031811302210567
  },
  {
    "temp": 188.65223693847656,
    "speed": 0,
    "load": -0.1996126122938744
  },
  {
    "temp": 188.66946411132812,
    "speed": 0,
    "load": -0.1996567060893888
  },
  {
    "temp": 188.67103576660156,
    "speed": 0,
    "load": -0.19476229478728602
  },
  {
    "temp": 188.7019500732422,
    "speed": 0,
    "load": -0.19956851849836
  },
  {
    "temp": 188.70726013183594,
    "speed": 0,
    "load": -0.20194958345613934
  },
  {
    "temp": 188.7115020751953,
    "speed": 0,
    "load": -0.20150864550099534
  },
  {
    "temp": 188.71762084960938,
    "speed": 0,
    "load": -0.2037574290722315
  },
  {
    "temp": 188.7300262451172,
    "speed": 0,
    "load": -0.20115589513688015
  },
  {
    "temp": 188.7399444580078,
    "speed": 0,
    "load": -0.19859845499704232
  },
  {
    "temp": 188.76242065429688,
    "speed": 0,
    "load": -0.194982763764858
  },
  {
    "temp": 188.77609252929688,
    "speed": 0,
    "load": -0.19634967142580617
  },
  {
    "temp": 188.7768096923828,
    "speed": 0,
    "load": -0.2027432717754003
  },
  {
    "temp": 188.77737426757812,
    "speed": 0,
    "load": -0.2029637407529723
  },
  {
    "temp": 188.77818298339844,
    "speed": 0,
    "load": -0.1958205458796325
  },
  {
    "temp": 188.78871154785156,
    "speed": 0,
    "load": -0.200009456453504
  },
  {
    "temp": 188.79713439941406,
    "speed": 0,
    "load": -0.20031811302210567
  },
  {
    "temp": 188.80386352539062,
    "speed": 0,
    "load": -0.1992598619297592
  },
  {
    "temp": 188.80332946777344,
    "speed": 0,
    "load": -0.19277807398913627
  },
  {
    "temp": 188.798583984375,
    "speed": 0,
    "load": -0.19246941742053458
  },
  {
    "temp": 188.80502319335938,
    "speed": 0,
    "load": -0.19330719953530995
  },
  {
    "temp": 188.81430053710938,
    "speed": 0,
    "load": -0.1956882644930893
  },
  {
    "temp": 188.807373046875,
    "speed": 0,
    "load": -0.1957764520841181
  },
  {
    "temp": 188.8120574951172,
    "speed": 0,
    "load": -0.19705517215403745
  },
  {
    "temp": 188.81063842773438,
    "speed": 0,
    "load": -0.18977969589415444
  },
  {
    "temp": 188.81466674804688,
    "speed": 0,
    "load": -0.1881041316646055
  },
  {
    "temp": 188.81790161132812,
    "speed": 0,
    "load": -0.18889781998386557
  },
  {
    "temp": 188.82254028320312,
    "speed": 0,
    "load": -0.19052929041789923
  },
  {
    "temp": 188.82418823242188,
    "speed": 0,
    "load": -0.1876631937094615
  },
  {
    "temp": 188.81527709960938,
    "speed": 0,
    "load": -0.19414498165008354
  },
  {
    "temp": 188.79222106933594,
    "speed": 0,
    "load": -0.19396860646802594
  },
  {
    "temp": 188.78970336914062,
    "speed": 0,
    "load": -0.19405679405905474
  },
  {
    "temp": 188.78768920898438,
    "speed": 0,
    "load": -0.19661423419889257
  },
  {
    "temp": 188.77659606933594,
    "speed": 0,
    "load": -0.19074975939547212
  },
  {
    "temp": 188.76698303222656,
    "speed": 0,
    "load": -0.19264579260259307
  },
  {
    "temp": 188.77975463867188,
    "speed": 0,
    "load": -0.1953796079244885
  },
  {
    "temp": 188.77972412109375,
    "speed": 0,
    "load": -0.19246941742053458
  },
  {
    "temp": 188.76333618164062,
    "speed": 0,
    "load": -0.1953796079244885
  },
  {
    "temp": 188.75636291503906,
    "speed": 0,
    "load": -0.1999212688624752
  },
  {
    "temp": 188.7405548095703,
    "speed": 0,
    "load": -0.19828979842844152
  },
  {
    "temp": 188.7095947265625,
    "speed": 0,
    "load": -0.19396860646802594
  },
  {
    "temp": 188.69290161132812,
    "speed": 0,
    "load": -0.1919843856698762
  },
  {
    "temp": 188.67955017089844,
    "speed": 0,
    "load": -0.19105841596407291
  },
  {
    "temp": 188.6688690185547,
    "speed": 0,
    "load": -0.1912788849416449
  },
  {
    "temp": 188.6800994873047,
    "speed": 0,
    "load": -0.19365994989942514
  },
  {
    "temp": 188.67953491210938,
    "speed": 0,
    "load": -0.1917198228967898
  },
  {
    "temp": 188.67909240722656,
    "speed": 0,
    "load": -0.1877954750960047
  },
  {
    "temp": 188.67025756835938,
    "speed": 0,
    "load": -0.1913670725326737
  },
  {
    "temp": 188.6614227294922,
    "speed": 0,
    "load": -0.1913670725326737
  },
  {
    "temp": 188.6569061279297,
    "speed": 0,
    "load": -0.19745201631366704
  },
  {
    "temp": 188.6712188720703,
    "speed": 0,
    "load": -0.19357176230839634
  },
  {
    "temp": 188.6734161376953,
    "speed": 0,
    "load": -0.1952473265379453
  },
  {
    "temp": 188.66395568847656,
    "speed": 0,
    "load": -0.19383632508148274
  },
  {
    "temp": 188.65032958984375,
    "speed": 0,
    "load": -0.19696698456300776
  },
  {
    "temp": 188.64549255371094,
    "speed": 0,
    "load": -0.19476229478728602
  },
  {
    "temp": 188.65185546875,
    "speed": 0,
    "load": -0.1912347911461305
  },
  {
    "temp": 188.6589813232422,
    "speed": 0,
    "load": -0.19251351121604898
  },
  {
    "temp": 188.6626434326172,
    "speed": 0,
    "load": -0.19074975939547212
  },
  {
    "temp": 188.65533447265625,
    "speed": 0,
    "load": -0.17880034081105833
  },
  {
    "temp": 188.65505981445312,
    "speed": 0,
    "load": -0.18704588057225902
  },
  {
    "temp": 188.64927673339844,
    "speed": 0,
    "load": -0.18933875793900956
  },
  {
    "temp": 188.64463806152344,
    "speed": 0,
    "load": -0.1879718502780623
  },
  {
    "temp": 188.63796997070312,
    "speed": 0,
    "load": -0.18700178677674462
  },
  {
    "temp": 188.64584350585938,
    "speed": 0,
    "load": -0.19330719953530995
  },
  {
    "temp": 188.6418914794922,
    "speed": 0,
    "load": -0.1952032327424309
  },
  {
    "temp": 188.64645385742188,
    "speed": 0,
    "load": -0.1916757291012754
  },
  {
    "temp": 188.6423797607422,
    "speed": 0,
    "load": -0.18898600757489437
  },
  {
    "temp": 188.63912963867188,
    "speed": 0,
    "load": -0.19101432216855851
  },
  {
    "temp": 188.64675903320312,
    "speed": 0,
    "load": -0.18880963239283677
  },
  {
    "temp": 188.66310119628906,
    "speed": 0,
    "load": -0.18977969589415444
  },
  {
    "temp": 188.67640686035156,
    "speed": 0,
    "load": -0.1917639166923042
  },
  {
    "temp": 188.6765899658203,
    "speed": 0,
    "load": -0.1917639166923042
  },
  {
    "temp": 188.6869659423828,
    "speed": 0,
    "load": -0.18929466414349516
  },
  {
    "temp": 188.70394897460938,
    "speed": 0,
    "load": -0.19238122982950578
  },
  {
    "temp": 188.7088623046875,
    "speed": 0,
    "load": -0.19374813749045394
  },
  {
    "temp": 188.6923065185547,
    "speed": 0,
    "load": -0.19396860646802594
  },
  {
    "temp": 188.70327758789062,
    "speed": 0,
    "load": -0.19061747800892803
  },
  {
    "temp": 188.7083282470703,
    "speed": 0,
    "load": -0.18920647655246636
  },
  {
    "temp": 188.69715881347656,
    "speed": 0,
    "load": -0.18638447363954214
  },
  {
    "temp": 188.7136688232422,
    "speed": 0,
    "load": -0.19282216778465067
  },
  {
    "temp": 188.7268524169922,
    "speed": 0,
    "load": -0.1911025097595873
  },
  {
    "temp": 188.72718811035156,
    "speed": 0,
    "load": -0.18995607107621204
  },
  {
    "temp": 188.73788452148438,
    "speed": 0,
    "load": -0.1912347911461305
  },
  {
    "temp": 188.74623107910156,
    "speed": 0,
    "load": -0.19013244625826964
  },
  {
    "temp": 188.76849365234375,
    "speed": 0,
    "load": -0.18237193824772824
  },
  {
    "temp": 188.7809600830078,
    "speed": 0,
    "load": -0.1876631937094615
  },
  {
    "temp": 188.7989044189453,
    "speed": 0,
    "load": -0.18907419516592316
  },
  {
    "temp": 188.80528259277344,
    "speed": 0,
    "load": -0.18700178677674462
  },
  {
    "temp": 188.80015563964844,
    "speed": 0,
    "load": -0.18986788348518324
  },
  {
    "temp": 188.7825469970703,
    "speed": 0,
    "load": -0.192072573260905
  },
  {
    "temp": 188.77174377441406,
    "speed": 0,
    "load": -0.19260169880707867
  },
  {
    "temp": 188.78355407714844,
    "speed": 0,
    "load": -0.18836869443769189
  },
  {
    "temp": 188.79237365722656,
    "speed": 0,
    "load": -0.19030882144032724
  },
  {
    "temp": 188.78982543945312,
    "speed": 0,
    "load": -0.1917639166923042
  },
  {
    "temp": 188.7980194091797,
    "speed": 0,
    "load": -0.1957764520841181
  },
  {
    "temp": 188.79959106445312,
    "speed": 0,
    "load": -0.19771657908675344
  },
  {
    "temp": 188.8058319091797,
    "speed": 0,
    "load": -0.19745201631366704
  },
  {
    "temp": 188.81082153320312,
    "speed": 0,
    "load": -0.19833389222395592
  },
  {
    "temp": 188.80458068847656,
    "speed": 0,
    "load": -0.19758429770021024
  },
  {
    "temp": 188.8058319091797,
    "speed": 0,
    "load": -0.19097022837304412
  },
  {
    "temp": 188.8005828857422,
    "speed": 0,
    "load": -0.19701107835852216
  },
  {
    "temp": 188.79638671875,
    "speed": 0,
    "load": -0.19820161083741183
  },
  {
    "temp": 188.7903594970703,
    "speed": 0,
    "load": -0.191852104283333
  },
  {
    "temp": 188.79844665527344,
    "speed": 0,
    "load": -0.18867735100629268
  },
  {
    "temp": 188.79469299316406,
    "speed": 0,
    "load": -0.19044110282687043
  },
  {
    "temp": 188.78927612304688,
    "speed": 0,
    "load": -0.18955922691658245
  },
  {
    "temp": 188.77711486816406,
    "speed": 0,
    "load": -0.18876553859732148
  },
  {
    "temp": 188.7776336669922,
    "speed": 0,
    "load": -0.18955922691658245
  },
  {
    "temp": 188.77804565429688,
    "speed": 0,
    "load": -0.19701107835852216
  },
  {
    "temp": 188.77658081054688,
    "speed": 0,
    "load": -0.1951591389469165
  },
  {
    "temp": 188.75672912597656,
    "speed": 0,
    "load": -0.19864254879255672
  },
  {
    "temp": 188.7613067626953,
    "speed": 0,
    "load": -0.19480638858280042
  },
  {
    "temp": 188.77813720703125,
    "speed": 0,
    "load": -0.19454182580971402
  },
  {
    "temp": 188.77842712402344,
    "speed": 0,
    "load": -0.191852104283333
  },
  {
    "temp": 188.7604522705078,
    "speed": 0,
    "load": -0.19357176230839634
  },
  {
    "temp": 188.7438201904297,
    "speed": 0,
    "load": -0.1912788849416449
  },
  {
    "temp": 188.74075317382812,
    "speed": 0,
    "load": -0.1913670725326737
  },
  {
    "temp": 188.72610473632812,
    "speed": 0,
    "load": -0.19074975939547212
  },
  {
    "temp": 188.72657775878906,
    "speed": 0,
    "load": -0.19097022837304412
  },
  {
    "temp": 188.73544311523438,
    "speed": 0,
    "load": -0.19458591960522842
  },
  {
    "temp": 188.7340545654297,
    "speed": 0,
    "load": -0.1911466035551017
  },
  {
    "temp": 188.7227020263672,
    "speed": 0,
    "load": -0.19855436120152792
  },
  {
    "temp": 188.7145538330078,
    "speed": 0,
    "load": -0.19754020390469584
  },
  {
    "temp": 188.7071075439453,
    "speed": 0,
    "load": -0.1959969210616901
  },
  {
    "temp": 188.70114135742188,
    "speed": 0,
    "load": -0.1913670725326737
  },
  {
    "temp": 188.6843719482422,
    "speed": 0,
    "load": -0.19030882144032724
  },
  {
    "temp": 188.6931915283203,
    "speed": 0,
    "load": -0.1873986309363742
  },
  {
    "temp": 188.70025634765625,
    "speed": 0,
    "load": -0.18898600757489437
  },
  {
    "temp": 188.69813537597656,
    "speed": 0,
    "load": -0.18920647655246636
  },
  {
    "temp": 188.68373107910156,
    "speed": 0,
    "load": -0.18691359918571582
  },
  {
    "temp": 188.67323303222656,
    "speed": 0,
    "load": -0.1873986309363742
  },
  {
    "temp": 188.67404174804688,
    "speed": 0,
    "load": -0.18894191377937997
  },
  {
    "temp": 188.66445922851562,
    "speed": 0,
    "load": -0.18991197728069764
  },
  {
    "temp": 188.6567840576172,
    "speed": 0,
    "load": -0.18960332071209685
  },
  {
    "temp": 188.6539306640625,
    "speed": 0,
    "load": -0.18938285173452396
  },
  {
    "temp": 188.6483612060547,
    "speed": 0,
    "load": -0.1832979079535315
  },
  {
    "temp": 188.64390563964844,
    "speed": 0,
    "load": -0.18307743897595863
  },
  {
    "temp": 188.6505889892578,
    "speed": 0,
    "load": -0.18157824992846816
  },
  {
    "temp": 188.6417694091797,
    "speed": 0,
    "load": -0.18153415613295376
  },
  {
    "temp": 188.6417694091797,
    "speed": 0,
    "load": -0.1804759050406073
  },
  {
    "temp": 188.64637756347656,
    "speed": 0,
    "load": -0.18223965686118504
  },
  {
    "temp": 188.65255737304688,
    "speed": 0,
    "load": -0.18470890940999318
  },
  {
    "temp": 188.6472625732422,
    "speed": 0,
    "load": -0.17902080978863033
  },
  {
    "temp": 188.6396484375,
    "speed": 0,
    "load": -0.17893262219760153
  },
  {
    "temp": 188.6574249267578,
    "speed": 0,
    "load": -0.1801231546764921
  },
  {
    "temp": 188.6511688232422,
    "speed": 0,
    "load": -0.17778618351422626
  },
  {
    "temp": 188.6503448486328,
    "speed": 0,
    "load": -0.18448844043242119
  },
  {
    "temp": 188.65573120117188,
    "speed": 0,
    "load": -0.18065228022266488
  },
  {
    "temp": 188.66004943847656,
    "speed": 0,
    "load": -0.17844759044694314
  },
  {
    "temp": 188.67649841308594,
    "speed": 0,
    "load": -0.18567897291131086
  },
  {
    "temp": 188.6664276123047,
    "speed": 0,
    "load": -0.18149006233743936
  },
  {
    "temp": 188.68907165527344,
    "speed": 0,
    "load": -0.17447914885064364
  },
  {
    "temp": 188.71144104003906,
    "speed": 0,
    "load": -0.18246012583875704
  },
  {
    "temp": 188.71485900878906,
    "speed": 0,
    "load": -0.1838270334997043
  },
  {
    "temp": 188.71759033203125,
    "speed": 0,
    "load": -0.1719217087108058
  },
  {
    "temp": 188.70309448242188,
    "speed": 0,
    "load": -0.17769799592319746
  },
  {
    "temp": 188.69793701171875,
    "speed": 0,
    "load": -0.18254831342978584
  },
  {
    "temp": 188.7142791748047,
    "speed": 0,
    "load": -0.1760665254891629
  },
  {
    "temp": 188.71119689941406,
    "speed": 0,
    "load": -0.17796255869628386
  },
  {
    "temp": 188.7044219970703,
    "speed": 0,
    "load": -0.18854506961974948
  },
  {
    "temp": 188.70924377441406,
    "speed": 0,
    "load": -0.18664903641262853
  },
  {
    "temp": 188.7345733642578,
    "speed": 0,
    "load": -0.18294515758941543
  },
  {
    "temp": 188.7333526611328,
    "speed": 0,
    "load": -0.1841797838638204
  },
  {
    "temp": 188.75283813476562,
    "speed": 0,
    "load": -0.18682541159468613
  },
  {
    "temp": 188.7479705810547,
    "speed": 0,
    "load": -0.1873545371408598
  },
  {
    "temp": 188.740966796875,
    "speed": 0,
    "load": -0.1878395688915191
  },
  {
    "temp": 188.7487030029297,
    "speed": 0,
    "load": -0.19083794698650092
  },
  {
    "temp": 188.76512145996094,
    "speed": 0,
    "load": -0.19335129333082435
  },
  {
    "temp": 188.77854919433594,
    "speed": 0,
    "load": -0.19039700903135603
  },
  {
    "temp": 188.7787628173828,
    "speed": 0,
    "load": -0.18911828896143756
  },
  {
    "temp": 188.76870727539062,
    "speed": 0,
    "load": -0.18973560209864004
  },
  {
    "temp": 188.7606658935547,
    "speed": 0,
    "load": -0.18894191377937997
  },
  {
    "temp": 188.7756805419922,
    "speed": 0,
    "load": -0.19392451267251154
  },
  {
    "temp": 188.76625061035156,
    "speed": 0,
    "load": -0.18682541159468613
  },
  {
    "temp": 188.75265502929688,
    "speed": 0,
    "load": -0.19048519662238483
  },
  {
    "temp": 188.76828002929688,
    "speed": 0,
    "load": -0.18660494261711413
  },
  {
    "temp": 188.78260803222656,
    "speed": 0,
    "load": -0.18969150830312564
  },
  {
    "temp": 188.78201293945312,
    "speed": 0,
    "load": -0.18969150830312564
  },
  {
    "temp": 188.7815399169922,
    "speed": 0,
    "load": -0.1915434477147322
  },
  {
    "temp": 188.762451171875,
    "speed": 0,
    "load": -0.1988630177701287
  },
  {
    "temp": 188.76588439941406,
    "speed": 0,
    "load": -0.19643785901683497
  },
  {
    "temp": 188.7686309814453,
    "speed": 0,
    "load": -0.18955922691658245
  },
  {
    "temp": 188.75418090820312,
    "speed": 0,
    "load": -0.1957764520841181
  },
  {
    "temp": 188.74903869628906,
    "speed": 0,
    "load": -0.19436545062765553
  },
  {
    "temp": 188.76539611816406,
    "speed": 0,
    "load": -0.19238122982950578
  },
  {
    "temp": 188.74777221679688,
    "speed": 0,
    "load": -0.19471820099177162
  },
  {
    "temp": 188.74900817871094,
    "speed": 0,
    "load": -0.1952032327424309
  },
  {
    "temp": 188.7346649169922,
    "speed": 0,
    "load": -0.19476229478728602
  },
  {
    "temp": 188.73342895507812,
    "speed": 0,
    "load": -0.1913670725326737
  },
  {
    "temp": 188.73243713378906,
    "speed": 0,
    "load": -0.19701107835852216
  },
  {
    "temp": 188.7316436767578,
    "speed": 0,
    "load": -0.19471820099177162
  },
  {
    "temp": 188.73101806640625,
    "speed": 0,
    "load": -0.1954237017200029
  },
  {
    "temp": 188.721923828125,
    "speed": 0,
    "load": -0.19432135683214113
  },
  {
    "temp": 188.71299743652344,
    "speed": 0,
    "load": -0.18188690649706896
  },
  {
    "temp": 188.72633361816406,
    "speed": 0,
    "load": -0.18510575356962367
  },
  {
    "temp": 188.6984405517578,
    "speed": 0,
    "load": -0.19061747800892803
  },
  {
    "temp": 188.70445251464844,
    "speed": 0,
    "load": -0.19277807398913627
  },
  {
    "temp": 188.70925903320312,
    "speed": 0,
    "load": -0.1881041316646055
  },
  {
    "temp": 188.72642517089844,
    "speed": 0,
    "load": -0.18863325721077828
  },
  {
    "temp": 188.72683715820312,
    "speed": 0,
    "load": -0.18497347218307958
  },
  {
    "temp": 188.7271728515625,
    "speed": 0,
    "load": -0.1877954750960047
  },
  {
    "temp": 188.70921325683594,
    "speed": 0,
    "load": -0.1911466035551017
  },
  {
    "temp": 188.7028350830078,
    "speed": 0,
    "load": -0.1952914203334597
  },
  {
    "temp": 188.7181854248047,
    "speed": 0,
    "load": -0.19679060938095017
  },
  {
    "temp": 188.7100067138672,
    "speed": 0,
    "load": -0.19273398019362187
  },
  {
    "temp": 188.7064208984375,
    "speed": 0,
    "load": -0.19233713603399138
  },
  {
    "temp": 188.72105407714844,
    "speed": 0,
    "load": -0.19017654005378404
  },
  {
    "temp": 188.71231079101562,
    "speed": 0,
    "load": -0.19348357471736755
  },
  {
    "temp": 188.7181396484375,
    "speed": 0,
    "load": -0.1915434477147322
  },
  {
    "temp": 188.73043823242188,
    "speed": 0,
    "load": -0.1881041316646055
  },
  {
    "temp": 188.7300567626953,
    "speed": 0,
    "load": -0.18514984736513806
  },
  {
    "temp": 188.73768615722656,
    "speed": 0,
    "load": -0.1881482254601199
  },
  {
    "temp": 188.73585510253906,
    "speed": 0,
    "load": -0.18920647655246636
  },
  {
    "temp": 188.73439025878906,
    "speed": 0,
    "load": -0.19282216778465067
  },
  {
    "temp": 188.74044799804688,
    "speed": 0,
    "load": -0.1913670725326737
  },
  {
    "temp": 188.72781372070312,
    "speed": 0,
    "load": -0.19264579260259307
  },
  {
    "temp": 188.7464599609375,
    "speed": 0,
    "load": -0.19343948092185315
  },
  {
    "temp": 188.7428741455078,
    "speed": 0,
    "load": -0.19370404369493954
  },
  {
    "temp": 188.72976684570312,
    "speed": 0,
    "load": -0.194982763764858
  },
  {
    "temp": 188.7272491455078,
    "speed": 0,
    "load": -0.1874427247318886
  },
  {
    "temp": 188.71725463867188,
    "speed": 0,
    "load": -0.18880963239283677
  },
  {
    "temp": 188.71949768066406,
    "speed": 0,
    "load": -0.19388041887699714
  },
  {
    "temp": 188.7227325439453,
    "speed": 0,
    "load": -0.19061747800892803
  },
  {
    "temp": 188.73411560058594,
    "speed": 0,
    "load": -0.19026472764481284
  },
  {
    "temp": 188.74026489257812,
    "speed": 0,
    "load": -0.19105841596407291
  },
  {
    "temp": 188.7379150390625,
    "speed": 0,
    "load": -0.1953796079244885
  },
  {
    "temp": 188.7360382080078,
    "speed": 0,
    "load": -0.19639376522132057
  },
  {
    "temp": 188.7333221435547,
    "speed": 0,
    "load": -0.19335129333082435
  },
  {
    "temp": 188.74258422851562,
    "speed": 0,
    "load": -0.18894191377937997
  },
  {
    "temp": 188.7293243408203,
    "speed": 0,
    "load": -0.18903010137040877
  },
  {
    "temp": 188.7393798828125,
    "speed": 0,
    "load": -0.1961292024482333
  },
  {
    "temp": 188.74742126464844,
    "speed": 0,
    "load": -0.19731973492712385
  },
  {
    "temp": 188.73037719726562,
    "speed": 0,
    "load": -0.19705517215403745
  },
  {
    "temp": 188.74021911621094,
    "speed": 0,
    "load": -0.18876553859732148
  },
  {
    "temp": 188.7378692626953,
    "speed": 0,
    "load": -0.1837388459086755
  },
  {
    "temp": 188.74472045898438,
    "speed": 0,
    "load": -0.19449773201419962
  },
  {
    "temp": 188.74147033691406,
    "speed": 0,
    "load": -0.19004425866724084
  },
  {
    "temp": 188.7490997314453,
    "speed": 0,
    "load": -0.19379223128596834
  },
  {
    "temp": 188.7552032470703,
    "speed": 0,
    "load": -0.19476229478728602
  },
  {
    "temp": 188.76400756835938,
    "speed": 0,
    "load": -0.19295444917119386
  },
  {
    "temp": 188.7569122314453,
    "speed": 0,
    "load": -0.19471820099177162
  },
  {
    "temp": 188.75123596191406,
    "speed": 0,
    "load": -0.19357176230839634
  },
  {
    "temp": 188.7569122314453,
    "speed": 0,
    "load": -0.1881482254601199
  },
  {
    "temp": 188.75486755371094,
    "speed": 0,
    "load": -0.18510575356962367
  },
  {
    "temp": 188.7495880126953,
    "speed": 0,
    "load": -0.18691359918571582
  },
  {
    "temp": 188.75559997558594,
    "speed": 0,
    "load": -0.1921166670564194
  },
  {
    "temp": 188.75018310546875,
    "speed": 0,
    "load": -0.19335129333082435
  },
  {
    "temp": 188.73214721679688,
    "speed": 0,
    "load": -0.19432135683214113
  },
  {
    "temp": 188.74163818359375,
    "speed": 0,
    "load": -0.1961292024482333
  },
  {
    "temp": 188.74925231933594,
    "speed": 0,
    "load": -0.19343948092185315
  },
  {
    "temp": 188.7601776123047,
    "speed": 0,
    "load": -0.20014173784004807
  },
  {
    "temp": 188.76406860351562,
    "speed": 0,
    "load": -0.19802523565535424
  },
  {
    "temp": 188.7569580078125,
    "speed": 0,
    "load": -0.19696698456300776
  },
  {
    "temp": 188.7512664794922,
    "speed": 0,
    "load": -0.19335129333082435
  },
  {
    "temp": 188.74510192871094,
    "speed": 0,
    "load": -0.19657014040337817
  },
  {
    "temp": 188.7519989013672,
    "speed": 0,
    "load": -0.19626148383477648
  },
  {
    "temp": 188.76400756835938,
    "speed": 0,
    "load": -0.19784886047329664
  },
  {
    "temp": 188.7671356201172,
    "speed": 0,
    "load": -0.20018583163556247
  },
  {
    "temp": 188.74093627929688,
    "speed": 0,
    "load": -0.19661423419889257
  },
  {
    "temp": 188.7384490966797,
    "speed": 0,
    "load": -0.18995607107621204
  },
  {
    "temp": 188.73646545410156,
    "speed": 0,
    "load": -0.18955922691658245
  },
  {
    "temp": 188.7438201904297,
    "speed": 0,
    "load": -0.19361585610391074
  },
  {
    "temp": 188.74075317382812,
    "speed": 0,
    "load": -0.1997007998849032
  },
  {
    "temp": 188.75474548339844,
    "speed": 0,
    "load": -0.1992157681342448
  },
  {
    "temp": 188.7392578125,
    "speed": 0,
    "load": -0.20128817652342335
  },
  {
    "temp": 188.7371063232422,
    "speed": 0,
    "load": -0.1990393929521872
  },
  {
    "temp": 188.70533752441406,
    "speed": 0,
    "load": -0.20124408272790895
  },
  {
    "temp": 188.72019958496094,
    "speed": 0,
    "load": -0.20212595863819782
  },
  {
    "temp": 188.73208618164062,
    "speed": 0,
    "load": -0.19458591960522842
  },
  {
    "temp": 188.7226104736328,
    "speed": 0,
    "load": -0.20217005243371222
  },
  {
    "temp": 188.72378540039062,
    "speed": 0,
    "load": -0.20062676959070647
  },
  {
    "temp": 188.7247314453125,
    "speed": 0,
    "load": -0.1996567060893888
  },
  {
    "temp": 188.71524047851562,
    "speed": 0,
    "load": -0.20018583163556247
  },
  {
    "temp": 188.73023986816406,
    "speed": 0,
    "load": -0.20027401922659127
  },
  {
    "temp": 188.7196502685547,
    "speed": 0,
    "load": -0.19696698456300776
  },
  {
    "temp": 188.6962127685547,
    "speed": 0,
    "load": -0.1959528272661757
  },
  {
    "temp": 188.72312927246094,
    "speed": 0,
    "load": -0.19233713603399138
  },
  {
    "temp": 188.71395874023438,
    "speed": 0,
    "load": -0.19873073638358552
  },
  {
    "temp": 188.7168731689453,
    "speed": 0,
    "load": -0.19802523565535424
  },
  {
    "temp": 188.7191925048828,
    "speed": 0,
    "load": -0.19277807398913627
  },
  {
    "temp": 188.69387817382812,
    "speed": 0,
    "load": -0.1956441706975749
  },
  {
    "temp": 188.7008056640625,
    "speed": 0,
    "load": -0.20031811302210567
  },
  {
    "temp": 188.6841583251953,
    "speed": 0,
    "load": -0.19784886047329664
  },
  {
    "temp": 188.69302368164062,
    "speed": 0,
    "load": -0.20168502068305294
  },
  {
    "temp": 188.7001190185547,
    "speed": 0,
    "load": -0.19881892397461431
  },
  {
    "temp": 188.71034240722656,
    "speed": 0,
    "load": -0.20102361375033695
  },
  {
    "temp": 188.72421264648438,
    "speed": 0,
    "load": -0.2036251476856883
  },
  {
    "temp": 188.71482849121094,
    "speed": 0,
    "load": -0.20168502068305294
  },
  {
    "temp": 188.71755981445312,
    "speed": 0,
    "load": -0.20234642761576982
  },
  {
    "temp": 188.70101928710938,
    "speed": 0,
    "load": -0.19714335974506625
  },
  {
    "temp": 188.69627380371094,
    "speed": 0,
    "load": -0.19749611010918144
  },
  {
    "temp": 188.69247436523438,
    "speed": 0,
    "load": -0.1961292024482333
  },
  {
    "temp": 188.67881774902344,
    "speed": 0,
    "load": -0.19365994989942514
  },
  {
    "temp": 188.68875122070312,
    "speed": 0,
    "load": -0.19268988639810747
  },
  {
    "temp": 188.70692443847656,
    "speed": 0,
    "load": -0.18880963239283677
  },
  {
    "temp": 188.7064971923828,
    "speed": 0,
    "load": -0.18907419516592316
  },
  {
    "temp": 188.70065307617188,
    "speed": 0,
    "load": -0.1989512053611584
  },
  {
    "temp": 188.7062225341797,
    "speed": 0,
    "load": -0.19714335974506625
  },
  {
    "temp": 188.7019500732422,
    "speed": 0,
    "load": -0.19820161083741183
  },
  {
    "temp": 188.70726013183594,
    "speed": 0,
    "load": -0.19784886047329664
  },
  {
    "temp": 188.7115020751953,
    "speed": 0,
    "load": -0.20009764404453279
  },
  {
    "temp": 188.72579956054688,
    "speed": 0,
    "load": -0.19665832799440697
  },
  {
    "temp": 188.73655700683594,
    "speed": 0,
    "load": -0.19339538712633875
  },
  {
    "temp": 188.72341918945312,
    "speed": 0,
    "load": -0.19740792251815265
  },
  {
    "temp": 188.73468017578125,
    "speed": 0,
    "load": -0.20265508418437062
  },
  {
    "temp": 188.7334442138672,
    "speed": 0,
    "load": -0.20530071191523724
  },
  {
    "temp": 188.75291442871094,
    "speed": 0,
    "load": -0.20459521118700685
  },
  {
    "temp": 188.7582550048828,
    "speed": 0,
    "load": -0.19291035537567947
  },
  {
    "temp": 188.77618408203125,
    "speed": 0,
    "load": -0.194982763764858
  },
  {
    "temp": 188.787109375,
    "speed": 0,
    "load": -0.19820161083741183
  },
  {
    "temp": 188.775390625,
    "speed": 0,
    "load": -0.1955559831065461
  },
  {
    "temp": 188.76600646972656,
    "speed": 0,
    "load": -0.19881892397461431
  },
  {
    "temp": 188.77090454101562,
    "speed": 0,
    "load": -0.19410088785456914
  },
  {
    "temp": 188.7828826904297,
    "speed": 0,
    "load": -0.19070566559995772
  },
  {
    "temp": 188.77200317382812,
    "speed": 0,
    "load": -0.19780476667778224
  },
  {
    "temp": 188.78294372558594,
    "speed": 0,
    "load": -0.200009456453504
  },
  {
    "temp": 188.79251098632812,
    "speed": 0,
    "load": -0.1992157681342448
  },
  {
    "temp": 188.7797088623047,
    "speed": 0,
    "load": -0.19665832799440697
  },
  {
    "temp": 188.78787231445312,
    "speed": 0,
    "load": -0.1954677955155173
  },
  {
    "temp": 188.78622436523438,
    "speed": 0,
    "load": -0.20243461520679862
  },
  {
    "temp": 188.79513549804688,
    "speed": 0,
    "load": -0.20225824002474102
  },
  {
    "temp": 188.78955078125,
    "speed": 0,
    "load": -0.19074975939547212
  },
  {
    "temp": 188.78758239746094,
    "speed": 0,
    "load": -0.1917639166923042
  },
  {
    "temp": 188.77577209472656,
    "speed": 0,
    "load": -0.19365994989942514
  },
  {
    "temp": 188.7765350341797,
    "speed": 0,
    "load": -0.20225824002474102
  },
  {
    "temp": 188.77716064453125,
    "speed": 0,
    "load": -0.1992598619297592
  },
  {
    "temp": 188.76742553710938,
    "speed": 0,
    "load": -0.19621739003926209
  },
  {
    "temp": 188.77182006835938,
    "speed": 0,
    "load": -0.18960332071209685
  },
  {
    "temp": 188.7733917236328,
    "speed": 0,
    "load": -0.19723154733609505
  },
  {
    "temp": 188.75418090820312,
    "speed": 0,
    "load": -0.1989952991566728
  },
  {
    "temp": 188.76950073242188,
    "speed": 0,
    "load": -0.20102361375033695
  },
  {
    "temp": 188.76292419433594,
    "speed": 0,
    "load": -0.200009456453504
  },
  {
    "temp": 188.76626586914062,
    "speed": 0,
    "load": -0.19754020390469584
  },
  {
    "temp": 188.76893615722656,
    "speed": 0,
    "load": -0.20164092688753854
  },
  {
    "temp": 188.75437927246094,
    "speed": 0,
    "load": -0.20265508418437062
  },
  {
    "temp": 188.7594451904297,
    "speed": 0,
    "load": -0.20137636411445214
  },
  {
    "temp": 188.7634735107422,
    "speed": 0,
    "load": -0.20102361375033695
  },
  {
    "temp": 188.74269104003906,
    "speed": 0,
    "load": -0.20137636411445214
  },
  {
    "temp": 188.73985290527344,
    "speed": 0,
    "load": -0.1989071115656431
  },
  {
    "temp": 188.72552490234375,
    "speed": 0,
    "load": -0.19701107835852216
  },
  {
    "temp": 188.7261199951172,
    "speed": 0,
    "load": -0.19454182580971402
  },
  {
    "temp": 188.72659301757812,
    "speed": 0,
    "load": -0.19815751704189744
  },
  {
    "temp": 188.70065307617188,
    "speed": 0,
    "load": -0.1990393929521872
  },
  {
    "temp": 188.7062225341797,
    "speed": 0,
    "load": -0.20150864550099534
  },
  {
    "temp": 188.700439453125,
    "speed": 0,
    "load": -0.20142045790996654
  },
  {
    "temp": 188.70030212402344,
    "speed": 0,
    "load": -0.2038456166632603
  },
  {
    "temp": 188.69570922851562,
    "speed": 0,
    "load": -0.207284932713387
  },
  {
    "temp": 188.7022705078125,
    "speed": 0,
    "load": -0.20882821555639275
  },
  {
    "temp": 188.68704223632812,
    "speed": 0,
    "load": -0.2066676195761854
  },
  {
    "temp": 188.6753387451172,
    "speed": 0,
    "load": -0.20512433673317965
  },
  {
    "temp": 188.69619750976562,
    "speed": 0,
    "load": -0.20525661811972284
  },
  {
    "temp": 188.6821746826172,
    "speed": 0,
    "load": -0.20613849403001172
  },
  {
    "temp": 188.680419921875,
    "speed": 0,
    "load": -0.206843994758243
  },
  {
    "temp": 188.67979431152344,
    "speed": 0,
    "load": -0.20931324730705114
  },
  {
    "temp": 188.6895294189453,
    "speed": 0,
    "load": -0.20538889950626604
  },
  {
    "temp": 188.67684936523438,
    "speed": 0,
    "load": -0.20159683309202414
  },
  {
    "temp": 188.67701721191406,
    "speed": 0,
    "load": -0.2069762761447862
  },
  {
    "temp": 188.66683959960938,
    "speed": 0,
    "load": -0.20865184037433515
  },
  {
    "temp": 188.65869140625,
    "speed": 0,
    "load": -0.20490386775560765
  },
  {
    "temp": 188.67562866210938,
    "speed": 0,
    "load": -0.20164092688753854
  },
  {
    "temp": 188.6657257080078,
    "speed": 0,
    "load": -0.20252280279782742
  },
  {
    "temp": 188.6680450439453,
    "speed": 0,
    "load": -0.2065794319851566
  },
  {
    "temp": 188.65965270996094,
    "speed": 0,
    "load": -0.2068880885537574
  },
  {
    "temp": 188.66317749023438,
    "speed": 0,
    "load": -0.20525661811972284
  },
  {
    "temp": 188.65576171875,
    "speed": 0,
    "load": -0.1994362371118168
  },
  {
    "temp": 188.6532745361328,
    "speed": 0,
    "load": -0.20247870900231302
  },
  {
    "temp": 188.6580810546875,
    "speed": 0,
    "load": -0.21310531372129304
  },
  {
    "temp": 188.6516876220703,
    "speed": 0,
    "load": -0.20900459073845035
  },
  {
    "temp": 188.64657592773438,
    "speed": 0,
    "load": -0.2064912443941278
  },
  {
    "temp": 188.65968322753906,
    "speed": 0,
    "load": -0.20613849403001172
  },
  {
    "temp": 188.6632080078125,
    "speed": 0,
    "load": -0.206623525780671
  },
  {
    "temp": 188.66603088378906,
    "speed": 0,
    "load": -0.2141635648136404
  },
  {
    "temp": 188.67213439941406,
    "speed": 0,
    "load": -0.20847546519227755
  },
  {
    "temp": 188.66293334960938,
    "speed": 0,
    "load": -0.2035810538901739
  },
  {
    "temp": 188.66580200195312,
    "speed": 0,
    "load": -0.20463930498252125
  },
  {
    "temp": 188.6719970703125,
    "speed": 0,
    "load": -0.20966599767116723
  },
  {
    "temp": 188.67306518554688,
    "speed": 0,
    "load": -0.21222343781100506
  },
  {
    "temp": 188.66368103027344,
    "speed": 0,
    "load": -0.20574164987038124
  },
  {
    "temp": 188.68905639648438,
    "speed": 0,
    "load": -0.20918096592050794
  },
  {
    "temp": 188.6969451904297,
    "speed": 0,
    "load": -0.2142958462001836
  },
  {
    "temp": 188.69302368164062,
    "speed": 0,
    "load": -0.20856365278330635
  },
  {
    "temp": 188.69760131835938,
    "speed": 0,
    "load": -0.20984237285322482
  },
  {
    "temp": 188.69354248046875,
    "speed": 0,
    "load": -0.20900459073845035
  },
  {
    "temp": 188.70053100585938,
    "speed": 0,
    "load": -0.2074172140999302
  },
  {
    "temp": 188.71060180664062,
    "speed": 0,
    "load": -0.20463930498252125
  },
  {
    "temp": 188.70394897460938,
    "speed": 0,
    "load": -0.21341397028989473
  },
  {
    "temp": 188.69862365722656,
    "speed": 0,
    "load": -0.2147367841553276
  },
  {
    "temp": 188.71141052246094,
    "speed": 0,
    "load": -0.21456040897327
  },
  {
    "temp": 188.71482849121094,
    "speed": 0,
    "load": -0.20790224585058947
  },
  {
    "temp": 188.71755981445312,
    "speed": 0,
    "load": -0.21165021846931698
  },
  {
    "temp": 188.7317352294922,
    "speed": 0,
    "load": -0.2107683425590281
  },
  {
    "temp": 188.72085571289062,
    "speed": 0,
    "load": -0.20979827905771042
  },
  {
    "temp": 188.73260498046875,
    "speed": 0,
    "load": -0.20618258782552612
  },
  {
    "temp": 188.74136352539062,
    "speed": 0,
    "load": -0.207284932713387
  },
  {
    "temp": 188.73878479003906,
    "speed": 0,
    "load": -0.21341397028989473
  },
  {
    "temp": 188.74696350097656,
    "speed": 0,
    "load": -0.2113415619007153
  },
  {
    "temp": 188.75668334960938,
    "speed": 0,
    "load": -0.20494796155112205
  },
  {
    "temp": 188.7612762451172,
    "speed": 0,
    "load": -0.20172911447856734
  },
  {
    "temp": 188.7649383544922,
    "speed": 0,
    "load": -0.20768177687301748
  },
  {
    "temp": 188.77227783203125,
    "speed": 0,
    "load": -0.21195887503791777
  },
  {
    "temp": 188.7737579345703,
    "speed": 0,
    "load": -0.20618258782552612
  },
  {
    "temp": 188.77493286132812,
    "speed": 0,
    "load": -0.2034487725036307
  },
  {
    "temp": 188.77662658691406,
    "speed": 0,
    "load": -0.20547708709729484
  },
  {
    "temp": 188.78746032714844,
    "speed": 0,
    "load": -0.20869593416984955
  },
  {
    "temp": 188.79283142089844,
    "speed": 0,
    "load": -0.20878412176087835
  },
  {
    "temp": 188.79019165039062,
    "speed": 0,
    "load": -0.2106360611724849
  },
  {
    "temp": 188.79830932617188,
    "speed": 0,
    "load": -0.20605030643898292
  },
  {
    "temp": 188.8048095703125,
    "speed": 0,
    "load": -0.2038456166632603
  },
  {
    "temp": 188.80393981933594,
    "speed": 0,
    "load": -0.2106801549679993
  },
  {
    "temp": 188.80931091308594,
    "speed": 0,
    "load": -0.21398718963158192
  },
  {
    "temp": 188.80337524414062,
    "speed": 0,
    "load": -0.20988646664873922
  },
  {
    "temp": 188.7986297607422,
    "speed": 0,
    "load": -0.20803452723713267
  },
  {
    "temp": 188.79483032226562,
    "speed": 0,
    "load": -0.21350215788092353
  },
  {
    "temp": 188.8077850341797,
    "speed": 0,
    "load": -0.20781405825956067
  },
  {
    "temp": 188.80215454101562,
    "speed": 0,
    "load": -0.20640305680309812
  },
  {
    "temp": 188.7976531982422,
    "speed": 0,
    "load": -0.2103274046038841
  },
  {
    "temp": 188.78382873535156,
    "speed": 0,
    "load": -0.21209115642446097
  },
  {
    "temp": 188.77276611328125,
    "speed": 0,
    "load": -0.21336987649438033
  },
  {
    "temp": 188.79367065429688,
    "speed": 0,
    "load": -0.21231162540203385
  },
  {
    "temp": 188.79086303710938,
    "speed": 0,
    "load": -0.21279665715269225
  },
  {
    "temp": 188.7783966064453,
    "speed": 0,
    "load": -0.20993056044425362
  },
  {
    "temp": 188.77883911132812,
    "speed": 0,
    "load": -0.21151793708277378
  },
  {
    "temp": 188.76876831054688,
    "speed": 0,
    "load": -0.2068880885537574
  },
  {
    "temp": 188.7542724609375,
    "speed": 0,
    "load": -0.2110769991276289
  },
  {
    "temp": 188.74911499023438,
    "speed": 0,
    "load": -0.20525661811972284
  },
  {
    "temp": 188.73475646972656,
    "speed": 0,
    "load": -0.20904868453396475
  },
  {
    "temp": 188.7437286376953,
    "speed": 0,
    "load": -0.21341397028989473
  },
  {
    "temp": 188.74847412109375,
    "speed": 0,
    "load": -0.21619187940730455
  },
  {
    "temp": 188.73423767089844,
    "speed": 0,
    "load": -0.2103274046038841
  },
  {
    "temp": 188.7228546142578,
    "speed": 0,
    "load": -0.2064912443941278
  },
  {
    "temp": 188.71669006347656,
    "speed": 0,
    "load": -0.20891640314742155
  },
  {
    "temp": 188.7088165283203,
    "speed": 0,
    "load": -0.20971009146668163
  },
  {
    "temp": 188.7229766845703,
    "speed": 0,
    "load": -0.2068880885537574
  },
  {
    "temp": 188.7147216796875,
    "speed": 0,
    "load": -0.21173840606034577
  },
  {
    "temp": 188.70724487304688,
    "speed": 0,
    "load": -0.20997465423976802
  },
  {
    "temp": 188.70126342773438,
    "speed": 0,
    "load": -0.2185729443650839
  },
  {
    "temp": 188.67420959472656,
    "speed": 0,
    "load": -0.214780877950842
  },
  {
    "temp": 188.67483520507812,
    "speed": 0,
    "load": -0.20896049694293595
  },
  {
    "temp": 188.68556213378906,
    "speed": 0,
    "load": -0.21354625167643793
  },
  {
    "temp": 188.66416931152344,
    "speed": 0,
    "load": -0.2107242487635137
  },
  {
    "temp": 188.67703247070312,
    "speed": 0,
    "load": -0.21332578269886593
  },
  {
    "temp": 188.67713928222656,
    "speed": 0,
    "load": -0.20971009146668163
  },
  {
    "temp": 188.66693115234375,
    "speed": 0,
    "load": -0.20790224585058947
  },
  {
    "temp": 188.6587677001953,
    "speed": 0,
    "load": -0.2107683425590281
  },
  {
    "temp": 188.66339111328125,
    "speed": 0,
    "load": -0.21583912904318847
  },
  {
    "temp": 188.6559295654297,
    "speed": 0,
    "load": -0.20953371628462403
  },
  {
    "temp": 188.6602020263672,
    "speed": 0,
    "load": -0.20926915351153674
  },
  {
    "temp": 188.66635131835938,
    "speed": 0,
    "load": -0.21328168890335064
  },
  {
    "temp": 188.65830993652344,
    "speed": 0,
    "load": -0.21561866006561647
  },
  {
    "temp": 188.65187072753906,
    "speed": 0,
    "load": -0.21359034547195233
  },
  {
    "temp": 188.64259338378906,
    "speed": 0,
    "load": -0.2151777221104716
  },
  {
    "temp": 188.63929748535156,
    "speed": 0,
    "load": -0.21456040897327
  },
  {
    "temp": 188.63665771484375,
    "speed": 0,
    "load": -0.21456040897327
  },
  {
    "temp": 188.6328582763672,
    "speed": 0,
    "load": -0.21222343781100506
  },
  {
    "temp": 188.6315155029297,
    "speed": 0,
    "load": -0.21711784911310783
  },
  {
    "temp": 188.63043212890625,
    "speed": 0,
    "load": -0.22020441479911845
  },
  {
    "temp": 188.62887573242188,
    "speed": 0,
    "load": -0.2145163151777556
  },
  {
    "temp": 188.6488037109375,
    "speed": 0,
    "load": -0.21359034547195233
  },
  {
    "temp": 188.64064025878906,
    "speed": 0,
    "load": -0.21597141042973256
  },
  {
    "temp": 188.6377410888672,
    "speed": 0,
    "load": -0.22121857209595053
  },
  {
    "temp": 188.6354217529297,
    "speed": 0,
    "load": -0.2183083815919975
  },
  {
    "temp": 188.63356018066406,
    "speed": 0,
    "load": -0.21195887503791777
  },
  {
    "temp": 188.65135192871094,
    "speed": 0,
    "load": -0.21592731663421816
  },
  {
    "temp": 188.64630126953125,
    "speed": 0,
    "load": -0.21711784911310783
  },
  {
    "temp": 188.65541076660156,
    "speed": 0,
    "load": -0.2141635648136404
  },
  {
    "temp": 188.64955139160156,
    "speed": 0,
    "load": -0.2151777221104716
  },
  {
    "temp": 188.6551055908203,
    "speed": 0,
    "load": -0.2151777221104716
  },
  {
    "temp": 188.67129516601562,
    "speed": 0,
    "load": -0.21561866006561647
  },
  {
    "temp": 188.67250061035156,
    "speed": 0,
    "load": -0.2150895345194428
  },
  {
    "temp": 188.68370056152344,
    "speed": 0,
    "load": -0.20446292980046277
  },
  {
    "temp": 188.681396484375,
    "speed": 0,
    "load": -0.20212595863819782
  },
  {
    "temp": 188.68057250976562,
    "speed": 0,
    "load": -0.20433064841391957
  },
  {
    "temp": 188.669677734375,
    "speed": 0,
    "load": -0.2145163151777556
  },
  {
    "temp": 188.6642303466797,
    "speed": 0,
    "load": -0.2111210929231433
  },
  {
    "temp": 188.65660095214844,
    "speed": 0,
    "load": -0.20768177687301748
  },
  {
    "temp": 188.65380859375,
    "speed": 0,
    "load": -0.2070203699403006
  },
  {
    "temp": 188.6687469482422,
    "speed": 0,
    "load": -0.20882821555639275
  },
  {
    "temp": 188.68069458007812,
    "speed": 0,
    "load": -0.21566275386113087
  },
  {
    "temp": 188.6902618408203,
    "speed": 0,
    "load": -0.21610369181627576
  },
  {
    "temp": 188.6855926513672,
    "speed": 0,
    "load": -0.20909277832947915
  },
  {
    "temp": 188.67369079589844,
    "speed": 0,
    "load": -0.21345806408540913
  },
  {
    "temp": 188.6846466064453,
    "speed": 0,
    "load": -0.2112092805141721
  },
  {
    "temp": 188.7086181640625,
    "speed": 0,
    "load": -0.20918096592050794
  },
  {
    "temp": 188.7126007080078,
    "speed": 0,
    "load": -0.21292893853923545
  },
  {
    "temp": 188.7157745361328,
    "speed": 0,
    "load": -0.2110329053321145
  },
  {
    "temp": 188.7469482421875,
    "speed": 0,
    "load": -0.2142076586091548
  },
  {
    "temp": 188.7534942626953,
    "speed": 0,
    "load": -0.21376672065400992
  },
  {
    "temp": 188.76895141601562,
    "speed": 0,
    "load": -0.21456040897327
  },
  {
    "temp": 188.78099060058594,
    "speed": 0,
    "load": -0.2112974681052009
  },
  {
    "temp": 188.7807159423828,
    "speed": 0,
    "load": -0.21628006699833335
  },
  {
    "temp": 188.780517578125,
    "speed": 0,
    "load": -0.21658872356693415
  },
  {
    "temp": 188.7801971435547,
    "speed": 0,
    "load": -0.20887230935190715
  },
  {
    "temp": 188.79031372070312,
    "speed": 0,
    "load": -0.21213525021997626
  },
  {
    "temp": 188.78819274902344,
    "speed": 0,
    "load": -0.21372262685849552
  },
  {
    "temp": 188.79330444335938,
    "speed": 0,
    "load": -0.21354625167643793
  },
  {
    "temp": 188.7803497314453,
    "speed": 0,
    "load": -0.21398718963158192
  },
  {
    "temp": 188.7801971435547,
    "speed": 0,
    "load": -0.21381081444952432
  },
  {
    "temp": 188.79031372070312,
    "speed": 0,
    "load": -0.21632416079384775
  },
  {
    "temp": 188.7967071533203,
    "speed": 0,
    "load": -0.21628006699833335
  },
  {
    "temp": 188.80352783203125,
    "speed": 0,
    "load": -0.21597141042973256
  },
  {
    "temp": 188.80517578125,
    "speed": 0,
    "load": -0.21275256335717785
  },
  {
    "temp": 188.80006408691406,
    "speed": 0,
    "load": -0.2068880885537574
  },
  {
    "temp": 188.7959747314453,
    "speed": 0,
    "load": -0.20931324730705114
  },
  {
    "temp": 188.80032348632812,
    "speed": 0,
    "load": -0.2108124363545425
  },
  {
    "temp": 188.7961883544922,
    "speed": 0,
    "load": -0.21165021846931698
  },
  {
    "temp": 188.7984161376953,
    "speed": 0,
    "load": -0.207064463735815
  },
  {
    "temp": 188.79466247558594,
    "speed": 0,
    "load": -0.2146485965642988
  },
  {
    "temp": 188.79165649414062,
    "speed": 0,
    "load": -0.2109447177410857
  },
  {
    "temp": 188.7975616455078,
    "speed": 0,
    "load": -0.2109006239455713
  },
  {
    "temp": 188.78375244140625,
    "speed": 0,
    "load": -0.2105478735814561
  },
  {
    "temp": 188.78292846679688,
    "speed": 0,
    "load": -0.21156203087828818
  },
  {
    "temp": 188.7797088623047,
    "speed": 0,
    "load": -0.21270846956166345
  },
  {
    "temp": 188.78993225097656,
    "speed": 0,
    "load": -0.21226753160651946
  },
  {
    "temp": 188.79811096191406,
    "speed": 0,
    "load": -0.21142974949174498
  },
  {
    "temp": 188.77099609375,
    "speed": 0,
    "load": -0.21169431226483137
  },
  {
    "temp": 188.7624969482422,
    "speed": 0,
    "load": -0.21319350131232184
  },
  {
    "temp": 188.76593017578125,
    "speed": 0,
    "load": -0.21535409729253008
  },
  {
    "temp": 188.77085876464844,
    "speed": 0,
    "load": -0.2110769991276289
  },
  {
    "temp": 188.77261352539062,
    "speed": 0,
    "load": -0.21588322283870287
  },
  {
    "temp": 188.77401733398438,
    "speed": 0,
    "load": -0.214339939995698
  },
  {
    "temp": 188.76580810546875,
    "speed": 0,
    "load": -0.21707375531759343
  },
  {
    "temp": 188.7583465576172,
    "speed": 0,
    "load": -0.21769106845479502
  },
  {
    "temp": 188.7291717529297,
    "speed": 0,
    "load": -0.21535409729253008
  },
  {
    "temp": 188.72903442382812,
    "speed": 0,
    "load": -0.2183965691830263
  },
  {
    "temp": 188.71868896484375,
    "speed": 0,
    "load": -0.2151777221104716
  },
  {
    "temp": 188.72222900390625,
    "speed": 0,
    "load": -0.21588322283870287
  },
  {
    "temp": 188.72348022460938,
    "speed": 0,
    "load": -0.21385490824503872
  },
  {
    "temp": 188.71424865722656,
    "speed": 0,
    "load": -0.2112974681052009
  },
  {
    "temp": 188.69276428222656,
    "speed": 0,
    "load": -0.2182642877964831
  },
  {
    "temp": 188.6999053955078,
    "speed": 0,
    "load": -0.21226753160651946
  },
  {
    "temp": 188.70562744140625,
    "speed": 0,
    "load": -0.2181761002054543
  },
  {
    "temp": 188.70567321777344,
    "speed": 0,
    "load": -0.21645644218039095
  },
  {
    "temp": 188.68975830078125,
    "speed": 0,
    "load": -0.22029260239014725
  },
  {
    "temp": 188.67703247070312,
    "speed": 0,
    "load": -0.21658872356693415
  },
  {
    "temp": 188.67709350585938,
    "speed": 0,
    "load": -0.2105037797859417
  },
  {
    "temp": 188.67713928222656,
    "speed": 0,
    "load": -0.21676509874899175
  },
  {
    "temp": 188.6772003173828,
    "speed": 0,
    "load": -0.21623597320281895
  },
  {
    "temp": 188.66697692871094,
    "speed": 0,
    "load": -0.2183965691830263
  },
  {
    "temp": 188.6894989013672,
    "speed": 0,
    "load": -0.21963119545743037
  },
  {
    "temp": 188.6870574951172,
    "speed": 0,
    "load": -0.21553047247458768
  },
  {
    "temp": 188.6651153564453,
    "speed": 0,
    "load": -0.21284075094820665
  }
]