[
  {
    "temp": 178.76499938964844,
    "speed": 0,
    "load": -0.0055117244393052545
  },
  {
    "temp": 178.77745056152344,
    "speed": 0,
    "load": -0.006349506554079731
  },
  {
    "temp": 178.78170776367188,
    "speed": 0,
    "load": -0.004982598893132462
  },
  {
    "temp": 178.7908172607422,
    "speed": 0,
    "load": 0.0010582510923464739
  },
  {
    "temp": 178.78102111816406,
    "speed": 0,
    "load": -0.0018519394116065513
  },
  {
    "temp": 178.79026794433594,
    "speed": 0,
    "load": -0.005908568598934849
  },
  {
    "temp": 178.78912353515625,
    "speed": 0,
    "load": -0.007143194873339809
  },
  {
    "temp": 178.7874755859375,
    "speed": 0,
    "load": -0.0070109134867966105
  },
  {
    "temp": 178.77835083007812,
    "speed": 6.925207614898682,
    "load": 0.0011464386833752727
  },
  {
    "temp": 178.7881317138672,
    "speed": 6.94444465637207,
    "load": 0.15591566093906284
  },
  {
    "temp": 178.78684997558594,
    "speed": 7.7881622314453125,
    "load": 4.083173652228259
  },
  {
    "temp": 178.794921875,
    "speed": 6.925207614898682,
    "load": 37.78066634166086
  },
  {
    "temp": 178.7843017578125,
    "speed": 6.925207614898682,
    "load": 40.45786523011566
  },
  {
    "temp": 178.7928924560547,
    "speed": 6.94444465637207,
    "load": 34.92272698539237
  },
  {
    "temp": 178.79122924804688,
    "speed": 6.94444465637207,
    "load": 32.92197101392461
  },
  {
    "temp": 178.78883361816406,
    "speed": 6.94444465637207,
    "load": 30.005298722030886
  },
  {
    "temp": 178.7965087890625,
    "speed": 6.94444465637207,
    "load": 30.109095516671886
  },
  {
    "temp": 178.8026580810547,
    "speed": 6.94444465637207,
    "load": 31.457307408321427
  },
  {
    "temp": 178.789306640625,
    "speed": 6.925207614898682,
    "load": 32.68990536813211
  },
  {
    "temp": 178.78836059570312,
    "speed": 6.925207614898682,
    "load": 33.81570815520681
  },
  {
    "temp": 178.79612731933594,
    "speed": 6.94444465637207,
    "load": 34.37953551844997
  },
  {
    "temp": 178.80235290527344,
    "speed": 6.925207614898682,
    "load": 38.542695315741426
  },
  {
    "temp": 178.81130981445312,
    "speed": 6.925207614898682,
    "load": 38.578190821130555
  },
  {
    "temp": 178.8144989013672,
    "speed": 6.94444465637207,
    "load": 43.33846879727857
  },
  {
    "temp": 178.805419921875,
    "speed": 6.925207614898682,
    "load": 43.90229616052173
  },
  {
    "temp": 178.80978393554688,
    "speed": 6.9637885093688965,
    "load": 43.41713212847633
  },
  {
    "temp": 178.80474853515625,
    "speed": 6.94444465637207,
    "load": 42.31399355229605
  },
  {
    "temp": 178.80072021484375,
    "speed": 7.8125,
    "load": 42.15380079319208
  },
  {
    "temp": 178.8102569580078,
    "speed": 6.94444465637207,
    "load": 42.03845142412631
  },
  {
    "temp": 178.80511474609375,
    "speed": 6.9637885093688965,
    "load": 41.912343168955005
  },
  {
    "temp": 178.79246520996094,
    "speed": 6.94444465637207,
    "load": 41.52652245820365
  },
  {
    "temp": 178.7827911376953,
    "speed": 6.94444465637207,
    "load": 41.10419208476633
  },
  {
    "temp": 178.78314208984375,
    "speed": 6.94444465637207,
    "load": 40.29507093707634
  },
  {
    "temp": 178.78343200683594,
    "speed": 6.925207614898682,
    "load": 39.704610921342464
  },
  {
    "temp": 178.77511596679688,
    "speed": 6.94444465637207,
    "load": 39.366587884928755
  },
  {
    "temp": 178.7631378173828,
    "speed": 6.94444465637207,
    "load": 39.434889174180626
  },
  {
    "temp": 178.75888061523438,
    "speed": 6.94444465637207,
    "load": 39.43440414242997
  },
  {
    "temp": 178.75547790527344,
    "speed": 6.94444465637207,
    "load": 38.07825536758782
  },
  {
    "temp": 178.76129150390625,
    "speed": 6.94444465637207,
    "load": 37.580656885207354
  },
  {
    "temp": 178.7574005126953,
    "speed": 6.94444465637207,
    "load": 37.84909991229927
  },
  {
    "temp": 178.7364501953125,
    "speed": 6.94444465637207,
    "load": 38.79852751731622
  },
  {
    "temp": 178.72900390625,
    "speed": 6.94444465637207,
    "load": 40.35402434167915
  },
  {
    "temp": 178.71449279785156,
    "speed": 6.94444465637207,
    "load": 40.95890302854625
  },
  {
    "temp": 178.71144104003906,
    "speed": 6.925207614898682,
    "load": 41.498214241483375
  },
  {
    "temp": 178.70045471191406,
    "speed": 6.94444465637207,
    "load": 41.87927282231917
  },
  {
    "temp": 178.68463134765625,
    "speed": 7.002800941467285,
    "load": 42.874117036715994
  },
  {
    "temp": 178.6790008544922,
    "speed": 6.94444465637207,
    "load": 43.38591372125211
  },
  {
    "temp": 178.67449951171875,
    "speed": 0,
    "load": 43.8338184960878
  },
  {
    "temp": 178.6680145263672,
    "speed": 0,
    "load": 44.23070674951328
  },
  {
    "temp": 178.6571807861328,
    "speed": 0,
    "load": 39.71947053043083
  },
  {
    "temp": 178.65704345703125,
    "speed": 0,
    "load": 23.356924421954517
  },
  {
    "temp": 178.63465881347656,
    "speed": 0,
    "load": 19.083133291717324
  },
  {
    "temp": 178.6304931640625,
    "speed": 0,
    "load": 15.621064843105481
  },
  {
    "temp": 178.61862182617188,
    "speed": 0,
    "load": 11.365352169029213
  },
  {
    "temp": 178.59298706054688,
    "speed": 0,
    "load": 9.984731337676552
  },
  {
    "temp": 178.58860778808594,
    "speed": 0,
    "load": 8.860074989285222
  },
  {
    "temp": 178.5680389404297,
    "speed": 0,
    "load": 7.065413418051959
  },
  {
    "temp": 178.55157470703125,
    "speed": 0,
    "load": 6.317847208900128
  },
  {
    "temp": 178.5347137451172,
    "speed": 0,
    "load": 5.6415806670951465
  },
  {
    "temp": 178.52491760253906,
    "speed": 0,
    "load": 5.048739586403489
  },
  {
    "temp": 178.51707458496094,
    "speed": 0,
    "load": 4.097151385406338
  },
  {
    "temp": 178.49725341796875,
    "speed": 0,
    "load": 3.7147258969095915
  },
  {
    "temp": 178.48641967773438,
    "speed": 0,
    "load": 3.3599031244048856
  },
  {
    "temp": 178.46920776367188,
    "speed": 0,
    "load": 2.687208180036574
  },
  {
    "temp": 178.44955444335938,
    "speed": 0,
    "load": 2.3796539563233488
  },
  {
    "temp": 178.43971252441406,
    "speed": 0,
    "load": 2.1389018328145006
  },
  {
    "temp": 178.4318389892578,
    "speed": 0,
    "load": 1.8321412974205362
  },
  {
    "temp": 178.41700744628906,
    "speed": 0,
    "load": 1.7210690265196593
  },
  {
    "temp": 178.4110107421875,
    "speed": 0,
    "load": 1.6361443763588461
  },
  {
    "temp": 178.40887451171875,
    "speed": 0,
    "load": 1.4861813778142317
  },
  {
    "temp": 178.3986358642578,
    "speed": 0,
    "load": 1.4270075042338526
  },
  {
    "temp": 178.39898681640625,
    "speed": 0,
    "load": 1.3738744806389516
  },
  {
    "temp": 178.41485595703125,
    "speed": 0,
    "load": 1.3250185552089508
  },
  {
    "temp": 178.39488220214844,
    "speed": 0,
    "load": 1.2417694692776866
  },
  {
    "temp": 178.39598083496094,
    "speed": 0,
    "load": 1.2036724299532082
  },
  {
    "temp": 178.39755249023438,
    "speed": 0,
    "load": 1.130829479763353
  },
  {
    "temp": 178.38958740234375,
    "speed": 0,
    "load": 1.0923796900747593
  },
  {
    "temp": 178.40028381347656,
    "speed": 0,
    "load": 1.0638069105814019
  },
  {
    "temp": 178.4088592529297,
    "speed": 0,
    "load": 1.0371301642951654
  },
  {
    "temp": 178.41571044921875,
    "speed": 0,
    "load": 0.9836884841316635
  },
  {
    "temp": 178.4211883544922,
    "speed": 0,
    "load": 0.9546747666831603
  },
  {
    "temp": 178.42556762695312,
    "speed": 0,
    "load": 0.9258815182122309
  },
  {
    "temp": 178.44041442871094,
    "speed": 0,
    "load": 0.8902537314365624
  },
  {
    "temp": 178.44947814941406,
    "speed": 0,
    "load": 0.8696178351358039
  },
  {
    "temp": 178.45672607421875,
    "speed": 0,
    "load": 0.8469095304458669
  },
  {
    "temp": 178.4625244140625,
    "speed": 0,
    "load": 0.8040062674103154
  },
  {
    "temp": 178.4671630859375,
    "speed": 0,
    "load": 0.7876915630699735
  },
  {
    "temp": 178.47384643554688,
    "speed": 0,
    "load": 0.7704508890238264
  },
  {
    "temp": 178.48477172851562,
    "speed": 0,
    "load": 0.758104626279783
  },
  {
    "temp": 178.48497009277344,
    "speed": 0,
    "load": 0.7340294139288979
  },
  {
    "temp": 178.52963256835938,
    "speed": 0,
    "load": 0.7180233661571567
  },
  {
    "temp": 178.5550079345703,
    "speed": 0,
    "load": 0.7065148855278869
  },
  {
    "temp": 178.57530212402344,
    "speed": 0,
    "load": 0.6816459848577425
  },
  {
    "temp": 178.59153747558594,
    "speed": 0,
    "load": 0.6724303815952242
  },
  {
    "temp": 178.6149139404297,
    "speed": 0,
    "load": 0.6605250568063248
  },
  {
    "temp": 178.62322998046875,
    "speed": 0,
    "load": 0.6539109874791595
  },
  {
    "temp": 178.6298828125,
    "speed": 0,
    "load": 0.6342892484752323
  },
  {
    "temp": 178.67019653320312,
    "speed": 0,
    "load": 0.6243240506889691
  },
  {
    "temp": 178.6930694580078,
    "speed": 0,
    "load": 0.6175776999752598
  },
  {
    "temp": 178.71136474609375,
    "speed": 0,
    "load": 0.6114486623987521
  },
  {
    "temp": 178.72601318359375,
    "speed": 0,
    "load": 0.6069951890517942
  },
  {
    "temp": 178.75563049316406,
    "speed": 0,
    "load": 0.5987937430861079
  },
  {
    "temp": 178.7699432373047,
    "speed": 0,
    "load": 0.5875498252299254
  },
  {
    "temp": 178.78140258789062,
    "speed": 0,
    "load": 0.5843309781573716
  },
  {
    "temp": 178.7905731201172,
    "speed": 0,
    "load": 0.5789074413090951
  },
  {
    "temp": 178.7978973388672,
    "speed": 0,
    "load": 0.5754681252589684
  },
  {
    "temp": 178.81700134277344,
    "speed": 0,
    "load": 0.5734398106653043
  },
  {
    "temp": 178.8275909423828,
    "speed": 0,
    "load": 0.56625252199645
  },
  {
    "temp": 178.85313415527344,
    "speed": 0,
    "load": 0.5607407975571448
  },
  {
    "temp": 178.87356567382812,
    "speed": 0,
    "load": 0.5640919260162427
  },
  {
    "temp": 178.91835021972656,
    "speed": 0,
    "load": 0.5523188826138874
  },
  {
    "temp": 178.91720581054688,
    "speed": 0,
    "load": 0.5524511640004306
  },
  {
    "temp": 178.93336486816406,
    "speed": 0,
    "load": 0.5536416964793203
  },
  {
    "temp": 178.93775939941406,
    "speed": 0,
    "load": 0.5457048132867204
  },
  {
    "temp": 178.9594268798828,
    "speed": 0,
    "load": 0.5438087800795994
  },
  {
    "temp": 178.96713256835938,
    "speed": 0,
    "load": 0.5416481840993921
  },
  {
    "temp": 178.9647674560547,
    "speed": 0,
    "load": 0.5252893859635348
  },
  {
    "temp": 178.97671508789062,
    "speed": 0,
    "load": 0.5247161666218467
  },
  {
    "temp": 178.98097229003906,
    "speed": 0,
    "load": 0.5346813644081108
  },
  {
    "temp": 178.984375,
    "speed": 0,
    "load": 0.5323884870413593
  },
  {
    "temp": 178.98709106445312,
    "speed": 0,
    "load": 0.5227760396192114
  },
  {
    "temp": 178.9910125732422,
    "speed": 0,
    "load": 0.5197335677287152
  },
  {
    "temp": 178.99240112304688,
    "speed": 0,
    "load": 0.5167351896337333
  },
  {
    "temp": 178.99351501464844,
    "speed": 0,
    "load": 0.5113557465809713
  },
  {
    "temp": 179.003662109375,
    "speed": 0,
    "load": 0.5075636801667294
  },
  {
    "temp": 179.0025177001953,
    "speed": 0,
    "load": 0.5035952385704299
  },
  {
    "temp": 179.00160217285156,
    "speed": 0,
    "load": 0.5047857710493195
  },
  {
    "temp": 179.00086975097656,
    "speed": 0,
    "load": 0.5041243641166027
  },
  {
    "temp": 178.9998321533203,
    "speed": 0,
    "load": 0.5033747695928579
  },
  {
    "temp": 178.9994659423828,
    "speed": 0,
    "load": 0.4984803582907542
  },
  {
    "temp": 178.99916076660156,
    "speed": 0,
    "load": 0.4909403192577848
  },
  {
    "temp": 178.99891662597656,
    "speed": 0,
    "load": 0.49191038275910337
  },
  {
    "temp": 178.9985809326172,
    "speed": 0,
    "load": 0.48595772036465323
  },
  {
    "temp": 178.9984588623047,
    "speed": 0,
    "load": 0.4873246280256014
  },
  {
    "temp": 178.98983764648438,
    "speed": 0,
    "load": 0.4905434750981552
  },
  {
    "temp": 178.99276733398438,
    "speed": 0,
    "load": 0.49332138421556504
  },
  {
    "temp": 178.9767303466797,
    "speed": 0,
    "load": 0.487501003207659
  },
  {
    "temp": 178.98097229003906,
    "speed": 0,
    "load": 0.4796964014016023
  },
  {
    "temp": 178.95877075195312,
    "speed": 0,
    "load": 0.47295005068789386
  },
  {
    "temp": 178.94898986816406,
    "speed": 0,
    "load": 0.47030442295702723
  },
  {
    "temp": 178.94171142578125,
    "speed": 0,
    "load": 0.46615960617866925
  },
  {
    "temp": 178.93588256835938,
    "speed": 0,
    "load": 0.46289666531060103
  },
  {
    "temp": 178.92750549316406,
    "speed": 0,
    "load": 0.4638667288119187
  },
  {
    "temp": 178.90745544433594,
    "speed": 0,
    "load": 0.46955482843328156
  },
  {
    "temp": 178.8914031982422,
    "speed": 0,
    "load": 0.472509112732749
  },
  {
    "temp": 178.87857055664062,
    "speed": 0,
    "load": 0.4717595182090033
  },
  {
    "temp": 178.86830139160156,
    "speed": 0,
    "load": 0.4720240809820897
  },
  {
    "temp": 178.86009216308594,
    "speed": 0,
    "load": 0.4680556393857902
  },
  {
    "temp": 178.85679626464844,
    "speed": 0,
    "load": 0.46624779376969805
  },
  {
    "temp": 178.8508758544922,
    "speed": 0,
    "load": 0.4652777302683804
  },
  {
    "temp": 178.8546905517578,
    "speed": 0,
    "load": 0.4614415700586241
  },
  {
    "temp": 178.8448028564453,
    "speed": 0,
    "load": 0.4595896306470175
  },
  {
    "temp": 178.84129333496094,
    "speed": 0,
    "load": 0.45857547335018545
  },
  {
    "temp": 178.8299560546875,
    "speed": 0,
    "load": 0.4571644718937238
  },
  {
    "temp": 178.8153076171875,
    "speed": 0,
    "load": 0.4564589711654925
  },
  {
    "temp": 178.8091583251953,
    "speed": 0,
    "load": 0.4536369682525683
  },
  {
    "temp": 178.81277465820312,
    "speed": 0,
    "load": 0.4515645598633897
  },
  {
    "temp": 178.81797790527344,
    "speed": 0,
    "load": 0.45412200000322755
  },
  {
    "temp": 178.78567504882812,
    "speed": 0,
    "load": 0.45398971861668347
  },
  {
    "temp": 178.77691650390625,
    "speed": 0,
    "load": 0.444774115354166
  },
  {
    "temp": 178.7642822265625,
    "speed": 0,
    "load": 0.4446859277631372
  },
  {
    "temp": 178.75979614257812,
    "speed": 0,
    "load": 0.4445977401721075
  },
  {
    "temp": 178.75621032714844,
    "speed": 0,
    "load": 0.440629298575808
  },
  {
    "temp": 178.74481201171875,
    "speed": 0,
    "load": 0.4410261427354385
  },
  {
    "temp": 178.73692321777344,
    "speed": 0,
    "load": 0.4408938613488953
  },
  {
    "temp": 178.7379150390625,
    "speed": 0,
    "load": 0.43555851209164764
  },
  {
    "temp": 178.7301788330078,
    "speed": 0,
    "load": 0.4368372321615661
  },
  {
    "temp": 178.734375,
    "speed": 0,
    "load": 0.43516166793201716
  },
  {
    "temp": 178.73587036132812,
    "speed": 0,
    "load": 0.4336624788845267
  },
  {
    "temp": 178.72853088378906,
    "speed": 0,
    "load": 0.43256013399666493
  },
  {
    "temp": 178.71966552734375,
    "speed": 0,
    "load": 0.43159007049534814
  },
  {
    "temp": 178.70703125,
    "speed": 0,
    "load": 0.43181053947292014
  },
  {
    "temp": 178.70545959472656,
    "speed": 0,
    "load": 0.4292530993330823
  },
  {
    "temp": 178.7032012939453,
    "speed": 0,
    "load": 0.42793028546764944
  },
  {
    "temp": 178.69386291503906,
    "speed": 0,
    "load": 0.42854759860485103
  },
  {
    "temp": 178.69493103027344,
    "speed": 0,
    "load": 0.42440278182649394
  },
  {
    "temp": 178.70431518554688,
    "speed": 0,
    "load": 0.4266956591932445
  },
  {
    "temp": 178.7024688720703,
    "speed": 0,
    "load": 0.42497600116818113
  },
  {
    "temp": 178.69326782226562,
    "speed": 0,
    "load": 0.4254610329188404
  },
  {
    "temp": 178.6944580078125,
    "speed": 0,
    "load": 0.4230358741655458
  },
  {
    "temp": 178.7039337158203,
    "speed": 0,
    "load": 0.41994930847953515
  },
  {
    "temp": 178.71075439453125,
    "speed": 0,
    "load": 0.4189792449782175
  },
  {
    "temp": 178.7084503173828,
    "speed": 0,
    "load": 0.415451741337062
  },
  {
    "temp": 178.70660400390625,
    "speed": 0,
    "load": 0.4214044037315121
  },
  {
    "temp": 178.7039337158203,
    "speed": 0,
    "load": 0.4180532752724142
  },
  {
    "temp": 178.70298767089844,
    "speed": 0,
    "load": 0.4192879015468183
  },
  {
    "temp": 178.71075439453125,
    "speed": 0,
    "load": 0.421272122344968
  },
  {
    "temp": 178.6999053955078,
    "speed": 0,
    "load": 0.42457915700855153
  },
  {
    "temp": 178.7082977294922,
    "speed": 0,
    "load": 0.4177887124993278
  },
  {
    "temp": 178.7272186279297,
    "speed": 0,
    "load": 0.4220217168687146
  },
  {
    "temp": 178.72161865234375,
    "speed": 0,
    "load": 0.4211839347539392
  },
  {
    "temp": 178.71713256835938,
    "speed": 0,
    "load": 0.41999340227504955
  },
  {
    "temp": 178.73062133789062,
    "speed": 0,
    "load": 0.41686274279352453
  },
  {
    "temp": 178.7500457763672,
    "speed": 0,
    "load": 0.41201242528693616
  },
  {
    "temp": 178.7484130859375,
    "speed": 0,
    "load": 0.4184501194320447
  },
  {
    "temp": 178.75564575195312,
    "speed": 0,
    "load": 0.41686274279352453
  },
  {
    "temp": 178.7528839111328,
    "speed": 0,
    "load": 0.4137761771075139
  },
  {
    "temp": 178.76597595214844,
    "speed": 0,
    "load": 0.410204579670844
  },
  {
    "temp": 178.77822875976562,
    "speed": 0,
    "load": 0.410425048648416
  },
  {
    "temp": 178.78802490234375,
    "speed": 0,
    "load": 0.4186705884096167
  },
  {
    "temp": 178.79586791992188,
    "speed": 0,
    "load": 0.41620133586080765
  },
  {
    "temp": 178.80715942382812,
    "speed": 0,
    "load": 0.41232108185553695
  },
  {
    "temp": 178.81117248535156,
    "speed": 0,
    "load": 0.4141730212671435
  },
  {
    "temp": 178.8143768310547,
    "speed": 0,
    "load": 0.4111305493766473
  },
  {
    "temp": 178.81900024414062,
    "speed": 0,
    "load": 0.413555708129941
  },
  {
    "temp": 178.82064819335938,
    "speed": 0,
    "load": 0.4111746431721617
  },
  {
    "temp": 178.82196044921875,
    "speed": 0,
    "load": 0.4076912333265206
  },
  {
    "temp": 178.8238525390625,
    "speed": 0,
    "load": 0.4039432607077931
  },
  {
    "temp": 178.82452392578125,
    "speed": 0,
    "load": 0.4105573300349592
  },
  {
    "temp": 178.82505798339844,
    "speed": 0,
    "load": 0.4073825767579198
  },
  {
    "temp": 178.8254852294922,
    "speed": 0,
    "load": 0.4114832997407625
  },
  {
    "temp": 178.82583618164062,
    "speed": 0,
    "load": 0.4061479504835148
  },
  {
    "temp": 178.8348846435547,
    "speed": 0,
    "load": 0.4037227917302211
  },
  {
    "temp": 178.83335876464844,
    "speed": 0,
    "load": 0.40795579609960697
  },
  {
    "temp": 178.84068298339844,
    "speed": 0,
    "load": 0.4037668855257355
  },
  {
    "temp": 178.83584594726562,
    "speed": 0,
    "load": 0.4028850096154466
  },
  {
    "temp": 178.82559204101562,
    "speed": 0,
    "load": 0.40786760850857817
  },
  {
    "temp": 178.82591247558594,
    "speed": 0,
    "load": 0.40028347568009437
  },
  {
    "temp": 178.826171875,
    "speed": 0,
    "load": 0.39631503408379487
  },
  {
    "temp": 178.82638549804688,
    "speed": 0,
    "load": 0.39380168773947233
  },
  {
    "temp": 178.82669067382812,
    "speed": 0,
    "load": 0.4000630067025224
  },
  {
    "temp": 178.82679748535156,
    "speed": 0,
    "load": 0.39684415962996855
  },
  {
    "temp": 178.82688903808594,
    "speed": 0,
    "load": 0.3953890643779916
  },
  {
    "temp": 178.8269500732422,
    "speed": 0,
    "load": 0.3951685954004196
  },
  {
    "temp": 178.82705688476562,
    "speed": 0,
    "load": 0.39300799942021225
  },
  {
    "temp": 178.82708740234375,
    "speed": 0,
    "load": 0.40037166327112317
  },
  {
    "temp": 178.82711791992188,
    "speed": 0,
    "load": 0.40116535159038325
  },
  {
    "temp": 178.82713317871094,
    "speed": 0,
    "load": 0.3978142231312862
  },
  {
    "temp": 178.81863403320312,
    "speed": 0,
    "load": 0.39724100378959815
  },
  {
    "temp": 178.8203582763672,
    "speed": 0,
    "load": 0.39649140926585247
  },
  {
    "temp": 178.8217315673828,
    "speed": 0,
    "load": 0.39684415962996855
  },
  {
    "temp": 178.8228302001953,
    "speed": 0,
    "load": 0.3941985318991019
  },
  {
    "temp": 178.8244171142578,
    "speed": 0,
    "load": 0.3900096213252304
  },
  {
    "temp": 178.8164520263672,
    "speed": 0,
    "load": 0.3865703052751037
  },
  {
    "temp": 178.81007385253906,
    "speed": 0,
    "load": 0.38485064725004037
  },
  {
    "temp": 178.81350708007812,
    "speed": 0,
    "load": 0.3867025866616469
  },
  {
    "temp": 178.81845092773438,
    "speed": 0,
    "load": 0.38948049577905675
  },
  {
    "temp": 178.81167602539062,
    "speed": 0,
    "load": 0.38480655345452597
  },
  {
    "temp": 178.81478881835938,
    "speed": 0,
    "load": 0.3829546140429194
  },
  {
    "temp": 178.81727600097656,
    "speed": 0,
    "load": 0.38498292863658357
  },
  {
    "temp": 178.81402587890625,
    "speed": 0,
    "load": 0.3763405447157533
  },
  {
    "temp": 178.81666564941406,
    "speed": 0,
    "load": 0.3766932950798685
  },
  {
    "temp": 178.81024169921875,
    "speed": 0,
    "load": 0.37753107719464296
  },
  {
    "temp": 178.8136444091797,
    "speed": 0,
    "load": 0.3724602907104826
  },
  {
    "temp": 178.81170654296875,
    "speed": 0,
    "load": 0.3719752589598233
  },
  {
    "temp": 178.81480407714844,
    "speed": 0,
    "load": 0.37382719837142986
  },
  {
    "temp": 178.81729125976562,
    "speed": 0,
    "load": 0.36977056918410156
  },
  {
    "temp": 178.8123321533203,
    "speed": 0,
    "load": 0.36959419400204396
  },
  {
    "temp": 178.8153076171875,
    "speed": 0,
    "load": 0.36663990970257654
  },
  {
    "temp": 178.81768798828125,
    "speed": 0,
    "load": 0.36977056918410156
  },
  {
    "temp": 178.81106567382812,
    "speed": 0,
    "load": 0.36566984620125886
  },
  {
    "temp": 178.81687927246094,
    "speed": 0,
    "load": 0.36981466297961596
  },
  {
    "temp": 178.81895446777344,
    "speed": 0,
    "load": 0.37074063268541924
  },
  {
    "temp": 178.81207275390625,
    "speed": 0,
    "load": 0.3680509111590382
  },
  {
    "temp": 178.8107147216797,
    "speed": 0,
    "load": 0.37007922575270236
  },
  {
    "temp": 178.80548095703125,
    "speed": 0,
    "load": 0.3678304421814662
  },
  {
    "temp": 178.79275512695312,
    "speed": 0,
    "load": 0.36165731080944497
  },
  {
    "temp": 178.78257751464844,
    "speed": 0,
    "load": 0.36478797029097
  },
  {
    "temp": 178.76791381835938,
    "speed": 0,
    "load": 0.3720193527553377
  },
  {
    "temp": 178.77976989746094,
    "speed": 0,
    "load": 0.36659581590706125
  },
  {
    "temp": 178.7892608642578,
    "speed": 0,
    "load": 0.36245099912870415
  },
  {
    "temp": 178.78758239746094,
    "speed": 0,
    "load": 0.3613486542408433
  },
  {
    "temp": 178.7869873046875,
    "speed": 0,
    "load": 0.36619897174743166
  },
  {
    "temp": 178.79502868652344,
    "speed": 0,
    "load": 0.36589031517883086
  },
  {
    "temp": 178.76731872558594,
    "speed": 0,
    "load": 0.36584622138331646
  },
  {
    "temp": 178.7820587158203,
    "speed": 0,
    "load": 0.3616132170139297
  },
  {
    "temp": 178.77401733398438,
    "speed": 0,
    "load": 0.35460230352713396
  },
  {
    "temp": 178.767578125,
    "speed": 0,
    "load": 0.35429364695853316
  },
  {
    "temp": 178.76686096191406,
    "speed": 0,
    "load": 0.35799752578174626
  },
  {
    "temp": 178.77040100097656,
    "speed": 0,
    "load": 0.3577770568041734
  },
  {
    "temp": 178.7732391357422,
    "speed": 0,
    "load": 0.3601140279664392
  },
  {
    "temp": 178.755126953125,
    "speed": 0,
    "load": 0.3602904031484968
  },
  {
    "temp": 178.7439422607422,
    "speed": 0,
    "load": 0.3523094261603834
  },
  {
    "temp": 178.7435302734375,
    "speed": 0,
    "load": 0.3535881462303019
  },
  {
    "temp": 178.7346649169922,
    "speed": 0,
    "load": 0.35504324148227795
  },
  {
    "temp": 178.74407958984375,
    "speed": 0,
    "load": 0.3488260163147423
  },
  {
    "temp": 178.75218200683594,
    "speed": 0,
    "load": 0.34388751121712424
  },
  {
    "temp": 178.74159240722656,
    "speed": 0,
    "load": 0.340404101371484
  },
  {
    "temp": 178.74163818359375,
    "speed": 0,
    "load": 0.3444166367632979
  },
  {
    "temp": 178.75025939941406,
    "speed": 0,
    "load": 0.34697407690313575
  },
  {
    "temp": 178.7485809326172,
    "speed": 0,
    "load": 0.34688588931210695
  },
  {
    "temp": 178.76431274414062,
    "speed": 0,
    "load": 0.33956631925670955
  },
  {
    "temp": 178.75982666015625,
    "speed": 0,
    "load": 0.33542150247835245
  },
  {
    "temp": 178.7379913330078,
    "speed": 0,
    "load": 0.34318201048889385
  },
  {
    "temp": 178.73876953125,
    "speed": 0,
    "load": 0.34282926012477866
  },
  {
    "temp": 178.7393798828125,
    "speed": 0,
    "load": 0.34260879114720577
  },
  {
    "temp": 178.7398681640625,
    "speed": 0,
    "load": 0.3450339499005004
  },
  {
    "temp": 178.75596618652344,
    "speed": 0,
    "load": 0.33956631925670955
  },
  {
    "temp": 178.75314331054688,
    "speed": 0,
    "load": 0.3385521619598775
  },
  {
    "temp": 178.75088500976562,
    "speed": 0,
    "load": 0.3408009455311136
  },
  {
    "temp": 178.7630157470703,
    "speed": 0,
    "load": 0.3406686641445704
  },
  {
    "temp": 178.7587890625,
    "speed": 0,
    "load": 0.3371411605034149
  },
  {
    "temp": 178.76394653320312,
    "speed": 0,
    "load": 0.3366561287527565
  },
  {
    "temp": 178.7713623046875,
    "speed": 0,
    "load": 0.33506875211423637
  },
  {
    "temp": 178.7740020751953,
    "speed": 0,
    "load": 0.3411536958952297
  },
  {
    "temp": 178.767578125,
    "speed": 0,
    "load": 0.3381994115957614
  },
  {
    "temp": 178.780517578125,
    "speed": 0,
    "load": 0.3373175356854734
  },
  {
    "temp": 178.7813262939453,
    "speed": 0,
    "load": 0.33564197145592445
  },
  {
    "temp": 178.79051208496094,
    "speed": 0,
    "load": 0.33868444334642067
  },
  {
    "temp": 178.78077697753906,
    "speed": 0,
    "load": 0.33537740868283805
  },
  {
    "temp": 178.79750061035156,
    "speed": 0,
    "load": 0.33132077949550887
  },
  {
    "temp": 178.80345153808594,
    "speed": 0,
    "load": 0.337493910867531
  },
  {
    "temp": 178.7996826171875,
    "speed": 0,
    "load": 0.33546559627386685
  },
  {
    "temp": 178.80960083007812,
    "speed": 0,
    "load": 0.3307475601538208
  },
  {
    "temp": 178.80459594726562,
    "speed": 0,
    "load": 0.3306152787672776
  },
  {
    "temp": 178.8091278076172,
    "speed": 0,
    "load": 0.3301743408121336
  },
  {
    "temp": 178.81564331054688,
    "speed": 0,
    "load": 0.332687687156457
  },
  {
    "temp": 178.81796264648438,
    "speed": 0,
    "load": 0.3302625284031624
  },
  {
    "temp": 178.81980895996094,
    "speed": 0,
    "load": 0.32708777512612297
  },
  {
    "temp": 178.82247924804688,
    "speed": 0,
    "load": 0.32717596271715177
  },
  {
    "temp": 178.8148956298828,
    "speed": 0,
    "load": 0.325191741919002
  },
  {
    "temp": 178.81736755371094,
    "speed": 0,
    "load": 0.3259413364427477
  },
  {
    "temp": 178.82090759277344,
    "speed": 0,
    "load": 0.32413349082665555
  },
  {
    "temp": 178.82217407226562,
    "speed": 0,
    "load": 0.3216201444823321
  },
  {
    "temp": 178.82318115234375,
    "speed": 0,
    "load": 0.32488308535040034
  },
  {
    "temp": 178.82398986816406,
    "speed": 0,
    "load": 0.32430986600871314
  },
  {
    "temp": 178.8251495361328,
    "speed": 0,
    "load": 0.32801374483192625
  },
  {
    "temp": 178.8255615234375,
    "speed": 0,
    "load": 0.32505946053245793
  },
  {
    "temp": 178.81736755371094,
    "speed": 0,
    "load": 0.3216642382778465
  },
  {
    "temp": 178.8193359375,
    "speed": 0,
    "load": 0.31743123390845973
  },
  {
    "temp": 178.8153533935547,
    "speed": 0,
    "load": 0.3176517028860326
  },
  {
    "temp": 178.81773376464844,
    "speed": 0,
    "load": 0.3186658601828647
  },
  {
    "temp": 178.8196258544922,
    "speed": 0,
    "load": 0.31738714011294533
  },
  {
    "temp": 178.82237243652344,
    "speed": 0,
    "load": 0.32391302184908266
  },
  {
    "temp": 178.82334899902344,
    "speed": 0,
    "load": 0.3182690160232342
  },
  {
    "temp": 178.82412719726562,
    "speed": 0,
    "load": 0.3187981415694079
  },
  {
    "temp": 178.8098907470703,
    "speed": 0,
    "load": 0.3176076090905182
  },
  {
    "temp": 178.80482482910156,
    "speed": 0,
    "load": 0.315006075155166
  },
  {
    "temp": 178.80078125,
    "speed": 0,
    "load": 0.3180485470456622
  },
  {
    "temp": 178.79754638671875,
    "speed": 0,
    "load": 0.31593204486096926
  },
  {
    "temp": 178.78433227539062,
    "speed": 0,
    "load": 0.31328641713010263
  },
  {
    "temp": 178.79290771484375,
    "speed": 0,
    "load": 0.3100234762620335
  },
  {
    "temp": 178.79977416992188,
    "speed": 0,
    "load": 0.3118313218781257
  },
  {
    "temp": 178.7943115234375,
    "speed": 0,
    "load": 0.3153147317237668
  },
  {
    "temp": 178.7923583984375,
    "speed": 0,
    "load": 0.3065400664163933
  },
  {
    "temp": 178.79933166503906,
    "speed": 0,
    "load": 0.30596684707470523
  },
  {
    "temp": 178.80491638183594,
    "speed": 0,
    "load": 0.30989119487549033
  },
  {
    "temp": 178.80612182617188,
    "speed": 0,
    "load": 0.30914160035174554
  },
  {
    "temp": 178.80181884765625,
    "speed": 0,
    "load": 0.3102439452396064
  },
  {
    "temp": 178.80690002441406,
    "speed": 0,
    "load": 0.3114344777184961
  },
  {
    "temp": 178.814208984375,
    "speed": 0,
    "load": 0.30883294378314385
  },
  {
    "temp": 178.8168182373047,
    "speed": 0,
    "load": 0.30473222080030116
  },
  {
    "temp": 178.81036376953125,
    "speed": 0,
    "load": 0.3036298759124403
  },
  {
    "temp": 178.8096160888672,
    "speed": 0,
    "load": 0.30526134634647484
  },
  {
    "temp": 178.78753662109375,
    "speed": 0,
    "load": 0.3035416883214115
  },
  {
    "temp": 178.79547119140625,
    "speed": 0,
    "load": 0.3003669350443712
  },
  {
    "temp": 178.7932891845703,
    "speed": 0,
    "load": 0.2993968715430535
  },
  {
    "temp": 178.79869079589844,
    "speed": 0,
    "load": 0.2988236522013663
  },
  {
    "temp": 178.79586791992188,
    "speed": 0,
    "load": 0.2963984934480717
  },
  {
    "temp": 178.80213928222656,
    "speed": 0,
    "load": 0.29498749199161
  },
  {
    "temp": 178.7900848388672,
    "speed": 0,
    "load": 0.29062220623568
  },
  {
    "temp": 178.796630859375,
    "speed": 0,
    "load": 0.2913277069639113
  },
  {
    "temp": 178.80274963378906,
    "speed": 0,
    "load": 0.2919009263055994
  },
  {
    "temp": 178.7991180419922,
    "speed": 0,
    "load": 0.2958252741063845
  },
  {
    "temp": 178.8047332763672,
    "speed": 0,
    "load": 0.2951638671736676
  },
  {
    "temp": 178.7921600341797,
    "speed": 0,
    "load": 0.29062220623568
  },
  {
    "temp": 178.7894287109375,
    "speed": 0,
    "load": 0.2878002033227558
  },
  {
    "temp": 178.79698181152344,
    "speed": 0,
    "load": 0.2870065150034957
  },
  {
    "temp": 178.79449462890625,
    "speed": 0,
    "load": 0.2870947025945245
  },
  {
    "temp": 178.78396606445312,
    "speed": 0,
    "load": 0.287712015731727
  },
  {
    "temp": 178.7841796875,
    "speed": 0,
    "load": 0.2878002033227558
  },
  {
    "temp": 178.7842559814453,
    "speed": 0,
    "load": 0.28647738945732293
  },
  {
    "temp": 178.77577209472656,
    "speed": 0,
    "load": 0.2883293288689295
  },
  {
    "temp": 178.79429626464844,
    "speed": 0,
    "load": 0.29322374017103225
  },
  {
    "temp": 178.80088806152344,
    "speed": 0,
    "load": 0.29009308068950723
  },
  {
    "temp": 178.78907775878906,
    "speed": 0,
    "load": 0.28250894786102343
  },
  {
    "temp": 178.77963256835938,
    "speed": 0,
    "load": 0.2826412292475666
  },
  {
    "temp": 178.78062438964844,
    "speed": 0,
    "load": 0.2836553865443987
  },
  {
    "temp": 178.76434326171875,
    "speed": 0,
    "load": 0.2790255380153823
  },
  {
    "temp": 178.76478576660156,
    "speed": 0,
    "load": 0.2760271599203996
  },
  {
    "temp": 178.76019287109375,
    "speed": 0,
    "load": 0.2803483518808152
  },
  {
    "temp": 178.75653076171875,
    "speed": 0,
    "load": 0.27721769239929017
  },
  {
    "temp": 178.75360107421875,
    "speed": 0,
    "load": 0.27761453655891977
  },
  {
    "temp": 178.75791931152344,
    "speed": 0,
    "load": 0.27783500553649176
  },
  {
    "temp": 178.7717742919922,
    "speed": 0,
    "load": 0.2832585423847682
  },
  {
    "temp": 178.7657928466797,
    "speed": 0,
    "load": 0.27814366210509345
  },
  {
    "temp": 178.77255249023438,
    "speed": 0,
    "load": 0.27342562598504827
  },
  {
    "temp": 178.77496337890625,
    "speed": 0,
    "load": 0.27073590445866724
  },
  {
    "temp": 178.78541564941406,
    "speed": 0,
    "load": 0.27739406758134777
  },
  {
    "temp": 178.77670288085938,
    "speed": 0,
    "load": 0.27743816137686217
  },
  {
    "temp": 178.78807067871094,
    "speed": 0,
    "load": 0.2760271599203996
  },
  {
    "temp": 178.7958984375,
    "speed": 0,
    "load": 0.2716177803689561
  },
  {
    "temp": 178.8021697998047,
    "speed": 0,
    "load": 0.2683107457053726
  },
  {
    "temp": 178.79864501953125,
    "speed": 0,
    "load": 0.2686194022739743
  },
  {
    "temp": 178.79527282714844,
    "speed": 0,
    "load": 0.2644304917001019
  },
  {
    "temp": 178.7931365966797,
    "speed": 0,
    "load": 0.26623833731619406
  },
  {
    "temp": 178.79995727539062,
    "speed": 0,
    "load": 0.2649155234507612
  },
  {
    "temp": 178.796875,
    "speed": 0,
    "load": 0.26187305156026497
  },
  {
    "temp": 178.8009796142578,
    "speed": 0,
    "load": 0.2649596172462756
  },
  {
    "temp": 178.79769897460938,
    "speed": 0,
    "load": 0.26588558695207887
  },
  {
    "temp": 178.80360412597656,
    "speed": 0,
    "load": 0.2646068668821595
  },
  {
    "temp": 178.7998046875,
    "speed": 0,
    "load": 0.2607707066724032
  },
  {
    "temp": 178.80967712402344,
    "speed": 0,
    "load": 0.25830145412359506
  },
  {
    "temp": 178.80465698242188,
    "speed": 0,
    "load": 0.25966836178454233
  },
  {
    "temp": 178.80917358398438,
    "speed": 0,
    "load": 0.25843373551013826
  },
  {
    "temp": 178.80032348632812,
    "speed": 0,
    "load": 0.25556763880169964
  },
  {
    "temp": 178.8057098388672,
    "speed": 0,
    "load": 0.26235808331092336
  },
  {
    "temp": 178.8100128173828,
    "speed": 0,
    "load": 0.25944789280697034
  },
  {
    "temp": 178.8162078857422,
    "speed": 0,
    "load": 0.2636808971763571
  },
  {
    "temp": 178.80987548828125,
    "speed": 0,
    "load": 0.25477395048243956
  },
  {
    "temp": 178.7962646484375,
    "speed": 0,
    "load": 0.2536716055945787
  },
  {
    "temp": 178.8074188232422,
    "speed": 0,
    "load": 0.25596448296132923
  },
  {
    "temp": 178.8028564453125,
    "speed": 0,
    "load": 0.2532747614349482
  },
  {
    "temp": 178.80772399902344,
    "speed": 0,
    "load": 0.2501000081579088
  },
  {
    "temp": 178.7945556640625,
    "speed": 0,
    "load": 0.25102597786371206
  },
  {
    "temp": 178.8063201904297,
    "speed": 0,
    "load": 0.24652841072123888
  },
  {
    "temp": 178.8105010986328,
    "speed": 0,
    "load": 0.24414734576345953
  },
  {
    "temp": 178.80531311035156,
    "speed": 0,
    "load": 0.2491740384521055
  },
  {
    "temp": 178.81320190429688,
    "speed": 0,
    "load": 0.2502763833399664
  },
  {
    "temp": 178.81600952148438,
    "speed": 0,
    "load": 0.24599928517506608
  },
  {
    "temp": 178.81825256347656,
    "speed": 0,
    "load": 0.24595519137955169
  },
  {
    "temp": 178.8115234375,
    "speed": 0,
    "load": 0.24648431692572448
  },
  {
    "temp": 178.80865478515625,
    "speed": 0,
    "load": 0.2487331004969615
  },
  {
    "temp": 178.81236267089844,
    "speed": 0,
    "load": 0.24608747276609488
  },
  {
    "temp": 178.8068084716797,
    "speed": 0,
    "load": 0.24780713079115735
  },
  {
    "temp": 178.81089782714844,
    "speed": 0,
    "load": 0.24264815671596818
  },
  {
    "temp": 178.80563354492188,
    "speed": 0,
    "load": 0.245205596855806
  },
  {
    "temp": 178.80142211914062,
    "speed": 0,
    "load": 0.24370640780831465
  },
  {
    "temp": 178.8107147216797,
    "speed": 0,
    "load": 0.24075212350884723
  },
  {
    "temp": 178.79693603515625,
    "speed": 0,
    "load": 0.2414576242370785
  },
  {
    "temp": 178.80299377441406,
    "speed": 0,
    "load": 0.2414576242370785
  },
  {
    "temp": 178.80490112304688,
    "speed": 0,
    "load": 0.2378419330048942
  },
  {
    "temp": 178.8093719482422,
    "speed": 0,
    "load": 0.2373569012542358
  },
  {
    "temp": 178.80441284179688,
    "speed": 0,
    "load": 0.23934112205238556
  },
  {
    "temp": 178.80044555664062,
    "speed": 0,
    "load": 0.23947340343892876
  },
  {
    "temp": 178.79473876953125,
    "speed": 0,
    "load": 0.23581361841123005
  },
  {
    "temp": 178.79270935058594,
    "speed": 0,
    "load": 0.23929702825687116
  },
  {
    "temp": 178.79107666015625,
    "speed": 0,
    "load": 0.2377537454138654
  },
  {
    "temp": 178.79556274414062,
    "speed": 0,
    "load": 0.23643093154843164
  },
  {
    "temp": 178.79336547851562,
    "speed": 0,
    "load": 0.23219792717904575
  },
  {
    "temp": 178.7745361328125,
    "speed": 0,
    "load": 0.23321208447587782
  },
  {
    "temp": 178.77655029296875,
    "speed": 0,
    "load": 0.2340057727951379
  },
  {
    "temp": 178.77943420410156,
    "speed": 0,
    "load": 0.2307869257225832
  },
  {
    "temp": 178.78045654296875,
    "speed": 0,
    "load": 0.23696005709460533
  },
  {
    "temp": 178.78128051757812,
    "speed": 0,
    "load": 0.230434175358468
  },
  {
    "temp": 178.782470703125,
    "speed": 0,
    "load": 0.22333507428064348
  },
  {
    "temp": 178.78289794921875,
    "speed": 0,
    "load": 0.2151336283149572
  },
  {
    "temp": 178.77468872070312,
    "speed": 0,
    "load": 0.2109888115366001
  },
  {
    "temp": 178.77667236328125,
    "speed": 0,
    "load": 0.2116943122648305
  },
  {
    "temp": 178.77098083496094,
    "speed": 0,
    "load": 0.2108124363545416
  },
  {
    "temp": 178.76515197753906,
    "speed": 0,
    "load": 0.20825499621470467
  },
  {
    "temp": 178.760498046875,
    "speed": 0,
    "load": 0.20596211884795323
  },
  {
    "temp": 178.75677490234375,
    "speed": 0,
    "load": 0.20821090241918938
  },
  {
    "temp": 178.7684783935547,
    "speed": 0,
    "load": 0.21275256335717785
  },
  {
    "temp": 178.76315307617188,
    "speed": 0,
    "load": 0.215001346928414
  },
  {
    "temp": 178.76744079589844,
    "speed": 0,
    "load": 0.2108565301500569
  },
  {
    "temp": 178.7804412841797,
    "speed": 0,
    "load": 0.2114297494917441
  },
  {
    "temp": 178.789794921875,
    "speed": 0,
    "load": 0.20640305680309812
  },
  {
    "temp": 178.78021240234375,
    "speed": 0,
    "load": 0.20516843052869316
  },
  {
    "temp": 178.7817840576172,
    "speed": 0,
    "load": 0.20067086338621998
  },
  {
    "temp": 178.7738037109375,
    "speed": 0,
    "load": 0.20516843052869316
  },
  {
    "temp": 178.7674102783203,
    "speed": 0,
    "load": 0.21023921701285442
  },
  {
    "temp": 178.7496795654297,
    "speed": 0,
    "load": 0.21001874803528153
  },
  {
    "temp": 178.74810791015625,
    "speed": 0,
    "load": 0.207725870668531
  },
  {
    "temp": 178.75540161132812,
    "speed": 0,
    "load": 0.20525661811972284
  },
  {
    "temp": 178.75735473632812,
    "speed": 0,
    "load": 0.20212595863819693
  },
  {
    "temp": 178.75425720214844,
    "speed": 0,
    "load": 0.1989512053611575
  },
  {
    "temp": 178.7688446044922,
    "speed": 0,
    "load": 0.20534480571075164
  },
  {
    "temp": 178.77450561523438,
    "speed": 0,
    "load": 0.1989071115656431
  },
  {
    "temp": 178.77651977539062,
    "speed": 0,
    "load": 0.20071495718173527
  },
  {
    "temp": 178.77813720703125,
    "speed": 0,
    "load": 0.20508024293766436
  },
  {
    "temp": 178.7794189453125,
    "speed": 0,
    "load": 0.20569755607486684
  },
  {
    "temp": 178.78981018066406,
    "speed": 0,
    "load": 0.2071967451223582
  },
  {
    "temp": 178.78875732421875,
    "speed": 0,
    "load": 0.2071967451223582
  },
  {
    "temp": 178.7879180908203,
    "speed": 0,
    "load": 0.20816680862367498
  },
  {
    "temp": 178.7935333251953,
    "speed": 0,
    "load": 0.19727564113160856
  },
  {
    "temp": 178.791748046875,
    "speed": 0,
    "load": 0.15190312554724894
  },
  {
    "temp": 178.78176879882812,
    "speed": 0,
    "load": 0.15097715584144566
  },
  {
    "temp": 178.77593994140625,
    "speed": 0,
    "load": 0.14868427847469512
  },
  {
    "temp": 178.78619384765625,
    "speed": 0,
    "load": 0.1495220605894687
  },
  {
    "temp": 178.79440307617188,
    "speed": 0,
    "load": 0.14520086862905401
  },
  {
    "temp": 178.7924346923828,
    "speed": 0,
    "load": 0.14409852374119225
  },
  {
    "temp": 178.79086303710938,
    "speed": 0,
    "load": 0.14445127410530834
  },
  {
    "temp": 178.78688049316406,
    "speed": 0,
    "load": 0.14370167958156266
  },
  {
    "temp": 178.79495239257812,
    "speed": 0,
    "load": 0.14833152811057904
  },
  {
    "temp": 178.78433227539062,
    "speed": 0,
    "load": 0.1502716551132144
  },
  {
    "temp": 178.79290771484375,
    "speed": 0,
    "load": 0.14908112263432471
  },
  {
    "temp": 178.79844665527344,
    "speed": 0,
    "load": 0.14683233906308857
  },
  {
    "temp": 178.80419921875,
    "speed": 0,
    "load": 0.14877246606572392
  },
  {
    "temp": 178.80027770996094,
    "speed": 0,
    "load": 0.1494779667939543
  },
  {
    "temp": 178.8031463623047,
    "speed": 0,
    "load": 0.1453331500155972
  },
  {
    "temp": 178.80796813964844,
    "speed": 0,
    "load": 0.14643549490345809
  },
  {
    "temp": 178.80328369140625,
    "speed": 0,
    "load": 0.145641806584198
  },
  {
    "temp": 178.79100036621094,
    "speed": 0,
    "load": 0.1499189047490992
  },
  {
    "temp": 178.79824829101562,
    "speed": 0,
    "load": 0.14789059015543415
  },
  {
    "temp": 178.80868530273438,
    "speed": 0,
    "load": 0.14449536790082274
  },
  {
    "temp": 178.81239318847656,
    "speed": 0,
    "load": 0.14330483542193306
  },
  {
    "temp": 178.7897491455078,
    "speed": 0,
    "load": 0.1463032135169149
  },
  {
    "temp": 178.7972412109375,
    "speed": 0,
    "load": 0.14665596388103008
  },
  {
    "temp": 178.8080291748047,
    "speed": 0,
    "load": 0.1413206146237833
  },
  {
    "temp": 178.81187438964844,
    "speed": 0,
    "load": 0.1452449624245684
  },
  {
    "temp": 178.81494140625,
    "speed": 0,
    "load": 0.1457740879707412
  },
  {
    "temp": 178.8108367919922,
    "speed": 0,
    "load": 0.14806696533749264
  },
  {
    "temp": 178.7970428466797,
    "speed": 0,
    "load": 0.14330483542193306
  },
  {
    "temp": 178.7945556640625,
    "speed": 0,
    "load": 0.1459063693572844
  },
  {
    "temp": 178.79095458984375,
    "speed": 0,
    "load": 0.1457299941752268
  },
  {
    "temp": 178.7896728515625,
    "speed": 0,
    "load": 0.14308436644436107
  },
  {
    "temp": 178.79718017578125,
    "speed": 0,
    "load": 0.14079148907760963
  },
  {
    "temp": 178.79946899414062,
    "speed": 0,
    "load": 0.1423788657161298
  },
  {
    "temp": 178.79649353027344,
    "speed": 0,
    "load": 0.14356939819501946
  },
  {
    "temp": 178.80264282226562,
    "speed": 0,
    "load": 0.1379694861646854
  },
  {
    "temp": 178.789306640625,
    "speed": 0,
    "load": 0.13554432741139166
  },
  {
    "temp": 178.78836059570312,
    "speed": 0,
    "load": 0.1375726420050558
  },
  {
    "temp": 178.79612731933594,
    "speed": 0,
    "load": 0.1418497401699561
  },
  {
    "temp": 178.7938232421875,
    "speed": 0,
    "load": 0.14352530439950506
  },
  {
    "temp": 178.7973175048828,
    "speed": 0,
    "load": 0.13867498689291669
  },
  {
    "temp": 178.8032989501953,
    "speed": 0,
    "load": 0.13999780075834956
  },
  {
    "temp": 178.80809020996094,
    "speed": 0,
    "load": 0.1415410836013553
  },
  {
    "temp": 178.81192016601562,
    "speed": 0,
    "load": 0.1381899551422574
  },
  {
    "temp": 178.81060791015625,
    "speed": 0,
    "load": 0.13294279347603943
  },
  {
    "temp": 178.80540466308594,
    "speed": 0,
    "load": 0.13254594931640895
  },
  {
    "temp": 178.8097686767578,
    "speed": 0,
    "load": 0.13338373143118343
  },
  {
    "temp": 178.7921600341797,
    "speed": 0,
    "load": 0.13320735624912583
  },
  {
    "temp": 178.7821044921875,
    "speed": 0,
    "load": 0.1298562277900288
  },
  {
    "temp": 178.79112243652344,
    "speed": 0,
    "load": 0.13113494785994728
  },
  {
    "temp": 178.78192138671875,
    "speed": 0,
    "load": 0.13192863617920736
  },
  {
    "temp": 178.78245544433594,
    "speed": 0,
    "load": 0.12831294494702306
  },
  {
    "temp": 178.79141235351562,
    "speed": 0,
    "load": 0.12527047305652594
  },
  {
    "temp": 178.7803955078125,
    "speed": 0,
    "load": 0.1262846303533589
  },
  {
    "temp": 178.77268981933594,
    "speed": 0,
    "load": 0.12227209496154501
  },
  {
    "temp": 178.7750701904297,
    "speed": 0,
    "load": 0.12959166501694153
  },
  {
    "temp": 178.7801971435547,
    "speed": 0,
    "load": 0.12412403437315156
  },
  {
    "temp": 178.78106689453125,
    "speed": 0,
    "load": 0.12011149898133677
  },
  {
    "temp": 178.79029846191406,
    "speed": 0,
    "load": 0.12019968657236557
  },
  {
    "temp": 178.77207946777344,
    "speed": 0,
    "load": 0.12050834314096726
  },
  {
    "temp": 178.7660369873047,
    "speed": 0,
    "load": 0.12002331139030797
  },
  {
    "temp": 178.76416015625,
    "speed": 0,
    "load": 0.11989103000376478
  },
  {
    "temp": 178.76824951171875,
    "speed": 0,
    "load": 0.1186564037293607
  },
  {
    "temp": 178.76296997070312,
    "speed": 0,
    "load": 0.11636352636260927
  },
  {
    "temp": 178.7587432861328,
    "speed": 0,
    "load": 0.1152611814747484
  },
  {
    "temp": 178.75537109375,
    "speed": 0,
    "load": 0.11839184095627342
  },
  {
    "temp": 178.76121520996094,
    "speed": 0,
    "load": 0.11579030702092119
  },
  {
    "temp": 178.74400329589844,
    "speed": 0,
    "load": 0.115217087679234
  },
  {
    "temp": 178.7521209716797,
    "speed": 0,
    "load": 0.12218390737051532
  },
  {
    "temp": 178.75860595703125,
    "speed": 0,
    "load": 0.1192737168665623
  },
  {
    "temp": 178.7637939453125,
    "speed": 0,
    "load": 0.11623124497606607
  },
  {
    "temp": 178.7593994140625,
    "speed": 0,
    "load": 0.12019968657236557
  },
  {
    "temp": 178.77296447753906,
    "speed": 0,
    "load": 0.11967056102619278
  },
  {
    "temp": 178.7686004638672,
    "speed": 0,
    "load": 0.12064062452751045
  },
  {
    "temp": 178.76324462890625,
    "speed": 0,
    "load": 0.11698083949981175
  },
  {
    "temp": 178.7760467529297,
    "speed": 0,
    "load": 0.11975874861722158
  },
  {
    "temp": 178.7777557373047,
    "speed": 0,
    "load": 0.11989103000376478
  },
  {
    "temp": 178.75115966796875,
    "speed": 0,
    "load": 0.11962646723067838
  },
  {
    "temp": 178.7407684326172,
    "speed": 0,
    "load": 0.11733358986392695
  },
  {
    "temp": 178.758056640625,
    "speed": 0,
    "load": 0.11574621322540679
  },
  {
    "temp": 178.7539520263672,
    "speed": 0,
    "load": 0.11671627672672535
  },
  {
    "temp": 178.7686004638672,
    "speed": 0,
    "load": 0.1193178106620767
  },
  {
    "temp": 178.77178955078125,
    "speed": 0,
    "load": 0.11310058549454105
  },
  {
    "temp": 178.77435302734375,
    "speed": 0,
    "load": 0.11746587125047014
  },
  {
    "temp": 178.7694854736328,
    "speed": 0,
    "load": 0.11596668220297968
  },
  {
    "temp": 178.7639617919922,
    "speed": 0,
    "load": 0.11755405884149894
  },
  {
    "temp": 178.76808166503906,
    "speed": 0,
    "load": 0.12593187998924282
  },
  {
    "temp": 178.7757110595703,
    "speed": 0,
    "load": 0.12910663326628313
  },
  {
    "temp": 178.76893615722656,
    "speed": 0,
    "load": 0.12438859714623796
  },
  {
    "temp": 178.77206420898438,
    "speed": 0,
    "load": 0.11693674570429735
  },
  {
    "temp": 178.78309631347656,
    "speed": 0,
    "load": 0.11989103000376478
  },
  {
    "temp": 178.77508544921875,
    "speed": 0,
    "load": 0.1187445913203895
  },
  {
    "temp": 178.78550720214844,
    "speed": 0,
    "load": 0.1337364817952995
  },
  {
    "temp": 178.7853240966797,
    "speed": 0,
    "load": 0.13325145004464023
  },
  {
    "temp": 178.77479553222656,
    "speed": 0,
    "load": 0.12341853364492028
  },
  {
    "temp": 178.77674865722656,
    "speed": 0,
    "load": 0.12491772269241075
  },
  {
    "temp": 178.76124572753906,
    "speed": 0,
    "load": 0.12787200699187906
  },
  {
    "temp": 178.7659149169922,
    "speed": 0,
    "load": 0.12747516283224858
  },
  {
    "temp": 178.77264404296875,
    "speed": 0,
    "load": 0.12747516283224858
  },
  {
    "temp": 178.7664794921875,
    "speed": 0,
    "load": 0.1261964427623301
  },
  {
    "temp": 178.7700958251953,
    "speed": 0,
    "load": 0.12557912962512763
  },
  {
    "temp": 178.7599334716797,
    "speed": 0,
    "load": 0.122933501894261
  },
  {
    "temp": 178.76486206054688,
    "speed": 0,
    "load": 0.12593187998924282
  },
  {
    "temp": 178.768798828125,
    "speed": 0,
    "load": 0.12800428837842226
  },
  {
    "temp": 178.77195739746094,
    "speed": 0,
    "load": 0.12363900262249228
  },
  {
    "temp": 178.74403381347656,
    "speed": 0,
    "load": 0.12725469385467658
  },
  {
    "temp": 178.75213623046875,
    "speed": 0,
    "load": 0.12482953510138195
  },
  {
    "temp": 178.7500762939453,
    "speed": 0,
    "load": 0.12549094203409883
  },
  {
    "temp": 178.73858642578125,
    "speed": 0,
    "load": 0.12509409787446835
  },
  {
    "temp": 178.74778747558594,
    "speed": 0,
    "load": 0.12346262744043468
  },
  {
    "temp": 178.74659729003906,
    "speed": 0,
    "load": 0.12072881211853925
  },
  {
    "temp": 178.7456512451172,
    "speed": 0,
    "load": 0.11799499679664383
  },
  {
    "temp": 178.74258422851562,
    "speed": 0,
    "load": 0.11984693620825038
  },
  {
    "temp": 178.75950622558594,
    "speed": 0,
    "load": 0.12161068802882813
  },
  {
    "temp": 178.7645263671875,
    "speed": 0,
    "load": 0.1193619044575911
  },
  {
    "temp": 178.75999450683594,
    "speed": 0,
    "load": 0.11777452781907183
  },
  {
    "temp": 178.7620086669922,
    "speed": 0,
    "load": 0.1189209665024471
  },
  {
    "temp": 178.7665252685547,
    "speed": 0,
    "load": 0.11949418584413429
  },
  {
    "temp": 178.7615966796875,
    "speed": 0,
    "load": 0.11407064899585873
  },
  {
    "temp": 178.76986694335938,
    "speed": 0,
    "load": 0.1115132088560209
  },
  {
    "temp": 178.77281188964844,
    "speed": 0,
    "load": 0.1154816504523204
  },
  {
    "temp": 178.78369140625,
    "speed": 0,
    "load": 0.1153934628612916
  },
  {
    "temp": 178.7754669189453,
    "speed": 0,
    "load": 0.1149525249061476
  },
  {
    "temp": 178.76873779296875,
    "speed": 0,
    "load": 0.1114691150605065
  },
  {
    "temp": 178.77191162109375,
    "speed": 0,
    "load": 0.10913214389824155
  },
  {
    "temp": 178.78329467773438,
    "speed": 0,
    "load": 0.1074124858731782
  },
  {
    "temp": 178.78355407714844,
    "speed": 0,
    "load": 0.1109840833098481
  },
  {
    "temp": 178.77520751953125,
    "speed": 0,
    "load": 0.10922033148927035
  },
  {
    "temp": 178.785400390625,
    "speed": 0,
    "load": 0.10992583221750074
  },
  {
    "temp": 178.7852325439453,
    "speed": 0,
    "load": 0.11464386833754592
  },
  {
    "temp": 178.7936248779297,
    "speed": 0,
    "load": 0.11349742965417065
  },
  {
    "temp": 178.8003387451172,
    "speed": 0,
    "load": 0.1112486460829345
  },
  {
    "temp": 178.78782653808594,
    "speed": 0,
    "load": 0.10661879755391812
  },
  {
    "temp": 178.78717041015625,
    "speed": 0,
    "load": 0.10516370230194116
  },
  {
    "temp": 178.78665161132812,
    "speed": 0,
    "load": 0.10560464025708605
  },
  {
    "temp": 178.80125427246094,
    "speed": 0,
    "load": 0.10855892455655347
  },
  {
    "temp": 178.79791259765625,
    "speed": 0,
    "load": 0.10560464025708605
  },
  {
    "temp": 178.80377197265625,
    "speed": 0,
    "load": 0.10930851908029915
  },
  {
    "temp": 178.80368041992188,
    "speed": 0,
    "load": 0.10789751762383659
  },
  {
    "temp": 178.79986572265625,
    "speed": 0,
    "load": 0.10952898805787115
  },
  {
    "temp": 178.79681396484375,
    "speed": 0,
    "load": 0.10952898805787115
  },
  {
    "temp": 178.79437255859375,
    "speed": 0,
    "load": 0.10679517273597572
  },
  {
    "temp": 178.8061981201172,
    "speed": 0,
    "load": 0.1034881380723931
  },
  {
    "temp": 178.81040954589844,
    "speed": 0,
    "load": 0.10586920303017244
  },
  {
    "temp": 178.80523681640625,
    "speed": 0,
    "load": 0.10807389280589419
  },
  {
    "temp": 178.80963134765625,
    "speed": 0,
    "load": 0.10441410777819549
  },
  {
    "temp": 178.80914306640625,
    "speed": 0,
    "load": 0.10683926653149012
  },
  {
    "temp": 178.81275939941406,
    "speed": 0,
    "load": 0.10992583221750074
  },
  {
    "temp": 178.81565856933594,
    "speed": 0,
    "load": 0.10569282784811485
  },
  {
    "temp": 178.81300354003906,
    "speed": 0,
    "load": 0.10406135741408029
  },
  {
    "temp": 178.8158416748047,
    "speed": 0,
    "load": 0.10269444975313302
  },
  {
    "temp": 178.80958557128906,
    "speed": 0,
    "load": 0.10406135741408029
  },
  {
    "temp": 178.81593322753906,
    "speed": 0,
    "load": 0.11001401980852954
  },
  {
    "temp": 178.8181915283203,
    "speed": 0,
    "load": 0.10842664317001027
  },
  {
    "temp": 178.8199920654297,
    "speed": 0,
    "load": 0.10944080046684235
  },
  {
    "temp": 178.82144165039062,
    "speed": 0,
    "load": 0.10331176289033461
  },
  {
    "temp": 178.82260131835938,
    "speed": 0,
    "load": 0.10419363880062349
  },
  {
    "temp": 178.8089141845703,
    "speed": 0,
    "load": 0.10494323332436917
  },
  {
    "temp": 178.80404663085938,
    "speed": 0,
    "load": 0.10825026798795179
  },
  {
    "temp": 178.79161071777344,
    "speed": 0,
    "load": 0.11301239790351225
  },
  {
    "temp": 178.79873657226562,
    "speed": 0,
    "load": 0.11336514826762745
  },
  {
    "temp": 178.787353515625,
    "speed": 0,
    "load": 0.10891167492066867
  },
  {
    "temp": 178.77952575683594,
    "speed": 0,
    "load": 0.10489913952885477
  },
  {
    "temp": 178.7890625,
    "speed": 0,
    "load": 0.09859372677028944
  },
  {
    "temp": 178.79669189453125,
    "speed": 0,
    "load": 0.10608967200774444
  },
  {
    "temp": 178.8008575439453,
    "speed": 0,
    "load": 0.107721142441779
  },
  {
    "temp": 178.797607421875,
    "speed": 0,
    "load": 0.10075432275049678
  },
  {
    "temp": 178.7949981689453,
    "speed": 0,
    "load": 0.10683926653149012
  },
  {
    "temp": 178.79290771484375,
    "speed": 0,
    "load": 0.10899986251169747
  },
  {
    "temp": 178.79844665527344,
    "speed": 0,
    "load": 0.10891167492066867
  },
  {
    "temp": 178.78712463378906,
    "speed": 0,
    "load": 0.10952898805787115
  },
  {
    "temp": 178.78662109375,
    "speed": 0,
    "load": 0.10238579318453134
  },
  {
    "temp": 178.80123901367188,
    "speed": 0,
    "load": 0.10445820157370989
  },
  {
    "temp": 178.8064422607422,
    "speed": 0,
    "load": 0.10101888552358407
  },
  {
    "temp": 178.80206298828125,
    "speed": 0,
    "load": 0.10181257384284415
  },
  {
    "temp": 178.80709838867188,
    "speed": 0,
    "load": 0.10331176289033461
  },
  {
    "temp": 178.77508544921875,
    "speed": 0,
    "load": 0.10529598368848525
  },
  {
    "temp": 178.7769775390625,
    "speed": 0,
    "load": 0.107721142441779
  },
  {
    "temp": 178.7870330810547,
    "speed": 0,
    "load": 0.10869120594309667
  },
  {
    "temp": 178.78614807128906,
    "speed": 0,
    "load": 0.10904395630721275
  },
  {
    "temp": 178.77728271484375,
    "speed": 0,
    "load": 0.10873529973861107
  },
  {
    "temp": 178.7872772216797,
    "speed": 0,
    "load": 0.10454638916473957
  },
  {
    "temp": 178.7867431640625,
    "speed": 0,
    "load": 0.10542826507502845
  },
  {
    "temp": 178.7859649658203,
    "speed": 0,
    "load": 0.1075447672597214
  },
  {
    "temp": 178.79421997070312,
    "speed": 0,
    "load": 0.10825026798795179
  },
  {
    "temp": 178.79229736328125,
    "speed": 0,
    "load": 0.10657470375840372
  },
  {
    "temp": 178.79928588867188,
    "speed": 0,
    "load": 0.10688336032700452
  },
  {
    "temp": 178.80487060546875,
    "speed": 0,
    "load": 0.10406135741408029
  },
  {
    "temp": 178.8129119873047,
    "speed": 0,
    "load": 0.1033999504813643
  },
  {
    "temp": 178.8072509765625,
    "speed": 0,
    "load": 0.09696225633625488
  },
  {
    "temp": 178.80271911621094,
    "speed": 0,
    "load": 0.09868191436131823
  },
  {
    "temp": 178.80471801757812,
    "speed": 0,
    "load": 0.10322357529930581
  },
  {
    "temp": 178.80921936035156,
    "speed": 0,
    "load": 0.09678588115419728
  },
  {
    "temp": 178.8128204345703,
    "speed": 0,
    "load": 0.09700635013177017
  },
  {
    "temp": 178.8071746826172,
    "speed": 0,
    "load": 0.09824097640617424
  },
  {
    "temp": 178.8058624267578,
    "speed": 0,
    "load": 0.09568353626633641
  },
  {
    "temp": 178.8101348876953,
    "speed": 0,
    "load": 0.09665359976765409
  },
  {
    "temp": 178.79647827148438,
    "speed": 0,
    "load": 0.09912285231646312
  },
  {
    "temp": 178.79388427734375,
    "speed": 0,
    "load": 0.09308200233098418
  },
  {
    "temp": 178.79202270507812,
    "speed": 0,
    "load": 0.06565566152100288
  },
  {
    "temp": 178.79905700683594,
    "speed": 0,
    "load": 0.048767737838971925
  },
  {
    "temp": 178.7955322265625,
    "speed": 0,
    "load": 0.04228594989834811
  },
  {
    "temp": 178.80186462402344,
    "speed": 0,
    "load": 0.041712730556660915
  },
  {
    "temp": 178.79840087890625,
    "speed": 0,
    "load": 0.04396151412789706
  },
  {
    "temp": 178.80877685546875,
    "speed": 0,
    "load": 0.043741045150325064
  },
  {
    "temp": 178.81246948242188,
    "speed": 0,
    "load": 0.04294735683106499
  },
  {
    "temp": 178.806884765625,
    "speed": 0,
    "load": 0.04647486047222049
  },
  {
    "temp": 178.814208984375,
    "speed": 0,
    "load": 0.04396151412789706
  },
  {
    "temp": 178.80828857421875,
    "speed": 0,
    "load": 0.041712730556660915
  },
  {
    "temp": 178.81207275390625,
    "speed": 0,
    "load": 0.03950804078093917
  },
  {
    "temp": 178.8038787841797,
    "speed": 0,
    "load": 0.04316782580863787
  },
  {
    "temp": 178.8085479736328,
    "speed": 0,
    "load": 0.046122110108105296
  },
  {
    "temp": 178.8037567138672,
    "speed": 0,
    "load": 0.04272688785349299
  },
  {
    "temp": 178.7913818359375,
    "speed": 0,
    "load": 0.04797404951971096
  },
  {
    "temp": 178.79747009277344,
    "speed": 0,
    "load": 0.04413788930995466
  },
  {
    "temp": 178.8034210205078,
    "speed": 0,
    "load": 0.04219776230731931
  },
  {
    "temp": 178.8081817626953,
    "speed": 0,
    "load": 0.04100722982842964
  },
  {
    "temp": 178.7996826171875,
    "speed": 0,
    "load": 0.04210957471629051
  },
  {
    "temp": 178.80519104003906,
    "speed": 0,
    "load": 0.04188910573871851
  },
  {
    "temp": 178.80960083007812,
    "speed": 0,
    "load": 0.04012535391814076
  },
  {
    "temp": 178.80459594726562,
    "speed": 0,
    "load": 0.03831750830204861
  },
  {
    "temp": 178.80592346191406,
    "speed": 0,
    "load": 0.04052219807777124
  },
  {
    "temp": 178.8101806640625,
    "speed": 0,
    "load": 0.04462292106061394
  },
  {
    "temp": 178.81358337402344,
    "speed": 0,
    "load": 0.04713626740493737
  },
  {
    "temp": 178.7946014404297,
    "speed": 0,
    "load": 0.04449063967407074
  },
  {
    "temp": 178.80113220214844,
    "speed": 0,
    "load": 0.04695989222287977
  },
  {
    "temp": 178.79782104492188,
    "speed": 0,
    "load": 0.04673942324530689
  },
  {
    "temp": 178.80369567871094,
    "speed": 0,
    "load": 0.04135998019254572
  },
  {
    "temp": 178.78826904296875,
    "speed": 0,
    "load": 0.04193319953423291
  },
  {
    "temp": 178.78753662109375,
    "speed": 0,
    "load": 0.04281507544452179
  },
  {
    "temp": 178.7869415283203,
    "speed": 0,
    "load": 0.04550479697090282
  },
  {
    "temp": 178.79461669921875,
    "speed": 0,
    "load": 0.044314264492013145
  },
  {
    "temp": 178.80113220214844,
    "speed": 0,
    "load": 0.04131588639703132
  },
  {
    "temp": 178.8063507080078,
    "speed": 0,
    "load": 0.03955213457645357
  },
  {
    "temp": 178.802001953125,
    "speed": 0,
    "load": 0.04581345353950361
  },
  {
    "temp": 178.80255126953125,
    "speed": 0,
    "load": 0.04475520244715714
  },
  {
    "temp": 178.7989501953125,
    "speed": 0,
    "load": 0.04321191960415227
  },
  {
    "temp": 178.78753662109375,
    "speed": 0,
    "load": 0.04069857325982884
  },
  {
    "temp": 178.7932891845703,
    "speed": 0,
    "load": 0.043608763763781866
  },
  {
    "temp": 178.7830047607422,
    "speed": 0,
    "load": 0.04250641887592099
  },
  {
    "temp": 178.7833251953125,
    "speed": 0,
    "load": 0.04316782580863787
  },
  {
    "temp": 178.7835693359375,
    "speed": 0,
    "load": 0.046254391494648495
  },
  {
    "temp": 178.79928588867188,
    "speed": 0,
    "load": 0.041668636761146516
  },
  {
    "temp": 178.80487060546875,
    "speed": 0,
    "load": 0.04294735683106499
  },
  {
    "temp": 178.79226684570312,
    "speed": 0,
    "load": 0.04312373201312347
  },
  {
    "temp": 178.7907257080078,
    "speed": 0,
    "load": 0.042330043693863395
  },
  {
    "temp": 178.78948974609375,
    "speed": 0,
    "load": 0.04083085464637204
  },
  {
    "temp": 178.7945556640625,
    "speed": 0,
    "load": 0.03955213457645357
  },
  {
    "temp": 178.80108642578125,
    "speed": 0,
    "load": 0.04396151412789706
  },
  {
    "temp": 178.78924560546875,
    "speed": 0,
    "load": 0.04078676085085764
  },
  {
    "temp": 178.7943878173828,
    "speed": 0,
    "load": 0.04634257908567729
  },
  {
    "temp": 178.79241943359375,
    "speed": 0,
    "load": 0.05128108418329447
  },
  {
    "temp": 178.7823028564453,
    "speed": 0,
    "load": 0.04197729332974731
  },
  {
    "temp": 178.7827606201172,
    "speed": 0,
    "load": 0.04695989222287977
  },
  {
    "temp": 178.77658081054688,
    "speed": 0,
    "load": 0.04678351704082129
  },
  {
    "temp": 178.78671264648438,
    "speed": 0,
    "load": 0.04510795281127322
  },
  {
    "temp": 178.78628540039062,
    "speed": 0,
    "load": 0.04859136265691344
  },
  {
    "temp": 178.79249572753906,
    "speed": 0,
    "load": 0.05088424002366487
  },
  {
    "temp": 178.79090881347656,
    "speed": 0,
    "load": 0.04863545645242784
  },
  {
    "temp": 178.78964233398438,
    "speed": 0,
    "load": 0.04837089367934144
  },
  {
    "temp": 178.78863525390625,
    "speed": 0,
    "load": 0.04501976522024442
  },
  {
    "temp": 178.79400634765625,
    "speed": 0,
    "load": 0.048238612292798244
  },
  {
    "temp": 178.7921142578125,
    "speed": 0,
    "load": 0.04916458199860152
  },
  {
    "temp": 178.79913330078125,
    "speed": 0,
    "load": 0.04603392251707561
  },
  {
    "temp": 178.79388427734375,
    "speed": 0,
    "load": 0.04537251558435962
  },
  {
    "temp": 178.80055236816406,
    "speed": 0,
    "load": 0.04598982872156121
  },
  {
    "temp": 178.80589294433594,
    "speed": 0,
    "load": 0.04409379551444026
  },
  {
    "temp": 178.81016540527344,
    "speed": 0,
    "load": 0.04718036120045177
  },
  {
    "temp": 178.79241943359375,
    "speed": 0,
    "load": 0.04982598893131751
  },
  {
    "temp": 178.79937744140625,
    "speed": 0,
    "load": 0.04210957471629051
  },
  {
    "temp": 178.79641723632812,
    "speed": 0,
    "load": 0.04598982872156121
  },
  {
    "temp": 178.7767791748047,
    "speed": 0,
    "load": 0.04078676085085764
  },
  {
    "temp": 178.786865234375,
    "speed": 0,
    "load": 0.04524023419781642
  },
  {
    "temp": 178.77786254882812,
    "speed": 0,
    "load": 0.04268279405797859
  },
  {
    "temp": 178.7734375,
    "speed": 0,
    "load": 0.04546070317538842
  },
  {
    "temp": 178.78419494628906,
    "speed": 0,
    "load": 0.04969370754477431
  },
  {
    "temp": 178.77572631835938,
    "speed": 0,
    "load": 0.04735673638250937
  },
  {
    "temp": 178.7942657470703,
    "speed": 0,
    "load": 0.04140407398806012
  },
  {
    "temp": 178.79232788085938,
    "speed": 0,
    "load": 0.039684415962996766
  },
  {
    "temp": 178.790771484375,
    "speed": 0,
    "load": 0.04524023419781642
  },
  {
    "temp": 178.78170776367188,
    "speed": 0,
    "load": 0.04471110865164274
  },
  {
    "temp": 178.7908172607422,
    "speed": 0,
    "load": 0.04718036120045177
  }
]