[
  {
    "temp": 178.79147338867188,
    "speed": 0,
    "load": -0.003527503641155505
  },
  {
    "temp": 178.7986297607422,
    "speed": 0,
    "load": -0.006393600349595019
  },
  {
    "temp": 178.80435180664062,
    "speed": 0,
    "load": -0.0001322813865431982
  },
  {
    "temp": 178.80039978027344,
    "speed": 0,
    "load": 0.0015873766385201549
  },
  {
    "temp": 178.81005859375,
    "speed": 0,
    "load": 0.004012535391813898
  },
  {
    "temp": 178.81349182128906,
    "speed": 0,
    "load": 0.005203067870704459
  },
  {
    "temp": 178.8162384033203,
    "speed": 0,
    "load": 0.004541660937986691
  },
  {
    "temp": 178.80484008789062,
    "speed": 0,
    "load": 0.007584132828483803
  },
  {
    "temp": 178.80931091308594,
    "speed": 0.49980008602142334,
    "load": 0.008289633556714193
  },
  {
    "temp": 178.81289672851562,
    "speed": 0.4997001886367798,
    "load": 0.05092833381917927
  },
  {
    "temp": 178.81576538085938,
    "speed": 0.4997001886367798,
    "load": 0.5229083210057546
  },
  {
    "temp": 178.81805419921875,
    "speed": 0.49980008602142334,
    "load": 2.274402066430378
  },
  {
    "temp": 178.8076934814453,
    "speed": 0.49980008602142334,
    "load": 2.915261290437263
  },
  {
    "temp": 178.8115997314453,
    "speed": 0.49980008602142334,
    "load": 3.5768886921314493
  },
  {
    "temp": 178.81472778320312,
    "speed": 0.49980008602142334,
    "load": 4.140495586397034
  },
  {
    "temp": 178.81922912597656,
    "speed": 0.49980008602142334,
    "load": 5.638450007613622
  },
  {
    "temp": 178.82083129882812,
    "speed": 0.49980008602142334,
    "load": 6.561950460868074
  },
  {
    "temp": 178.82211303710938,
    "speed": 0.49980008602142334,
    "load": 7.84344843990427
  },
  {
    "temp": 178.80859375,
    "speed": 0.4999000132083893,
    "load": 8.509397033558871
  },
  {
    "temp": 178.81231689453125,
    "speed": 0.4999000132083893,
    "load": 9.086011597501214
  },
  {
    "temp": 178.81529235839844,
    "speed": 0.49980008602142334,
    "load": 9.496348458558602
  },
  {
    "temp": 178.8176727294922,
    "speed": 0.49980008602142334,
    "load": 9.422006319321257
  },
  {
    "temp": 178.8142852783203,
    "speed": 0.4997001886367798,
    "load": 9.280862079879531
  },
  {
    "temp": 178.808349609375,
    "speed": 0.49980008602142334,
    "load": 9.004482169595013
  },
  {
    "temp": 178.81211853027344,
    "speed": 0.49980008602142334,
    "load": 8.7653615165202
  },
  {
    "temp": 178.80389404296875,
    "speed": 0.49980008602142334,
    "load": 8.661652909470236
  },
  {
    "temp": 178.80856323242188,
    "speed": 0.49980008602142334,
    "load": 8.724310192896256
  },
  {
    "temp": 178.8123016357422,
    "speed": 0.49980008602142334,
    "load": 8.851653074341963
  },
  {
    "temp": 178.8023223876953,
    "speed": 0.49980008602142334,
    "load": 8.692474472534832
  },
  {
    "temp": 178.8072967529297,
    "speed": 0.49980008602142334,
    "load": 8.845744505743026
  },
  {
    "temp": 178.811279296875,
    "speed": 0.4999000132083893,
    "load": 9.074414929280918
  },
  {
    "temp": 178.80848693847656,
    "speed": 0.4999000132083893,
    "load": 9.28703521125155
  },
  {
    "temp": 178.8037109375,
    "speed": 0.49980008602142334,
    "load": 9.696534290194164
  },
  {
    "temp": 178.80841064453125,
    "speed": 0.49980008602142334,
    "load": 10.090953291070841
  },
  {
    "temp": 178.79510498046875,
    "speed": 0.49980008602142334,
    "load": 10.744026496435223
  },
  {
    "temp": 178.78448486328125,
    "speed": 0.49980008602142334,
    "load": 11.806113748991562
  },
  {
    "temp": 178.7845001220703,
    "speed": 0.49980008602142334,
    "load": 12.31694037002636
  },
  {
    "temp": 178.7930450439453,
    "speed": 0.4999000132083893,
    "load": 12.636620387506058
  },
  {
    "temp": 178.79135131835938,
    "speed": 0.4997001886367798,
    "load": 12.970719076118977
  },
  {
    "temp": 178.78036499023438,
    "speed": 0.49980008602142334,
    "load": 12.915293175157325
  },
  {
    "temp": 178.7812042236328,
    "speed": 0.49980008602142334,
    "load": 12.849196575681178
  },
  {
    "temp": 178.78187561035156,
    "speed": 0.49980008602142334,
    "load": 12.783320445182605
  },
  {
    "temp": 178.7811279296875,
    "speed": 0.49980008602142334,
    "load": 12.381934624614649
  },
  {
    "temp": 178.76473999023438,
    "speed": 0.49980008602142334,
    "load": 12.3442344294498
  },
  {
    "temp": 178.76870727539062,
    "speed": 0.49980008602142334,
    "load": 12.76012710874201
  },
  {
    "temp": 178.74195861816406,
    "speed": 0.49980008602142334,
    "load": 13.136952685208422
  },
  {
    "temp": 178.75048828125,
    "speed": 0,
    "load": 13.371840333913847
  },
  {
    "temp": 178.75730895996094,
    "speed": 0,
    "load": 13.9869487813403
  },
  {
    "temp": 178.75173950195312,
    "speed": 0,
    "load": 13.37087027041253
  },
  {
    "temp": 178.749755859375,
    "speed": 0,
    "load": 11.952196493530908
  },
  {
    "temp": 178.7567138671875,
    "speed": 0,
    "load": 9.474962967734099
  },
  {
    "temp": 178.75990295410156,
    "speed": 0,
    "load": 8.531488025111605
  },
  {
    "temp": 178.7477569580078,
    "speed": 0,
    "load": 7.728804571566725
  },
  {
    "temp": 178.72950744628906,
    "speed": 0,
    "load": 6.420277095880175
  },
  {
    "temp": 178.7319793701172,
    "speed": 0,
    "load": 5.883214666514283
  },
  {
    "temp": 178.73553466796875,
    "speed": 0,
    "load": 5.407883550868609
  },
  {
    "temp": 178.74534606933594,
    "speed": 0,
    "load": 4.61864870495563
  },
  {
    "temp": 178.73611450195312,
    "speed": 0,
    "load": 4.287768863415266
  },
  {
    "temp": 178.73135375976562,
    "speed": 0,
    "load": 3.9875783035529526
  },
  {
    "temp": 178.74200439453125,
    "speed": 0,
    "load": 3.4849531284838395
  },
  {
    "temp": 178.74197387695312,
    "speed": 0,
    "load": 3.275948537745391
  },
  {
    "temp": 178.7333984375,
    "speed": 0,
    "load": 3.0859042790781483
  },
  {
    "temp": 178.73509216308594,
    "speed": 0,
    "load": 2.9246532688818387
  },
  {
    "temp": 178.7364501953125,
    "speed": 0,
    "load": 2.6454072618888844
  },
  {
    "temp": 178.72900390625,
    "speed": 0,
    "load": 2.528205953411499
  },
  {
    "temp": 178.74046325683594,
    "speed": 0,
    "load": 2.4199997792190633
  },
  {
    "temp": 178.74928283691406,
    "speed": 0,
    "load": 2.2099369373882656
  },
  {
    "temp": 178.75634765625,
    "speed": 0,
    "load": 2.121396595995268
  },
  {
    "temp": 178.75344848632812,
    "speed": 0,
    "load": 2.0332530987619
  },
  {
    "temp": 178.7425994873047,
    "speed": 0,
    "load": 1.9572353952950046
  },
  {
    "temp": 178.75086975097656,
    "speed": 0,
    "load": 1.8180312828559142
  },
  {
    "temp": 178.7576141357422,
    "speed": 0,
    "load": 1.7512732764470496
  },
  {
    "temp": 178.7459259033203,
    "speed": 0,
    "load": 1.6941277174603346
  },
  {
    "temp": 178.7451171875,
    "speed": 0,
    "load": 1.585216042539665
  },
  {
    "temp": 178.7541961669922,
    "speed": 0,
    "load": 1.532876707264025
  },
  {
    "temp": 178.75172424316406,
    "speed": 0,
    "load": 1.484638094971226
  },
  {
    "temp": 178.749755859375,
    "speed": 0,
    "load": 1.4411175187984728
  },
  {
    "temp": 178.76524353027344,
    "speed": 0,
    "load": 1.3497110806970358
  },
  {
    "temp": 178.77902221679688,
    "speed": 0,
    "load": 1.3049558782498796
  },
  {
    "temp": 178.78866577148438,
    "speed": 0,
    "load": 1.270077685997956
  },
  {
    "temp": 178.779296875,
    "speed": 0,
    "load": 1.2351113061550052
  },
  {
    "temp": 178.76327514648438,
    "speed": 0,
    "load": 1.165839953401818
  },
  {
    "temp": 178.77093505859375,
    "speed": 0,
    "load": 1.1336514826762762
  },
  {
    "temp": 178.78219604492188,
    "speed": 0,
    "load": 1.1016834809283065
  },
  {
    "temp": 178.79119873046875,
    "speed": 0,
    "load": 1.0381443215919983
  },
  {
    "temp": 178.80416870117188,
    "speed": 0,
    "load": 1.0059558508664548
  },
  {
    "temp": 178.8002471923828,
    "speed": 0,
    "load": 0.9826302330393162
  },
  {
    "temp": 178.80564880371094,
    "speed": 0,
    "load": 0.9276452700328068
  },
  {
    "temp": 178.81341552734375,
    "speed": 0,
    "load": 0.9025118065895779
  },
  {
    "temp": 178.81617736816406,
    "speed": 0,
    "load": 0.8784806880342071
  },
  {
    "temp": 178.8098602294922,
    "speed": 0,
    "load": 0.8301097943548648
  },
  {
    "temp": 178.8161163330078,
    "speed": 0,
    "load": 0.8078865214155861
  },
  {
    "temp": 178.809814453125,
    "speed": 0,
    "load": 0.7914836294842136
  },
  {
    "temp": 178.81329345703125,
    "speed": 0,
    "load": 0.7466843332415412
  },
  {
    "temp": 178.80755615234375,
    "speed": 0,
    "load": 0.7286940646716502
  },
  {
    "temp": 178.81149291992188,
    "speed": 0,
    "load": 0.7102187643510991
  },
  {
    "temp": 178.81033325195312,
    "speed": 0,
    "load": 0.6694320035002423
  },
  {
    "temp": 178.796630859375,
    "speed": 0,
    "load": 0.6563361462324533
  },
  {
    "temp": 178.80274963378906,
    "speed": 0,
    "load": 0.6467677926058197
  },
  {
    "temp": 178.8115692138672,
    "speed": 0,
    "load": 0.6096408167826599
  },
  {
    "temp": 178.814697265625,
    "speed": 0,
    "load": 0.5888285452998439
  },
  {
    "temp": 178.81719970703125,
    "speed": 0,
    "load": 0.5726020285505289
  },
  {
    "temp": 178.81919860839844,
    "speed": 0,
    "load": 0.5547881351626955
  },
  {
    "temp": 178.82208251953125,
    "speed": 0,
    "load": 0.5138690929252938
  },
  {
    "temp": 178.82310485839844,
    "speed": 0,
    "load": 0.5050062400268924
  },
  {
    "temp": 178.8239288330078,
    "speed": 0,
    "load": 0.49283635246490576
  },
  {
    "temp": 178.8251190185547,
    "speed": 0,
    "load": 0.47894680687785574
  },
  {
    "temp": 178.8170166015625,
    "speed": 0,
    "load": 0.4654100116549227
  },
  {
    "temp": 178.81053161621094,
    "speed": 0,
    "load": 0.45169684124993204
  },
  {
    "temp": 178.81654357910156,
    "speed": 0,
    "load": 0.4335742912934979
  },
  {
    "temp": 178.8186798095703,
    "speed": 0,
    "load": 0.4218894354821696
  },
  {
    "temp": 178.8203887939453,
    "speed": 0,
    "load": 0.4107337052170177
  },
  {
    "temp": 178.82176208496094,
    "speed": 0,
    "load": 0.3994015997698046
  },
  {
    "temp": 178.81690979003906,
    "speed": 0,
    "load": 0.3801326111299961
  },
  {
    "temp": 178.8189697265625,
    "speed": 0,
    "load": 0.36245099912870415
  },
  {
    "temp": 178.82061767578125,
    "speed": 0,
    "load": 0.35217714477383844
  },
  {
    "temp": 178.81341552734375,
    "speed": 0,
    "load": 0.3449016685139572
  },
  {
    "temp": 178.81838989257812,
    "speed": 0,
    "load": 0.3346719079546059
  },
  {
    "temp": 178.82015991210938,
    "speed": 0,
    "load": 0.32435395980422577
  },
  {
    "temp": 178.8215789794922,
    "speed": 0,
    "load": 0.3070250981670508
  },
  {
    "temp": 178.8236083984375,
    "speed": 0,
    "load": 0.2993968715430544
  },
  {
    "temp": 178.82432556152344,
    "speed": 0,
    "load": 0.28242076026999463
  },
  {
    "temp": 178.8249053955078,
    "speed": 0,
    "load": 0.2767326606486318
  },
  {
    "temp": 178.81890869140625,
    "speed": 0,
    "load": 0.23673958811703244
  },
  {
    "temp": 178.81204223632812,
    "speed": 0,
    "load": 0.19251351121604898
  },
  {
    "temp": 178.80654907226562,
    "speed": 0,
    "load": 0.17126030177808893
  },
  {
    "temp": 178.81068420410156,
    "speed": 0,
    "load": 0.16707139120421566
  },
  {
    "temp": 178.80810546875,
    "speed": 0,
    "load": 0.1611628226052808
  },
  {
    "temp": 178.80340576171875,
    "speed": 0,
    "load": 0.1615596667649104
  },
  {
    "temp": 178.80816650390625,
    "speed": 0,
    "load": 0.15970772735330385
  },
  {
    "temp": 178.80650329589844,
    "speed": 0,
    "load": 0.1493456854074111
  },
  {
    "temp": 178.81065368652344,
    "speed": 0,
    "load": 0.14502449344699464
  },
  {
    "temp": 178.81396484375,
    "speed": 0,
    "load": 0.13968914418974876
  },
  {
    "temp": 178.8033905029297,
    "speed": 0,
    "load": 0.1385427055063726
  },
  {
    "temp": 178.79962158203125,
    "speed": 0,
    "load": 0.1269901310815893
  },
  {
    "temp": 178.79661560058594,
    "speed": 0,
    "load": 0.12139021905125524
  },
  {
    "temp": 178.7922821044922,
    "speed": 0,
    "load": 0.11759815263701334
  },
  {
    "temp": 178.79074096679688,
    "speed": 0,
    "load": 0.11843593475178871
  },
  {
    "temp": 178.79803466796875,
    "speed": 0,
    "load": 0.1151289000882052
  },
  {
    "temp": 178.79489135742188,
    "speed": 0,
    "load": 0.10780933003280779
  },
  {
    "temp": 178.79283142089844,
    "speed": 0,
    "load": 0.10203304282041614
  },
  {
    "temp": 178.79971313476562,
    "speed": 0,
    "load": 0.09647722458559649
  },
  {
    "temp": 178.79669189453125,
    "speed": 0,
    "load": 0.09471347276501874
  },
  {
    "temp": 178.78549194335938,
    "speed": 0,
    "load": 0.09272925196686899
  },
  {
    "temp": 178.7682342529297,
    "speed": 0,
    "load": 0.09171509467003602
  },
  {
    "temp": 178.76295471191406,
    "speed": 0,
    "load": 0.08629155782176134
  },
  {
    "temp": 178.7758026123047,
    "speed": 0,
    "load": 0.07786964287850218
  },
  {
    "temp": 178.7860870361328,
    "speed": 0,
    "load": 0.07262248121228332
  },
  {
    "temp": 178.77015686035156,
    "speed": 0,
    "load": 0.06768397611466703
  },
  {
    "temp": 178.7815704345703,
    "speed": 0,
    "load": 0.06900678998009901
  },
  {
    "temp": 178.7906951904297,
    "speed": 0,
    "load": 0.0659202242940875
  },
  {
    "temp": 178.79702758789062,
    "speed": 0,
    "load": 0.06287775240359217
  },
  {
    "temp": 178.79454040527344,
    "speed": 0,
    "load": 0.061246281969557614
  },
  {
    "temp": 178.8010711669922,
    "speed": 0,
    "load": 0.05904159219383587
  },
  {
    "temp": 178.7977752685547,
    "speed": 0,
    "load": 0.05308892979938662
  },
  {
    "temp": 178.79513549804688,
    "speed": 0,
    "load": 0.05172202213843846
  },
  {
    "temp": 178.7913360595703,
    "speed": 0,
    "load": 0.04779767433765336
  },
  {
    "temp": 178.78997802734375,
    "speed": 0,
    "load": 0.043696951354810665
  },
  {
    "temp": 178.7888946533203,
    "speed": 0,
    "load": 0.04594573492604681
  },
  {
    "temp": 178.78802490234375,
    "speed": 0,
    "load": 0.04497567142472825
  },
  {
    "temp": 178.79586791992188,
    "speed": 0,
    "load": 0.0388466338482214
  },
  {
    "temp": 178.80715942382812,
    "speed": 0,
    "load": 0.02592715176248994
  },
  {
    "temp": 178.79409790039062,
    "speed": 0,
    "load": 0.025530307602860347
  },
  {
    "temp": 178.7921905517578,
    "speed": 0,
    "load": 0.025971245558006117
  },
  {
    "temp": 178.78944396972656,
    "speed": 0,
    "load": 0.02262011709890821
  },
  {
    "temp": 178.78846740722656,
    "speed": 0,
    "load": 0.02257602330339381
  },
  {
    "temp": 178.78768920898438,
    "speed": 0,
    "load": 0.020503614914213486
  },
  {
    "temp": 178.7870635986328,
    "speed": 0,
    "load": 0.0156092036121116
  },
  {
    "temp": 178.79298400878906,
    "speed": 0,
    "load": 0.0046739423245298894
  },
  {
    "temp": 178.7913055419922,
    "speed": 0,
    "load": 0.007363663850911806
  },
  {
    "temp": 178.7899627685547,
    "speed": 0,
    "load": -0.0008818759102897644
  },
  {
    "temp": 178.78118896484375,
    "speed": 0,
    "load": -0.0057321934168772515
  },
  {
    "temp": 178.7733154296875,
    "speed": 0,
    "load": -0.0033952222546123068
  },
  {
    "temp": 178.76702880859375,
    "speed": 0,
    "load": -0.007187288668854208
  },
  {
    "temp": 178.76480102539062,
    "speed": 0,
    "load": -0.0074518514419406046
  },
  {
    "temp": 178.7687530517578,
    "speed": 0,
    "load": -0.008025070783629573
  },
  {
    "temp": 178.77191162109375,
    "speed": 0,
    "load": -0.015785578794170974
  },
  {
    "temp": 178.77444458007812,
    "speed": 0,
    "load": -0.019445363821869677
  },
  {
    "temp": 178.784912109375,
    "speed": 0,
    "load": -0.020239052141128866
  },
  {
    "temp": 178.77630615234375,
    "speed": 0,
    "load": -0.019577645208412875
  },
  {
    "temp": 178.78648376464844,
    "speed": 0,
    "load": -0.022267366734793015
  },
  {
    "temp": 178.78610229492188,
    "speed": 0,
    "load": -0.023634274395741173
  },
  {
    "temp": 178.77529907226562,
    "speed": 0,
    "load": -0.02301696125853958
  },
  {
    "temp": 178.77716064453125,
    "speed": 0,
    "load": -0.02658855869520771
  },
  {
    "temp": 178.7786407470703,
    "speed": 0,
    "load": -0.030689281678052183
  },
  {
    "temp": 178.75686645507812,
    "speed": 0,
    "load": -0.03276169006723073
  },
  {
    "temp": 178.7538604736328,
    "speed": 0,
    "load": -0.03161525138385457
  },
  {
    "temp": 178.76853942871094,
    "speed": 0,
    "load": -0.039111196621309574
  },
  {
    "temp": 178.77430725097656,
    "speed": 0,
    "load": -0.04387332653687004
  },
  {
    "temp": 178.767822265625,
    "speed": 0,
    "load": -0.03990488494057054
  },
  {
    "temp": 178.77117919921875,
    "speed": 0,
    "load": -0.04625439149464938
  },
  {
    "temp": 178.77386474609375,
    "speed": 0,
    "load": -0.049914176522348086
  },
  {
    "temp": 178.7777099609375,
    "speed": 0,
    "load": -0.04568117215296219
  },
  {
    "temp": 178.7620086669922,
    "speed": 0,
    "load": -0.047224454995967946
  },
  {
    "temp": 178.77505493164062,
    "speed": 0,
    "load": -0.05044330206852088
  },
  {
    "temp": 178.78549194335938,
    "speed": 0,
    "load": -0.05339758636798919
  },
  {
    "temp": 178.7919921875,
    "speed": 0,
    "load": -0.05564636993922534
  },
  {
    "temp": 178.78196716308594,
    "speed": 0,
    "load": -0.05529361957511014
  },
  {
    "temp": 178.791015625,
    "speed": 0,
    "load": -0.05864474803420627
  },
  {
    "temp": 178.78118896484375,
    "speed": 0,
    "load": -0.06023212467272643
  },
  {
    "temp": 178.78240966796875,
    "speed": 0,
    "load": -0.06336278415425234
  },
  {
    "temp": 178.7828369140625,
    "speed": 0,
    "load": -0.06583203670306048
  },
  {
    "temp": 178.77464294433594,
    "speed": 0,
    "load": -0.0642005662690277
  },
  {
    "temp": 178.77662658691406,
    "speed": 0,
    "load": -0.06115809437853059
  },
  {
    "temp": 178.77821350097656,
    "speed": 0,
    "load": -0.06402419108696833
  },
  {
    "temp": 178.7958526611328,
    "speed": 0,
    "load": -0.0646855980196861
  },
  {
    "temp": 178.79359436035156,
    "speed": 0,
    "load": -0.06508244217931569
  },
  {
    "temp": 178.80032348632812,
    "speed": 0,
    "load": -0.06503834838380129
  },
  {
    "temp": 178.78782653808594,
    "speed": 0,
    "load": -0.06887450859355759
  },
  {
    "temp": 178.78717041015625,
    "speed": 0,
    "load": -0.07447442062389165
  },
  {
    "temp": 178.78665161132812,
    "speed": 0,
    "load": -0.07063826041413535
  },
  {
    "temp": 178.78590393066406,
    "speed": 0,
    "load": -0.0765909228085846
  },
  {
    "temp": 178.79417419433594,
    "speed": 0,
    "load": -0.0801625202452545
  },
  {
    "temp": 178.78370666503906,
    "speed": 0,
    "load": -0.0802066140407689
  },
  {
    "temp": 178.78387451171875,
    "speed": 0,
    "load": -0.0798097698811393
  },
  {
    "temp": 178.7840118408203,
    "speed": 0,
    "load": -0.07822239324261915
  },
  {
    "temp": 178.78421020507812,
    "speed": 0,
    "load": -0.075753140693811
  },
  {
    "temp": 178.78428649902344,
    "speed": 0,
    "load": -0.08307271074920841
  },
  {
    "temp": 178.7758026123047,
    "speed": 0,
    "load": -0.08505693154735816
  },
  {
    "temp": 178.77896118164062,
    "speed": 0,
    "load": -0.09008362423600325
  },
  {
    "temp": 178.7886199951172,
    "speed": 0,
    "load": -0.09343475269510115
  },
  {
    "temp": 178.78781127929688,
    "speed": 0,
    "load": -0.09255287678481317
  },
  {
    "temp": 178.78717041015625,
    "speed": 0,
    "load": -0.09048046839563284
  },
  {
    "temp": 178.7725830078125,
    "speed": 0,
    "load": -0.09109778153283621
  },
  {
    "temp": 178.7749786376953,
    "speed": 0,
    "load": -0.08646793300381894
  },
  {
    "temp": 178.7769012451172,
    "speed": 0,
    "load": -0.08492465016081319
  },
  {
    "temp": 178.7642822265625,
    "speed": 0,
    "load": -0.12183115700640101
  },
  {
    "temp": 178.75979614257812,
    "speed": 0,
    "load": -0.13889545587048957
  },
  {
    "temp": 178.7391357421875,
    "speed": 0,
    "load": -0.13832223652880238
  },
  {
    "temp": 178.73329162597656,
    "speed": 0,
    "load": -0.13841042411983118
  },
  {
    "temp": 178.74354553222656,
    "speed": 0,
    "load": -0.13999780075834956
  },
  {
    "temp": 178.7517547607422,
    "speed": 0,
    "load": -0.14356939819502124
  },
  {
    "temp": 178.73269653320312,
    "speed": 0,
    "load": -0.1416292711923841
  },
  {
    "temp": 178.73452758789062,
    "speed": 0,
    "load": -0.14092377046415372
  },
  {
    "temp": 178.7303466796875,
    "speed": 0,
    "load": -0.14498039965148202
  },
  {
    "temp": 178.73265075683594,
    "speed": 0,
    "load": -0.14065920769106732
  },
  {
    "temp": 178.72596740722656,
    "speed": 0,
    "load": -0.1456859003797124
  },
  {
    "temp": 178.724853515625,
    "speed": 0,
    "load": -0.1493456854074129
  },
  {
    "temp": 178.7197265625,
    "speed": 0,
    "load": -0.14841971570160872
  },
  {
    "temp": 178.72415161132812,
    "speed": 0,
    "load": -0.14215839673855868
  },
  {
    "temp": 178.7191619873047,
    "speed": 0,
    "load": -0.1452890562200846
  },
  {
    "temp": 178.72732543945312,
    "speed": 0,
    "load": -0.14780240256440713
  },
  {
    "temp": 178.72169494628906,
    "speed": 0,
    "load": -0.14780240256440713
  },
  {
    "temp": 178.71719360351562,
    "speed": 0,
    "load": -0.15207950072930743
  },
  {
    "temp": 178.71923828125,
    "speed": 0,
    "load": -0.17024614448125774
  },
  {
    "temp": 178.71522521972656,
    "speed": 0,
    "load": -0.2727642190523323
  },
  {
    "temp": 178.72055053710938,
    "speed": 0,
    "load": -0.3332168127026307
  },
  {
    "temp": 178.71627807617188,
    "speed": 0,
    "load": -0.33048299738073617
  },
  {
    "temp": 178.73402404785156,
    "speed": 0,
    "load": -0.3299538718345616
  },
  {
    "temp": 178.72706604003906,
    "speed": 0,
    "load": -0.32805783862744065
  },
  {
    "temp": 178.7385711669922,
    "speed": 0,
    "load": -0.3302625284031624
  },
  {
    "temp": 178.74658203125,
    "speed": 0,
    "load": -0.3295129338794176
  },
  {
    "temp": 178.75418090820312,
    "speed": 0,
    "load": -0.3255444922831181
  },
  {
    "temp": 178.76025390625,
    "speed": 0,
    "load": -0.329997965630076
  },
  {
    "temp": 178.77365112304688,
    "speed": 0,
    "load": -0.3251476481234885
  },
  {
    "temp": 178.78611755371094,
    "speed": 0,
    "load": -0.31994458025278405
  },
  {
    "temp": 178.7858123779297,
    "speed": 0,
    "load": -0.3220169886419626
  },
  {
    "temp": 178.7855682373047,
    "speed": 0,
    "load": -0.3246185225773157
  },
  {
    "temp": 178.78536987304688,
    "speed": 0,
    "load": -0.3223697390060778
  },
  {
    "temp": 178.78509521484375,
    "speed": 0,
    "load": -0.31593204486097015
  },
  {
    "temp": 178.79351806640625,
    "speed": 0,
    "load": -0.3143887620179644
  },
  {
    "temp": 178.80026245117188,
    "speed": 0,
    "load": -0.31615251383854215
  },
  {
    "temp": 178.80996704101562,
    "speed": 0,
    "load": -0.31690210836228694
  },
  {
    "temp": 178.81341552734375,
    "speed": 0,
    "load": -0.31557929449685496
  },
  {
    "temp": 178.81617736816406,
    "speed": 0,
    "load": -0.31540291931479736
  },
  {
    "temp": 178.81838989257812,
    "speed": 0,
    "load": -0.3141682930403924
  },
  {
    "temp": 178.82015991210938,
    "speed": 0,
    "load": -0.31346279231216023
  },
  {
    "temp": 178.8215789794922,
    "speed": 0,
    "load": -0.3104644142171793
  },
  {
    "temp": 178.8236083984375,
    "speed": 0,
    "load": -0.307510129917711
  },
  {
    "temp": 178.82432556152344,
    "speed": 0,
    "load": -0.3105526018082081
  },
  {
    "temp": 178.8249053955078,
    "speed": 0,
    "load": -0.31293366676598744
  },
  {
    "temp": 178.8253631591797,
    "speed": 0,
    "load": -0.30922978794277434
  },
  {
    "temp": 178.82603454589844,
    "speed": 0,
    "load": -0.3105526018082081
  },
  {
    "temp": 178.82627868652344,
    "speed": 0,
    "load": -0.30808334925939995
  },
  {
    "temp": 178.8266143798828,
    "speed": 0,
    "load": -0.3103762266261505
  },
  {
    "temp": 178.8267364501953,
    "speed": 0,
    "load": -0.30543772152853244
  },
  {
    "temp": 178.8268280029297,
    "speed": 0,
    "load": -0.30552590911956123
  },
  {
    "temp": 178.82696533203125,
    "speed": 0,
    "load": -0.30076377920400255
  },
  {
    "temp": 178.82701110839844,
    "speed": 0,
    "load": -0.29348830294411954
  },
  {
    "temp": 178.82705688476562,
    "speed": 0,
    "load": -0.2952961485602117
  },
  {
    "temp": 178.82708740234375,
    "speed": 0,
    "load": -0.298911839792396
  },
  {
    "temp": 178.82711791992188,
    "speed": 0,
    "load": -0.30120471715914654
  },
  {
    "temp": 178.8271484375,
    "speed": 0,
    "load": -0.2987354646103384
  },
  {
    "temp": 178.82716369628906,
    "speed": 0,
    "load": -0.3001023722712848
  },
  {
    "temp": 178.82717895507812,
    "speed": 0,
    "load": -0.30120471715914654
  },
  {
    "temp": 178.8271942138672,
    "speed": 0,
    "load": -0.30182203029634813
  },
  {
    "temp": 178.8271942138672,
    "speed": 0,
    "load": -0.2994850591340832
  },
  {
    "temp": 178.8271942138672,
    "speed": 0,
    "load": -0.29683943140321745
  },
  {
    "temp": 178.8271942138672,
    "speed": 0,
    "load": -0.29767721351799104
  },
  {
    "temp": 178.8271942138672,
    "speed": 0,
    "load": -0.3002787474533424
  },
  {
    "temp": 178.8271942138672,
    "speed": 0,
    "load": -0.29644258724358785
  },
  {
    "temp": 178.8271942138672,
    "speed": 0,
    "load": -0.28929939237024804
  },
  {
    "temp": 178.8271942138672,
    "speed": 0,
    "load": -0.29022536207605043
  },
  {
    "temp": 178.8271942138672,
    "speed": 0,
    "load": -0.2907985814177376
  },
  {
    "temp": 178.8271942138672,
    "speed": 0,
    "load": -0.29357649053514834
  },
  {
    "temp": 178.81866455078125,
    "speed": 0,
    "load": -0.291856832510085
  },
  {
    "temp": 178.82037353515625,
    "speed": 0,
    "load": -0.2912395193728834
  },
  {
    "temp": 178.82284545898438,
    "speed": 0,
    "load": -0.2910631441908258
  },
  {
    "temp": 178.806640625,
    "speed": 0,
    "load": -0.291195425577369
  },
  {
    "temp": 178.81076049804688,
    "speed": 0,
    "load": -0.292077301487657
  },
  {
    "temp": 178.81405639648438,
    "speed": 0,
    "load": -0.28533095077394854
  },
  {
    "temp": 178.79661560058594,
    "speed": 0,
    "load": -0.28502229420534597
  },
  {
    "temp": 178.802734375,
    "speed": 0,
    "load": -0.28912301718819045
  },
  {
    "temp": 178.81155395507812,
    "speed": 0,
    "load": -0.28537504456946294
  },
  {
    "temp": 178.81468200683594,
    "speed": 0,
    "load": -0.2840081369085148
  },
  {
    "temp": 178.80865478515625,
    "speed": 0,
    "load": -0.2870947025945245
  },
  {
    "temp": 178.8038330078125,
    "speed": 0,
    "load": -0.2868301398214381
  },
  {
    "temp": 178.812255859375,
    "speed": 0,
    "load": -0.28572779493357814
  },
  {
    "temp": 178.81524658203125,
    "speed": 0,
    "load": -0.28206800990587944
  },
  {
    "temp": 178.81764221191406,
    "speed": 0,
    "load": -0.28859389164201765
  },
  {
    "temp": 178.8210906982422,
    "speed": 0,
    "load": -0.2865655770483517
  },
  {
    "temp": 178.81378173828125,
    "speed": 0,
    "load": -0.28550732595600614
  },
  {
    "temp": 178.81646728515625,
    "speed": 0,
    "load": -0.28546323216049174
  },
  {
    "temp": 178.8118133544922,
    "speed": 0,
    "load": -0.2872710777765839
  },
  {
    "temp": 178.8148956298828,
    "speed": 0,
    "load": -0.28885845441510405
  },
  {
    "temp": 178.81736755371094,
    "speed": 0,
    "load": -0.28951986134782004
  },
  {
    "temp": 178.8140869140625,
    "speed": 0,
    "load": -0.2879324847092999
  },
  {
    "temp": 178.8081817626953,
    "speed": 0,
    "load": -0.2846254500457164
  },
  {
    "temp": 178.81199645996094,
    "speed": 0,
    "load": -0.28211210370139383
  },
  {
    "temp": 178.7979736328125,
    "speed": 0,
    "load": -0.2800837891077297
  },
  {
    "temp": 178.7692413330078,
    "speed": 0,
    "load": -0.2799515077211865
  },
  {
    "temp": 178.77230834960938,
    "speed": 0,
    "load": -0.28206800990587944
  },
  {
    "temp": 178.77476501464844,
    "speed": 0,
    "load": -0.2803042580853017
  },
  {
    "temp": 178.7681884765625,
    "speed": 0,
    "load": -0.27854050626472393
  },
  {
    "temp": 178.7740936279297,
    "speed": 0,
    "load": -0.2835231051578564
  },
  {
    "temp": 178.76763916015625,
    "speed": 0,
    "load": -0.2844049810681444
  },
  {
    "temp": 178.77102661132812,
    "speed": 0,
    "load": -0.2809656650180177
  },
  {
    "temp": 178.76519775390625,
    "speed": 0,
    "load": -0.28175935333727864
  },
  {
    "temp": 178.7519989013672,
    "speed": 0,
    "load": -0.2793782883794993
  },
  {
    "temp": 178.74835205078125,
    "speed": 0,
    "load": -0.27796728692303674
  },
  {
    "temp": 178.738525390625,
    "speed": 0,
    "load": -0.2846254500457164
  },
  {
    "temp": 178.738037109375,
    "speed": 0,
    "load": -0.28259713545205223
  },
  {
    "temp": 178.73880004882812,
    "speed": 0,
    "load": -0.2766003792620886
  },
  {
    "temp": 178.73941040039062,
    "speed": 0,
    "load": -0.2760271599204014
  },
  {
    "temp": 178.73989868164062,
    "speed": 0,
    "load": -0.27752634896789097
  },
  {
    "temp": 178.7406005859375,
    "speed": 0,
    "load": -0.27792319312752234
  },
  {
    "temp": 178.7408447265625,
    "speed": 0,
    "load": -0.2797751325391289
  },
  {
    "temp": 178.7410430908203,
    "speed": 0,
    "load": -0.2795105697660407
  },
  {
    "temp": 178.73451232910156,
    "speed": 0,
    "load": -0.27391065773570844
  },
  {
    "temp": 178.74452209472656,
    "speed": 0,
    "load": -0.2752334716011404
  },
  {
    "temp": 178.74398803710938,
    "speed": 0,
    "load": -0.2755421281697412
  },
  {
    "temp": 178.74356079101562,
    "speed": 0,
    "load": -0.2795987573570713
  },
  {
    "temp": 178.74322509765625,
    "speed": 0,
    "load": -0.2806129146539025
  },
  {
    "temp": 178.7342071533203,
    "speed": 0,
    "load": -0.2765121916710598
  },
  {
    "temp": 178.72720336914062,
    "speed": 0,
    "load": -0.2724114686882171
  },
  {
    "temp": 178.73867797851562,
    "speed": 0,
    "load": -0.27430750189533804
  },
  {
    "temp": 178.73300170898438,
    "speed": 0,
    "load": -0.2714414051868985
  },
  {
    "temp": 178.7176971435547,
    "speed": 0,
    "load": -0.2763358164890022
  },
  {
    "temp": 178.7225341796875,
    "speed": 0,
    "load": -0.27452797087291003
  },
  {
    "temp": 178.71786499023438,
    "speed": 0,
    "load": -0.27743816137686217
  },
  {
    "temp": 178.7401580810547,
    "speed": 0,
    "load": -0.2798633201301577
  },
  {
    "temp": 178.73196411132812,
    "speed": 0,
    "load": -0.2803483518808161
  },
  {
    "temp": 178.73394775390625,
    "speed": 0,
    "load": -0.2769090358306894
  },
  {
    "temp": 178.73553466796875,
    "speed": 0,
    "load": -0.27836413108266633
  },
  {
    "temp": 178.728271484375,
    "speed": 0,
    "load": -0.27832003728715193
  },
  {
    "temp": 178.739990234375,
    "speed": 0,
    "load": -0.27770272414995034
  },
  {
    "temp": 178.73182678222656,
    "speed": 0,
    "load": -0.27801138071855114
  },
  {
    "temp": 178.7252960205078,
    "speed": 0,
    "load": -0.2790696318108967
  },
  {
    "temp": 178.74664306640625,
    "speed": 0,
    "load": -0.2767326606486318
  },
  {
    "temp": 178.7456817626953,
    "speed": 0,
    "load": -0.2754980343742286
  },
  {
    "temp": 178.76199340820312,
    "speed": 0,
    "load": -0.27818775590060874
  },
  {
    "temp": 178.75796508789062,
    "speed": 0,
    "load": -0.2788491628333247
  },
  {
    "temp": 178.75900268554688,
    "speed": 0,
    "load": -0.27792319312752234
  },
  {
    "temp": 178.7641143798828,
    "speed": 0,
    "load": -0.27734997378583337
  },
  {
    "temp": 178.75965881347656,
    "speed": 0,
    "load": -0.28180344713279304
  },
  {
    "temp": 178.7617950439453,
    "speed": 0,
    "load": -0.2827294168385954
  },
  {
    "temp": 178.74928283691406,
    "speed": 0,
    "load": -0.2794223821750119
  },
  {
    "temp": 178.75634765625,
    "speed": 0,
    "load": -0.2831703547937412
  },
  {
    "temp": 178.77503967285156,
    "speed": 0,
    "load": -0.28197982231485064
  },
  {
    "temp": 178.77694702148438,
    "speed": 0,
    "load": -0.283699480339914
  },
  {
    "temp": 178.77847290039062,
    "speed": 0,
    "load": -0.27739406758134955
  },
  {
    "temp": 178.78822326660156,
    "speed": 0,
    "load": -0.2836112927488852
  },
  {
    "temp": 178.7869110107422,
    "speed": 0,
    "load": -0.28563960734254934
  },
  {
    "temp": 178.7949676513672,
    "speed": 0,
    "load": -0.2870506087990119
  },
  {
    "temp": 178.80142211914062,
    "speed": 0,
    "load": -0.2833026361802826
  },
  {
    "temp": 178.8107147216797,
    "speed": 0,
    "load": -0.28621282668423653
  },
  {
    "temp": 178.8140106201172,
    "speed": 0,
    "load": -0.2875356405496703
  },
  {
    "temp": 178.816650390625,
    "speed": 0,
    "load": -0.28171525954176424
  },
  {
    "temp": 178.8187713623047,
    "speed": 0,
    "load": -0.2829057920206548
  },
  {
    "temp": 178.82046508789062,
    "speed": 0,
    "load": -0.28996079930296403
  },
  {
    "temp": 178.8218231201172,
    "speed": 0,
    "load": -0.2828176044296242
  },
  {
    "temp": 178.82290649414062,
    "speed": 0,
    "load": -0.28127432158662025
  },
  {
    "temp": 178.824462890625,
    "speed": 0,
    "load": -0.27862869385575273
  },
  {
    "temp": 178.8164825439453,
    "speed": 0,
    "load": -0.27721769239929195
  },
  {
    "temp": 178.8101043701172,
    "speed": 0,
    "load": -0.2847577314322596
  },
  {
    "temp": 178.80499267578125,
    "speed": 0,
    "load": -0.27818775590060874
  },
  {
    "temp": 178.81298828125,
    "speed": 0,
    "load": -0.2795546635615569
  },
  {
    "temp": 178.8158416748047,
    "speed": 0,
    "load": -0.2877561095272423
  },
  {
    "temp": 178.80958557128906,
    "speed": 0,
    "load": -0.283699480339914
  },
  {
    "temp": 178.8131103515625,
    "speed": 0,
    "load": -0.28171525954176424
  },
  {
    "temp": 178.80740356445312,
    "speed": 0,
    "load": -0.28175935333727864
  },
  {
    "temp": 178.7906494140625,
    "speed": 0,
    "load": -0.2831703547937412
  },
  {
    "temp": 178.7894287109375,
    "speed": 0,
    "load": -0.28255304165653783
  },
  {
    "temp": 178.79698181152344,
    "speed": 0,
    "load": -0.2840963244995436
  },
  {
    "temp": 178.8030242919922,
    "speed": 0,
    "load": -0.2788050690378103
  },
  {
    "temp": 178.81173706054688,
    "speed": 0,
    "load": -0.27470434605496763
  },
  {
    "temp": 178.81483459472656,
    "speed": 0,
    "load": -0.27792319312752234
  },
  {
    "temp": 178.8173065185547,
    "speed": 0,
    "load": -0.2769531296262038
  },
  {
    "temp": 178.8192901611328,
    "speed": 0,
    "load": -0.2760271599204014
  },
  {
    "temp": 178.81361389160156,
    "speed": 0,
    "load": -0.2730728756209331
  },
  {
    "temp": 178.8163299560547,
    "speed": 0,
    "load": -0.27805547451406554
  },
  {
    "temp": 178.8014373779297,
    "speed": 0,
    "load": -0.2803924456763305
  },
  {
    "temp": 178.80389404296875,
    "speed": 0,
    "load": -0.2763358164890022
  },
  {
    "temp": 178.80856323242188,
    "speed": 0,
    "load": -0.275762597147315
  },
  {
    "temp": 178.79522705078125,
    "speed": 0,
    "load": -0.27779091174097914
  },
  {
    "temp": 178.7913818359375,
    "speed": 0,
    "load": -0.2727642190523323
  },
  {
    "temp": 178.79855346679688,
    "speed": 0,
    "load": -0.26989812234389454
  },
  {
    "temp": 178.80429077148438,
    "speed": 0,
    "load": -0.2750130026235684
  },
  {
    "temp": 178.7886505126953,
    "speed": 0,
    "load": -0.27779091174097914
  },
  {
    "temp": 178.787841796875,
    "speed": 0,
    "load": -0.2757185033517988
  },
  {
    "temp": 178.79571533203125,
    "speed": 0,
    "load": -0.2805688208583881
  },
  {
    "temp": 178.79348754882812,
    "speed": 0,
    "load": -0.2723232810971883
  },
  {
    "temp": 178.80563354492188,
    "speed": 0,
    "load": -0.2677375263636854
  },
  {
    "temp": 178.80995178222656,
    "speed": 0,
    "load": -0.2755862219652574
  },
  {
    "temp": 178.79632568359375,
    "speed": 0,
    "load": -0.2728965004388755
  },
  {
    "temp": 178.79397583007812,
    "speed": 0,
    "load": -0.27421931430430924
  },
  {
    "temp": 178.78375244140625,
    "speed": 0,
    "load": -0.27060362307212493
  },
  {
    "temp": 178.78392028808594,
    "speed": 0,
    "load": -0.26606196213413646
  },
  {
    "temp": 178.79258728027344,
    "speed": 0,
    "load": -0.267825713954716
  },
  {
    "temp": 178.7995147705078,
    "speed": 0,
    "load": -0.2673406822040558
  },
  {
    "temp": 178.8026580810547,
    "speed": 0,
    "load": -0.2688839650470616
  },
  {
    "temp": 178.79904174804688,
    "speed": 0,
    "load": -0.2673847759995702
  },
  {
    "temp": 178.80467224121094,
    "speed": 0,
    "load": -0.2649596172462765
  },
  {
    "temp": 178.80918884277344,
    "speed": 0,
    "load": -0.2638572723584147
  },
  {
    "temp": 178.80714416503906,
    "speed": 0,
    "load": -0.27064771686763933
  },
  {
    "temp": 178.8111572265625,
    "speed": 0,
    "load": -0.2678698077502286
  },
  {
    "temp": 178.80584716796875,
    "speed": 0,
    "load": -0.2671643070219982
  },
  {
    "temp": 178.81011962890625,
    "speed": 0,
    "load": -0.2634604281987851
  },
  {
    "temp": 178.79408264160156,
    "speed": 0,
    "load": -0.2609029880589482
  },
  {
    "temp": 178.8007049560547,
    "speed": 0,
    "load": -0.2616084887871786
  },
  {
    "temp": 178.80601501464844,
    "speed": 0,
    "load": -0.26315177163018433
  },
  {
    "temp": 178.8136444091797,
    "speed": 0,
    "load": -0.2553912636196429
  },
  {
    "temp": 178.80783081054688,
    "speed": 0,
    "load": -0.2575518595998503
  },
  {
    "temp": 178.8031768798828,
    "speed": 0,
    "load": -0.25455348150486756
  },
  {
    "temp": 178.78964233398438,
    "speed": 0,
    "load": -0.25777232857742227
  },
  {
    "temp": 178.78863525390625,
    "speed": 0,
    "load": -0.25821326653256627
  },
  {
    "temp": 178.79635620117188,
    "speed": 0,
    "load": -0.2594919866024856
  },
  {
    "temp": 178.8025360107422,
    "speed": 0,
    "load": -0.2566258898940479
  },
  {
    "temp": 178.7904052734375,
    "speed": 0,
    "load": -0.25512670084655653
  },
  {
    "temp": 178.79684448242188,
    "speed": 0,
    "load": -0.2610793632410058
  },
  {
    "temp": 178.7943878173828,
    "speed": 0,
    "load": -0.25499441946001333
  },
  {
    "temp": 178.8009490966797,
    "speed": 0,
    "load": -0.24983544538482327
  },
  {
    "temp": 178.79673767089844,
    "speed": 0,
    "load": -0.24855672531490391
  },
  {
    "temp": 178.80284118652344,
    "speed": 0,
    "load": -0.24348593883074265
  },
  {
    "temp": 178.7906494140625,
    "speed": 0,
    "load": -0.24613156656161017
  },
  {
    "temp": 178.7808837890625,
    "speed": 0,
    "load": -0.24767484940461593
  },
  {
    "temp": 178.78221130371094,
    "speed": 0,
    "load": -0.24741028663152953
  },
  {
    "temp": 178.75706481933594,
    "speed": 0,
    "load": -0.25049685231753926
  },
  {
    "temp": 178.7625732421875,
    "speed": 0,
    "load": -0.2489976632700479
  },
  {
    "temp": 178.75511169433594,
    "speed": 0,
    "load": -0.25062913370408246
  },
  {
    "temp": 178.75245666503906,
    "speed": 0,
    "load": -0.24727800524498456
  },
  {
    "temp": 178.75888061523438,
    "speed": 0,
    "load": -0.24688116108535496
  },
  {
    "temp": 178.77255249023438,
    "speed": 0,
    "load": -0.24463237751411882
  },
  {
    "temp": 178.73760986328125,
    "speed": 0,
    "load": -0.24573472240198058
  },
  {
    "temp": 178.73846435546875,
    "speed": 0,
    "load": -0.24767484940461593
  },
  {
    "temp": 178.7476806640625,
    "speed": 0,
    "load": -0.24802759976873112
  },
  {
    "temp": 178.76097106933594,
    "speed": 0,
    "load": -0.24560244101543738
  },
  {
    "temp": 178.75714111328125,
    "speed": 0,
    "load": -0.24987953918033767
  },
  {
    "temp": 178.75408935546875,
    "speed": 0,
    "load": -0.24763075560910153
  },
  {
    "temp": 178.75482177734375,
    "speed": 0,
    "load": -0.2486890067014471
  },
  {
    "temp": 178.76077270507812,
    "speed": 0,
    "load": -0.24454418992309002
  },
  {
    "temp": 178.75698852539062,
    "speed": 0,
    "load": -0.2489976632700479
  },
  {
    "temp": 178.76251220703125,
    "speed": 0,
    "load": -0.24807169356424552
  },
  {
    "temp": 178.76873779296875,
    "speed": 0,
    "load": -0.24741028663152953
  },
  {
    "temp": 178.7548370361328,
    "speed": 0,
    "load": -0.24833625633733192
  },
  {
    "temp": 178.7522430419922,
    "speed": 0,
    "load": -0.24454418992309002
  },
  {
    "temp": 178.7724151611328,
    "speed": 0,
    "load": -0.24939450742967928
  },
  {
    "temp": 178.77484130859375,
    "speed": 0,
    "load": -0.24330956364868506
  },
  {
    "temp": 178.77679443359375,
    "speed": 0,
    "load": -0.2411930614639921
  },
  {
    "temp": 178.78688049316406,
    "speed": 0,
    "load": -0.24039937314473292
  },
  {
    "temp": 178.79458618164062,
    "speed": 0,
    "load": -0.23925293446135676
  },
  {
    "temp": 178.80111694335938,
    "speed": 0,
    "load": -0.2410607800774489
  },
  {
    "temp": 178.7978057861328,
    "speed": 0,
    "load": -0.23823877716452557
  },
  {
    "temp": 178.8083953857422,
    "speed": 0,
    "load": -0.24304500087559866
  },
  {
    "temp": 178.81216430664062,
    "speed": 0,
    "load": -0.24379459539934523
  },
  {
    "temp": 178.806640625,
    "speed": 0,
    "load": -0.24992363297585207
  },
  {
    "temp": 178.81405639648438,
    "speed": 0,
    "load": -0.25472985668692694
  },
  {
    "temp": 178.80816650390625,
    "speed": 0,
    "load": -0.25062913370408246
  },
  {
    "temp": 178.81198120117188,
    "speed": 0,
    "load": -0.24282453189802666
  },
  {
    "temp": 178.81503295898438,
    "speed": 0,
    "load": -0.24560244101543738
  },
  {
    "temp": 178.81747436523438,
    "speed": 0,
    "load": -0.24269225051148346
  },
  {
    "temp": 178.82098388671875,
    "speed": 0,
    "load": -0.24344184503523003
  },
  {
    "temp": 178.81370544433594,
    "speed": 0,
    "load": -0.24710163006292696
  },
  {
    "temp": 178.80787658691406,
    "speed": 0,
    "load": -0.25049685231753926
  },
  {
    "temp": 178.81175231933594,
    "speed": 0,
    "load": -0.2487771942924759
  },
  {
    "temp": 178.81732177734375,
    "speed": 0,
    "load": -0.24348593883074265
  },
  {
    "temp": 178.81930541992188,
    "speed": 0,
    "load": -0.24692525488086936
  },
  {
    "temp": 178.82089233398438,
    "speed": 0,
    "load": -0.24260406292045467
  },
  {
    "temp": 178.8231658935547,
    "speed": 0,
    "load": -0.23947340343892876
  },
  {
    "temp": 178.823974609375,
    "speed": 0,
    "load": -0.2371805260721782
  },
  {
    "temp": 178.8246307373047,
    "speed": 0,
    "load": -0.24251587532942587
  },
  {
    "temp": 178.8251495361328,
    "speed": 0,
    "load": -0.23854743373312637
  },
  {
    "temp": 178.81703186035156,
    "speed": 0,
    "load": -0.2291995490840648
  },
  {
    "temp": 178.79681396484375,
    "speed": 0,
    "load": -0.23153652024632976
  },
  {
    "temp": 178.8114471435547,
    "speed": 0,
    "load": -0.23299161549830671
  },
  {
    "temp": 178.81460571289062,
    "speed": 0,
    "load": -0.2376214640273222
  },
  {
    "temp": 178.8191375732422,
    "speed": 0,
    "load": -0.23903246548378476
  },
  {
    "temp": 178.8207550048828,
    "speed": 0,
    "load": -0.23841515234658317
  },
  {
    "temp": 178.8077392578125,
    "speed": 0,
    "load": -0.23475536731888447
  },
  {
    "temp": 178.8031005859375,
    "speed": 0,
    "load": -0.23113967608670016
  },
  {
    "temp": 178.80792236328125,
    "speed": 0,
    "load": -0.2341821479771955
  },
  {
    "temp": 178.81178283691406,
    "speed": 0,
    "load": -0.23912065307481356
  },
  {
    "temp": 178.8148651123047,
    "speed": 0,
    "load": -0.23215383338353313
  },
  {
    "temp": 178.81932067871094,
    "speed": 0,
    "load": -0.23497583629645646
  },
  {
    "temp": 178.8038330078125,
    "speed": 0,
    "load": -0.23691596329909181
  },
  {
    "temp": 178.8085174560547,
    "speed": 0,
    "load": -0.23647502534394782
  },
  {
    "temp": 178.79518127441406,
    "speed": 0,
    "load": -0.23634274395740462
  },
  {
    "temp": 178.79306030273438,
    "speed": 0,
    "load": -0.23568133702468685
  },
  {
    "temp": 178.80535888671875,
    "speed": 0,
    "load": -0.23096330090464257
  },
  {
    "temp": 178.80120849609375,
    "speed": 0,
    "load": -0.2333443658624219
  },
  {
    "temp": 178.80641174316406,
    "speed": 0,
    "load": -0.23819468336901117
  },
  {
    "temp": 178.77635192871094,
    "speed": 0,
    "load": -0.2332120844758787
  },
  {
    "temp": 178.7779998779297,
    "speed": 0,
    "load": -0.2338293976130803
  },
  {
    "temp": 178.787841796875,
    "speed": 0,
    "load": -0.23978206000752955
  },
  {
    "temp": 178.79571533203125,
    "speed": 0,
    "load": -0.23643093154843342
  },
  {
    "temp": 178.80201721191406,
    "speed": 0,
    "load": -0.2337853038175659
  },
  {
    "temp": 178.79400634765625,
    "speed": 0,
    "load": -0.2411489676684777
  },
  {
    "temp": 178.7921142578125,
    "speed": 0,
    "load": -0.24000252898510332
  },
  {
    "temp": 178.7906036376953,
    "speed": 0,
    "load": -0.23920884066584236
  },
  {
    "temp": 178.77989196777344,
    "speed": 0,
    "load": -0.23656321293497662
  },
  {
    "temp": 178.78082275390625,
    "speed": 0,
    "load": -0.24185446839670988
  },
  {
    "temp": 178.7730255126953,
    "speed": 0,
    "load": -0.2415017180325929
  },
  {
    "temp": 178.7703399658203,
    "speed": 0,
    "load": -0.23660730673049102
  },
  {
    "temp": 178.773193359375,
    "speed": 0,
    "load": -0.23462308593234127
  },
  {
    "temp": 178.7754669189453,
    "speed": 0,
    "load": -0.2370923384811494
  },
  {
    "temp": 178.77728271484375,
    "speed": 0,
    "load": -0.24163399941913788
  },
  {
    "temp": 178.7713623046875,
    "speed": 0,
    "load": -0.24031118555370412
  },
  {
    "temp": 178.7654571533203,
    "speed": 0,
    "load": -0.23859152752864077
  },
  {
    "temp": 178.7569580078125,
    "speed": 0,
    "load": -0.24220721876082507
  },
  {
    "temp": 178.75393676757812,
    "speed": 0,
    "load": -0.24542606583337978
  },
  {
    "temp": 178.76007080078125,
    "speed": 0,
    "load": -0.2409284986909057
  },
  {
    "temp": 178.7564239501953,
    "speed": 0,
    "load": -0.24348593883074265
  },
  {
    "temp": 178.7511749267578,
    "speed": 0,
    "load": -0.24163399941913788
  },
  {
    "temp": 178.7493133544922,
    "speed": 0,
    "load": -0.23920884066584236
  },
  {
    "temp": 178.74781799316406,
    "speed": 0,
    "load": -0.24560244101543738
  },
  {
    "temp": 178.73809814453125,
    "speed": 0,
    "load": -0.24838035013284632
  },
  {
    "temp": 178.7309112548828,
    "speed": 0,
    "load": -0.24383868919485963
  },
  {
    "temp": 178.74163818359375,
    "speed": 0,
    "load": -0.2449410340827196
  },
  {
    "temp": 178.74855041503906,
    "speed": 0,
    "load": -0.24353003262625883
  },
  {
    "temp": 178.74720764160156,
    "speed": 0,
    "load": -0.24560244101543738
  },
  {
    "temp": 178.7461395263672,
    "speed": 0,
    "load": -0.24670478590329736
  },
  {
    "temp": 178.73675537109375,
    "speed": 0,
    "load": -0.24326546985317243
  },
  {
    "temp": 178.73858642578125,
    "speed": 0,
    "load": -0.2371364322766638
  },
  {
    "temp": 178.73924255371094,
    "speed": 0,
    "load": -0.23987024759855835
  },
  {
    "temp": 178.73976135253906,
    "speed": 0,
    "load": -0.24061984212230492
  },
  {
    "temp": 178.7388153076172,
    "speed": 0,
    "load": -0.24419143955897482
  },
  {
    "temp": 178.73089599609375,
    "speed": 0,
    "load": -0.24441190853654682
  },
  {
    "temp": 178.7501678466797,
    "speed": 0,
    "load": -0.23934112205238556
  },
  {
    "temp": 178.74717712402344,
    "speed": 0,
    "load": -0.2410166862819345
  },
  {
    "temp": 178.73757934570312,
    "speed": 0,
    "load": -0.24410325196794602
  },
  {
    "temp": 178.74697875976562,
    "speed": 0,
    "load": -0.24286862569354106
  },
  {
    "temp": 178.75450134277344,
    "speed": 0,
    "load": -0.24322137605765626
  },
  {
    "temp": 178.75196838378906,
    "speed": 0,
    "load": -0.24317728226214186
  },
  {
    "temp": 178.77052307128906,
    "speed": 0,
    "load": -0.2450733154692628
  },
  {
    "temp": 178.76478576660156,
    "speed": 0,
    "load": -0.24450009612757562
  },
  {
    "temp": 178.76019287109375,
    "speed": 0,
    "load": -0.24242768773839707
  },
  {
    "temp": 178.7736053466797,
    "speed": 0,
    "load": -0.25036457093099607
  },
  {
    "temp": 178.7672576904297,
    "speed": 0,
    "load": -0.2412812490550209
  },
  {
    "temp": 178.77349853515625,
    "speed": 0,
    "load": -0.23938521584789996
  },
  {
    "temp": 178.7671661376953,
    "speed": 0,
    "load": -0.2413694366460497
  },
  {
    "temp": 178.77064514160156,
    "speed": 0,
    "load": -0.23894427789275596
  },
  {
    "temp": 178.78196716308594,
    "speed": 0,
    "load": -0.2409725924864201
  },
  {
    "temp": 178.78973388671875,
    "speed": 0,
    "load": -0.244764658900662
  },
  {
    "temp": 178.79722595214844,
    "speed": 0,
    "load": -0.24419143955897482
  },
  {
    "temp": 178.79469299316406,
    "speed": 0,
    "load": -0.24410325196794602
  },
  {
    "temp": 178.78250122070312,
    "speed": 0,
    "load": -0.24626384794815337
  },
  {
    "temp": 178.7829132080078,
    "speed": 0,
    "load": -0.24454418992309002
  },
  {
    "temp": 178.7832489013672,
    "speed": 0,
    "load": -0.24066393591781932
  },
  {
    "temp": 178.78350830078125,
    "speed": 0,
    "load": -0.24419143955897482
  },
  {
    "temp": 178.78372192382812,
    "speed": 0,
    "load": -0.24017890416716092
  },
  {
    "temp": 178.7857208251953,
    "speed": 0,
    "load": -0.2417662808056793
  },
  {
    "temp": 178.7940216064453,
    "speed": 0,
    "load": -0.24163399941913788
  },
  {
    "temp": 178.8006591796875,
    "speed": 0,
    "load": -0.23942930964341436
  },
  {
    "temp": 178.77947998046875,
    "speed": 0,
    "load": -0.24397097058140282
  },
  {
    "temp": 178.78050231933594,
    "speed": 0,
    "load": -0.24057574832679052
  },
  {
    "temp": 178.7898406982422,
    "speed": 0,
    "load": -0.24405915817243162
  },
  {
    "temp": 178.78024291992188,
    "speed": 0,
    "load": -0.24353003262625883
  },
  {
    "temp": 178.7903289794922,
    "speed": 0,
    "load": -0.23978206000752955
  },
  {
    "temp": 178.7891845703125,
    "speed": 0,
    "load": -0.24216312496531067
  },
  {
    "temp": 178.7967987060547,
    "speed": 0,
    "load": -0.24414734576346042
  },
  {
    "temp": 178.7924041748047,
    "speed": 0,
    "load": -0.24339775123971386
  },
  {
    "temp": 178.78228759765625,
    "speed": 0,
    "load": -0.2447205651051476
  },
  {
    "temp": 178.79127502441406,
    "speed": 0,
    "load": -0.24423553335448922
  },
  {
    "temp": 178.79055786132812,
    "speed": 0,
    "load": -0.24163399941913788
  },
  {
    "temp": 178.7722930908203,
    "speed": 0,
    "load": -0.2410607800774489
  },
  {
    "temp": 178.77474975585938,
    "speed": 0,
    "load": -0.24282453189802666
  },
  {
    "temp": 178.76974487304688,
    "speed": 0,
    "load": -0.23598999359328765
  },
  {
    "temp": 178.78123474121094,
    "speed": 0,
    "load": -0.24278043810251226
  },
  {
    "temp": 178.79043579101562,
    "speed": 0,
    "load": -0.24145762423708028
  },
  {
    "temp": 178.788330078125,
    "speed": 0,
    "load": -0.2412371552595065
  },
  {
    "temp": 178.79611206054688,
    "speed": 0,
    "load": -0.23956159102995933
  },
  {
    "temp": 178.80233764648438,
    "speed": 0,
    "load": -0.23647502534394782
  },
  {
    "temp": 178.7902374267578,
    "speed": 0,
    "load": -0.23598999359328765
  },
  {
    "temp": 178.7796630859375,
    "speed": 0,
    "load": -0.23594589979777503
  },
  {
    "temp": 178.78916931152344,
    "speed": 0,
    "load": -0.23991434139407453
  },
  {
    "temp": 178.7882537841797,
    "speed": 0,
    "load": -0.23034598776744097
  },
  {
    "temp": 178.78009033203125,
    "speed": 0,
    "load": -0.23197745820147553
  },
  {
    "temp": 178.78099060058594,
    "speed": 0,
    "load": -0.23272705272522032
  },
  {
    "temp": 178.7902374267578,
    "speed": 0,
    "load": -0.23894427789275596
  },
  {
    "temp": 178.79763793945312,
    "speed": 0,
    "load": -0.23938521584789996
  },
  {
    "temp": 178.77586364746094,
    "speed": 0,
    "load": -0.24220721876082507
  },
  {
    "temp": 178.77760314941406,
    "speed": 0,
    "load": -0.2414135304415641
  },
  {
    "temp": 178.77899169921875,
    "speed": 0,
    "load": -0.23863562132415517
  },
  {
    "temp": 178.7801055908203,
    "speed": 0,
    "load": -0.2449410340827196
  },
  {
    "temp": 178.78172302246094,
    "speed": 0,
    "load": -0.24000252898510332
  },
  {
    "temp": 178.7908172607422,
    "speed": 0,
    "load": -0.2411048738729633
  },
  {
    "temp": 178.78956604003906,
    "speed": 0,
    "load": -0.2379742143914374
  },
  {
    "temp": 178.78857421875,
    "speed": 0,
    "load": -0.2377978392093798
  },
  {
    "temp": 178.78713989257812,
    "speed": 0,
    "load": -0.2331679906803643
  },
  {
    "temp": 178.78662109375,
    "speed": 0,
    "load": -0.23828287096003997
  },
  {
    "temp": 178.79473876953125,
    "speed": 0,
    "load": -0.23766555782283838
  },
  {
    "temp": 178.78416442871094,
    "speed": 0,
    "load": -0.24061984212230492
  },
  {
    "temp": 178.78424072265625,
    "speed": 0,
    "load": -0.23515221147851406
  },
  {
    "temp": 178.78436279296875,
    "speed": 0,
    "load": -0.23105148849567136
  },
  {
    "temp": 178.78440856933594,
    "speed": 0,
    "load": -0.2301255187898672
  },
  {
    "temp": 178.78443908691406,
    "speed": 0,
    "load": -0.2331679906803643
  },
  {
    "temp": 178.77593994140625,
    "speed": 0,
    "load": -0.23153652024632976
  },
  {
    "temp": 178.7691192626953,
    "speed": 0,
    "load": -0.22862632974237762
  },
  {
    "temp": 178.763671875,
    "speed": 0,
    "load": -0.22889089251546402
  },
  {
    "temp": 178.77638244628906,
    "speed": 0,
    "load": -0.22739170346797266
  },
  {
    "temp": 178.77932739257812,
    "speed": 0,
    "load": -0.2294200180616368
  },
  {
    "temp": 178.78890991210938,
    "speed": 0,
    "load": -0.22655392135319907
  },
  {
    "temp": 178.7880401611328,
    "speed": 0,
    "load": -0.22699485930834307
  },
  {
    "temp": 178.7953338623047,
    "speed": 0,
    "load": -0.2224531983703546
  },
  {
    "temp": 178.79318237304688,
    "speed": 0,
    "load": -0.22104219691389382
  },
  {
    "temp": 178.79998779296875,
    "speed": 0,
    "load": -0.22042488377669045
  },
  {
    "temp": 178.792724609375,
    "speed": 0,
    "load": -0.2221445418017538
  },
  {
    "temp": 178.7825469970703,
    "speed": 0,
    "load": -0.2175587870682527
  },
  {
    "temp": 178.782958984375,
    "speed": 0,
    "load": -0.21993985202603206
  },
  {
    "temp": 178.79180908203125,
    "speed": 0,
    "load": -0.22404057500887475
  },
  {
    "temp": 178.80455017089844,
    "speed": 0,
    "load": -0.21905797611574407
  },
  {
    "temp": 178.80055236816406,
    "speed": 0,
    "load": -0.2222327293927826
  },
  {
    "temp": 178.79736328125,
    "speed": 0,
    "load": -0.21663281736244855
  },
  {
    "temp": 178.7862548828125,
    "speed": 0,
    "load": -0.2141635648136404
  },
  {
    "temp": 178.79444885253906,
    "speed": 0,
    "load": -0.21336987649438122
  },
  {
    "temp": 178.76869201660156,
    "speed": 0,
    "load": -0.21663281736244855
  },
  {
    "temp": 178.76332092285156,
    "speed": 0,
    "load": -0.21301712613026424
  },
  {
    "temp": 178.74195861816406,
    "speed": 0,
    "load": -0.22046897757220485
  },
  {
    "temp": 178.76412963867188,
    "speed": 0,
    "load": -0.22104219691389382
  },
  {
    "temp": 178.76821899414062,
    "speed": 0,
    "load": -0.21350215788092264
  },
  {
    "temp": 178.75440979003906,
    "speed": 0,
    "load": -0.2137667206540108
  },
  {
    "temp": 178.7498779296875,
    "speed": 0,
    "load": -0.2142958462001836
  },
  {
    "temp": 178.74827575683594,
    "speed": 0,
    "load": -0.21500134692841577
  },
  {
    "temp": 178.76406860351562,
    "speed": 0,
    "load": -0.21698556772656552
  },
  {
    "temp": 178.75437927246094,
    "speed": 0,
    "load": -0.21932253888883046
  },
  {
    "temp": 178.76895141601562,
    "speed": 0,
    "load": -0.22002803961706086
  },
  {
    "temp": 178.76353454589844,
    "speed": 0,
    "load": -0.21698556772656552
  },
  {
    "temp": 178.7677459716797,
    "speed": 0,
    "load": -0.2140753772226116
  },
  {
    "temp": 178.7652587890625,
    "speed": 0,
    "load": -0.21500134692841577
  },
  {
    "temp": 178.7691192626953,
    "speed": 0,
    "load": -0.21209115642446186
  },
  {
    "temp": 178.763671875,
    "speed": 0,
    "load": -0.2137226268584964
  },
  {
    "temp": 178.75930786132812,
    "speed": 0,
    "load": -0.21297303233474985
  },
  {
    "temp": 178.75985717773438,
    "speed": 0,
    "load": -0.21284075094820665
  },
  {
    "temp": 178.76480102539062,
    "speed": 0,
    "load": -0.21235571919754825
  },
  {
    "temp": 178.77728271484375,
    "speed": 0,
    "load": -0.21222343781100506
  },
  {
    "temp": 178.76625061035156,
    "speed": 0,
    "load": -0.2148690655418708
  },
  {
    "temp": 178.75283813476562,
    "speed": 0,
    "load": -0.2138549082450396
  },
  {
    "temp": 178.76771545410156,
    "speed": 0,
    "load": -0.21610369181627576
  },
  {
    "temp": 178.76695251464844,
    "speed": 0,
    "load": -0.2109447177410857
  },
  {
    "temp": 178.77047729492188,
    "speed": 0,
    "load": -0.20825499621470556
  },
  {
    "temp": 178.76475524902344,
    "speed": 0,
    "load": -0.21654462977141975
  },
  {
    "temp": 178.7601776123047,
    "speed": 0,
    "load": -0.20874002796536395
  },
  {
    "temp": 178.7689666748047,
    "speed": 0,
    "load": -0.20874002796536395
  },
  {
    "temp": 178.7720947265625,
    "speed": 0,
    "load": -0.20600621264346763
  },
  {
    "temp": 178.7831268310547,
    "speed": 0,
    "load": -0.20865184037433515
  },
  {
    "temp": 178.78341674804688,
    "speed": 0,
    "load": -0.2112533743096865
  },
  {
    "temp": 178.79917907714844,
    "speed": 0,
    "load": -0.2109447177410857
  },
  {
    "temp": 178.80479431152344,
    "speed": 0,
    "load": -0.20516843052869405
  },
  {
    "temp": 178.8092803955078,
    "speed": 0,
    "load": -0.20851955898779195
  },
  {
    "temp": 178.80038452148438,
    "speed": 0,
    "load": -0.21266437576614905
  },
  {
    "temp": 178.79722595214844,
    "speed": 0,
    "load": -0.20045039440864976
  },
  {
    "temp": 178.80322265625,
    "speed": 0,
    "load": -0.2073290265089014
  },
  {
    "temp": 178.79949951171875,
    "speed": 0,
    "load": -0.2097982790577113
  },
  {
    "temp": 178.8026580810547,
    "speed": 0,
    "load": -0.1998330812714464
  },
  {
    "temp": 178.8075714111328,
    "speed": 0,
    "load": -0.2036692414812027
  },
  {
    "temp": 178.81150817871094,
    "speed": 0,
    "load": -0.2036692414812027
  },
  {
    "temp": 178.8103485107422,
    "speed": 0,
    "load": -0.20067086338622175
  },
  {
    "temp": 178.813720703125,
    "speed": 0,
    "load": -0.1998330812714464
  },
  {
    "temp": 178.81642150878906,
    "speed": 0,
    "load": -0.2023905214112851
  },
  {
    "temp": 178.81349182128906,
    "speed": 0,
    "load": -0.20393380425428909
  },
  {
    "temp": 178.8162384033203,
    "speed": 0,
    "load": -0.20027401922659216
  },
  {
    "temp": 178.8184356689453,
    "speed": 0,
    "load": -0.19621739003926386
  },
  {
    "temp": 178.8201904296875,
    "speed": 0,
    "load": -0.19784886047329664
  },
  {
    "temp": 178.82272338867188,
    "speed": 0,
    "load": -0.20031811302210478
  },
  {
    "temp": 178.83216857910156,
    "speed": 0,
    "load": -0.20194958345613934
  },
  {
    "temp": 178.8397216796875,
    "speed": 0,
    "load": -0.20071495718173615
  },
  {
    "temp": 178.83522033691406,
    "speed": 0,
    "load": -0.20045039440864976
  },
  {
    "temp": 178.8336181640625,
    "speed": 0,
    "load": -0.20067086338622175
  },
  {
    "temp": 178.83233642578125,
    "speed": 0,
    "load": -0.20106770754585135
  },
  {
    "temp": 178.83131408691406,
    "speed": 0,
    "load": -0.19784886047329664
  },
  {
    "temp": 178.829833984375,
    "speed": 0,
    "load": -0.19780476667778224
  },
  {
    "temp": 178.82931518554688,
    "speed": 0,
    "load": -0.20049448820416416
  },
  {
    "temp": 178.8374481201172,
    "speed": 0,
    "load": -0.19701107835852305
  },
  {
    "temp": 178.8354034423828,
    "speed": 0,
    "load": -0.20018583163556336
  },
  {
    "temp": 178.83377075195312,
    "speed": 0,
    "load": -0.2031842097305443
  },
  {
    "temp": 178.83245849609375,
    "speed": 0,
    "load": -0.1992598619297592
  },
  {
    "temp": 178.83056640625,
    "speed": 0,
    "load": -0.1958205458796325
  },
  {
    "temp": 178.83843994140625,
    "speed": 0,
    "load": -0.18916238275695285
  },
  {
    "temp": 178.84474182128906,
    "speed": 0,
    "load": -0.19268988639810836
  },
  {
    "temp": 178.83160400390625,
    "speed": 0,
    "load": -0.19365994989942514
  },
  {
    "temp": 178.8307342529297,
    "speed": 0,
    "load": -0.19401270026354034
  },
  {
    "temp": 178.8300323486328,
    "speed": 0,
    "load": -0.19661423419889346
  },
  {
    "temp": 178.8294677734375,
    "speed": 0,
    "load": -0.19365994989942514
  },
  {
    "temp": 178.8286590576172,
    "speed": 0,
    "load": -0.19357176230839634
  },
  {
    "temp": 178.828369140625,
    "speed": 0,
    "load": -0.183915221090734
  },
  {
    "temp": 178.82814025878906,
    "speed": 0,
    "load": -0.1877513813004903
  },
  {
    "temp": 178.8279571533203,
    "speed": 0,
    "load": -0.18872144480180886
  },
  {
    "temp": 178.8362274169922,
    "speed": 0,
    "load": -0.18634037984402774
  },
  {
    "temp": 178.8344268798828,
    "speed": 0,
    "load": -0.1844002528413924
  },
  {
    "temp": 178.83299255371094,
    "speed": 0,
    "load": -0.1879277564825479
  },
  {
    "temp": 178.83091735839844,
    "speed": 0,
    "load": -0.1873545371408607
  },
  {
    "temp": 178.83018493652344,
    "speed": 0,
    "load": -0.18510575356962455
  },
  {
    "temp": 178.82958984375,
    "speed": 0,
    "load": -0.18466481561447878
  },
  {
    "temp": 178.82911682128906,
    "speed": 0,
    "load": -0.18938285173452485
  },
  {
    "temp": 178.82843017578125,
    "speed": 0,
    "load": -0.1881923192556343
  },
  {
    "temp": 178.82818603515625,
    "speed": 0,
    "load": -0.18572306670682615
  },
  {
    "temp": 178.82798767089844,
    "speed": 0,
    "load": -0.184135690068306
  },
  {
    "temp": 178.8278350830078,
    "speed": 0,
    "load": -0.18087274920023688
  },
  {
    "temp": 178.82762145996094,
    "speed": 0,
    "load": -0.18316562656698743
  },
  {
    "temp": 178.82754516601562,
    "speed": 0,
    "load": -0.1836506583176476
  },
  {
    "temp": 178.82748413085938,
    "speed": 0,
    "load": -0.18100503058678008
  },
  {
    "temp": 178.8274383544922,
    "speed": 0,
    "load": -0.1798144981078913
  },
  {
    "temp": 178.82736206054688,
    "speed": 0,
    "load": -0.1829451575894172
  },
  {
    "temp": 178.82733154296875,
    "speed": 0,
    "load": -0.18122549956435385
  },
  {
    "temp": 178.8273162841797,
    "speed": 0,
    "load": -0.17505236819233083
  },
  {
    "temp": 178.82730102539062,
    "speed": 0,
    "load": -0.17584605651159002
  },
  {
    "temp": 178.8272705078125,
    "speed": 0,
    "load": -0.17765390212768217
  },
  {
    "temp": 178.8187255859375,
    "speed": 0,
    "load": -0.1760224316936494
  },
  {
    "temp": 178.82041931152344,
    "speed": 0,
    "load": -0.17880034081105833
  },
  {
    "temp": 178.82177734375,
    "speed": 0,
    "load": -0.1832979079535324
  },
  {
    "temp": 178.81520080566406,
    "speed": 0,
    "load": -0.18616400466197014
  },
  {
    "temp": 178.800537109375,
    "speed": 0,
    "load": -0.17703658899048058
  },
  {
    "temp": 178.79734802246094,
    "speed": 0,
    "load": -0.17813893387834234
  },
  {
    "temp": 178.80332946777344,
    "speed": 0,
    "load": -0.17910899737965913
  },
  {
    "temp": 178.79957580566406,
    "speed": 0,
    "load": -0.17509646198784523
  },
  {
    "temp": 178.8050994873047,
    "speed": 0,
    "load": -0.17099573900500253
  },
  {
    "temp": 178.80099487304688,
    "speed": 0,
    "load": -0.1724067404614651
  },
  {
    "temp": 178.81044006347656,
    "speed": 0,
    "load": -0.17703658899048058
  },
  {
    "temp": 178.8137969970703,
    "speed": 0,
    "load": -0.17196580250631932
  },
  {
    "temp": 178.8164825439453,
    "speed": 0,
    "load": -0.1688351430247952
  },
  {
    "temp": 178.80499267578125,
    "speed": 0,
    "load": -0.17037842586780094
  },
  {
    "temp": 178.80943298339844,
    "speed": 0,
    "load": -0.1720980838928643
  },
  {
    "temp": 178.80445861816406,
    "speed": 0,
    "load": -0.17170123973323292
  },
  {
    "temp": 178.79193115234375,
    "speed": 0,
    "load": -0.17015795689022717
  },
  {
    "temp": 178.8046417236328,
    "speed": 0,
    "load": -0.16967292513956878
  },
  {
    "temp": 178.80062866210938,
    "speed": 0,
    "load": -0.1725390218480083
  },
  {
    "temp": 178.8059539794922,
    "speed": 0,
    "load": -0.17320042878072428
  },
  {
    "temp": 178.7982635498047,
    "speed": 0,
    "load": -0.1648667014284957
  }
]