[
  {
    "temp": 178.75424194335938,
    "speed": 0,
    "load": -0.0005291255461727928
  },
  {
    "temp": 178.76344299316406,
    "speed": 0,
    "load": -0.003307034663583508
  },
  {
    "temp": 178.7761993408203,
    "speed": 0,
    "load": -0.0012346262744049596
  },
  {
    "temp": 178.7778778076172,
    "speed": 0,
    "load": 0.0026456277308657405
  },
  {
    "temp": 178.78775024414062,
    "speed": 0,
    "load": -0.006966819691280435
  },
  {
    "temp": 178.79342651367188,
    "speed": 0,
    "load": -0.0029542842994665364
  },
  {
    "temp": 178.7660369873047,
    "speed": 0,
    "load": 0.0013669076609481579
  },
  {
    "temp": 178.76119995117188,
    "speed": 0,
    "load": -0.004409379551443493
  },
  {
    "temp": 178.7542266845703,
    "speed": 1.2487512826919556,
    "load": -0.0034834098456411056
  },
  {
    "temp": 178.7602996826172,
    "speed": 1.2487512826919556,
    "load": 0.06913907136664399
  },
  {
    "temp": 178.74807739257812,
    "speed": 1.249375343322754,
    "load": 2.7908285994955104
  },
  {
    "temp": 178.76121520996094,
    "speed": 1.249375343322754,
    "load": 5.3211951488872185
  },
  {
    "temp": 178.74880981445312,
    "speed": 1.249375343322754,
    "load": 8.125736918787721
  },
  {
    "temp": 178.75596618652344,
    "speed": 1.249375343322754,
    "load": 14.661495665120219
  },
  {
    "temp": 178.75088500976562,
    "speed": 1.249375343322754,
    "load": 17.583988338021847
  },
  {
    "temp": 178.75762939453125,
    "speed": 1.249375343322754,
    "load": 20.65825185508419
  },
  {
    "temp": 178.77154541015625,
    "speed": 1.249375343322754,
    "load": 21.315866721386556
  },
  {
    "temp": 178.78268432617188,
    "speed": 1.25,
    "load": 22.22750594364763
  },
  {
    "temp": 178.76971435546875,
    "speed": 1.249375343322754,
    "load": 22.853196901997542
  },
  {
    "temp": 178.76414489746094,
    "speed": 1.249375343322754,
    "load": 23.145626953849316
  },
  {
    "temp": 178.7682342529297,
    "speed": 1.249375343322754,
    "load": 23.412262135325136
  },
  {
    "temp": 178.78094482421875,
    "speed": 1.249375343322754,
    "load": 23.423241490408238
  },
  {
    "temp": 178.77313232421875,
    "speed": 1.249375343322754,
    "load": 22.685949135611267
  },
  {
    "temp": 178.77542114257812,
    "speed": 1.249375343322754,
    "load": 22.058847175804893
  },
  {
    "temp": 178.76870727539062,
    "speed": 1.249375343322754,
    "load": 21.2094242990147
  },
  {
    "temp": 178.77188110351562,
    "speed": 1.249375343322754,
    "load": 20.649521283572327
  },
  {
    "temp": 178.78294372558594,
    "speed": 1.2487512826919556,
    "load": 20.545724488931334
  },
  {
    "temp": 178.7749786376953,
    "speed": 1.249375343322754,
    "load": 19.516883958192885
  },
  {
    "temp": 178.78543090820312,
    "speed": 1.249375343322754,
    "load": 18.416611478721038
  },
  {
    "temp": 178.79379272460938,
    "speed": 1.249375343322754,
    "load": 17.27418533073739
  },
  {
    "temp": 178.80047607421875,
    "speed": 1.2487512826919556,
    "load": 16.094676300726093
  },
  {
    "temp": 178.8101043701172,
    "speed": 1.249375343322754,
    "load": 14.159752365961394
  },
  {
    "temp": 178.8135223388672,
    "speed": 1.249375343322754,
    "load": 13.387802287890077
  },
  {
    "temp": 178.81626892089844,
    "speed": 1.2487512826919556,
    "load": 12.648613899885989
  },
  {
    "temp": 178.81846618652344,
    "speed": 1.249375343322754,
    "load": 11.854528736466422
  },
  {
    "temp": 178.81309509277344,
    "speed": 1.249375343322754,
    "load": 11.668188356622393
  },
  {
    "temp": 178.81591796875,
    "speed": 1.249375343322754,
    "load": 11.455523980856244
  },
  {
    "temp": 178.81817626953125,
    "speed": 1.249375343322754,
    "load": 11.247224890846026
  },
  {
    "temp": 178.8199920654297,
    "speed": 1.2487512826919556,
    "load": 10.94434460945733
  },
  {
    "temp": 178.8129119873047,
    "speed": 1.2487512826919556,
    "load": 10.604028695676876
  },
  {
    "temp": 178.81124877929688,
    "speed": 1.2487512826919556,
    "load": 10.390261975022865
  },
  {
    "temp": 178.81443786621094,
    "speed": 1.2487512826919556,
    "load": 10.071199270680372
  },
  {
    "temp": 178.8084716796875,
    "speed": 1.249375343322754,
    "load": 9.741994993369554
  },
  {
    "temp": 178.80369567871094,
    "speed": 1.249375343322754,
    "load": 9.62161893161513
  },
  {
    "temp": 178.81216430664062,
    "speed": 1.249375343322754,
    "load": 9.649971242130915
  },
  {
    "temp": 178.806640625,
    "speed": 1.2487512826919556,
    "load": 9.53413684131448
  },
  {
    "temp": 178.81076049804688,
    "speed": 1.249375343322754,
    "load": 9.489602107844894
  },
  {
    "temp": 178.78594970703125,
    "speed": 0,
    "load": 9.503006621681285
  },
  {
    "temp": 178.78567504882812,
    "speed": 0,
    "load": 9.492644579735392
  },
  {
    "temp": 178.77691650390625,
    "speed": 0,
    "load": 7.705655328921642
  },
  {
    "temp": 178.7784423828125,
    "speed": 0,
    "load": 5.43389889022213
  },
  {
    "temp": 178.7652587890625,
    "speed": 0,
    "load": 4.045429363267898
  },
  {
    "temp": 178.7691192626953,
    "speed": 0,
    "load": 3.2471111954789453
  },
  {
    "temp": 178.763671875,
    "speed": 0,
    "load": 2.3884727154262375
  },
  {
    "temp": 178.75930786132812,
    "speed": 0,
    "load": 2.1326846076469668
  },
  {
    "temp": 178.7558135986328,
    "speed": 0,
    "load": 1.9442718194137587
  },
  {
    "temp": 178.7422637939453,
    "speed": 0,
    "load": 1.669920223722908
  },
  {
    "temp": 178.73365783691406,
    "speed": 0,
    "load": 1.5685044940396935
  },
  {
    "temp": 178.73529052734375,
    "speed": 0,
    "load": 1.4740996778432756
  },
  {
    "temp": 178.7291259765625,
    "speed": 0,
    "load": 1.3127604800559372
  },
  {
    "temp": 178.73167419433594,
    "speed": 0,
    "load": 1.2600683944161784
  },
  {
    "temp": 178.7251739501953,
    "speed": 0,
    "load": 1.2094046233700855
  },
  {
    "temp": 178.71583557128906,
    "speed": 0,
    "load": 1.1179099976776214
  },
  {
    "temp": 178.70396423339844,
    "speed": 0,
    "load": 1.0878380291367726
  },
  {
    "temp": 178.69447326660156,
    "speed": 0,
    "load": 1.0526511803162482
  },
  {
    "temp": 178.68687438964844,
    "speed": 0,
    "load": 0.991008054187061
  },
  {
    "temp": 178.68447875976562,
    "speed": 0,
    "load": 0.9656541217662582
  },
  {
    "temp": 178.6874237060547,
    "speed": 0,
    "load": 0.9408734086871409
  },
  {
    "temp": 178.6897735595703,
    "speed": 0,
    "load": 0.9207225441370408
  },
  {
    "temp": 178.69166564941406,
    "speed": 0,
    "load": 0.8909151383692802
  },
  {
    "temp": 178.6790008544922,
    "speed": 0,
    "load": 0.8754823099392244
  },
  {
    "temp": 178.67449951171875,
    "speed": 0,
    "load": 0.8619455147162913
  },
  {
    "temp": 178.679443359375,
    "speed": 0,
    "load": 0.8332845476319051
  },
  {
    "temp": 178.6833953857422,
    "speed": 0,
    "load": 0.8260972589630509
  },
  {
    "temp": 178.68655395507812,
    "speed": 0,
    "load": 0.8229665994815267
  },
  {
    "temp": 178.6825714111328,
    "speed": 0,
    "load": 0.8086802097348471
  },
  {
    "temp": 178.68589782714844,
    "speed": 0,
    "load": 0.7911308791201002
  },
  {
    "temp": 178.6800079345703,
    "speed": 0,
    "load": 0.783943590451246
  },
  {
    "temp": 178.67530822753906,
    "speed": 0,
    "load": 0.7769326769644511
  },
  {
    "temp": 178.6753692626953,
    "speed": 0,
    "load": 0.7666588226095854
  },
  {
    "temp": 178.6715850830078,
    "speed": 0,
    "load": 0.743112735804873
  },
  {
    "temp": 178.66856384277344,
    "speed": 0,
    "load": 0.7286499708761358
  },
  {
    "temp": 178.66615295410156,
    "speed": 0,
    "load": 0.7161714267455501
  },
  {
    "temp": 178.6780548095703,
    "speed": 0,
    "load": 0.7065589793234022
  },
  {
    "temp": 178.67373657226562,
    "speed": 0,
    "load": 0.6688146903630408
  },
  {
    "temp": 178.6788330078125,
    "speed": 0,
    "load": 0.6631706845371923
  },
  {
    "temp": 178.6743621826172,
    "speed": 0,
    "load": 0.6524999860226988
  },
  {
    "temp": 178.6679229736328,
    "speed": 0,
    "load": 0.6390513783907927
  },
  {
    "temp": 178.66563415527344,
    "speed": 0,
    "load": 0.6282483984897542
  },
  {
    "temp": 178.67234802246094,
    "speed": 0,
    "load": 0.6241917693024259
  },
  {
    "temp": 178.66917419433594,
    "speed": 0,
    "load": 0.6161666985187981
  },
  {
    "temp": 178.67144775390625,
    "speed": 0,
    "load": 0.6040409047523259
  },
  {
    "temp": 178.677001953125,
    "speed": 0,
    "load": 0.6015275584080033
  },
  {
    "temp": 178.6814422607422,
    "speed": 0,
    "load": 0.5954426146270109
  },
  {
    "temp": 178.68499755859375,
    "speed": 0,
    "load": 0.5904600157338802
  },
  {
    "temp": 178.69180297851562,
    "speed": 0,
    "load": 0.5856096982272909
  },
  {
    "temp": 178.6932830810547,
    "speed": 0,
    "load": 0.5786869723315231
  },
  {
    "temp": 178.69447326660156,
    "speed": 0,
    "load": 0.5802302551745289
  },
  {
    "temp": 178.69541931152344,
    "speed": 0,
    "load": 0.5789074413090969
  },
  {
    "temp": 178.705322265625,
    "speed": 0,
    "load": 0.5753358438724252
  },
  {
    "temp": 178.71263122558594,
    "speed": 0,
    "load": 0.575997250805143
  },
  {
    "temp": 178.72702026367188,
    "speed": 0,
    "load": 0.5684131179766592
  },
  {
    "temp": 178.73919677734375,
    "speed": 0,
    "load": 0.5678398986349702
  },
  {
    "temp": 178.73973083496094,
    "speed": 0,
    "load": 0.5636509880610987
  },
  {
    "temp": 178.7401580810547,
    "speed": 0,
    "load": 0.5657674902457916
  },
  {
    "temp": 178.74903869628906,
    "speed": 0,
    "load": 0.5572573877115055
  },
  {
    "temp": 178.7561492919922,
    "speed": 0,
    "load": 0.5577424194621639
  },
  {
    "temp": 178.77320861816406,
    "speed": 0,
    "load": 0.5515251942946282
  },
  {
    "temp": 178.7840118408203,
    "speed": 0,
    "load": 0.5528921019555764
  },
  {
    "temp": 178.7926483154297,
    "speed": 0,
    "load": 0.5485268161996455
  },
  {
    "temp": 178.8050994873047,
    "speed": 0,
    "load": 0.5486590975861887
  },
  {
    "temp": 178.8180694580078,
    "speed": 0,
    "load": 0.5473362837207549
  },
  {
    "temp": 178.8199005126953,
    "speed": 0,
    "load": 0.5528921019555764
  },
  {
    "temp": 178.8213653564453,
    "speed": 0,
    "load": 0.5508196935663978
  },
  {
    "temp": 178.82254028320312,
    "speed": 0,
    "load": 0.5468071581745821
  },
  {
    "temp": 178.8310546875,
    "speed": 0,
    "load": 0.5488354727682481
  },
  {
    "temp": 178.83883666992188,
    "speed": 0,
    "load": 0.5453961567181214
  },
  {
    "temp": 178.84506225585938,
    "speed": 0,
    "load": 0.5475567526983287
  },
  {
    "temp": 178.85003662109375,
    "speed": 0,
    "load": 0.5497614424740505
  },
  {
    "temp": 178.85037231445312,
    "speed": 0,
    "load": 0.5408104019846185
  },
  {
    "temp": 178.8457489013672,
    "speed": 0,
    "load": 0.542662341396225
  },
  {
    "temp": 178.8505859375,
    "speed": 0,
    "load": 0.5394434943236721
  },
  {
    "temp": 178.85446166992188,
    "speed": 0,
    "load": 0.5429269041693114
  },
  {
    "temp": 178.8668670654297,
    "speed": 0,
    "load": 0.5369301479793478
  },
  {
    "temp": 178.8674774169922,
    "speed": 0,
    "load": 0.5394434943236721
  },
  {
    "temp": 178.8679656982422,
    "speed": 0,
    "load": 0.5382088680492654
  },
  {
    "temp": 178.86868286132812,
    "speed": 0,
    "load": 0.530448360038724
  },
  {
    "temp": 178.8689422607422,
    "speed": 0,
    "load": 0.5281995764674878
  },
  {
    "temp": 178.869140625,
    "speed": 0,
    "load": 0.5266121998289695
  },
  {
    "temp": 178.8607635498047,
    "speed": 0,
    "load": 0.5299192344925512
  },
  {
    "temp": 178.8640594482422,
    "speed": 0,
    "load": 0.5227319458236988
  },
  {
    "temp": 178.856689453125,
    "speed": 0,
    "load": 0.5262153556693381
  },
  {
    "temp": 178.85079956054688,
    "speed": 0,
    "load": 0.5296105779239504
  },
  {
    "temp": 178.85462951660156,
    "speed": 0,
    "load": 0.5267444812155109
  },
  {
    "temp": 178.8516082763672,
    "speed": 0,
    "load": 0.529566484128436
  },
  {
    "temp": 178.8552703857422,
    "speed": 0,
    "load": 0.5264358246469119
  },
  {
    "temp": 178.8582000732422,
    "speed": 0,
    "load": 0.5262153556693381
  },
  {
    "temp": 178.8520050048828,
    "speed": 0,
    "load": 0.5283318578540328
  },
  {
    "temp": 178.8601531982422,
    "speed": 0,
    "load": 0.530801110402841
  },
  {
    "temp": 178.8621063232422,
    "speed": 0,
    "load": 0.5268326688065397
  },
  {
    "temp": 178.85513305664062,
    "speed": 0,
    "load": 0.5240106658936163
  },
  {
    "temp": 178.85362243652344,
    "speed": 0,
    "load": 0.5195571925466584
  },
  {
    "temp": 178.8568878173828,
    "speed": 0,
    "load": 0.5232169775743554
  },
  {
    "temp": 178.8594970703125,
    "speed": 0,
    "load": 0.5199981305018024
  },
  {
    "temp": 178.86158752441406,
    "speed": 0,
    "load": 0.5174847841574799
  },
  {
    "temp": 178.84922790527344,
    "speed": 0,
    "load": 0.5243193224622171
  },
  {
    "temp": 178.84483337402344,
    "speed": 0,
    "load": 0.5239224783025875
  },
  {
    "temp": 178.84130859375,
    "speed": 0,
    "load": 0.5144864060624972
  },
  {
    "temp": 178.8362274169922,
    "speed": 0,
    "load": 0.5156769385413877
  },
  {
    "temp": 178.8344268798828,
    "speed": 0,
    "load": 0.5177052531350519
  },
  {
    "temp": 178.83299255371094,
    "speed": 0,
    "load": 0.5207036312300328
  },
  {
    "temp": 178.8403778076172,
    "speed": 0,
    "load": 0.5220264450954666
  },
  {
    "temp": 178.83775329589844,
    "speed": 0,
    "load": 0.519733567728716
  },
  {
    "temp": 178.83396911621094,
    "speed": 0,
    "load": 0.5205272560479752
  },
  {
    "temp": 178.83262634277344,
    "speed": 0,
    "load": 0.5175288779529925
  },
  {
    "temp": 178.83154296875,
    "speed": 0,
    "load": 0.5170879399978485
  },
  {
    "temp": 178.83067321777344,
    "speed": 0,
    "load": 0.5171320337933647
  },
  {
    "temp": 178.82261657714844,
    "speed": 0,
    "load": 0.512678560446405
  },
  {
    "temp": 178.8235321044922,
    "speed": 0,
    "load": 0.5126344666508906
  },
  {
    "temp": 178.8242645263672,
    "speed": 0,
    "load": 0.5106943396482553
  },
  {
    "temp": 178.8077850341797,
    "speed": 0,
    "load": 0.5097683699424511
  },
  {
    "temp": 178.81167602539062,
    "speed": 0,
    "load": 0.5108707148303129
  },
  {
    "temp": 178.80625915527344,
    "speed": 0,
    "load": 0.5103415892841401
  },
  {
    "temp": 178.81381225585938,
    "speed": 0,
    "load": 0.5060203973237254
  },
  {
    "temp": 178.81649780273438,
    "speed": 0,
    "load": 0.5032424882063147
  },
  {
    "temp": 178.81011962890625,
    "speed": 0,
    "load": 0.5023165185005123
  },
  {
    "temp": 178.8050079345703,
    "speed": 0,
    "load": 0.5035952385704316
  },
  {
    "temp": 178.81300354003906,
    "speed": 0,
    "load": 0.5002882039068464
  },
  {
    "temp": 178.80731201171875,
    "speed": 0,
    "load": 0.50002364113376
  },
  {
    "temp": 178.79421997070312,
    "speed": 0,
    "load": 0.4980394203356102
  },
  {
    "temp": 178.8008270263672,
    "speed": 0,
    "load": 0.498568545881783
  },
  {
    "temp": 178.78643798828125,
    "speed": 0,
    "load": 0.4951292298316581
  },
  {
    "temp": 178.78607177734375,
    "speed": 0,
    "load": 0.497686669971495
  },
  {
    "temp": 178.7772216796875,
    "speed": 0,
    "load": 0.4953937926047445
  },
  {
    "temp": 178.7952117919922,
    "speed": 0,
    "load": 0.49226313312321857
  },
  {
    "temp": 178.7845458984375,
    "speed": 0,
    "load": 0.4936300407841667
  },
  {
    "temp": 178.7845458984375,
    "speed": 0,
    "load": 0.4942914477168845
  },
  {
    "temp": 178.79307556152344,
    "speed": 0,
    "load": 0.48869153568655044
  },
  {
    "temp": 178.7828369140625,
    "speed": 0,
    "load": 0.4861340955467117
  },
  {
    "temp": 178.76638793945312,
    "speed": 0,
    "load": 0.49676070026569086
  },
  {
    "temp": 178.761474609375,
    "speed": 0,
    "load": 0.4937182283751955
  },
  {
    "temp": 178.75755310058594,
    "speed": 0,
    "load": 0.49248360210079234
  },
  {
    "temp": 178.76043701171875,
    "speed": 0,
    "load": 0.49261588348733376
  },
  {
    "temp": 178.7652587890625,
    "speed": 0,
    "load": 0.4898820681654392
  },
  {
    "temp": 178.7691192626953,
    "speed": 0,
    "load": 0.4897938805744104
  },
  {
    "temp": 178.75514221191406,
    "speed": 0,
    "load": 0.4874128156166311
  },
  {
    "temp": 178.7572021484375,
    "speed": 0,
    "load": 0.4900584433474968
  },
  {
    "temp": 178.75413513183594,
    "speed": 0,
    "load": 0.48437034372613397
  },
  {
    "temp": 178.76022338867188,
    "speed": 0,
    "load": 0.48882381707309186
  },
  {
    "temp": 178.7650909423828,
    "speed": 0,
    "load": 0.49204266414564657
  },
  {
    "temp": 178.75843811035156,
    "speed": 0,
    "load": 0.49288044626042016
  },
  {
    "temp": 178.755126953125,
    "speed": 0,
    "load": 0.4909844130532992
  },
  {
    "temp": 178.76101684570312,
    "speed": 0,
    "load": 0.4896615991878672
  },
  {
    "temp": 178.7486572265625,
    "speed": 0,
    "load": 0.4908521316667578
  },
  {
    "temp": 178.7547607421875,
    "speed": 0,
    "load": 0.48904428605066563
  },
  {
    "temp": 178.76072692871094,
    "speed": 0,
    "load": 0.49191038275910337
  },
  {
    "temp": 178.74842834472656,
    "speed": 0,
    "load": 0.4946001042854835
  },
  {
    "temp": 178.76144409179688,
    "speed": 0,
    "load": 0.48820650393589027
  },
  {
    "temp": 178.7575225830078,
    "speed": 0,
    "load": 0.4878096597762607
  },
  {
    "temp": 178.77146911621094,
    "speed": 0,
    "load": 0.48441443752164837
  },
  {
    "temp": 178.7655487060547,
    "speed": 0,
    "load": 0.4902348185295544
  },
  {
    "temp": 178.76934814453125,
    "speed": 0,
    "load": 0.4897056929833816
  },
  {
    "temp": 178.77239990234375,
    "speed": 0,
    "load": 0.48922066123272323
  },
  {
    "temp": 178.7836151123047,
    "speed": 0,
    "load": 0.48847106670897666
  },
  {
    "temp": 178.7838134765625,
    "speed": 0,
    "load": 0.48895609845963683
  },
  {
    "temp": 178.79249572753906,
    "speed": 0,
    "load": 0.4866191272973719
  },
  {
    "temp": 178.7964630126953,
    "speed": 0,
    "load": 0.48542859481848133
  },
  {
    "temp": 178.8026123046875,
    "speed": 0,
    "load": 0.4835325616113604
  },
  {
    "temp": 178.8075408935547,
    "speed": 0,
    "load": 0.4839734995665044
  },
  {
    "temp": 178.8114776611328,
    "speed": 0,
    "load": 0.4867514086839133
  },
  {
    "temp": 178.79495239257812,
    "speed": 0,
    "load": 0.491204882030873
  },
  {
    "temp": 178.80140686035156,
    "speed": 0,
    "load": 0.4759925225783892
  },
  {
    "temp": 178.8065643310547,
    "speed": 0,
    "load": 0.48534040722745253
  },
  {
    "temp": 178.8071746826172,
    "speed": 0,
    "load": 0.48895609845963683
  },
  {
    "temp": 178.8026580810547,
    "speed": 0,
    "load": 0.48088693388049286
  },
  {
    "temp": 178.79904174804688,
    "speed": 0,
    "load": 0.48168062219975205
  },
  {
    "temp": 178.796142578125,
    "speed": 0,
    "load": 0.48467900029473476
  },
  {
    "temp": 178.8073272705078,
    "speed": 0,
    "load": 0.4819892787683546
  },
  {
    "temp": 178.81130981445312,
    "speed": 0,
    "load": 0.48406168715753317
  },
  {
    "temp": 178.8144989013672,
    "speed": 0,
    "load": 0.4757279598053028
  },
  {
    "temp": 178.812255859375,
    "speed": 0,
    "load": 0.47727124264830856
  },
  {
    "temp": 178.8067169189453,
    "speed": 0,
    "load": 0.4832239050427578
  },
  {
    "temp": 178.81082153320312,
    "speed": 0,
    "load": 0.4780649309675695
  },
  {
    "temp": 178.80557250976562,
    "speed": 0,
    "load": 0.4795641200150609
  },
  {
    "temp": 178.79629516601562,
    "speed": 0,
    "load": 0.47625708535147737
  },
  {
    "temp": 178.7939453125,
    "speed": 0,
    "load": 0.4759925225783892
  },
  {
    "temp": 178.80059814453125,
    "speed": 0,
    "load": 0.4788145254913143
  },
  {
    "temp": 178.80592346191406,
    "speed": 0,
    "load": 0.47744761783036616
  },
  {
    "temp": 178.8067626953125,
    "speed": 0,
    "load": 0.47369964521164043
  },
  {
    "temp": 178.8023223876953,
    "speed": 0,
    "load": 0.4758161473963316
  },
  {
    "temp": 178.8072967529297,
    "speed": 0,
    "load": 0.47771218060345255
  },
  {
    "temp": 178.811279296875,
    "speed": 0,
    "load": 0.4744492397353852
  },
  {
    "temp": 178.8170166015625,
    "speed": 0,
    "load": 0.4742287707578132
  },
  {
    "temp": 178.81906127929688,
    "speed": 0,
    "load": 0.46880523390953677
  },
  {
    "temp": 178.81216430664062,
    "speed": 0,
    "load": 0.4699957663884273
  },
  {
    "temp": 178.8175811767578,
    "speed": 0,
    "load": 0.4718917995955483
  },
  {
    "temp": 178.81097412109375,
    "speed": 0,
    "load": 0.4709217360942297
  },
  {
    "temp": 178.81422424316406,
    "speed": 0,
    "load": 0.46660054413381324
  },
  {
    "temp": 178.8188934326172,
    "speed": 0,
    "load": 0.4647045109266923
  },
  {
    "temp": 178.820556640625,
    "speed": 0,
    "load": 0.46505726129080927
  },
  {
    "temp": 178.8133544921875,
    "speed": 0,
    "load": 0.4675706076351318
  },
  {
    "temp": 178.81834411621094,
    "speed": 0,
    "load": 0.4661155123831566
  },
  {
    "temp": 178.81158447265625,
    "speed": 0,
    "load": 0.47321461346098026
  },
  {
    "temp": 178.81471252441406,
    "speed": 0,
    "load": 0.46893751529607997
  },
  {
    "temp": 178.8172149658203,
    "speed": 0,
    "load": 0.4664682627472718
  },
  {
    "temp": 178.81399536132812,
    "speed": 0,
    "load": 0.4705248919346001
  },
  {
    "temp": 178.81663513183594,
    "speed": 0,
    "load": 0.4642194791760357
  },
  {
    "temp": 178.81875610351562,
    "speed": 0,
    "load": 0.4633376032657459
  },
  {
    "temp": 178.82044982910156,
    "speed": 0,
    "load": 0.46598323099661165
  },
  {
    "temp": 178.81607055664062,
    "speed": 0,
    "load": 0.4709658298897441
  },
  {
    "temp": 178.81829833984375,
    "speed": 0,
    "load": 0.46580685581455405
  },
  {
    "temp": 178.82008361816406,
    "speed": 0,
    "load": 0.46633598136072685
  },
  {
    "temp": 178.81298828125,
    "speed": 0,
    "load": 0.46607141858764045
  },
  {
    "temp": 178.80958557128906,
    "speed": 0,
    "load": 0.46602732479212783
  },
  {
    "temp": 178.80458068847656,
    "speed": 0,
    "load": 0.4671296696799878
  },
  {
    "temp": 178.8005828857422,
    "speed": 0,
    "load": 0.4673501386575598
  },
  {
    "temp": 178.79737854003906,
    "speed": 0,
    "load": 0.4683642959543928
  },
  {
    "temp": 178.7927703857422,
    "speed": 0,
    "load": 0.4642635729715483
  },
  {
    "temp": 178.7825927734375,
    "speed": 0,
    "load": 0.4642635729715483
  },
  {
    "temp": 178.79151916503906,
    "speed": 0,
    "load": 0.46660054413381324
  },
  {
    "temp": 178.8043670654297,
    "speed": 0,
    "load": 0.4706571733211433
  },
  {
    "temp": 178.80894470214844,
    "speed": 0,
    "load": 0.4675265138396174
  },
  {
    "temp": 178.7955322265625,
    "speed": 0,
    "load": 0.47030442295702635
  },
  {
    "temp": 178.78985595703125,
    "speed": 0,
    "load": 0.4675706076351318
  },
  {
    "temp": 178.78880310058594,
    "speed": 0,
    "load": 0.46867295252299357
  },
  {
    "temp": 178.79649353027344,
    "speed": 0,
    "load": 0.46845248354542157
  },
  {
    "temp": 178.7941131591797,
    "speed": 0,
    "load": 0.4554889076641757
  },
  {
    "temp": 178.78384399414062,
    "speed": 0,
    "load": 0.45910459889635824
  },
  {
    "temp": 178.7925262451172,
    "speed": 0,
    "load": 0.4637785412208899
  },
  {
    "temp": 178.79946899414062,
    "speed": 0,
    "load": 0.46589504340558285
  },
  {
    "temp": 178.79649353027344,
    "speed": 0,
    "load": 0.46845248354542157
  },
  {
    "temp": 178.80264282226562,
    "speed": 0,
    "load": 0.4665564503383006
  },
  {
    "temp": 178.80296325683594,
    "speed": 0,
    "load": 0.4639549164029493
  },
  {
    "temp": 178.79928588867188,
    "speed": 0,
    "load": 0.4629407591061163
  },
  {
    "temp": 178.80487060546875,
    "speed": 0,
    "load": 0.46201478940031215
  },
  {
    "temp": 178.7890167236328,
    "speed": 0,
    "load": 0.45760540984886866
  },
  {
    "temp": 178.79666137695312,
    "speed": 0,
    "load": 0.45760540984886866
  },
  {
    "temp": 178.8027801513672,
    "speed": 0,
    "load": 0.46078016312590897
  },
  {
    "temp": 178.80303955078125,
    "speed": 0,
    "load": 0.4553566262776325
  },
  {
    "temp": 178.79934692382812,
    "speed": 0,
    "load": 0.45734084707578226
  },
  {
    "temp": 178.787841796875,
    "speed": 0,
    "load": 0.4637344474253755
  },
  {
    "temp": 178.79348754882812,
    "speed": 0,
    "load": 0.4629848529016307
  },
  {
    "temp": 178.80023193359375,
    "speed": 0,
    "load": 0.46161794524068256
  },
  {
    "temp": 178.79710388183594,
    "speed": 0,
    "load": 0.4607360693303928
  },
  {
    "temp": 178.7946014404297,
    "speed": 0,
    "load": 0.4596778182380472
  },
  {
    "temp": 178.78416442871094,
    "speed": 0,
    "load": 0.45756131605335426
  },
  {
    "temp": 178.77569580078125,
    "speed": 0,
    "load": 0.46086835071693777
  },
  {
    "temp": 178.7774658203125,
    "speed": 0,
    "load": 0.4638667288119205
  },
  {
    "temp": 178.79537963867188,
    "speed": 0,
    "load": 0.4562825959834349
  },
  {
    "temp": 178.793212890625,
    "speed": 0,
    "load": 0.45769359743989746
  },
  {
    "temp": 178.79148864746094,
    "speed": 0,
    "load": 0.4565471587565231
  },
  {
    "temp": 178.7986297607422,
    "speed": 0,
    "load": 0.4517409350454482
  },
  {
    "temp": 178.80435180664062,
    "speed": 0,
    "load": 0.4550038759135173
  },
  {
    "temp": 178.7972412109375,
    "speed": 0,
    "load": 0.45310784270639637
  },
  {
    "temp": 178.79470825195312,
    "speed": 0,
    "load": 0.4506826839531026
  },
  {
    "temp": 178.7926788330078,
    "speed": 0,
    "load": 0.45081496533964405
  },
  {
    "temp": 178.7982940673828,
    "speed": 0,
    "load": 0.4549156883224885
  },
  {
    "temp": 178.8040771484375,
    "speed": 0,
    "load": 0.4550920635045461
  },
  {
    "temp": 178.80870056152344,
    "speed": 0,
    "load": 0.45884003612327184
  },
  {
    "temp": 178.81536865234375,
    "speed": 0,
    "load": 0.45782587882644066
  },
  {
    "temp": 178.8092041015625,
    "speed": 0,
    "load": 0.4627643839240587
  },
  {
    "temp": 178.81280517578125,
    "speed": 0,
    "load": 0.4633816970612603
  },
  {
    "temp": 178.80091857910156,
    "speed": 0,
    "load": 0.46188250801376896
  },
  {
    "temp": 178.80618286132812,
    "speed": 0,
    "load": 0.46104472589899537
  },
  {
    "temp": 178.81039428710938,
    "speed": 0,
    "load": 0.4569440029161509
  },
  {
    "temp": 178.8164520263672,
    "speed": 0,
    "load": 0.45857547335018545
  },
  {
    "temp": 178.818603515625,
    "speed": 0,
    "load": 0.46236753976442735
  },
  {
    "temp": 178.82032775878906,
    "speed": 0,
    "load": 0.45800225400849826
  },
  {
    "temp": 178.81317138671875,
    "speed": 0,
    "load": 0.4595896306470184
  },
  {
    "temp": 178.8096923828125,
    "speed": 0,
    "load": 0.4546511255494021
  },
  {
    "temp": 178.81320190429688,
    "speed": 0,
    "load": 0.45337240547948277
  },
  {
    "temp": 178.81600952148438,
    "speed": 0,
    "load": 0.45116771570375924
  },
  {
    "temp": 178.81321716308594,
    "speed": 0,
    "load": 0.45350468686602596
  },
  {
    "temp": 178.81602478027344,
    "speed": 0,
    "load": 0.4625880087420011
  },
  {
    "temp": 178.81826782226562,
    "speed": 0,
    "load": 0.459986474806648
  },
  {
    "temp": 178.81295776367188,
    "speed": 0,
    "load": 0.4559298456193197
  },
  {
    "temp": 178.81581115722656,
    "speed": 0,
    "load": 0.4598100996245904
  },
  {
    "temp": 178.81809997558594,
    "speed": 0,
    "load": 0.4592368802829032
  },
  {
    "temp": 178.81993103027344,
    "speed": 0,
    "load": 0.4533283116839666
  },
  {
    "temp": 178.82139587402344,
    "speed": 0,
    "load": 0.4565912525520357
  },
  {
    "temp": 178.823486328125,
    "speed": 0,
    "load": 0.4561503145968917
  },
  {
    "temp": 178.81570434570312,
    "speed": 0,
    "load": 0.4533283116839666
  },
  {
    "temp": 178.81800842285156,
    "speed": 0,
    "load": 0.4517409350454482
  },
  {
    "temp": 178.81985473632812,
    "speed": 0,
    "load": 0.45522434489108754
  },
  {
    "temp": 178.822509765625,
    "speed": 0,
    "load": 0.45319603029742517
  },
  {
    "temp": 178.82345581054688,
    "speed": 0,
    "load": 0.452490529569193
  },
  {
    "temp": 178.82420349121094,
    "speed": 0,
    "load": 0.4591486926918744
  },
  {
    "temp": 178.82481384277344,
    "speed": 0,
    "load": 0.45403381241219876
  },
  {
    "temp": 178.82530212402344,
    "speed": 0,
    "load": 0.4548275007314597
  },
  {
    "temp": 178.8174591064453,
    "speed": 0,
    "load": 0.45478340693594355
  },
  {
    "temp": 178.8194122314453,
    "speed": 0,
    "load": 0.4553566262776325
  },
  {
    "temp": 178.8209686279297,
    "speed": 0,
    "load": 0.45756131605335426
  },
  {
    "temp": 178.8222198486328,
    "speed": 0,
    "load": 0.46144157005862496
  },
  {
    "temp": 178.8240203857422,
    "speed": 0,
    "load": 0.4602951313752488
  },
  {
    "temp": 178.8246612548828,
    "speed": 0,
    "load": 0.459325067873932
  },
  {
    "temp": 178.82518005371094,
    "speed": 0,
    "load": 0.4583550043726152
  },
  {
    "temp": 178.82559204101562,
    "speed": 0,
    "load": 0.4570321905071797
  },
  {
    "temp": 178.826171875,
    "speed": 0,
    "load": 0.45381334343462676
  },
  {
    "temp": 178.82638549804688,
    "speed": 0,
    "load": 0.45429837518528515
  },
  {
    "temp": 178.81802368164062,
    "speed": 0,
    "load": 0.4549156883224885
  },
  {
    "temp": 178.8198699951172,
    "speed": 0,
    "load": 0.45381334343462676
  },
  {
    "temp": 178.81280517578125,
    "speed": 0,
    "load": 0.45522434489108754
  },
  {
    "temp": 178.80715942382812,
    "speed": 0,
    "load": 0.4552684386866037
  },
  {
    "temp": 178.8143768310547,
    "speed": 0,
    "load": 0.45875184853224305
  },
  {
    "temp": 178.8169403076172,
    "speed": 0,
    "load": 0.4512118094992754
  },
  {
    "temp": 178.8104705810547,
    "speed": 0,
    "load": 0.4553566262776325
  },
  {
    "temp": 178.81651306152344,
    "speed": 0,
    "load": 0.45425428138977075
  },
  {
    "temp": 178.8186492919922,
    "speed": 0,
    "load": 0.4565030649610069
  },
  {
    "temp": 178.8203582763672,
    "speed": 0,
    "load": 0.4555330014596901
  },
  {
    "temp": 178.80575561523438,
    "speed": 0,
    "load": 0.45522434489108754
  },
  {
    "temp": 178.801513671875,
    "speed": 0,
    "load": 0.45773769123541186
  },
  {
    "temp": 178.79812622070312,
    "speed": 0,
    "load": 0.4586195671457016
  },
  {
    "temp": 178.79541015625,
    "speed": 0,
    "load": 0.452490529569193
  },
  {
    "temp": 178.79319763183594,
    "speed": 0,
    "load": 0.45363696825256916
  },
  {
    "temp": 178.79147338867188,
    "speed": 0,
    "load": 0.4592809740784176
  },
  {
    "temp": 178.79010009765625,
    "speed": 0,
    "load": 0.4602510375797362
  },
  {
    "temp": 178.78811645507812,
    "speed": 0,
    "load": 0.4594573492604752
  },
  {
    "temp": 178.7959442138672,
    "speed": 0,
    "load": 0.45760540984886866
  },
  {
    "temp": 178.79367065429688,
    "speed": 0,
    "load": 0.4525787171602236
  },
  {
    "temp": 178.7904052734375,
    "speed": 0,
    "load": 0.4561944083924061
  },
  {
    "temp": 178.78070068359375,
    "speed": 0,
    "load": 0.4525346233647074
  },
  {
    "temp": 178.77293395996094,
    "speed": 0,
    "load": 0.459766005829076
  },
  {
    "temp": 178.7515106201172,
    "speed": 0,
    "load": 0.4607360693303928
  },
  {
    "temp": 178.74957275390625,
    "speed": 0,
    "load": 0.4604715065573064
  },
  {
    "temp": 178.739501953125,
    "speed": 0,
    "load": 0.4557975642327765
  },
  {
    "temp": 178.74851989746094,
    "speed": 0,
    "load": 0.4565030649610069
  },
  {
    "temp": 178.76426696777344,
    "speed": 0,
    "load": 0.45438656277631395
  },
  {
    "temp": 178.77685546875,
    "speed": 0,
    "load": 0.4565030649610069
  },
  {
    "temp": 178.77963256835938,
    "speed": 0,
    "load": 0.45809044159952705
  },
  {
    "temp": 178.78062438964844,
    "speed": 0,
    "load": 0.45372515584359796
  },
  {
    "temp": 178.76434326171875,
    "speed": 0,
    "load": 0.4586195671457016
  },
  {
    "temp": 178.7598419189453,
    "speed": 0,
    "load": 0.4517409350454482
  },
  {
    "temp": 178.76019287109375,
    "speed": 0,
    "load": 0.45372515584359796
  },
  {
    "temp": 178.76507568359375,
    "speed": 0,
    "load": 0.45310784270639637
  },
  {
    "temp": 178.76898193359375,
    "speed": 0,
    "load": 0.45813453539504145
  },
  {
    "temp": 178.78062438964844,
    "speed": 0,
    "load": 0.45522434489108754
  },
  {
    "temp": 178.7814178466797,
    "speed": 0,
    "load": 0.45134409088581684
  },
  {
    "temp": 178.7825469970703,
    "speed": 0,
    "load": 0.44966852665626966
  },
  {
    "temp": 178.7744140625,
    "speed": 0,
    "load": 0.4526669047512524
  },
  {
    "temp": 178.7678985595703,
    "speed": 0,
    "load": 0.45372515584359796
  },
  {
    "temp": 178.771240234375,
    "speed": 0,
    "load": 0.4510354343172178
  },
  {
    "temp": 178.78457641601562,
    "speed": 0,
    "load": 0.4490953073145807
  },
  {
    "temp": 178.77603149414062,
    "speed": 0,
    "load": 0.4555770952552045
  },
  {
    "temp": 178.77774047851562,
    "speed": 0,
    "load": 0.4517409350454482
  },
  {
    "temp": 178.77056884765625,
    "speed": 0,
    "load": 0.44274580076050185
  },
  {
    "temp": 178.76707458496094,
    "speed": 0,
    "load": 0.44966852665626966
  },
  {
    "temp": 178.77056884765625,
    "speed": 0,
    "load": 0.45385743723014116
  },
  {
    "temp": 178.76483154296875,
    "speed": 0,
    "load": 0.4517850288409626
  },
  {
    "temp": 178.76878356933594,
    "speed": 0,
    "load": 0.4555330014596901
  },
  {
    "temp": 178.76763916015625,
    "speed": 0,
    "load": 0.4529755613198514
  },
  {
    "temp": 178.77102661132812,
    "speed": 0,
    "load": 0.4529755613198514
  },
  {
    "temp": 178.7822723388672,
    "speed": 0,
    "load": 0.452049591614049
  },
  {
    "temp": 178.76771545410156,
    "speed": 0,
    "load": 0.4554448138686613
  },
  {
    "temp": 178.76254272460938,
    "speed": 0,
    "load": 0.4563707835744655
  },
  {
    "temp": 178.76695251464844,
    "speed": 0,
    "load": 0.45293146752433877
  },
  {
    "temp": 178.78182983398438,
    "speed": 0,
    "load": 0.451608653658905
  },
  {
    "temp": 178.78237915039062,
    "speed": 0,
    "load": 0.45531253248211634
  },
  {
    "temp": 178.79135131835938,
    "speed": 0,
    "load": 0.4527550923422812
  },
  {
    "temp": 178.7957305908203,
    "speed": 0,
    "load": 0.4544747503673445
  },
  {
    "temp": 178.7935028076172,
    "speed": 0,
    "load": 0.45385743723014116
  },
  {
    "temp": 178.79171752929688,
    "speed": 0,
    "load": 0.45301965511536757
  },
  {
    "temp": 178.78173828125,
    "speed": 0,
    "load": 0.4518732164319914
  },
  {
    "temp": 178.75885009765625,
    "speed": 0,
    "load": 0.4488748383370105
  },
  {
    "temp": 178.7639923095703,
    "speed": 0,
    "load": 0.451608653658905
  },
  {
    "temp": 178.77664184570312,
    "speed": 0,
    "load": 0.44693471133437335
  },
  {
    "temp": 178.7948455810547,
    "speed": 0,
    "load": 0.44627330440165736
  },
  {
    "temp": 178.8013153076172,
    "speed": 0,
    "load": 0.44958033906524086
  },
  {
    "temp": 178.80650329589844,
    "speed": 0,
    "load": 0.450947246726189
  },
  {
    "temp": 178.79861450195312,
    "speed": 0,
    "load": 0.45385743723014116
  },
  {
    "temp": 178.80433654785156,
    "speed": 0,
    "load": 0.4529755613198514
  },
  {
    "temp": 178.8089141845703,
    "speed": 0,
    "load": 0.4490953073145807
  },
  {
    "temp": 178.8125762939453,
    "speed": 0,
    "load": 0.44667014856128695
  },
  {
    "temp": 178.7939453125,
    "speed": 0,
    "load": 0.4526669047512524
  },
  {
    "temp": 178.80059814453125,
    "speed": 0,
    "load": 0.4556211890507189
  },
  {
    "temp": 178.80592346191406,
    "speed": 0,
    "load": 0.44966852665626966
  },
  {
    "temp": 178.8101806640625,
    "speed": 0,
    "load": 0.4525787171602236
  },
  {
    "temp": 178.78558349609375,
    "speed": 0,
    "load": 0.4565471587565231
  },
  {
    "temp": 178.78538513183594,
    "speed": 0,
    "load": 0.45385743723014116
  },
  {
    "temp": 178.7937469482422,
    "speed": 0,
    "load": 0.4553566262776325
  },
  {
    "temp": 178.80044555664062,
    "speed": 0,
    "load": 0.45363696825256916
  },
  {
    "temp": 178.8015594482422,
    "speed": 0,
    "load": 0.4595896306470184
  },
  {
    "temp": 178.79815673828125,
    "speed": 0,
    "load": 0.45495978211800114
  },
  {
    "temp": 178.80397033691406,
    "speed": 0,
    "load": 0.4527550923422812
  },
  {
    "temp": 178.7969970703125,
    "speed": 0,
    "load": 0.45421018759425635
  },
  {
    "temp": 178.7945098876953,
    "speed": 0,
    "load": 0.4506826839531026
  },
  {
    "temp": 178.80105590820312,
    "speed": 0,
    "load": 0.4557534704372621
  },
  {
    "temp": 178.8104705810547,
    "speed": 0,
    "load": 0.4490953073145807
  },
  {
    "temp": 178.7967529296875,
    "speed": 0,
    "load": 0.4437158642618204
  },
  {
    "temp": 178.80284118652344,
    "speed": 0,
    "load": 0.4468906175388607
  },
  {
    "temp": 178.80772399902344,
    "speed": 0,
    "load": 0.4534164992749954
  },
  {
    "temp": 178.8147430419922,
    "speed": 0,
    "load": 0.45390153102565556
  },
  {
    "temp": 178.81724548339844,
    "speed": 0,
    "load": 0.4563266897789493
  },
  {
    "temp": 178.81924438476562,
    "speed": 0,
    "load": 0.44622921060614296
  },
  {
    "temp": 178.8067626953125,
    "speed": 0,
    "load": 0.45134409088581684
  },
  {
    "temp": 178.81085205078125,
    "speed": 0,
    "load": 0.4512999970903042
  },
  {
    "temp": 178.8141326904297,
    "speed": 0,
    "load": 0.4521377792050778
  },
  {
    "temp": 178.8082275390625,
    "speed": 0,
    "load": 0.452490529569193
  },
  {
    "temp": 178.81202697753906,
    "speed": 0,
    "load": 0.4554007200731469
  },
  {
    "temp": 178.80213928222656,
    "speed": 0,
    "load": 0.45394562482116996
  },
  {
    "temp": 178.7986297607422,
    "speed": 0,
    "load": 0.4548275007314597
  },
  {
    "temp": 178.80435180664062,
    "speed": 0,
    "load": 0.45394562482116996
  },
  {
    "temp": 178.7972412109375,
    "speed": 0,
    "load": 0.4553566262776325
  },
  {
    "temp": 178.80323791503906,
    "speed": 0,
    "load": 0.45857547335018545
  },
  {
    "temp": 178.8080291748047,
    "speed": 0,
    "load": 0.45875184853224305
  },
  {
    "temp": 178.7825164794922,
    "speed": 0,
    "load": 0.45046221497552885
  },
  {
    "temp": 178.78292846679688,
    "speed": 0,
    "load": 0.44737564928951734
  },
  {
    "temp": 178.78326416015625,
    "speed": 0,
    "load": 0.4520054978185346
  },
  {
    "temp": 178.79055786132812,
    "speed": 0,
    "load": 0.44988899563384166
  },
  {
    "temp": 178.7978973388672,
    "speed": 0,
    "load": 0.4495362452697247
  },
  {
    "temp": 178.78668212890625,
    "speed": 0,
    "load": 0.44675833615231575
  },
  {
    "temp": 178.7862548828125,
    "speed": 0,
    "load": 0.4490953073145807
  },
  {
    "temp": 178.777099609375,
    "speed": 0,
    "load": 0.4565471587565231
  },
  {
    "temp": 178.77859497070312,
    "speed": 0,
    "load": 0.45099134052170164
  },
  {
    "temp": 178.771240234375,
    "speed": 0,
    "load": 0.45107952811273044
  },
  {
    "temp": 178.76239013671875,
    "speed": 0,
    "load": 0.4510354343172178
  },
  {
    "temp": 178.76683044433594,
    "speed": 0,
    "load": 0.45284327993331
  },
  {
    "temp": 178.7618408203125,
    "speed": 0,
    "load": 0.452490529569193
  },
  {
    "temp": 178.75784301757812,
    "speed": 0,
    "load": 0.4558416580282909
  },
  {
    "temp": 178.7520751953125,
    "speed": 0,
    "load": 0.4527991861377938
  },
  {
    "temp": 178.75003051757812,
    "speed": 0,
    "load": 0.4489189321325231
  },
  {
    "temp": 178.75694274902344,
    "speed": 0,
    "load": 0.44627330440165736
  },
  {
    "temp": 178.74539184570312,
    "speed": 0,
    "load": 0.45403381241219876
  },
  {
    "temp": 178.7373046875,
    "speed": 0,
    "load": 0.45019765220244246
  },
  {
    "temp": 178.74676513671875,
    "speed": 0,
    "load": 0.452490529569193
  },
  {
    "temp": 178.7372589111328,
    "speed": 0,
    "load": 0.45050630877104325
  },
  {
    "temp": 178.72964477539062,
    "speed": 0,
    "load": 0.44644967958371495
  },
  {
    "temp": 178.74258422851562,
    "speed": 0,
    "load": 0.44331902010218904
  },
  {
    "temp": 178.73390197753906,
    "speed": 0,
    "load": 0.44966852665626966
  },
  {
    "temp": 178.74403381347656,
    "speed": 0,
    "load": 0.44609692921959976
  },
  {
    "temp": 178.73641967773438,
    "speed": 0,
    "load": 0.4483898065863503
  },
  {
    "temp": 178.72897338867188,
    "speed": 0,
    "load": 0.4485661817684079
  },
  {
    "temp": 178.73155212402344,
    "speed": 0,
    "load": 0.44323083251116024
  },
  {
    "temp": 178.72508239746094,
    "speed": 0,
    "load": 0.4436276766707916
  },
  {
    "temp": 178.7311248779297,
    "speed": 0,
    "load": 0.4444213649900508
  },
  {
    "temp": 178.7418212890625,
    "speed": 0,
    "load": 0.44270170696498745
  },
  {
    "temp": 178.7418212890625,
    "speed": 0,
    "load": 0.4415993620771257
  },
  {
    "temp": 178.7503662109375,
    "speed": 0,
    "load": 0.43979151646103354
  },
  {
    "temp": 178.7572021484375,
    "speed": 0,
    "load": 0.4455678036734252
  },
  {
    "temp": 178.77120971679688,
    "speed": 0,
    "load": 0.44270170696498745
  },
  {
    "temp": 178.7738800048828,
    "speed": 0,
    "load": 0.44287808214704505
  },
  {
    "temp": 178.7862548828125,
    "speed": 0,
    "load": 0.44631739819717176
  },
  {
    "temp": 178.79444885253906,
    "speed": 0,
    "load": 0.44627330440165736
  },
  {
    "temp": 178.783935546875,
    "speed": 0,
    "load": 0.4421284876232985
  },
  {
    "temp": 178.76878356933594,
    "speed": 0,
    "load": 0.4449504905362236
  },
  {
    "temp": 178.77194213867188,
    "speed": 0,
    "load": 0.44340720769321784
  },
  {
    "temp": 178.77447509765625,
    "speed": 0,
    "load": 0.43864507777765915
  },
  {
    "temp": 178.79345703125,
    "speed": 0,
    "load": 0.4414229868950681
  },
  {
    "temp": 178.8002166748047,
    "speed": 0,
    "load": 0.4417757372591833
  },
  {
    "temp": 178.8056182861328,
    "speed": 0,
    "load": 0.4415993620771257
  },
  {
    "temp": 178.8099365234375,
    "speed": 0,
    "load": 0.4360435438423078
  },
  {
    "temp": 178.816162109375,
    "speed": 0,
    "load": 0.4368813259570814
  },
  {
    "temp": 178.80984497070312,
    "speed": 0,
    "load": 0.4367931383660526
  },
  {
    "temp": 178.81332397460938,
    "speed": 0,
    "load": 0.43582307486473404
  },
  {
    "temp": 178.81832885742188,
    "speed": 0,
    "load": 0.4394828598924345
  },
  {
    "temp": 178.8201141357422,
    "speed": 0,
    "load": 0.4371899825256822
  },
  {
    "temp": 178.821533203125,
    "speed": 0,
    "load": 0.4340152292486419
  },
  {
    "temp": 178.82359313964844,
    "speed": 0,
    "load": 0.43776320186737117
  },
  {
    "temp": 178.82432556152344,
    "speed": 0,
    "load": 0.4365726693884806
  },
  {
    "temp": 178.81637573242188,
    "speed": 0,
    "load": 0.4367490445705382
  },
  {
    "temp": 178.81854248046875,
    "speed": 0,
    "load": 0.43626401281987803
  },
  {
    "temp": 178.82167053222656,
    "speed": 0,
    "load": 0.4357789810692214
  },
  {
    "temp": 178.82278442382812,
    "speed": 0,
    "load": 0.438160046026999
  },
  {
    "temp": 178.82366943359375,
    "speed": 0,
    "load": 0.43908601573280315
  },
  {
    "temp": 178.824951171875,
    "speed": 0,
    "load": 0.43758682668531357
  },
  {
    "temp": 178.82540893554688,
    "speed": 0,
    "load": 0.4365285755929662
  },
  {
    "temp": 178.82577514648438,
    "speed": 0,
    "load": 0.4368813259570814
  },
  {
    "temp": 178.81776428222656,
    "speed": 0,
    "load": 0.43516166793201805
  },
  {
    "temp": 178.8196563720703,
    "speed": 0,
    "load": 0.43996789164309114
  },
  {
    "temp": 178.8211669921875,
    "speed": 0,
    "load": 0.43930648471037514
  },
  {
    "temp": 178.82237243652344,
    "speed": 0,
    "load": 0.43851279639111596
  },
  {
    "temp": 178.8148193359375,
    "speed": 0,
    "load": 0.4375427328897974
  },
  {
    "temp": 178.8173065185547,
    "speed": 0,
    "load": 0.43617582522884923
  },
  {
    "temp": 178.8208770751953,
    "speed": 0,
    "load": 0.43247194640563613
  },
  {
    "temp": 178.8221435546875,
    "speed": 0,
    "load": 0.43194282085946334
  },
  {
    "temp": 178.81463623046875,
    "speed": 0,
    "load": 0.43154597669983374
  },
  {
    "temp": 178.8191680908203,
    "speed": 0,
    "load": 0.42991450626580097
  },
  {
    "temp": 178.82078552246094,
    "speed": 0,
    "load": 0.4295176621061696
  },
  {
    "temp": 178.81353759765625,
    "speed": 0,
    "load": 0.42797437926316384
  },
  {
    "temp": 178.8077392578125,
    "speed": 0,
    "load": 0.4281948482407376
  },
  {
    "temp": 178.81163024902344,
    "speed": 0,
    "load": 0.4294735683106552
  },
  {
    "temp": 178.81040954589844,
    "speed": 0,
    "load": 0.43092866356263215
  },
  {
    "temp": 178.80523681640625,
    "speed": 0,
    "load": 0.4260342522605285
  },
  {
    "temp": 178.80963134765625,
    "speed": 0,
    "load": 0.42400593766686434
  },
  {
    "temp": 178.80462646484375,
    "speed": 0,
    "load": 0.42850350480933663
  },
  {
    "temp": 178.80422973632812,
    "speed": 0,
    "load": 0.43533804311407565
  },
  {
    "temp": 178.80029296875,
    "speed": 0,
    "load": 0.4344561672037859
  },
  {
    "temp": 178.79714965820312,
    "speed": 0,
    "load": 0.42700431576184705
  },
  {
    "temp": 178.79261779785156,
    "speed": 0,
    "load": 0.4294735683106552
  },
  {
    "temp": 178.79954528808594,
    "speed": 0,
    "load": 0.42347681212069155
  },
  {
    "temp": 178.80508422851562,
    "speed": 0,
    "load": 0.42268312380143236
  },
  {
    "temp": 178.7959747314453,
    "speed": 0,
    "load": 0.4232563431431178
  },
  {
    "temp": 178.78515625,
    "speed": 0,
    "load": 0.42338862452966275
  },
  {
    "temp": 178.7850341796875,
    "speed": 0,
    "load": 0.4308404759716016
  },
  {
    "temp": 178.7848663330078,
    "speed": 0,
    "load": 0.4256815018964133
  },
  {
    "temp": 178.77626037597656,
    "speed": 0,
    "load": 0.422065810664229
  },
  {
    "temp": 178.77792358398438,
    "speed": 0,
    "load": 0.4219335292776858
  },
  {
    "temp": 178.76217651367188,
    "speed": 0,
    "load": 0.42347681212069155
  },
  {
    "temp": 178.76341247558594,
    "speed": 0,
    "load": 0.4221980920507722
  },
  {
    "temp": 178.75909423828125,
    "speed": 0,
    "load": 0.4232563431431178
  },
  {
    "temp": 178.76419067382812,
    "speed": 0,
    "load": 0.4213603099359968
  },
  {
    "temp": 178.7682647705078,
    "speed": 0,
    "load": 0.4155840227236052
  },
  {
    "temp": 178.75875854492188,
    "speed": 0,
    "load": 0.4185383070230735
  },
  {
    "temp": 178.763916015625,
    "speed": 0,
    "load": 0.41712730556661093
  },
  {
    "temp": 178.76622009277344,
    "speed": 0,
    "load": 0.41315886397031143
  },
  {
    "temp": 178.7698974609375,
    "speed": 0,
    "load": 0.41298248878825383
  },
  {
    "temp": 178.76663208007812,
    "speed": 0,
    "load": 0.414349396449202
  },
  {
    "temp": 178.7702178955078,
    "speed": 0,
    "load": 0.4139966460850868
  },
  {
    "temp": 178.76454162597656,
    "speed": 0,
    "load": 0.41593677308772214
  },
  {
    "temp": 178.760009765625,
    "speed": 0,
    "load": 0.4141730212671444
  },
  {
    "temp": 178.75518798828125,
    "speed": 0,
    "load": 0.4096313603291559
  },
  {
    "temp": 178.7525177001953,
    "speed": 0,
    "load": 0.41174786251385065
  },
  {
    "temp": 178.75038146972656,
    "speed": 0,
    "load": 0.41536355374603495
  },
  {
    "temp": 178.7657470703125,
    "speed": 0,
    "load": 0.4140848336761156
  },
  {
    "temp": 178.7486114501953,
    "speed": 0,
    "load": 0.41315886397031143
  },
  {
    "temp": 178.74725341796875,
    "speed": 0,
    "load": 0.4177005249082999
  },
  {
    "temp": 178.76324462890625,
    "speed": 0,
    "load": 0.413335239152369
  },
  {
    "temp": 178.7794647216797,
    "speed": 0,
    "load": 0.41245336324208104
  },
  {
    "temp": 178.77194213867188,
    "speed": 0,
    "load": 0.4146580530178028
  },
  {
    "temp": 178.76593017578125,
    "speed": 0,
    "load": 0.41628952345183734
  },
  {
    "temp": 178.7555694580078,
    "speed": 0,
    "load": 0.4144816778357452
  },
  {
    "temp": 178.74429321289062,
    "speed": 0,
    "load": 0.4139966460850868
  },
  {
    "temp": 178.75234985351562,
    "speed": 0,
    "load": 0.4155840227236052
  },
  {
    "temp": 178.74171447753906,
    "speed": 0,
    "load": 0.4108659866035609
  },
  {
    "temp": 178.7434844970703,
    "speed": 0,
    "load": 0.41240926944656664
  },
  {
    "temp": 178.7431640625,
    "speed": 0,
    "load": 0.41148329974076425
  },
  {
    "temp": 178.75144958496094,
    "speed": 0,
    "load": 0.40852901544129594
  },
  {
    "temp": 178.74952697753906,
    "speed": 0,
    "load": 0.4060597628924878
  },
  {
    "temp": 178.75531005859375,
    "speed": 0,
    "load": 0.40795579609960875
  },
  {
    "temp": 178.76116943359375,
    "speed": 0,
    "load": 0.4066770760296894
  },
  {
    "temp": 178.75730895996094,
    "speed": 0,
    "load": 0.40019528808906735
  },
  {
    "temp": 178.76275634765625,
    "speed": 0,
    "load": 0.4060156690969716
  },
  {
    "temp": 178.7859649658203,
    "speed": 0,
    "load": 0.406280231870058
  },
  {
    "temp": 178.7856903076172,
    "speed": 0,
    "load": 0.4023117902737585
  },
  {
    "temp": 178.7939910888672,
    "speed": 0,
    "load": 0.4026645406378755
  },
  {
    "temp": 178.7906036376953,
    "speed": 0,
    "load": 0.4132029577658276
  },
  {
    "temp": 178.7979278564453,
    "speed": 0,
    "load": 0.40486923041359724
  },
  {
    "temp": 178.8037872314453,
    "speed": 0,
    "load": 0.4023117902737585
  },
  {
    "temp": 178.80369567871094,
    "speed": 0,
    "load": 0.4095872665336433
  },
  {
    "temp": 178.8083953857422,
    "speed": 0,
    "load": 0.41293839499273943
  },
  {
    "temp": 178.8036346435547,
    "speed": 0,
    "load": 0.4067211698252038
  },
  {
    "temp": 178.8052978515625,
    "speed": 0,
    "load": 0.4031054785930195
  },
  {
    "temp": 178.8011474609375,
    "speed": 0,
    "load": 0.40151810195449933
  },
  {
    "temp": 178.80636596679688,
    "speed": 0,
    "load": 0.40098897640832654
  },
  {
    "temp": 178.81053161621094,
    "speed": 0,
    "load": 0.40447238625396764
  },
  {
    "temp": 178.8011932373047,
    "speed": 0,
    "load": 0.40491332420911164
  },
  {
    "temp": 178.79786682128906,
    "speed": 0,
    "load": 0.4036786979347067
  },
  {
    "temp": 178.7952117919922,
    "speed": 0,
    "load": 0.4060597628924878
  },
  {
    "temp": 178.80162048339844,
    "speed": 0,
    "load": 0.4114392059452481
  },
  {
    "temp": 178.8108367919922,
    "speed": 0,
    "load": 0.405839293914914
  },
  {
    "temp": 178.81411743164062,
    "speed": 0,
    "load": 0.40120944538589853
  },
  {
    "temp": 178.81674194335938,
    "speed": 0,
    "load": 0.40473694902705404
  },
  {
    "temp": 178.8205108642578,
    "speed": 0,
    "load": 0.40398735450330925
  },
  {
    "temp": 178.81332397460938,
    "speed": 0,
    "load": 0.4018708523186145
  },
  {
    "temp": 178.81610107421875,
    "speed": 0,
    "load": 0.40041575706663757
  },
  {
    "temp": 178.81832885742188,
    "speed": 0,
    "load": 0.3996220687473784
  },
  {
    "temp": 178.821533203125,
    "speed": 0,
    "load": 0.39688825342548206
  },
  {
    "temp": 178.8226776123047,
    "speed": 0,
    "load": 0.39741737897165663
  },
  {
    "temp": 178.82359313964844,
    "speed": 0,
    "load": 0.3950363140138773
  },
  {
    "temp": 178.81808471679688,
    "speed": 0,
    "load": 0.39715281619857024
  },
  {
    "temp": 178.81138610839844,
    "speed": 0,
    "load": 0.3903623716893474
  },
  {
    "temp": 178.81455993652344,
    "speed": 0,
    "load": 0.38974505855214403
  },
  {
    "temp": 178.81912231445312,
    "speed": 0,
    "load": 0.3979465045178312
  },
  {
    "temp": 178.82073974609375,
    "speed": 0,
    "load": 0.40037166327112494
  },
  {
    "temp": 178.82203674316406,
    "speed": 0,
    "load": 0.39741737897165663
  },
  {
    "temp": 178.8230743408203,
    "speed": 0,
    "load": 0.3956095333555645
  },
  {
    "temp": 178.82456970214844,
    "speed": 0,
    "load": 0.3992252245877488
  },
  {
    "temp": 178.8165740966797,
    "speed": 0,
    "load": 0.3914647165772074
  },
  {
    "temp": 178.81871032714844,
    "speed": 0,
    "load": 0.3957418147421077
  },
  {
    "temp": 178.82177734375,
    "speed": 0,
    "load": 0.3960945651062229
  },
  {
    "temp": 178.82286071777344,
    "speed": 0,
    "load": 0.3915969979637506
  },
  {
    "temp": 178.82373046875,
    "speed": 0,
    "load": 0.3915969979637506
  },
  {
    "temp": 178.8249969482422,
    "speed": 0,
    "load": 0.3979905983133438
  },
  {
    "temp": 178.825439453125,
    "speed": 0,
    "load": 0.3988283804281192
  },
  {
    "temp": 178.82579040527344,
    "speed": 0,
    "load": 0.3960063775151941
  },
  {
    "temp": 178.82630920410156,
    "speed": 0,
    "load": 0.39243478007852595
  },
  {
    "temp": 178.81796264648438,
    "speed": 0,
    "load": 0.398784286632603
  },
  {
    "temp": 178.81980895996094,
    "speed": 0,
    "load": 0.3977701293357718
  },
  {
    "temp": 178.80540466308594,
    "speed": 0,
    "load": 0.40116535159038413
  },
  {
    "temp": 178.80123901367188,
    "speed": 0,
    "load": 0.39291981182918256
  },
  {
    "temp": 178.8064422607422,
    "speed": 0,
    "load": 0.39741737897165663
  },
  {
    "temp": 178.8139190673828,
    "speed": 0,
    "load": 0.39605047131071025
  },
  {
    "temp": 178.80804443359375,
    "speed": 0,
    "load": 0.39653550306136687
  },
  {
    "temp": 178.81187438964844,
    "speed": 0,
    "load": 0.39622684649276785
  },
  {
    "temp": 178.81494140625,
    "speed": 0,
    "load": 0.399577974951864
  },
  {
    "temp": 178.81936645507812,
    "speed": 0,
    "load": 0.39340484357984273
  },
  {
    "temp": 178.82093811035156,
    "speed": 0,
    "load": 0.3913765289861786
  },
  {
    "temp": 178.7965850830078,
    "speed": 0,
    "load": 0.39710872240305584
  },
  {
    "temp": 178.80271911621094,
    "speed": 0,
    "load": 0.3999748191114936
  },
  {
    "temp": 178.80471801757812,
    "speed": 0,
    "load": 0.3990488494056912
  },
  {
    "temp": 178.80068969726562,
    "speed": 0,
    "load": 0.39375759394395793
  },
  {
    "temp": 178.79747009277344,
    "speed": 0,
    "load": 0.39763784794922863
  },
  {
    "temp": 178.8034210205078,
    "speed": 0,
    "load": 0.3912442475996354
  },
  {
    "temp": 178.789794921875,
    "speed": 0,
    "load": 0.39331665598881393
  },
  {
    "temp": 178.7972869873047,
    "speed": 0,
    "load": 0.3952126891959349
  },
  {
    "temp": 178.8032684326172,
    "speed": 0,
    "load": 0.3912883413951498
  },
  {
    "temp": 178.79953002929688,
    "speed": 0,
    "load": 0.3986960990415742
  },
  {
    "temp": 178.77194213867188,
    "speed": 0,
    "load": 0.3992252245877488
  },
  {
    "temp": 178.77447509765625,
    "speed": 0,
    "load": 0.39715281619857024
  },
  {
    "temp": 178.78501892089844,
    "speed": 0,
    "load": 0.3941985318991019
  },
  {
    "temp": 178.78492736816406,
    "speed": 0,
    "load": 0.3940662505125587
  },
  {
    "temp": 178.7916259765625,
    "speed": 0,
    "load": 0.3994456935653208
  },
  {
    "temp": 178.7987518310547,
    "speed": 0,
    "load": 0.4026204468423611
  },
  {
    "temp": 178.79591369628906,
    "speed": 0,
    "load": 0.40001891290700975
  },
  {
    "temp": 178.8021697998047,
    "speed": 0,
    "load": 0.4022236026827297
  },
  {
    "temp": 178.8026580810547,
    "speed": 0,
    "load": 0.39644731547033807
  },
  {
    "temp": 178.79904174804688,
    "speed": 0,
    "load": 0.39702053481202704
  },
  {
    "temp": 178.80467224121094,
    "speed": 0,
    "load": 0.4026645406378755
  },
  {
    "temp": 178.8006591796875,
    "speed": 0,
    "load": 0.3953890643779925
  },
  {
    "temp": 178.78631591796875,
    "speed": 0,
    "load": 0.3988283804281192
  },
  {
    "temp": 178.7859649658203,
    "speed": 0,
    "load": 0.3988283804281192
  },
  {
    "temp": 178.7856903076172,
    "speed": 0,
    "load": 0.3998866315204648
  },
  {
    "temp": 178.78546142578125,
    "speed": 0,
    "load": 0.399577974951864
  },
  {
    "temp": 178.79367065429688,
    "speed": 0,
    "load": 0.3984315362684878
  },
  {
    "temp": 178.79185485839844,
    "speed": 0,
    "load": 0.3950804078093917
  },
  {
    "temp": 178.7904052734375,
    "speed": 0,
    "load": 0.40398735450330925
  },
  {
    "temp": 178.78831481933594,
    "speed": 0,
    "load": 0.40063622604421134
  },
  {
    "temp": 178.78756713867188,
    "speed": 0,
    "load": 0.3998866315204648
  },
  {
    "temp": 178.78697204589844,
    "speed": 0,
    "load": 0.40010710049803855
  },
  {
    "temp": 178.7864990234375,
    "speed": 0,
    "load": 0.40059213224869517
  },
  {
    "temp": 178.80116271972656,
    "speed": 0,
    "load": 0.40063622604421134
  },
  {
    "temp": 178.80638122558594,
    "speed": 0,
    "load": 0.40125353918141293
  },
  {
    "temp": 178.810546875,
    "speed": 0,
    "load": 0.39680006583445326
  },
  {
    "temp": 178.8138885498047,
    "speed": 0,
    "load": 0.397902410722315
  },
  {
    "temp": 178.81187438964844,
    "speed": 0,
    "load": 0.3983874424729752
  },
  {
    "temp": 178.81494140625,
    "speed": 0,
    "load": 0.39715281619857024
  },
  {
    "temp": 178.81739807128906,
    "speed": 0,
    "load": 0.4033700413661059
  },
  {
    "temp": 178.81936645507812,
    "speed": 0,
    "load": 0.40354641654816525
  },
  {
    "temp": 178.81365966796875,
    "speed": 0,
    "load": 0.3990929432012056
  },
  {
    "temp": 178.80784606933594,
    "speed": 0,
    "load": 0.3944190008766757
  },
  {
    "temp": 178.79464721679688,
    "speed": 0,
    "load": 0.3919938421233802
  },
  {
    "temp": 178.782470703125,
    "speed": 0,
    "load": 0.39314028080675634
  },
  {
    "temp": 178.7914276123047,
    "speed": 0,
    "load": 0.3881135881181095
  },
  {
    "temp": 178.79005432128906,
    "speed": 0,
    "load": 0.3860411797289309
  },
  {
    "temp": 178.78895568847656,
    "speed": 0,
    "load": 0.38599708593341653
  },
  {
    "temp": 178.79420471191406,
    "speed": 0,
    "load": 0.39234659248749715
  },
  {
    "temp": 178.80081176757812,
    "speed": 0,
    "load": 0.39300799942021136
  },
  {
    "temp": 178.80609130859375,
    "speed": 0,
    "load": 0.3941103443080731
  },
  {
    "temp": 178.81370544433594,
    "speed": 0,
    "load": 0.38873090125531284
  },
  {
    "temp": 178.81640625,
    "speed": 0,
    "load": 0.39230249869198097
  },
  {
    "temp": 178.81004333496094,
    "speed": 0,
    "load": 0.38908365161942804
  },
  {
    "temp": 178.80494689941406,
    "speed": 0,
    "load": 0.3866584928661343
  },
  {
    "temp": 178.80613708496094,
    "speed": 0,
    "load": 0.39366940635292913
  },
  {
    "temp": 178.80181884765625,
    "speed": 0,
    "load": 0.39225840489646835
  },
  {
    "temp": 178.80690002441406,
    "speed": 0,
    "load": 0.39358121876190033
  },
  {
    "temp": 178.814208984375,
    "speed": 0,
    "load": 0.39719690999408463
  },
  {
    "temp": 178.80828857421875,
    "speed": 0,
    "load": 0.39724100378959903
  },
  {
    "temp": 178.8035430908203,
    "speed": 0,
    "load": 0.3915529041682362
  },
  {
    "temp": 178.80352783203125,
    "speed": 0,
    "load": 0.3872758060033359
  },
  {
    "temp": 178.8082733154297,
    "speed": 0,
    "load": 0.3874962749809079
  },
  {
    "temp": 178.8120574951172,
    "speed": 0,
    "load": 0.39305209321572754
  },
  {
    "temp": 178.8065643310547,
    "speed": 0,
    "load": 0.39366940635292913
  },
  {
    "temp": 178.7936248779297,
    "speed": 0,
    "load": 0.3938898753305011
  },
  {
    "temp": 178.79180908203125,
    "speed": 0,
    "load": 0.3977260355402574
  },
  {
    "temp": 178.7977294921875,
    "speed": 0,
    "load": 0.3912001538041192
  },
  {
    "temp": 178.8036346435547,
    "speed": 0,
    "load": 0.3823373009057178
  },
  {
    "temp": 178.808349609375,
    "speed": 0,
    "load": 0.3867907742526757
  },
  {
    "temp": 178.79295349121094,
    "speed": 0,
    "load": 0.38573252316033013
  },
  {
    "temp": 178.7998046875,
    "speed": 0,
    "load": 0.3908033096444914
  },
  {
    "temp": 178.7967529296875,
    "speed": 0,
    "load": 0.38881908884634164
  },
  {
    "temp": 178.7857666015625,
    "speed": 0,
    "load": 0.38573252316033013
  },
  {
    "temp": 178.80068969726562,
    "speed": 0,
    "load": 0.38864271366428405
  },
  {
    "temp": 178.79747009277344,
    "speed": 0,
    "load": 0.38917183921045684
  },
  {
    "temp": 178.78634643554688,
    "speed": 0,
    "load": 0.3872758060033359
  },
  {
    "temp": 178.78599548339844,
    "speed": 0,
    "load": 0.3838805837487236
  },
  {
    "temp": 178.78375244140625,
    "speed": 0,
    "load": 0.3882017757091383
  },
  {
    "temp": 178.77537536621094,
    "speed": 0,
    "load": 0.3915969979637506
  },
  {
    "temp": 178.7772216796875,
    "speed": 0,
    "load": 0.38886318264185427
  },
  {
    "temp": 178.7798614501953,
    "speed": 0,
    "load": 0.3835719271801228
  },
  {
    "temp": 178.7808074951172,
    "speed": 0,
    "load": 0.38141133119991544
  },
  {
    "temp": 178.7900848388672,
    "speed": 0,
    "load": 0.38555614797827253
  },
  {
    "temp": 178.78810119628906,
    "speed": 0,
    "load": 0.3869230556392207
  },
  {
    "temp": 178.7873992919922,
    "speed": 0,
    "load": 0.382249113314689
  },
  {
    "temp": 178.78683471679688,
    "speed": 0,
    "load": 0.3839687713397524
  },
  {
    "temp": 178.79490661621094,
    "speed": 0,
    "load": 0.38471836586349717
  },
  {
    "temp": 178.80654907226562,
    "speed": 0,
    "load": 0.3829546140429212
  },
  {
    "temp": 178.80215454101562,
    "speed": 0,
    "load": 0.3882458695046527
  },
  {
    "temp": 178.79864501953125,
    "speed": 0,
    "load": 0.3867025866616469
  },
  {
    "temp": 178.7935791015625,
    "speed": 0,
    "load": 0.3798239545613935
  },
  {
    "temp": 178.79177856445312,
    "speed": 0,
    "load": 0.38132314360888664
  },
  {
    "temp": 178.78179931640625,
    "speed": 0,
    "load": 0.384365615499382
  },
  {
    "temp": 178.78106689453125,
    "speed": 0,
    "load": 0.3824254884967466
  },
  {
    "temp": 178.77322387695312,
    "speed": 0,
    "load": 0.3837042085666642
  },
  {
    "temp": 178.76695251464844,
    "speed": 0,
    "load": 0.38533567900069876
  },
  {
    "temp": 178.7790069580078,
    "speed": 0,
    "load": 0.384365615499382
  },
  {
    "temp": 178.787841796875,
    "speed": 0,
    "load": 0.382690051269833
  },
  {
    "temp": 178.7871856689453,
    "speed": 0,
    "load": 0.3843215217038676
  },
  {
    "temp": 178.7866668701172,
    "speed": 0,
    "load": 0.3794712041972783
  },
  {
    "temp": 178.7862548828125,
    "speed": 0,
    "load": 0.38074992426719767
  },
  {
    "temp": 178.79248046875,
    "speed": 0,
    "load": 0.3874080873898773
  },
  {
    "temp": 178.79942321777344,
    "speed": 0,
    "load": 0.3881135881181095
  },
  {
    "temp": 178.79644775390625,
    "speed": 0,
    "load": 0.3782806717183895
  },
  {
    "temp": 178.7855224609375,
    "speed": 0,
    "load": 0.38498292863658357
  },
  {
    "temp": 178.78005981445312,
    "speed": 0,
    "load": 0.38498292863658357
  },
  {
    "temp": 178.76388549804688,
    "speed": 0,
    "load": 0.37761926478567354
  },
  {
    "temp": 178.7594757080078,
    "speed": 0,
    "load": 0.3802648925165393
  },
  {
    "temp": 178.76678466796875,
    "speed": 0,
    "load": 0.38207273813263143
  },
  {
    "temp": 178.75326538085938,
    "speed": 0,
    "load": 0.37695785785295577
  },
  {
    "temp": 178.7509765625,
    "speed": 0,
    "load": 0.36985875677513214
  },
  {
    "temp": 178.74061584472656,
    "speed": 0,
    "load": 0.37043197611681755
  },
  {
    "temp": 178.74789428710938,
    "speed": 0,
    "load": 0.3719752589598233
  },
  {
    "temp": 178.75523376464844,
    "speed": 0,
    "load": 0.3718429775732819
  },
  {
    "temp": 178.76963806152344,
    "speed": 0,
    "load": 0.3763405447157542
  },
  {
    "temp": 178.7640838623047,
    "speed": 0,
    "load": 0.37748698339912856
  },
  {
    "temp": 178.77828979492188,
    "speed": 0,
    "load": 0.37343035421180026
  },
  {
    "temp": 178.77099609375,
    "speed": 0,
    "load": 0.3752381998278924
  },
  {
    "temp": 178.77371215820312,
    "speed": 0,
    "load": 0.37753107719464474
  },
  {
    "temp": 178.77587890625,
    "speed": 0,
    "load": 0.37343035421180026
  },
  {
    "temp": 178.78582763671875,
    "speed": 0,
    "load": 0.3704760699123337
  },
  {
    "temp": 178.7685089111328,
    "speed": 0,
    "load": 0.3727689472790843
  }
]