[
  {
    "temp": 218.45213317871094,
    "speed": 0,
    "load": -0.003439316050125818
  },
  {
    "temp": 218.4688262939453,
    "speed": 0,
    "load": -0.011508480629268902
  },
  {
    "temp": 218.46986389160156,
    "speed": 0,
    "load": -0.015300547043510804
  },
  {
    "temp": 218.47023010253906,
    "speed": 0,
    "load": -0.007010913486795722
  },
  {
    "temp": 218.48098754882812,
    "speed": 0,
    "load": -0.013051763472274658
  },
  {
    "temp": 218.4791259765625,
    "speed": 0,
    "load": -0.013757264200505048
  },
  {
    "temp": 218.4904327392578,
    "speed": 0,
    "load": -0.014418671133221928
  },
  {
    "temp": 218.47088623046875,
    "speed": 0,
    "load": -0.02001858316355598
  },
  {
    "temp": 218.44546508789062,
    "speed": 1.2475049495697021,
    "load": -0.01688792368203096
  },
  {
    "temp": 218.45071411132812,
    "speed": 1.2475049495697021,
    "load": 0.7547094040251716
  },
  {
    "temp": 218.47105407714844,
    "speed": 1.2475049495697021,
    "load": 2.35989993593288
  },
  {
    "temp": 218.4583740234375,
    "speed": 1.2475049495697021,
    "load": 4.134234267433984
  },
  {
    "temp": 218.4482421875,
    "speed": 1.2475049495697021,
    "load": 5.358718968870008
  },
  {
    "temp": 218.459228515625,
    "speed": 1.248127818107605,
    "load": 4.441568022169637
  },
  {
    "temp": 218.47450256347656,
    "speed": 1.2475049495697021,
    "load": 3.7613771325638723
  },
  {
    "temp": 218.48672485351562,
    "speed": 1.2475049495697021,
    "load": 2.878178408409619
  },
  {
    "temp": 218.49154663085938,
    "speed": 1.248127818107605,
    "load": 2.556117325972142
  },
  {
    "temp": 218.5003662109375,
    "speed": 1.248127818107605,
    "load": 2.3695564771505424
  },
  {
    "temp": 218.49462890625,
    "speed": 1.2468827962875366,
    "load": 2.2413758135900625
  },
  {
    "temp": 218.4900360107422,
    "speed": 1.2475049495697021,
    "load": 2.138372707268328
  },
  {
    "temp": 218.46038818359375,
    "speed": 1.2475049495697021,
    "load": 1.9171982289678926
  },
  {
    "temp": 218.47543334960938,
    "speed": 1.2475049495697021,
    "load": 1.7969103548044973
  },
  {
    "temp": 218.48431396484375,
    "speed": 1.2450199127197266,
    "load": 1.6227839563179707
  },
  {
    "temp": 218.468994140625,
    "speed": 1.248127818107605,
    "load": 1.5690336195858663
  },
  {
    "temp": 218.48019409179688,
    "speed": 1.248127818107605,
    "load": 1.4603424136427705
  },
  {
    "temp": 218.4912872314453,
    "speed": 1.2475049495697021,
    "load": 1.233876679880602
  },
  {
    "temp": 218.48736572265625,
    "speed": 1.248127818107605,
    "load": 1.1673391424493111
  },
  {
    "temp": 218.50474548339844,
    "speed": 1.248127818107605,
    "load": 1.104549577636746
  },
  {
    "temp": 218.49813842773438,
    "speed": 1.248127818107605,
    "load": 1.0860301835206805
  },
  {
    "temp": 218.4928436279297,
    "speed": 1.248127818107605,
    "load": 1.122319377229065
  },
  {
    "temp": 218.5210418701172,
    "speed": 1.248127818107605,
    "load": 1.2357286192922086
  },
  {
    "temp": 218.52395629882812,
    "speed": 1.248127818107605,
    "load": 1.340363196047976
  },
  {
    "temp": 218.50514221191406,
    "speed": 1.248127818107605,
    "load": 1.4838003128564523
  },
  {
    "temp": 218.51124572753906,
    "speed": 1.248127818107605,
    "load": 1.5227792280912187
  },
  {
    "temp": 218.51612854003906,
    "speed": 1.2475049495697021,
    "load": 1.559950297709893
  },
  {
    "temp": 218.52003479003906,
    "speed": 1.2475049495697021,
    "load": 1.5394466827956776
  },
  {
    "temp": 218.51541137695312,
    "speed": 1.248127818107605,
    "load": 1.6011779965158937
  },
  {
    "temp": 218.5194549560547,
    "speed": 1.248127818107605,
    "load": 1.6197414844274736
  },
  {
    "temp": 218.50990295410156,
    "speed": 1.2475049495697021,
    "load": 1.6318231843984314
  },
  {
    "temp": 218.48590087890625,
    "speed": 1.248127818107605,
    "load": 1.6570007416371766
  },
  {
    "temp": 218.48306274414062,
    "speed": 1.248127818107605,
    "load": 1.6640557489194876
  },
  {
    "temp": 218.4935760498047,
    "speed": 1.248127818107605,
    "load": 1.6564275222954894
  },
  {
    "temp": 218.472900390625,
    "speed": 1.2475049495697021,
    "load": 1.6798854215091712
  },
  {
    "temp": 218.45985412597656,
    "speed": 1.248127818107605,
    "load": 1.6851766769709045
  },
  {
    "temp": 218.46221923828125,
    "speed": 1.2475049495697021,
    "load": 1.6757846985263285
  },
  {
    "temp": 218.47586059570312,
    "speed": 0,
    "load": 1.7066062615909239
  },
  {
    "temp": 218.4750213623047,
    "speed": 0,
    "load": 1.2587896743462608
  },
  {
    "temp": 218.4871368408203,
    "speed": 0,
    "load": 0.8449253096477172
  },
  {
    "temp": 218.4611053466797,
    "speed": 0,
    "load": 0.6551897075490789
  },
  {
    "temp": 218.45042419433594,
    "speed": 0,
    "load": 0.482253841541441
  },
  {
    "temp": 218.45468139648438,
    "speed": 0,
    "load": 0.4249760011681829
  },
  {
    "temp": 218.44528198242188,
    "speed": 0,
    "load": 0.3904505592803744
  },
  {
    "temp": 218.4215087890625,
    "speed": 0,
    "load": 0.35804161957726066
  },
  {
    "temp": 218.39315795898438,
    "speed": 0,
    "load": 0.31174313428709777
  },
  {
    "temp": 218.37046813964844,
    "speed": 0,
    "load": 0.28978442412090644
  },
  {
    "temp": 218.36085510253906,
    "speed": 0,
    "load": 0.2681343705233159
  },
  {
    "temp": 218.35743713378906,
    "speed": 0,
    "load": 0.25142282202334254
  },
  {
    "temp": 218.33970642089844,
    "speed": 0,
    "load": 0.24308909467111306
  },
  {
    "temp": 218.3277130126953,
    "speed": 0,
    "load": 0.22262957355241308
  },
  {
    "temp": 218.318115234375,
    "speed": 0,
    "load": 0.21650053597590535
  },
  {
    "temp": 218.33602905273438,
    "speed": 0,
    "load": 0.2108565301500569
  },
  {
    "temp": 218.37461853027344,
    "speed": 0,
    "load": 0.20380152286774678
  },
  {
    "temp": 218.3556365966797,
    "speed": 0,
    "load": 0.1957323582886037
  },
  {
    "temp": 218.3404541015625,
    "speed": 0,
    "load": 0.1914993539192178
  },
  {
    "temp": 218.32884216308594,
    "speed": 0,
    "load": 0.18149006233743936
  },
  {
    "temp": 218.33181762695312,
    "speed": 0,
    "load": 0.17487599301027323
  },
  {
    "temp": 218.32139587402344,
    "speed": 0,
    "load": 0.1723626466659498
  },
  {
    "temp": 218.31663513183594,
    "speed": 0,
    "load": 0.16707139120421743
  },
  {
    "temp": 218.3092498779297,
    "speed": 0,
    "load": 0.16605723390738447
  },
  {
    "temp": 218.31614685058594,
    "speed": 0,
    "load": 0.16310294960791794
  },
  {
    "temp": 218.33631896972656,
    "speed": 0,
    "load": 0.15459284707362997
  },
  {
    "temp": 218.33779907226562,
    "speed": 0,
    "load": 0.15106534343247535
  },
  {
    "temp": 218.35177612304688,
    "speed": 0,
    "load": 0.14431899271876603
  },
  {
    "temp": 218.3501739501953,
    "speed": 0,
    "load": 0.1377931109826287
  },
  {
    "temp": 218.35040283203125,
    "speed": 0,
    "load": 0.14021826973592244
  },
  {
    "temp": 218.3618621826172,
    "speed": 0,
    "load": 0.1338246693863283
  },
  {
    "temp": 218.37103271484375,
    "speed": 0,
    "load": 0.1384545179153447
  },
  {
    "temp": 218.38421630859375,
    "speed": 0,
    "load": 0.14087967666863932
  },
  {
    "temp": 218.37612915039062,
    "speed": 0,
    "load": 0.13999780075835044
  },
  {
    "temp": 218.3824462890625,
    "speed": 0,
    "load": 0.12919482085731282
  },
  {
    "temp": 218.4017791748047,
    "speed": 0,
    "load": 0.130208978154144
  },
  {
    "temp": 218.4285430908203,
    "speed": 0,
    "load": 0.12848932012908154
  },
  {
    "temp": 218.39878845214844,
    "speed": 0,
    "load": 0.11984693620825126
  },
  {
    "temp": 218.42247009277344,
    "speed": 0,
    "load": 0.12055243693648166
  },
  {
    "temp": 218.43231201171875,
    "speed": 0,
    "load": 0.11036677017264651
  },
  {
    "temp": 218.440185546875,
    "speed": 0,
    "load": 0.11019039499058803
  },
  {
    "temp": 218.42848205566406,
    "speed": 0,
    "load": 0.10974945703544403
  },
  {
    "temp": 218.43711853027344,
    "speed": 0,
    "load": 0.10891167492066955
  },
  {
    "temp": 218.44403076171875,
    "speed": 0,
    "load": 0.10838254937449676
  },
  {
    "temp": 218.45399475097656,
    "speed": 0,
    "load": 0.10397316982305238
  },
  {
    "temp": 218.47032165527344,
    "speed": 0,
    "load": 0.10476685814231246
  },
  {
    "temp": 218.47080993652344,
    "speed": 0,
    "load": 0.0993874150895504
  },
  {
    "temp": 218.4709930419922,
    "speed": 0,
    "load": 0.09872600815683352
  },
  {
    "temp": 218.47113037109375,
    "speed": 0,
    "load": 0.09502212933362042
  },
  {
    "temp": 218.48402404785156,
    "speed": 0,
    "load": 0.09365522167267315
  },
  {
    "temp": 218.49237060546875,
    "speed": 0,
    "load": 0.091626907079009
  },
  {
    "temp": 218.5010223388672,
    "speed": 0,
    "load": 0.08995134284946005
  },
  {
    "temp": 218.50794982910156,
    "speed": 0,
    "load": 0.08915765453019997
  },
  {
    "temp": 218.51348876953125,
    "speed": 0,
    "load": 0.08593880745764615
  },
  {
    "temp": 218.51123046875,
    "speed": 0,
    "load": 0.0838223052729532
  },
  {
    "temp": 218.51611328125,
    "speed": 0,
    "load": 0.08589471366213175
  },
  {
    "temp": 218.52001953125,
    "speed": 0,
    "load": 0.08629155782176134
  },
  {
    "temp": 218.51541137695312,
    "speed": 0,
    "load": 0.08743799650513662
  },
  {
    "temp": 218.5194549560547,
    "speed": 0,
    "load": 0.08995134284946005
  },
  {
    "temp": 218.50990295410156,
    "speed": 0,
    "load": 0.0878348406647671
  },
  {
    "temp": 218.4961395263672,
    "speed": 0,
    "load": 0.08333727352229392
  },
  {
    "temp": 218.50404357910156,
    "speed": 0,
    "load": 0.07967748849459522
  },
  {
    "temp": 218.51036071777344,
    "speed": 0,
    "load": 0.07892789397084954
  },
  {
    "temp": 218.5194549560547,
    "speed": 0,
    "load": 0.08214674104340425
  },
  {
    "temp": 218.52268981933594,
    "speed": 0,
    "load": 0.07416576405528996
  },
  {
    "temp": 218.52528381347656,
    "speed": 0,
    "load": 0.07200516807508262
  },
  {
    "temp": 218.5290069580078,
    "speed": 0,
    "load": 0.07407757646426116
  },
  {
    "temp": 218.53033447265625,
    "speed": 0,
    "load": 0.07284295018985709
  },
  {
    "temp": 218.53138732910156,
    "speed": 0,
    "load": 0.07200516807508262
  },
  {
    "temp": 218.5329132080078,
    "speed": 0,
    "load": 0.07614998485343971
  },
  {
    "temp": 218.53346252441406,
    "speed": 0,
    "load": 0.07526810894315084
  },
  {
    "temp": 218.5338897705078,
    "speed": 0,
    "load": 0.07786964287850306
  },
  {
    "temp": 218.50892639160156,
    "speed": 0,
    "load": 0.07473898339697804
  },
  {
    "temp": 218.51426696777344,
    "speed": 0,
    "load": 0.07363663850911628
  },
  {
    "temp": 218.52195739746094,
    "speed": 0,
    "load": 0.07019732245899046
  },
  {
    "temp": 218.51190185546875,
    "speed": 0,
    "load": 0.06922725895767279
  },
  {
    "temp": 218.5166473388672,
    "speed": 0,
    "load": 0.07341616953154428
  },
  {
    "temp": 218.52044677734375,
    "speed": 0,
    "load": 0.07385710748668917
  },
  {
    "temp": 218.51568603515625,
    "speed": 0,
    "load": 0.07055007282310566
  },
  {
    "temp": 218.51966857910156,
    "speed": 0,
    "load": 0.06208406408433298
  },
  {
    "temp": 218.51007080078125,
    "speed": 0,
    "load": 0.06274547101704986
  },
  {
    "temp": 218.4962615966797,
    "speed": 0,
    "load": 0.059747092922068035
  },
  {
    "temp": 218.50413513183594,
    "speed": 0,
    "load": 0.05445583746033478
  },
  {
    "temp": 218.5052490234375,
    "speed": 0,
    "load": 0.05930615496692315
  },
  {
    "temp": 218.51132202148438,
    "speed": 0,
    "load": 0.059173873580379954
  },
  {
    "temp": 218.5098419189453,
    "speed": 0,
    "load": 0.0574101217598022
  },
  {
    "temp": 218.51499938964844,
    "speed": 0,
    "load": 0.059658905331039236
  },
  {
    "temp": 218.5191192626953,
    "speed": 0,
    "load": 0.06508244217931569
  },
  {
    "temp": 218.496826171875,
    "speed": 0,
    "load": 0.05811562248803348
  },
  {
    "temp": 218.51080322265625,
    "speed": 0,
    "load": 0.05868884182972156
  },
  {
    "temp": 218.5029754638672,
    "speed": 0,
    "load": 0.055866838916797334
  },
  {
    "temp": 218.49671936035156,
    "speed": 0,
    "load": 0.05864474803420716
  },
  {
    "temp": 218.49794006347656,
    "speed": 0,
    "load": 0.0574101217598022
  },
  {
    "temp": 218.50547790527344,
    "speed": 0,
    "load": 0.061687219924703385
  },
  {
    "temp": 218.4859161376953,
    "speed": 0,
    "load": 0.05868884182972156
  },
  {
    "temp": 218.49102783203125,
    "speed": 0,
    "load": 0.05053148965954968
  },
  {
    "temp": 218.474365234375,
    "speed": 0,
    "load": 0.05502905680202286
  },
  {
    "temp": 218.4866180419922,
    "speed": 0,
    "load": 0.0534416801635027
  },
  {
    "temp": 218.48377990722656,
    "speed": 0,
    "load": 0.05375033673210439
  },
  {
    "temp": 218.46856689453125,
    "speed": 0,
    "load": 0.053882618118647585
  },
  {
    "temp": 218.4819793701172,
    "speed": 0,
    "load": 0.04766539295111105
  },
  {
    "temp": 218.4757080078125,
    "speed": 0,
    "load": 0.046871704631850974
  },
  {
    "temp": 218.48768615722656,
    "speed": 0,
    "load": 0.05286846082181462
  },
  {
    "temp": 218.50494384765625,
    "speed": 0,
    "load": 0.0496937075447752
  },
  {
    "temp": 218.498291015625,
    "speed": 0,
    "load": 0.0419772933297482
  },
  {
    "temp": 218.50575256347656,
    "speed": 0,
    "load": 0.04321191960415227
  },
  {
    "temp": 218.51173400878906,
    "speed": 0,
    "load": 0.0417568243521762
  },
  {
    "temp": 218.51010131835938,
    "speed": 0,
    "load": 0.040301729100199246
  },
  {
    "temp": 218.5152130126953,
    "speed": 0,
    "load": 0.041668636761147404
  },
  {
    "temp": 218.51930236816406,
    "speed": 0,
    "load": 0.044799296242672426
  },
  {
    "temp": 218.5047149658203,
    "speed": 0,
    "load": 0.037038788232131026
  },
  {
    "temp": 218.4853057861328,
    "speed": 0,
    "load": 0.044799296242672426
  },
  {
    "temp": 218.45736694335938,
    "speed": 0,
    "load": 0.03606872473081335
  },
  {
    "temp": 218.46023559570312,
    "speed": 0,
    "load": 0.03633328750389975
  },
  {
    "temp": 218.4625244140625,
    "speed": 0,
    "load": 0.03492228604743808
  },
  {
    "temp": 218.45155334472656,
    "speed": 0,
    "load": 0.03214437693002736
  },
  {
    "temp": 218.4485626220703,
    "speed": 0,
    "load": 0.03359947218200432
  },
  {
    "temp": 218.42759704589844,
    "speed": 0,
    "load": 0.03174753277039777
  },
  {
    "temp": 218.435791015625,
    "speed": 0,
    "load": 0.025971245558006117
  },
  {
    "temp": 218.4045867919922,
    "speed": 0,
    "load": 0.024295681328457164
  },
  {
    "temp": 218.40521240234375,
    "speed": 0,
    "load": 0.03342309699994672
  },
  {
    "temp": 218.38050842285156,
    "speed": 0,
    "load": 0.026015339353520517
  },
  {
    "temp": 218.37315368652344,
    "speed": 0,
    "load": 0.026897215263809393
  },
  {
    "temp": 218.36727905273438,
    "speed": 0,
    "load": 0.032100283134512964
  },
  {
    "temp": 218.37159729003906,
    "speed": 0,
    "load": 0.031262501019739375
  },
  {
    "temp": 218.37881469726562,
    "speed": 0,
    "load": 0.028837342266444743
  },
  {
    "temp": 218.37179565429688,
    "speed": 0,
    "load": 0.028616873288872746
  },
  {
    "temp": 218.35911560058594,
    "speed": 0,
    "load": 0.022090991552735417
  },
  {
    "temp": 218.35604858398438,
    "speed": 0,
    "load": 0.02125320943796094
  },
  {
    "temp": 218.36184692382812,
    "speed": 0,
    "load": 0.022840586076481095
  },
  {
    "temp": 218.3710174560547,
    "speed": 0,
    "load": 0.018343018934007915
  },
  {
    "temp": 218.36375427246094,
    "speed": 0,
    "load": 0.01873986309363751
  },
  {
    "temp": 218.35975646972656,
    "speed": 0,
    "load": 0.02588305796697732
  },
  {
    "temp": 218.34375,
    "speed": 0,
    "load": 0.02447205651051476
  },
  {
    "temp": 218.34375,
    "speed": 0,
    "load": 0.018343018934007915
  },
  {
    "temp": 218.35653686523438,
    "speed": 0,
    "load": 0.02257602330339381
  },
  {
    "temp": 218.35397338867188,
    "speed": 0,
    "load": 0.025618495193890922
  },
  {
    "temp": 218.36471557617188,
    "speed": 0,
    "load": 0.02323743023611069
  },
  {
    "temp": 218.3904266357422,
    "speed": 0,
    "load": 0.02645627730866451
  },
  {
    "temp": 218.38108825683594,
    "speed": 0,
    "load": 0.024207493737428365
  },
  {
    "temp": 218.38812255859375,
    "speed": 0,
    "load": 0.023634274395741173
  },
  {
    "temp": 218.37924194335938,
    "speed": 0,
    "load": 0.020988646664874544
  },
  {
    "temp": 218.3849334716797,
    "speed": 0,
    "load": 0.020327239732157665
  },
  {
    "temp": 218.39569091796875,
    "speed": 0,
    "load": 0.02323743023611069
  },
  {
    "temp": 218.3852996826172,
    "speed": 0,
    "load": 0.01737295543269024
  },
  {
    "temp": 218.4153594970703,
    "speed": 0,
    "load": 0.02001858316355687
  },
  {
    "temp": 218.41004943847656,
    "speed": 0,
    "load": 0.020547708709729662
  },
  {
    "temp": 218.40957641601562,
    "speed": 0,
    "load": 0.020988646664874544
  },
  {
    "temp": 218.3964080810547,
    "speed": 0,
    "load": 0.019136707253267993
  },
  {
    "temp": 218.41146850585938,
    "speed": 0,
    "load": 0.014903702883881209
  },
  {
    "temp": 218.44593811035156,
    "speed": 0,
    "load": 0.018872144480180708
  },
  {
    "temp": 218.4510955810547,
    "speed": 0,
    "load": 0.018475300320551113
  },
  {
    "temp": 218.47129821777344,
    "speed": 0,
    "load": 0.011288011651696905
  },
  {
    "temp": 218.4585723876953,
    "speed": 0,
    "load": 0.01684382988651656
  },
  {
    "temp": 218.44839477539062,
    "speed": 0,
    "load": 0.016932017477545358
  },
  {
    "temp": 218.4209442138672,
    "speed": 0,
    "load": 0.01411001456462202
  },
  {
    "temp": 218.43109130859375,
    "speed": 0,
    "load": 0.013404513836390741
  },
  {
    "temp": 218.45199584960938,
    "speed": 0,
    "load": 0.01609423536277177
  },
  {
    "temp": 218.44313049316406,
    "speed": 0,
    "load": 0.01481551529285241
  },
  {
    "temp": 218.47642517089844,
    "speed": 0,
    "load": 0.014286389746679617
  },
  {
    "temp": 218.47547912597656,
    "speed": 0,
    "load": 0.01411001456462202
  },
  {
    "temp": 218.49713134765625,
    "speed": 0,
    "load": 0.013360420040876342
  },
  {
    "temp": 218.49205017089844,
    "speed": 0,
    "load": 0.017637518205776637
  },
  {
    "temp": 218.48797607421875,
    "speed": 0,
    "load": 0.01803436236540712
  },
  {
    "temp": 218.4975128173828,
    "speed": 0,
    "load": 0.016446985726886965
  },
  {
    "temp": 218.4984588623047,
    "speed": 0,
    "load": 0.015035984270424407
  },
  {
    "temp": 218.50588989257812,
    "speed": 0,
    "load": 0.011728949606841788
  },
  {
    "temp": 218.50381469726562,
    "speed": 0,
    "load": 0.00965654121766324
  },
  {
    "temp": 218.5101776123047,
    "speed": 0,
    "load": 0.006834538304739013
  },
  {
    "temp": 218.48968505859375,
    "speed": 0,
    "load": 0.00643769414510853
  },
  {
    "temp": 218.5062255859375,
    "speed": 0,
    "load": 0.006305412758565332
  },
  {
    "temp": 218.4993133544922,
    "speed": 0,
    "load": 0.007540039032969403
  },
  {
    "temp": 218.51239013671875,
    "speed": 0,
    "load": 0.009480166035604753
  },
  {
    "temp": 218.50425720214844,
    "speed": 0,
    "load": 0.0025133463443234305
  },
  {
    "temp": 218.49774169921875,
    "speed": 0,
    "load": 0.000749594523745678
  },
  {
    "temp": 218.51138305664062,
    "speed": 0,
    "load": 0.0003527503641160834
  },
  {
    "temp": 218.4906463623047,
    "speed": 0,
    "load": 0.0072313824643686075
  },
  {
    "temp": 218.50685119628906,
    "speed": 0,
    "load": 0.0065699755316526165
  },
  {
    "temp": 218.49981689453125,
    "speed": 0,
    "load": 0.004806223711074864
  },
  {
    "temp": 218.50247192382812,
    "speed": 0,
    "load": 0.005776287212391651
  },
  {
    "temp": 218.5091094970703,
    "speed": 0,
    "load": 0.004144816778357985
  },
  {
    "temp": 218.5016326904297,
    "speed": 0,
    "load": 0.0033952222546123068
  },
  {
    "temp": 218.50108337402344,
    "speed": 0,
    "load": 0.002866096708439514
  },
  {
    "temp": 218.50799560546875,
    "speed": 0,
    "load": 0.00255744013983783
  },
  {
    "temp": 218.51351928710938,
    "speed": 0,
    "load": 0.0007936883192600774
  },
  {
    "temp": 218.4984588623047,
    "speed": 0,
    "load": 0.002116502184693836
  },
  {
    "temp": 218.50588989257812,
    "speed": 0,
    "load": -0.001631470434033666
  },
  {
    "temp": 218.48077392578125,
    "speed": 0,
    "load": -0.0033952222546114186
  },
  {
    "temp": 218.4789581298828,
    "speed": 0,
    "load": -0.002028314593664149
  },
  {
    "temp": 218.47750854492188,
    "speed": 0,
    "load": -0.004277098164900295
  },
  {
    "temp": 218.46261596679688,
    "speed": 0,
    "load": -0.0018960332071209507
  },
  {
    "temp": 218.4644317626953,
    "speed": 0,
    "load": -0.004056629187328298
  },
  {
    "temp": 218.46588134765625,
    "speed": 0,
    "load": -0.009524259831119153
  },
  {
    "temp": 218.4679718017578,
    "speed": 0,
    "load": -0.010406135741407141
  },
  {
    "temp": 218.46871948242188,
    "speed": 0,
    "load": -0.008377821147742992
  },
  {
    "temp": 218.4693145751953,
    "speed": 0,
    "load": -0.010273854354863943
  },
  {
    "temp": 218.45993041992188,
    "speed": 0,
    "load": -0.016579267113429275
  },
  {
    "temp": 218.44947814941406,
    "speed": 0,
    "load": -0.008862852898402274
  },
  {
    "temp": 218.46670532226562,
    "speed": 0,
    "load": -0.008951040489431072
  },
  {
    "temp": 218.4556884765625,
    "speed": 0,
    "load": -0.008642383920830277
  },
  {
    "temp": 218.4460906982422,
    "speed": 0,
    "load": -0.013933639382562646
  },
  {
    "temp": 218.42562866210938,
    "speed": 0,
    "load": -0.010097479172806345
  },
  {
    "temp": 218.39614868164062,
    "speed": 0,
    "load": -0.011508480629268902
  },
  {
    "temp": 218.39845275878906,
    "speed": 0,
    "load": -0.012258075153013692
  },
  {
    "temp": 218.42588806152344,
    "speed": 0,
    "load": -0.012258075153013692
  },
  {
    "temp": 218.40945434570312,
    "speed": 0,
    "load": -0.015741484998654798
  },
  {
    "temp": 218.4088134765625,
    "speed": 0,
    "load": -0.019709926594954297
  },
  {
    "temp": 218.40858459472656,
    "speed": 0,
    "load": -0.014154108360134643
  },
  {
    "temp": 218.4084014892578,
    "speed": 0,
    "load": -0.015917860180712395
  },
  {
    "temp": 218.4210662841797,
    "speed": 0,
    "load": -0.015829672589683597
  },
  {
    "temp": 218.40347290039062,
    "speed": 0,
    "load": -0.015873766385197996
  },
  {
    "temp": 218.40431213378906,
    "speed": 0,
    "load": -0.014330483542193129
  },
  {
    "temp": 218.41778564453125,
    "speed": 0,
    "load": -0.016402891931371677
  },
  {
    "temp": 218.42857360839844,
    "speed": 0,
    "load": -0.017064298864088556
  },
  {
    "temp": 218.43719482421875,
    "speed": 0,
    "load": -0.008289633556714193
  },
  {
    "temp": 218.4393768310547,
    "speed": 0,
    "load": -0.011288011651696905
  },
  {
    "temp": 218.4458465576172,
    "speed": 0,
    "load": -0.013933639382562646
  },
  {
    "temp": 218.4653778076172,
    "speed": 0,
    "load": -0.019754020390468696
  },
  {
    "temp": 218.46664428710938,
    "speed": 0,
    "load": -0.021032740460388055
  },
  {
    "temp": 218.4676513671875,
    "speed": 0,
    "load": -0.01807845616092063
  },
  {
    "temp": 218.4812469482422,
    "speed": 0,
    "load": -0.017152486455117355
  },
  {
    "temp": 218.488037109375,
    "speed": 0,
    "load": -0.02067999009627286
  },
  {
    "temp": 218.49755859375,
    "speed": 0,
    "load": -0.014947796679395609
  },
  {
    "temp": 218.47958374023438,
    "speed": 0,
    "load": -0.022223272939277727
  },
  {
    "temp": 218.45370483398438,
    "speed": 0,
    "load": -0.026059433149034028
  },
  {
    "temp": 218.45730590820312,
    "speed": 0,
    "load": -0.027029496650351703
  },
  {
    "temp": 218.47271728515625,
    "speed": 0,
    "load": -0.031394782406281685
  },
  {
    "temp": 218.4853057861328,
    "speed": 0,
    "load": -0.0232815240316242
  },
  {
    "temp": 218.50343322753906,
    "speed": 0,
    "load": -0.021605959802075247
  },
  {
    "temp": 218.50987243652344,
    "speed": 0,
    "load": -0.026720840081750907
  },
  {
    "temp": 218.5022430419922,
    "speed": 0,
    "load": -0.026897215263808505
  },
  {
    "temp": 218.50892639160156,
    "speed": 0,
    "load": -0.028660967084386257
  },
  {
    "temp": 218.51853942871094,
    "speed": 0,
    "load": -0.02270830468993701
  },
  {
    "temp": 218.52195739746094,
    "speed": 0,
    "load": -0.036553756481470856
  },
  {
    "temp": 218.52468872070312,
    "speed": 0,
    "load": -0.03633328750389886
  },
  {
    "temp": 218.52862548828125,
    "speed": 0,
    "load": -0.03377584736406103
  },
  {
    "temp": 218.51724243164062,
    "speed": 0,
    "load": -0.03218847072554176
  },
  {
    "temp": 218.5209197998047,
    "speed": 0,
    "load": -0.035936443344269264
  },
  {
    "temp": 218.52621459960938,
    "speed": 0,
    "load": -0.037832476551390215
  },
  {
    "temp": 218.52809143066406,
    "speed": 0,
    "load": -0.03320262802237384
  },
  {
    "temp": 218.51681518554688,
    "speed": 0,
    "load": -0.035936443344269264
  },
  {
    "temp": 218.5205841064453,
    "speed": 0,
    "load": -0.035804161957726066
  },
  {
    "temp": 218.51576232910156,
    "speed": 0,
    "load": -0.033334909408917035
  },
  {
    "temp": 218.50694274902344,
    "speed": 0,
    "load": -0.03606872473081246
  },
  {
    "temp": 218.50448608398438,
    "speed": 0,
    "load": -0.039728509758511166
  },
  {
    "temp": 218.4979248046875,
    "speed": 0,
    "load": -0.03761200757381822
  },
  {
    "temp": 218.49267578125,
    "speed": 0,
    "load": -0.033334909408917035
  },
  {
    "temp": 218.48512268066406,
    "speed": 0,
    "load": -0.033996316341633914
  },
  {
    "temp": 218.49522399902344,
    "speed": 0,
    "load": -0.03646556889044206
  },
  {
    "temp": 218.50331115722656,
    "speed": 0,
    "load": -0.03941985318990948
  },
  {
    "temp": 218.51495361328125,
    "speed": 0,
    "load": -0.03897891523476549
  },
  {
    "temp": 218.5190887451172,
    "speed": 0,
    "load": -0.03897891523476549
  },
  {
    "temp": 218.52503967285156,
    "speed": 0,
    "load": -0.04069857325982884
  },
  {
    "temp": 218.52716064453125,
    "speed": 0,
    "load": -0.04594573492604681
  },
  {
    "temp": 218.5288543701172,
    "speed": 0,
    "load": -0.04127179260151603
  },
  {
    "temp": 218.5312957763672,
    "speed": 0,
    "load": -0.04096313603291524
  },
  {
    "temp": 218.54495239257812,
    "speed": 0,
    "load": -0.04259460646694979
  },
  {
    "temp": 218.54159545898438,
    "speed": 0,
    "load": -0.04330010719518107
  },
  {
    "temp": 218.5404052734375,
    "speed": 0,
    "load": -0.04038991669122716
  },
  {
    "temp": 218.5266571044922,
    "speed": 0,
    "load": -0.04197729332974731
  },
  {
    "temp": 218.52845764160156,
    "speed": 0,
    "load": -0.04404970171892586
  },
  {
    "temp": 218.53103637695312,
    "speed": 0,
    "load": -0.045681172152960414
  },
  {
    "temp": 218.53195190429688,
    "speed": 0,
    "load": -0.04475520244715714
  },
  {
    "temp": 218.53268432617188,
    "speed": 0,
    "load": -0.04519614040230202
  },
  {
    "temp": 218.53375244140625,
    "speed": 0,
    "load": -0.044975671424729136
  },
  {
    "temp": 218.5341339111328,
    "speed": 0,
    "load": -0.04347648237723867
  },
  {
    "temp": 218.53443908691406,
    "speed": 0,
    "load": -0.04382923274135386
  },
  {
    "temp": 218.53468322753906,
    "speed": 0,
    "load": -0.04479929624267154
  },
  {
    "temp": 218.53501892089844,
    "speed": 0,
    "load": -0.04682761083633569
  },
  {
    "temp": 218.53514099121094,
    "speed": 0,
    "load": -0.04744492397353817
  },
  {
    "temp": 218.52244567871094,
    "speed": 0,
    "load": -0.04651895426773489
  },
  {
    "temp": 218.5169677734375,
    "speed": 0,
    "load": -0.05317711739041542
  },
  {
    "temp": 218.5207061767578,
    "speed": 0,
    "load": -0.05057558345506319
  },
  {
    "temp": 218.50048828125,
    "speed": 0,
    "load": -0.05132517797880887
  },
  {
    "temp": 218.49473571777344,
    "speed": 0,
    "load": -0.04704807981390857
  },
  {
    "temp": 218.49012756347656,
    "speed": 0,
    "load": -0.04806223711073976
  },
  {
    "temp": 218.46044921875,
    "speed": 0,
    "load": -0.046298485290162894
  },
  {
    "temp": 218.44989013671875,
    "speed": 0,
    "load": -0.048238612292798244
  },
  {
    "temp": 218.43215942382812,
    "speed": 0,
    "load": -0.05322121118592982
  },
  {
    "temp": 218.45285034179688,
    "speed": 0,
    "load": -0.04585754733501801
  },
  {
    "temp": 218.4694061279297,
    "speed": 0,
    "load": -0.05158974075189526
  },
  {
    "temp": 218.48301696777344,
    "speed": 0,
    "load": -0.04964961374925991
  },
  {
    "temp": 218.4807586669922,
    "speed": 0,
    "load": -0.04916458199860152
  },
  {
    "temp": 218.47894287109375,
    "speed": 0,
    "load": -0.048855925429999836
  },
  {
    "temp": 218.46469116210938,
    "speed": 0,
    "load": -0.05167792834292406
  },
  {
    "temp": 218.45697021484375,
    "speed": 0,
    "load": -0.0538826181186467
  },
  {
    "temp": 218.44711303710938,
    "speed": 0,
    "load": -0.057895153510460595
  },
  {
    "temp": 218.46481323242188,
    "speed": 0,
    "load": -0.05511724439305077
  },
  {
    "temp": 218.45704650878906,
    "speed": 0,
    "load": -0.050178739295433594
  },
  {
    "temp": 218.44717407226562,
    "speed": 0,
    "load": -0.055910932712310846
  },
  {
    "temp": 218.42648315429688,
    "speed": 0,
    "load": -0.055249525779593966
  },
  {
    "temp": 218.43553161621094,
    "speed": 0,
    "load": -0.05494086921099317
  },
  {
    "temp": 218.44276428222656,
    "speed": 0,
    "load": -0.05370624293658821
  },
  {
    "temp": 218.45571899414062,
    "speed": 0,
    "load": -0.05366214914107381
  },
  {
    "temp": 218.44610595703125,
    "speed": 0,
    "load": -0.04991417652234631
  },
  {
    "temp": 218.4512176513672,
    "speed": 0,
    "load": -0.054544025051363576
  },
  {
    "temp": 218.44578552246094,
    "speed": 0,
    "load": -0.05123699038778007
  },
  {
    "temp": 218.46376037597656,
    "speed": 0,
    "load": -0.05639596446296924
  },
  {
    "temp": 218.45254516601562,
    "speed": 0,
    "load": -0.05097242761469367
  },
  {
    "temp": 218.44920349121094,
    "speed": 0,
    "load": -0.049429144771687916
  },
  {
    "temp": 218.45370483398438,
    "speed": 0,
    "load": -0.04969370754477431
  },
  {
    "temp": 218.45730590820312,
    "speed": 0,
    "load": -0.05375033673210261
  },
  {
    "temp": 218.45225524902344,
    "speed": 0,
    "load": -0.054058993300704294
  },
  {
    "temp": 218.44334411621094,
    "speed": 0,
    "load": -0.055249525779593966
  },
  {
    "temp": 218.4490203857422,
    "speed": 0,
    "load": -0.054632212642392375
  },
  {
    "temp": 218.43414306640625,
    "speed": 0,
    "load": -0.05308892979938662
  },
  {
    "temp": 218.42884826660156,
    "speed": 0,
    "load": -0.05427946227827629
  },
  {
    "temp": 218.4374237060547,
    "speed": 0,
    "load": -0.05441174366481949
  },
  {
    "temp": 218.4267120361328,
    "speed": 0,
    "load": -0.05824790387457579
  },
  {
    "temp": 218.4357147216797,
    "speed": 0,
    "load": -0.06102581299198562
  },
  {
    "temp": 218.4429168701172,
    "speed": 0,
    "load": -0.060540781241327224
  },
  {
    "temp": 218.4404754638672,
    "speed": 0,
    "load": -0.06018803087721203
  },
  {
    "temp": 218.44671630859375,
    "speed": 0,
    "load": -0.060408499854784026
  },
  {
    "temp": 218.4517059326172,
    "speed": 0,
    "load": -0.062436814448448175
  },
  {
    "temp": 218.4589080810547,
    "speed": 0,
    "load": -0.05912977978486467
  },
  {
    "temp": 218.42308044433594,
    "speed": 0,
    "load": -0.06076125021889922
  },
  {
    "temp": 218.43800354003906,
    "speed": 0,
    "load": -0.059967561899639144
  },
  {
    "temp": 218.45753479003906,
    "speed": 0,
    "load": -0.06217225167536178
  },
  {
    "temp": 218.44757080078125,
    "speed": 0,
    "load": -0.06420056626902593
  },
  {
    "temp": 218.44601440429688,
    "speed": 0,
    "load": -0.06323050276770736
  },
  {
    "temp": 218.45115661621094,
    "speed": 0,
    "load": -0.06389190970042424
  },
  {
    "temp": 218.45526123046875,
    "speed": 0,
    "load": -0.06005574949066794
  },
  {
    "temp": 218.45860290527344,
    "speed": 0,
    "load": -0.065214723565858
  },
  {
    "temp": 218.44842529296875,
    "speed": 0,
    "load": -0.07103510457376405
  },
  {
    "temp": 218.44027709960938,
    "speed": 0,
    "load": -0.06508244217931392
  },
  {
    "temp": 218.4593505859375,
    "speed": 0,
    "load": -0.0655233801344588
  },
  {
    "temp": 218.46182250976562,
    "speed": 0,
    "load": -0.06662572502231967
  },
  {
    "temp": 218.45098876953125,
    "speed": 0,
    "load": -0.0693154465487007
  },
  {
    "temp": 218.47122192382812,
    "speed": 0,
    "load": -0.06887450859355582
  },
  {
    "temp": 218.4713134765625,
    "speed": 0,
    "load": -0.06437694145108352
  },
  {
    "temp": 218.4713897705078,
    "speed": 0,
    "load": -0.0694918217307583
  },
  {
    "temp": 218.49452209472656,
    "speed": 0,
    "load": -0.06883041479804142
  },
  {
    "temp": 218.50274658203125,
    "speed": 0,
    "load": -0.06499425458828512
  },
  {
    "temp": 218.5093231201172,
    "speed": 0,
    "load": -0.06437694145108352
  },
  {
    "temp": 218.48297119140625,
    "speed": 0,
    "load": -0.06428875386005473
  },
  {
    "temp": 218.49349975585938,
    "speed": 0,
    "load": -0.06380372210939544
  },
  {
    "temp": 218.4891357421875,
    "speed": 0,
    "load": -0.06195178269778889
  },
  {
    "temp": 218.48284912109375,
    "speed": 0,
    "load": -0.06261318963050577
  },
  {
    "temp": 218.493408203125,
    "speed": 0,
    "load": -0.06750760093260855
  },
  {
    "temp": 218.50184631347656,
    "speed": 0,
    "load": -0.06821310166083983
  },
  {
    "temp": 218.501220703125,
    "speed": 0,
    "load": -0.0653029111568868
  },
  {
    "temp": 218.5081024169922,
    "speed": 0,
    "load": -0.06693438159092047
  },
  {
    "temp": 218.51361083984375,
    "speed": 0,
    "load": -0.06349506554079465
  },
  {
    "temp": 218.5113067626953,
    "speed": 0,
    "load": -0.0653910987479156
  },
  {
    "temp": 218.51617431640625,
    "speed": 0,
    "load": -0.065214723565858
  },
  {
    "temp": 218.52317810058594,
    "speed": 0,
    "load": -0.06296593999462097
  },
  {
    "temp": 218.52566528320312,
    "speed": 0,
    "load": -0.06446512904211232
  },
  {
    "temp": 218.5276641845703,
    "speed": 0,
    "load": -0.05899749839832147
  },
  {
    "temp": 218.4972686767578,
    "speed": 0,
    "load": -0.06314231517667857
  },
  {
    "temp": 218.49215698242188,
    "speed": 0,
    "load": -0.06627297465820448
  },
  {
    "temp": 218.5008544921875,
    "speed": 0,
    "load": -0.06675800640886287
  },
  {
    "temp": 218.5133819580078,
    "speed": 0,
    "load": -0.06878632100252702
  },
  {
    "temp": 218.51783752441406,
    "speed": 0,
    "load": -0.06327459656322265
  },
  {
    "temp": 218.52139282226562,
    "speed": 0,
    "load": -0.06649344363577647
  },
  {
    "temp": 218.51629638671875,
    "speed": 0,
    "load": -0.06830128925186862
  },
  {
    "temp": 218.52015686035156,
    "speed": 0,
    "load": -0.06755169472812295
  },
  {
    "temp": 218.52325439453125,
    "speed": 0,
    "load": -0.07059416661861917
  },
  {
    "temp": 218.52572631835938,
    "speed": 0,
    "load": -0.06472969181519872
  },
  {
    "temp": 218.529296875,
    "speed": 0,
    "load": -0.06671391261334847
  },
  {
    "temp": 218.5305633544922,
    "speed": 0,
    "load": -0.06772806991018143
  },
  {
    "temp": 218.5315704345703,
    "speed": 0,
    "load": -0.06415647247351153
  },
  {
    "temp": 218.52279663085938,
    "speed": 0,
    "load": -0.06777216370569583
  },
  {
    "temp": 218.5125732421875,
    "speed": 0,
    "load": -0.06711075677297895
  },
  {
    "temp": 218.5208740234375,
    "speed": 0,
    "load": -0.06278956481256337
  },
  {
    "temp": 218.52381896972656,
    "speed": 0,
    "load": -0.06305412758564977
  },
  {
    "temp": 218.52618408203125,
    "speed": 0,
    "load": -0.06618478706717568
  },
  {
    "temp": 218.5295867919922,
    "speed": 0,
    "load": -0.06459741042865552
  },
  {
    "temp": 218.53079223632812,
    "speed": 0,
    "load": -0.06093762540095682
  },
  {
    "temp": 218.53175354003906,
    "speed": 0,
    "load": -0.059791186717581546
  },
  {
    "temp": 218.5331573486328,
    "speed": 0,
    "load": -0.06808082027429663
  },
  {
    "temp": 218.5336456298828,
    "speed": 0,
    "load": -0.06821310166083983
  },
  {
    "temp": 218.52157592773438,
    "speed": 0,
    "load": -0.06587613049857488
  },
  {
    "temp": 218.53717041015625,
    "speed": 0,
    "load": -0.06543519254343
  },
  {
    "temp": 218.536865234375,
    "speed": 0,
    "load": -0.06993275968590318
  },
  {
    "temp": 218.5364227294922,
    "speed": 0,
    "load": -0.07906017535739274
  },
  {
    "temp": 218.53627014160156,
    "speed": 0,
    "load": -0.07231382464368252
  },
  {
    "temp": 218.53614807128906,
    "speed": 0,
    "load": -0.06358325313182345
  },
  {
    "temp": 218.53604125976562,
    "speed": 0,
    "load": -0.06495016079277072
  },
  {
    "temp": 218.53590393066406,
    "speed": 0,
    "load": -0.06772806991018143
  },
  {
    "temp": 218.52305603027344,
    "speed": 0,
    "load": -0.06737531954606535
  },
  {
    "temp": 218.527587890625,
    "speed": 0,
    "load": -0.06843357063841182
  },
  {
    "temp": 218.52919006347656,
    "speed": 0,
    "load": -0.06971229070833118
  },
  {
    "temp": 218.5304718017578,
    "speed": 0,
    "load": -0.06865403961598382
  },
  {
    "temp": 218.51954650878906,
    "speed": 0,
    "load": -0.06812491406981103
  },
  {
    "temp": 218.52276611328125,
    "speed": 0,
    "load": -0.06644934984026207
  },
  {
    "temp": 218.5253448486328,
    "speed": 0,
    "load": -0.07112329216479285
  },
  {
    "temp": 218.51881408691406,
    "speed": 0,
    "load": -0.062392720652933775
  },
  {
    "temp": 218.5221710205078,
    "speed": 0,
    "load": -0.07381301369117388
  },
  {
    "temp": 218.52700805664062,
    "speed": 0,
    "load": -0.07129966734685045
  },
  {
    "temp": 218.5287322998047,
    "speed": 0,
    "load": -0.0765027352175549
  },
  {
    "temp": 218.5301055908203,
    "speed": 0,
    "load": -0.07619407864895322
  },
  {
    "temp": 218.5312042236328,
    "speed": 0,
    "load": -0.07491535857903475
  },
  {
    "temp": 218.5327911376953,
    "speed": 0,
    "load": -0.07196107427956733
  },
  {
    "temp": 218.53335571289062,
    "speed": 0,
    "load": -0.0766350166040981
  },
  {
    "temp": 218.5338134765625,
    "speed": 0,
    "load": -0.07451851441940427
  },
  {
    "temp": 218.5242462158203,
    "speed": 0,
    "load": -0.06856585202495502
  },
  {
    "temp": 218.52651977539062,
    "speed": 0,
    "load": -0.0732397943494858
  },
  {
    "temp": 218.52980041503906,
    "speed": 0,
    "load": -0.06883041479804142
  },
  {
    "temp": 218.51817321777344,
    "speed": 0,
    "load": -0.07143194873339365
  },
  {
    "temp": 218.52166748046875,
    "speed": 0,
    "load": -0.0732838881450002
  },
  {
    "temp": 218.5244598388672,
    "speed": 0,
    "load": -0.07002094727693198
  },
  {
    "temp": 218.5028839111328,
    "speed": 0,
    "load": -0.07024141625450397
  },
  {
    "temp": 218.51466369628906,
    "speed": 0,
    "load": -0.0651265359748292
  },
  {
    "temp": 218.51885986328125,
    "speed": 0,
    "load": -0.06684619399989167
  },
  {
    "temp": 218.522216796875,
    "speed": 0,
    "load": -0.07244610603022572
  },
  {
    "temp": 218.5270538330078,
    "speed": 0,
    "load": -0.07041779143656157
  },
  {
    "temp": 218.51597595214844,
    "speed": 0,
    "load": -0.07209335566611053
  },
  {
    "temp": 218.49432373046875,
    "speed": 0,
    "load": -0.07147604252890805
  },
  {
    "temp": 218.49639892578125,
    "speed": 0,
    "load": -0.07354845091808748
  },
  {
    "temp": 218.50424194335938,
    "speed": 0,
    "load": -0.07077054180067677
  },
  {
    "temp": 218.4977264404297,
    "speed": 0,
    "load": -0.07368073230463068
  },
  {
    "temp": 218.46531677246094,
    "speed": 0,
    "load": -0.07359254471360188
  },
  {
    "temp": 218.4665985107422,
    "speed": 0,
    "load": -0.07809011185607417
  },
  {
    "temp": 218.48040771484375,
    "speed": 0,
    "load": -0.07628226623998202
  },
  {
    "temp": 218.4542236328125,
    "speed": 0,
    "load": -0.07588542208035243
  },
  {
    "temp": 218.4705047607422,
    "speed": 0,
    "load": -0.08029480163179681
  },
  {
    "temp": 218.45794677734375,
    "speed": 0,
    "load": -0.08117667754208568
  },
  {
    "temp": 218.44789123535156,
    "speed": 0,
    "load": -0.07487126478352035
  },
  {
    "temp": 218.4462127685547,
    "speed": 0,
    "load": -0.07729642353681498
  },
  {
    "temp": 218.45130920410156,
    "speed": 0,
    "load": -0.07809011185607417
  },
  {
    "temp": 218.45864868164062,
    "speed": 0,
    "load": -0.07729642353681498
  },
  {
    "temp": 218.4740447998047,
    "speed": 0,
    "load": -0.07557676551175163
  },
  {
    "temp": 218.48635864257812,
    "speed": 0,
    "load": -0.07575314069380923
  },
  {
    "temp": 218.48342895507812,
    "speed": 0,
    "load": -0.07601770346689563
  },
  {
    "temp": 218.4894256591797,
    "speed": 0,
    "load": -0.0769877669682133
  },
  {
    "temp": 218.49867248535156,
    "speed": 0,
    "load": -0.07729642353681498
  },
  {
    "temp": 218.49327087402344,
    "speed": 0,
    "load": -0.07769326769644458
  },
  {
    "temp": 218.498291015625,
    "speed": 0,
    "load": -0.07831058083364617
  },
  {
    "temp": 218.4929656982422,
    "speed": 0,
    "load": -0.07800192426504537
  },
  {
    "temp": 218.48870849609375,
    "speed": 0,
    "load": -0.07782554908298778
  },
  {
    "temp": 218.47250366210938,
    "speed": 0,
    "load": -0.07460670201043396
  },
  {
    "temp": 218.48243713378906,
    "speed": 0,
    "load": -0.07795783046953098
  },
  {
    "temp": 218.48028564453125,
    "speed": 0,
    "load": -0.0730634191674282
  },
  {
    "temp": 218.4785614013672,
    "speed": 0,
    "load": -0.07734051733232938
  },
  {
    "temp": 218.4530487060547,
    "speed": 0,
    "load": -0.0767232041951269
  },
  {
    "temp": 218.4695587158203,
    "speed": 0,
    "load": -0.08205855345237367
  },
  {
    "temp": 218.46998596191406,
    "speed": 0,
    "load": -0.07994205126768072
  },
  {
    "temp": 218.47059631347656,
    "speed": 0,
    "load": -0.08333727352229303
  },
  {
    "temp": 218.47080993652344,
    "speed": 0,
    "load": -0.08523330672941398
  },
  {
    "temp": 218.48391723632812,
    "speed": 0,
    "load": -0.08139714651965768
  },
  {
    "temp": 218.4942626953125,
    "speed": 0,
    "load": -0.08201445965685927
  },
  {
    "temp": 218.47694396972656,
    "speed": 0,
    "load": -0.08033889542731121
  },
  {
    "temp": 218.4750518798828,
    "speed": 0,
    "load": -0.080647551995912
  },
  {
    "temp": 218.47438049316406,
    "speed": 0,
    "load": -0.08536558811595718
  },
  {
    "temp": 218.48663330078125,
    "speed": 0,
    "load": -0.08395458665949462
  },
  {
    "temp": 218.4812469482422,
    "speed": 0,
    "load": -0.08227902242994656
  },
  {
    "temp": 218.47933959960938,
    "speed": 0,
    "load": -0.08523330672941398
  },
  {
    "temp": 218.4637908935547,
    "speed": 0,
    "load": -0.08801121584682381
  },
  {
    "temp": 218.4653778076172,
    "speed": 0,
    "load": -0.08651202679933245
  },
  {
    "temp": 218.48043823242188,
    "speed": 0,
    "load": -0.08598290125315966
  },
  {
    "temp": 218.4786834716797,
    "speed": 0,
    "load": -0.0846159935922115
  },
  {
    "temp": 218.4900665283203,
    "speed": 0,
    "load": -0.08152942790620088
  },
  {
    "temp": 218.48599243164062,
    "speed": 0,
    "load": -0.08289633556714904
  },
  {
    "temp": 218.4703369140625,
    "speed": 0,
    "load": -0.08316089834023543
  },
  {
    "temp": 218.45802307128906,
    "speed": 0,
    "load": -0.08858443518851189
  },
  {
    "temp": 218.47354125976562,
    "speed": 0,
    "load": -0.08664430818587654
  },
  {
    "temp": 218.47317504882812,
    "speed": 0,
    "load": -0.08122077133760008
  },
  {
    "temp": 218.47007751464844,
    "speed": 0,
    "load": -0.08915765453019908
  },
  {
    "temp": 218.48318481445312,
    "speed": 0,
    "load": -0.08483646256978439
  },
  {
    "temp": 218.4808807373047,
    "speed": 0,
    "load": -0.08757027789167893
  },
  {
    "temp": 218.48780822753906,
    "speed": 0,
    "load": -0.09290562714892658
  },
  {
    "temp": 218.48458862304688,
    "speed": 0,
    "load": -0.08959859248534308
  },
  {
    "temp": 218.4947967529297,
    "speed": 0,
    "load": -0.08637974541278925
  },
  {
    "temp": 218.49017333984375,
    "speed": 0,
    "load": -0.0844837122056683
  },
  {
    "temp": 218.499267578125,
    "speed": 0,
    "load": -0.08677658957241974
  },
  {
    "temp": 218.51235961914062,
    "speed": 0,
    "load": -0.08959859248534308
  },
  {
    "temp": 218.5170135498047,
    "speed": 0,
    "load": -0.08651202679933245
  },
  {
    "temp": 218.52073669433594,
    "speed": 0,
    "load": -0.08576243227558678
  },
  {
    "temp": 218.4928436279297,
    "speed": 0,
    "load": -0.09083321875974804
  },
  {
    "temp": 218.50140380859375,
    "speed": 0,
    "load": -0.08990724905394476
  },
  {
    "temp": 218.49546813964844,
    "speed": 0,
    "load": -0.08571833848007238
  },
  {
    "temp": 218.4843292236328,
    "speed": 0,
    "load": -0.08580652607110117
  },
  {
    "temp": 218.4945831298828,
    "speed": 0,
    "load": -0.080647551995912
  },
  {
    "temp": 218.50279235839844,
    "speed": 0,
    "load": -0.08505693154735638
  },
  {
    "temp": 218.50181579589844,
    "speed": 0,
    "load": -0.08906946693917028
  },
  {
    "temp": 218.50857543945312,
    "speed": 0,
    "load": -0.08673249577690534
  },
  {
    "temp": 218.4884033203125,
    "speed": 0,
    "load": -0.08774665307373652
  },
  {
    "temp": 218.50540161132812,
    "speed": 0,
    "load": -0.09003953044048796
  },
  {
    "temp": 218.51144409179688,
    "speed": 0,
    "load": -0.08977496766740156
  },
  {
    "temp": 218.5034942626953,
    "speed": 0,
    "load": -0.09109778153283443
  },
  {
    "temp": 218.5022735595703,
    "speed": 0,
    "load": -0.09202375123863771
  },
  {
    "temp": 218.50894165039062,
    "speed": 0,
    "load": -0.09259697058032579
  },
  {
    "temp": 218.5142822265625,
    "speed": 0,
    "load": -0.09092140635077683
  },
  {
    "temp": 218.50149536132812,
    "speed": 0,
    "load": -0.08902537314365588
  },
  {
    "temp": 218.4955291748047,
    "speed": 0,
    "load": -0.08999543664497356
  },
  {
    "temp": 218.50355529785156,
    "speed": 0,
    "load": -0.09096550014629123
  },
  {
    "temp": 218.5099639892578,
    "speed": 0,
    "load": -0.09171509467003691
  },
  {
    "temp": 218.50897216796875,
    "speed": 0,
    "load": -0.09237650160275379
  },
  {
    "temp": 218.5015106201172,
    "speed": 0,
    "load": -0.08995134284945916
  },
  {
    "temp": 218.50100708007812,
    "speed": 0,
    "load": -0.09136234430592083
  },
  {
    "temp": 218.5079345703125,
    "speed": 0,
    "load": -0.08862852898402629
  },
  {
    "temp": 218.5134735107422,
    "speed": 0,
    "load": -0.09325837751304178
  },
  {
    "temp": 218.5214385986328,
    "speed": 0,
    "load": -0.09440481619641794
  },
  {
    "temp": 218.52427673339844,
    "speed": 0,
    "load": -0.09264106437584019
  },
  {
    "temp": 218.5155792236328,
    "speed": 0,
    "load": -0.09184737605658011
  },
  {
    "temp": 218.50680541992188,
    "speed": 0,
    "load": -0.09325837751304178
  },
  {
    "temp": 218.49978637695312,
    "speed": 0,
    "load": -0.09021590562254556
  },
  {
    "temp": 218.5126953125,
    "speed": 0,
    "load": -0.09184737605658011
  },
  {
    "temp": 218.5172882080078,
    "speed": 0,
    "load": -0.09449300378744674
  },
  {
    "temp": 218.5209503173828,
    "speed": 0,
    "load": -0.09414025342333154
  },
  {
    "temp": 218.5238800048828,
    "speed": 0,
    "load": -0.09422844101436034
  },
  {
    "temp": 218.51531982421875,
    "speed": 0,
    "load": -0.09074503116871924
  },
  {
    "temp": 218.51937866210938,
    "speed": 0,
    "load": -0.09105368773732003
  },
  {
    "temp": 218.5226287841797,
    "speed": 0,
    "load": -0.09466937896950434
  },
  {
    "temp": 218.4996337890625,
    "speed": 0,
    "load": -0.09387569065024426
  },
  {
    "temp": 218.4895782470703,
    "speed": 0,
    "load": -0.09431662860538914
  },
  {
    "temp": 218.49879455566406,
    "speed": 0,
    "load": -0.09462528517398994
  },
  {
    "temp": 218.49337768554688,
    "speed": 0,
    "load": -0.09206784503415211
  },
  {
    "temp": 218.5018310546875,
    "speed": 0,
    "load": -0.09043637460011844
  },
  {
    "temp": 218.49098205566406,
    "speed": 0,
    "load": -0.09255287678481139
  },
  {
    "temp": 218.49990844726562,
    "speed": 0,
    "load": -0.09012771803151676
  },
  {
    "temp": 218.4942626953125,
    "speed": 0,
    "load": -0.09427253480987474
  },
  {
    "temp": 218.49891662597656,
    "speed": 0,
    "load": -0.09369931546818666
  },
  {
    "temp": 218.49346923828125,
    "speed": 0,
    "load": -0.0922001264206953
  },
  {
    "temp": 218.4856414794922,
    "speed": 0,
    "load": -0.08779074686925181
  },
  {
    "temp": 218.48284912109375,
    "speed": 0,
    "load": -0.08787893446028061
  },
  {
    "temp": 218.493408203125,
    "speed": 0,
    "load": -0.08858443518851189
  },
  {
    "temp": 218.50184631347656,
    "speed": 0,
    "load": -0.09021590562254556
  },
  {
    "temp": 218.49099731445312,
    "speed": 0,
    "load": -0.09136234430592083
  },
  {
    "temp": 218.4871368408203,
    "speed": 0,
    "load": -0.09043637460011844
  },
  {
    "temp": 218.4840545654297,
    "speed": 0,
    "load": -0.09131825051040643
  },
  {
    "temp": 218.45401000976562,
    "speed": 0,
    "load": -0.09308200233098418
  },
  {
    "temp": 218.4447479248047,
    "speed": 0,
    "load": -0.08959859248534308
  },
  {
    "temp": 218.4373321533203,
    "speed": 0,
    "load": -0.08783484066476621
  },
  {
    "temp": 218.439453125,
    "speed": 0,
    "load": -0.08893718555262708
  },
  {
    "temp": 218.4586944580078,
    "speed": 0,
    "load": -0.08933402971225668
  },
  {
    "temp": 218.47360229492188,
    "speed": 0,
    "load": -0.09387569065024426
  },
  {
    "temp": 218.4732208251953,
    "speed": 0,
    "load": -0.09383159685472986
  },
  {
    "temp": 218.48570251464844,
    "speed": 0,
    "load": -0.09652131838111089
  },
  {
    "temp": 218.46018981933594,
    "speed": 0,
    "load": -0.09369931546818666
  },
  {
    "temp": 218.46249389648438,
    "speed": 0,
    "load": -0.09466937896950434
  },
  {
    "temp": 218.4530029296875,
    "speed": 0,
    "load": -0.09250878298929699
  },
  {
    "temp": 218.44393920898438,
    "speed": 0,
    "load": -0.09462528517398994
  },
  {
    "temp": 218.4622802734375,
    "speed": 0,
    "load": -0.08981906146291596
  },
  {
    "temp": 218.45542907714844,
    "speed": 0,
    "load": -0.08576243227558678
  },
  {
    "temp": 218.4458770751953,
    "speed": 0,
    "load": -0.08902537314365588
  },
  {
    "temp": 218.45103454589844,
    "speed": 0,
    "load": -0.09149462569246403
  },
  {
    "temp": 218.46795654296875,
    "speed": 0,
    "load": -0.08986315525843036
  },
  {
    "temp": 218.46929931640625,
    "speed": 0,
    "load": -0.09056865598666164
  },
  {
    "temp": 218.4573516845703,
    "speed": 0,
    "load": -0.09034818700908964
  },
  {
    "temp": 218.46022033691406,
    "speed": 0,
    "load": -0.09250878298929699
  },
  {
    "temp": 218.4566650390625,
    "speed": 0,
    "load": -0.08981906146291596
  },
  {
    "temp": 218.4596710205078,
    "speed": 0,
    "load": -0.09140643810143523
  },
  {
    "temp": 218.44927978515625,
    "speed": 0,
    "load": -0.09087731255526244
  },
  {
    "temp": 218.48036193847656,
    "speed": 0,
    "load": -0.09193556364760891
  },
  {
    "temp": 218.47862243652344,
    "speed": 0,
    "load": -0.09550716108427881
  },
  {
    "temp": 218.49002075195312,
    "speed": 0,
    "load": -0.09414025342333154
  },
  {
    "temp": 218.4991455078125,
    "speed": 0,
    "load": -0.09678588115419728
  },
  {
    "temp": 218.5122833251953,
    "speed": 0,
    "load": -0.09387569065024426
  },
  {
    "temp": 218.50416564941406,
    "speed": 0,
    "load": -0.0921119388296665
  },
  {
    "temp": 218.50270080566406,
    "speed": 0,
    "load": -0.09506622312913393
  },
  {
    "temp": 218.50929260253906,
    "speed": 0,
    "load": -0.09171509467003691
  },
  {
    "temp": 218.51455688476562,
    "speed": 0,
    "load": -0.09272925196686899
  },
  {
    "temp": 218.49913024902344,
    "speed": 0,
    "load": -0.08959859248534308
  },
  {
    "temp": 218.49363708496094,
    "speed": 0,
    "load": -0.09528669210670593
  },
  {
    "temp": 218.5020294189453,
    "speed": 0,
    "load": -0.09524259831119153
  },
  {
    "temp": 218.49110412597656,
    "speed": 0,
    "load": -0.09484575415156193
  },
  {
    "temp": 218.4872283935547,
    "speed": 0,
    "load": -0.09533078590222122
  },
  {
    "temp": 218.5096893310547,
    "speed": 0,
    "load": -0.09153871948797931
  },
  {
    "temp": 218.4960174560547,
    "speed": 0,
    "load": -0.08854034139299749
  },
  {
    "temp": 218.50393676757812,
    "speed": 0,
    "load": -0.09409615962781626
  },
  {
    "temp": 218.51026916503906,
    "speed": 0,
    "load": -0.09405206583230186
  },
  {
    "temp": 218.51939392089844,
    "speed": 0,
    "load": -0.09317018992201298
  },
  {
    "temp": 218.52264404296875,
    "speed": 0,
    "load": -0.10071022895498238
  },
  {
    "temp": 218.512451171875,
    "speed": 0,
    "load": -0.09585991144839401
  },
  {
    "temp": 218.50430297851562,
    "speed": 0,
    "load": -0.09859372677028944
  },
  {
    "temp": 218.49778747558594,
    "speed": 0,
    "load": -0.09771185086000056
  },
  {
    "temp": 218.5011749267578,
    "speed": 0,
    "load": -0.09819688261065984
  },
  {
    "temp": 218.50807189941406,
    "speed": 0,
    "load": -0.09678588115419728
  },
  {
    "temp": 218.51358032226562,
    "speed": 0,
    "load": -0.09630084940353889
  },
  {
    "temp": 218.50872802734375,
    "speed": 0,
    "load": -0.09678588115419728
  },
  {
    "temp": 218.50132751464844,
    "speed": 0,
    "load": -0.10335585668584901
  },
  {
    "temp": 218.51368713378906,
    "speed": 0,
    "load": -0.09427253480987474
  },
  {
    "temp": 218.51808166503906,
    "speed": 0,
    "load": -0.10066613515946798
  },
  {
    "temp": 218.52159118652344,
    "speed": 0,
    "load": -0.09678588115419728
  },
  {
    "temp": 218.52439880371094,
    "speed": 0,
    "load": -0.09471347276501874
  },
  {
    "temp": 218.52664184570312,
    "speed": 0,
    "load": -0.09775594465551496
  },
  {
    "temp": 218.52987670898438,
    "speed": 0,
    "load": -0.10207713661593054
  },
  {
    "temp": 218.53102111816406,
    "speed": 0,
    "load": -0.09294972094444098
  },
  {
    "temp": 218.5326690673828,
    "speed": 0,
    "load": -0.09374340926370106
  },
  {
    "temp": 218.53326416015625,
    "speed": 0,
    "load": -0.09682997494971168
  },
  {
    "temp": 218.5337371826172,
    "speed": 0,
    "load": -0.09850553917926064
  },
  {
    "temp": 218.52418518066406,
    "speed": 0,
    "load": -0.10220941800247374
  },
  {
    "temp": 218.52647399902344,
    "speed": 0,
    "load": -0.09612447422148129
  },
  {
    "temp": 218.52830505371094,
    "speed": 0,
    "load": -0.09912285231646312
  },
  {
    "temp": 218.52976989746094,
    "speed": 0,
    "load": -0.10071022895498238
  },
  {
    "temp": 218.5216522216797,
    "speed": 0,
    "load": -0.10119526070564167
  },
  {
    "temp": 218.52444458007812,
    "speed": 0,
    "load": -0.09907875852094872
  },
  {
    "temp": 218.5394744873047,
    "speed": 0,
    "load": -0.10004882202226639
  },
  {
    "temp": 218.5253143310547,
    "speed": 0,
    "load": -0.10225351179798814
  },
  {
    "temp": 218.52737426757812,
    "speed": 0,
    "load": -0.10168029245630095
  },
  {
    "temp": 218.5162353515625,
    "speed": 0,
    "load": -0.10057794756843919
  },
  {
    "temp": 218.52320861816406,
    "speed": 0,
    "load": -0.09506622312913393
  },
  {
    "temp": 218.52569580078125,
    "speed": 0,
    "load": -0.10216532420695934
  },
  {
    "temp": 218.50209045410156,
    "speed": 0,
    "load": -0.09638903699456769
  },
  {
    "temp": 218.51417541503906,
    "speed": 0,
    "load": -0.09727091290485657
  },
  {
    "temp": 218.51846313476562,
    "speed": 0,
    "load": -0.09656541217662529
  },
  {
    "temp": 218.5091094970703,
    "speed": 0,
    "load": -0.09696225633625488
  },
  {
    "temp": 218.50843811035156,
    "speed": 0,
    "load": -0.09519850451567713
  },
  {
    "temp": 218.50108337402344,
    "speed": 0,
    "load": -0.0999165406357232
  },
  {
    "temp": 218.50799560546875,
    "speed": 0,
    "load": -0.09581581765287961
  },
  {
    "temp": 218.5179443359375,
    "speed": 0,
    "load": -0.10048975997741039
  },
  {
    "temp": 218.521484375,
    "speed": 0,
    "load": -0.09682997494971168
  },
  {
    "temp": 218.51634216308594,
    "speed": 0,
    "load": -0.09854963297477504
  },
  {
    "temp": 218.50741577148438,
    "speed": 0,
    "load": -0.09590400524390841
  },
  {
    "temp": 218.50027465820312,
    "speed": 0,
    "load": -0.09766775706448616
  },
  {
    "temp": 218.50021362304688,
    "speed": 0,
    "load": -0.09466937896950434
  },
  {
    "temp": 218.50729370117188,
    "speed": 0,
    "load": -0.09074503116871924
  },
  {
    "temp": 218.48736572265625,
    "speed": 0,
    "load": -0.09347884649061466
  },
  {
    "temp": 218.4817352294922,
    "speed": 0,
    "load": -0.09339065889958498
  },
  {
    "temp": 218.4925079345703,
    "speed": 0,
    "load": -0.09308200233098418
  },
  {
    "temp": 218.4755401611328,
    "speed": 0,
    "load": -0.09621266181251009
  },
  {
    "temp": 218.48756408691406,
    "speed": 0,
    "load": -0.09546306728876441
  },
  {
    "temp": 218.46905517578125,
    "speed": 0,
    "load": -0.09652131838111089
  },
  {
    "temp": 218.456787109375,
    "speed": 0,
    "load": -0.0959921928349372
  },
  {
    "temp": 218.47254943847656,
    "speed": 0,
    "load": -0.09899057092991903
  },
  {
    "temp": 218.4824676513672,
    "speed": 0,
    "load": -0.09921103990749192
  },
  {
    "temp": 218.48031616210938,
    "speed": 0,
    "load": -0.10326766909482021
  },
  {
    "temp": 218.46441650390625,
    "speed": 0,
    "load": -0.10132754209218486
  },
  {
    "temp": 218.4658660888672,
    "speed": 0,
    "load": -0.09938741508954951
  },
  {
    "temp": 218.46702575683594,
    "speed": 0,
    "load": -0.09078912496423364
  },
  {
    "temp": 218.45846557617188,
    "speed": 0,
    "load": -0.09087731255526244
  },
  {
    "temp": 218.4611053466797,
    "speed": 0,
    "load": -0.09466937896950434
  },
  {
    "temp": 218.43763732910156,
    "speed": 0,
    "load": -0.09568353626633641
  },
  {
    "temp": 218.44732666015625,
    "speed": 0,
    "load": -0.09868191436131823
  },
  {
    "temp": 218.4521942138672,
    "speed": 0,
    "load": -0.09916694611197752
  },
  {
    "temp": 218.448974609375,
    "speed": 0,
    "load": -0.09749138188242856
  },
  {
    "temp": 218.4407196044922,
    "speed": 0,
    "load": -0.09665359976765409
  },
  {
    "temp": 218.46466064453125,
    "speed": 0,
    "load": -0.09546306728876441
  },
  {
    "temp": 218.47885131835938,
    "speed": 0,
    "load": -0.09242059539826819
  },
  {
    "temp": 218.4774169921875,
    "speed": 0,
    "load": -0.09497803553810513
  },
  {
    "temp": 218.4548797607422,
    "speed": 0,
    "load": -0.09585991144839401
  },
  {
    "temp": 218.4710235595703,
    "speed": 0,
    "load": -0.09021590562254556
  },
  {
    "temp": 218.48394775390625,
    "speed": 0,
    "load": -0.09780003845102936
  },
  {
    "temp": 218.4814910888672,
    "speed": 0,
    "load": -0.09854963297477504
  },
  {
    "temp": 218.4795379638672,
    "speed": 0,
    "load": -0.09555125487979321
  },
  {
    "temp": 218.45623779296875,
    "speed": 0,
    "load": -0.0998724468402088
  },
  {
    "temp": 218.45933532714844,
    "speed": 0,
    "load": -0.09969607165815031
  },
  {
    "temp": 218.47459411621094,
    "speed": 0,
    "load": -0.09890238333889023
  },
  {
    "temp": 218.47608947753906,
    "speed": 0,
    "load": -0.09317018992201298
  },
  {
    "temp": 218.4879913330078,
    "speed": 0,
    "load": -0.09378750305921546
  },
  {
    "temp": 218.48211669921875,
    "speed": 0,
    "load": -0.09960788406712151
  },
  {
    "temp": 218.49281311035156,
    "speed": 0,
    "load": -0.09687406874522608
  },
  {
    "temp": 218.4954376220703,
    "speed": 0,
    "load": -0.09563944247082201
  },
  {
    "temp": 218.50347900390625,
    "speed": 0,
    "load": -0.09431662860538914
  },
  {
    "temp": 218.50990295410156,
    "speed": 0,
    "load": -0.09652131838111089
  },
  {
    "temp": 218.50892639160156,
    "speed": 0,
    "load": -0.09727091290485657
  },
  {
    "temp": 218.51426696777344,
    "speed": 0,
    "load": -0.09700635013176928
  },
  {
    "temp": 218.50575256347656,
    "speed": 0,
    "load": -0.09502212933361953
  },
  {
    "temp": 218.50372314453125,
    "speed": 0,
    "load": -0.0921119388296665
  },
  {
    "temp": 218.51010131835938,
    "speed": 0,
    "load": -0.09524259831119153
  },
  {
    "temp": 218.50242614746094,
    "speed": 0,
    "load": -0.09771185086000056
  },
  {
    "temp": 218.4785614013672,
    "speed": 0,
    "load": -0.09127415671489203
  },
  {
    "temp": 218.48997497558594,
    "speed": 0,
    "load": -0.09202375123863771
  },
  {
    "temp": 218.46034240722656,
    "speed": 0,
    "load": -0.10071022895498238
  },
  {
    "temp": 218.46185302734375,
    "speed": 0,
    "load": -0.1037527008454795
  },
  {
    "temp": 218.45101928710938,
    "speed": 0,
    "load": -0.09916694611197752
  },
  {
    "temp": 218.4551544189453,
    "speed": 0,
    "load": -0.09625675560802449
  },
  {
    "temp": 218.47389221191406,
    "speed": 0,
    "load": -0.09969607165815031
  },
  {
    "temp": 218.47344970703125,
    "speed": 0,
    "load": -0.09656541217662529
  },
  {
    "temp": 218.4730987548828,
    "speed": 0,
    "load": -0.09951969647609271
  },
  {
    "temp": 218.4597930908203,
    "speed": 0,
    "load": -0.10172438625181535
  },
  {
    "temp": 218.47496032714844,
    "speed": 0,
    "load": -0.09885828954337583
  },
  {
    "temp": 218.43795776367188,
    "speed": 0,
    "load": -0.09810869501963104
  },
  {
    "temp": 218.4447021484375,
    "speed": 0,
    "load": -0.09757956947345736
  },
  {
    "temp": 218.45010375976562,
    "speed": 0,
    "load": -0.09343475269510026
  },
  {
    "temp": 218.4476318359375,
    "speed": 0,
    "load": -0.10009291581778079
  },
  {
    "temp": 218.4524383544922,
    "speed": 0,
    "load": -0.09541897349325001
  },
  {
    "temp": 218.4434814453125,
    "speed": 0,
    "load": -0.09819688261065984
  }
]