[
  {
    "temp": 178.79400634765625,
    "speed": 0,
    "load": -0.0029101905039539133
  },
  {
    "temp": 178.79913330078125,
    "speed": 0,
    "load": -0.0029542842994665364
  },
  {
    "temp": 178.7876739501953,
    "speed": 0,
    "load": -0.008289633556714193
  },
  {
    "temp": 178.7950897216797,
    "speed": 0,
    "load": -0.012478544130587466
  },
  {
    "temp": 178.79298400878906,
    "speed": 0,
    "load": -0.013316326245361054
  },
  {
    "temp": 178.7913055419922,
    "speed": 0,
    "load": -0.016226516749314968
  },
  {
    "temp": 178.8042449951172,
    "speed": 0,
    "load": -0.012743106903673862
  },
  {
    "temp": 178.808837890625,
    "speed": 0,
    "load": -0.017064298864088556
  },
  {
    "temp": 178.80398559570312,
    "speed": 3.4674062728881836,
    "load": -0.015168265656967606
  },
  {
    "temp": 178.80552673339844,
    "speed": 3.4674062728881836,
    "load": 2.500955987783577
  },
  {
    "temp": 178.8098602294922,
    "speed": 3.462603807449341,
    "load": 11.472808748697904
  },
  {
    "temp": 178.7962646484375,
    "speed": 3.4674062728881836,
    "load": 23.702663872583248
  },
  {
    "temp": 178.78538513183594,
    "speed": 3.671072006225586,
    "load": 38.62598849546821
  },
  {
    "temp": 178.7937469482422,
    "speed": 3.4674062728881836,
    "load": 41.91869267550909
  },
  {
    "temp": 178.7750701904297,
    "speed": 3.4674062728881836,
    "load": 43.51832738918198
  },
  {
    "temp": 178.7684326171875,
    "speed": 3.4674062728881836,
    "load": 41.30208503903515
  },
  {
    "temp": 178.7742462158203,
    "speed": 3.4674062728881836,
    "load": 39.647333080969204
  },
  {
    "temp": 178.7848358154297,
    "speed": 3.4674062728881836,
    "load": 37.38166158605068
  },
  {
    "temp": 178.7762451171875,
    "speed": 3.4674062728881836,
    "load": 31.545803655918913
  },
  {
    "temp": 178.7693634033203,
    "speed": 3.6764705181121826,
    "load": 29.938628903213054
  },
  {
    "temp": 178.7816619873047,
    "speed": 3.4674062728881836,
    "load": 29.287143074487194
  },
  {
    "temp": 178.78224182128906,
    "speed": 3.4674062728881836,
    "load": 29.22541176076697
  },
  {
    "temp": 178.7677001953125,
    "speed": 3.472222328186035,
    "load": 29.223339352377796
  },
  {
    "temp": 178.7710723876953,
    "speed": 3.472222328186035,
    "load": 29.109665547541564
  },
  {
    "temp": 178.77377319335938,
    "speed": 3.4674062728881836,
    "load": 29.32329998680903
  },
  {
    "temp": 178.76739501953125,
    "speed": 3.4674062728881836,
    "load": 29.447424021182183
  },
  {
    "temp": 178.76502990722656,
    "speed": 3.462603807449341,
    "load": 29.449364148184817
  },
  {
    "temp": 178.76039123535156,
    "speed": 3.4674062728881836,
    "load": 29.826586568810857
  },
  {
    "temp": 178.76522827148438,
    "speed": 3.6764705181121826,
    "load": 29.938628903213054
  },
  {
    "temp": 178.748291015625,
    "speed": 3.4674062728881836,
    "load": 29.901281458412324
  },
  {
    "temp": 178.74700927734375,
    "speed": 3.4674062728881836,
    "load": 30.275946438898526
  },
  {
    "temp": 178.7545166015625,
    "speed": 3.4674062728881836,
    "load": 30.42313152832573
  },
  {
    "temp": 178.7434539794922,
    "speed": 3.4674062728881836,
    "load": 30.394470561241345
  },
  {
    "temp": 178.7497100830078,
    "speed": 3.472222328186035,
    "load": 30.660135679215852
  },
  {
    "temp": 178.73960876464844,
    "speed": 3.472222328186035,
    "load": 30.80022166756523
  },
  {
    "temp": 178.7229766845703,
    "speed": 3.472222328186035,
    "load": 30.803264139455724
  },
  {
    "temp": 178.7182159423828,
    "speed": 3.4674062728881836,
    "load": 30.793343035464975
  },
  {
    "temp": 178.7028350830078,
    "speed": 3.671072006225586,
    "load": 31.25562238763838
  },
  {
    "temp": 178.71063232421875,
    "speed": 3.671072006225586,
    "load": 31.26779227520036
  },
  {
    "temp": 178.70834350585938,
    "speed": 3.472222328186035,
    "load": 31.272378029933865
  },
  {
    "temp": 178.69796752929688,
    "speed": 3.4674062728881836,
    "load": 31.505413739227688
  },
  {
    "temp": 178.6984100341797,
    "speed": 3.4674062728881836,
    "load": 31.65586176952296
  },
  {
    "temp": 178.6985626220703,
    "speed": 3.462603807449341,
    "load": 31.647351666988673
  },
  {
    "temp": 178.6901397705078,
    "speed": 3.671072006225586,
    "load": 31.921615075088493
  },
  {
    "temp": 178.68341064453125,
    "speed": 3.4674062728881836,
    "load": 32.02642602702632
  },
  {
    "temp": 178.66949462890625,
    "speed": 3.4674062728881836,
    "load": 32.0110813861873
  },
  {
    "temp": 178.66688537597656,
    "speed": 3.4674062728881836,
    "load": 32.2746300019771
  },
  {
    "temp": 178.66314697265625,
    "speed": 0,
    "load": 32.388127431631275
  },
  {
    "temp": 178.6618194580078,
    "speed": 0,
    "load": 32.17361111645353
  },
  {
    "temp": 178.66075134277344,
    "speed": 0,
    "load": 22.148048924130602
  },
  {
    "temp": 178.65989685058594,
    "speed": 0,
    "load": 16.89810934879472
  },
  {
    "temp": 178.64158630371094,
    "speed": 0,
    "load": 13.126678830853557
  },
  {
    "temp": 178.6360321044922,
    "speed": 0,
    "load": 10.485240010560972
  },
  {
    "temp": 178.623046875,
    "speed": 0,
    "load": 7.321642463786375
  },
  {
    "temp": 178.61265563964844,
    "speed": 0,
    "load": 6.285129612628413
  },
  {
    "temp": 178.5942840576172,
    "speed": 0,
    "load": 5.452638753315767
  },
  {
    "temp": 178.57257080078125,
    "speed": 0,
    "load": 4.174403715147639
  },
  {
    "temp": 178.55520629882812,
    "speed": 0,
    "load": 3.673057260148445
  },
  {
    "temp": 178.5498504638672,
    "speed": 0,
    "load": 3.240364844765235
  },
  {
    "temp": 178.5336151123047,
    "speed": 0,
    "load": 2.554838605902223
  },
  {
    "temp": 178.52403259277344,
    "speed": 0,
    "load": 2.292436428795785
  },
  {
    "temp": 178.51637268066406,
    "speed": 0,
    "load": 2.0776114570494286
  },
  {
    "temp": 178.51023864746094,
    "speed": 0,
    "load": 1.9027354640391554
  },
  {
    "temp": 178.5014190673828,
    "speed": 0,
    "load": 1.7544921235196043
  },
  {
    "temp": 178.49827575683594,
    "speed": 0,
    "load": 1.5235729164104779
  },
  {
    "temp": 178.4957733154297,
    "speed": 0,
    "load": 1.431549165171841
  },
  {
    "temp": 178.49375915527344,
    "speed": 0,
    "load": 1.3531503967471643
  },
  {
    "temp": 178.49087524414062,
    "speed": 0,
    "load": 1.2165037244479109
  },
  {
    "temp": 178.48985290527344,
    "speed": 0,
    "load": 1.1592699778701672
  },
  {
    "temp": 178.48902893066406,
    "speed": 0,
    "load": 1.104770046614318
  },
  {
    "temp": 178.48837280273438,
    "speed": 0,
    "load": 1.027694092055075
  },
  {
    "temp": 178.49595642089844,
    "speed": 0,
    "load": 0.9951087771699036
  },
  {
    "temp": 178.49391174316406,
    "speed": 0,
    "load": 0.9641549327187651
  },
  {
    "temp": 178.49227905273438,
    "speed": 0,
    "load": 0.9163572583811117
  },
  {
    "temp": 178.4899139404297,
    "speed": 0,
    "load": 0.8941339854418331
  },
  {
    "temp": 178.48907470703125,
    "speed": 0,
    "load": 0.8715579621384393
  },
  {
    "temp": 178.4969482421875,
    "speed": 0,
    "load": 0.8331081724498475
  },
  {
    "temp": 178.4947052001953,
    "speed": 0,
    "load": 0.8151619976754692
  },
  {
    "temp": 178.52220153808594,
    "speed": 0,
    "load": 0.7988913871306416
  },
  {
    "temp": 178.531982421875,
    "speed": 0,
    "load": 0.7668792915871574
  },
  {
    "temp": 178.53981018066406,
    "speed": 0,
    "load": 0.7493299609724104
  },
  {
    "temp": 178.54254150390625,
    "speed": 0,
    "load": 0.7352640402033028
  },
  {
    "temp": 178.55679321289062,
    "speed": 0,
    "load": 0.7217713387758842
  },
  {
    "temp": 178.55966186523438,
    "speed": 0,
    "load": 0.6950945924896477
  },
  {
    "temp": 178.5790252685547,
    "speed": 0,
    "load": 0.6804554523788529
  },
  {
    "temp": 178.60690307617188,
    "speed": 0,
    "load": 0.6596431808960368
  },
  {
    "temp": 178.6168212890625,
    "speed": 0,
    "load": 0.6491488575635991
  },
  {
    "temp": 178.624755859375,
    "speed": 0,
    "load": 0.6138738211520476
  },
  {
    "temp": 178.6361846923828,
    "speed": 0,
    "load": 0.592091486167913
  },
  {
    "temp": 178.64024353027344,
    "speed": 0,
    "load": 0.5770555018974886
  },
  {
    "temp": 178.65203857421875,
    "speed": 0,
    "load": 0.5630336749238971
  },
  {
    "temp": 178.65292358398438,
    "speed": 0,
    "load": 0.5444260932168028
  },
  {
    "temp": 178.66958618164062,
    "speed": 0,
    "load": 0.5275381695347718
  },
  {
    "temp": 178.6840362548828,
    "speed": 0,
    "load": 0.5008173294530209
  },
  {
    "temp": 178.6956024169922,
    "speed": 0,
    "load": 0.48939703641477905
  },
  {
    "temp": 178.71339416503906,
    "speed": 0,
    "load": 0.4748460838950148
  },
  {
    "temp": 178.739013671875,
    "speed": 0,
    "load": 0.44252533178292985
  },
  {
    "temp": 178.7481231689453,
    "speed": 0,
    "load": 0.4270043157618453
  },
  {
    "temp": 178.7554168701172,
    "speed": 0,
    "load": 0.4189792449782175
  },
  {
    "temp": 178.769775390625,
    "speed": 0,
    "load": 0.4034141351616203
  },
  {
    "temp": 178.78126525878906,
    "speed": 0,
    "load": 0.38970096475662963
  },
  {
    "temp": 178.7904510498047,
    "speed": 0,
    "load": 0.35782115059968866
  },
  {
    "temp": 178.80369567871094,
    "speed": 0,
    "load": 0.34644495135696296
  },
  {
    "temp": 178.8083953857422,
    "speed": 0,
    "load": 0.33550969006938125
  },
  {
    "temp": 178.81216430664062,
    "speed": 0,
    "load": 0.3299097780390472
  },
  {
    "temp": 178.81517028808594,
    "speed": 0,
    "load": 0.30442356423170125
  },
  {
    "temp": 178.8263397216797,
    "speed": 0,
    "load": 0.29313555258000434
  },
  {
    "temp": 178.82652282714844,
    "speed": 0,
    "load": 0.2833026361802826
  },
  {
    "temp": 178.84373474121094,
    "speed": 0,
    "load": 0.2564495147119885
  },
  {
    "temp": 178.85317993164062,
    "speed": 0,
    "load": 0.25027638333996727
  },
  {
    "temp": 178.8650665283203,
    "speed": 0,
    "load": 0.24679297349432616
  },
  {
    "temp": 178.87457275390625,
    "speed": 0,
    "load": 0.222938230121013
  },
  {
    "temp": 178.87364196777344,
    "speed": 0,
    "load": 0.21195887503791688
  },
  {
    "temp": 178.90304565429688,
    "speed": 0,
    "load": 0.20463930498252125
  },
  {
    "temp": 178.9134979248047,
    "speed": 0,
    "load": 0.18920647655246547
  },
  {
    "temp": 178.91331481933594,
    "speed": 0,
    "load": 0.18100503058678008
  },
  {
    "temp": 178.92160034179688,
    "speed": 0,
    "load": 0.1646903262464363
  },
  {
    "temp": 178.9283447265625,
    "speed": 0,
    "load": 0.15618022371215012
  },
  {
    "temp": 178.93374633789062,
    "speed": 0,
    "load": 0.14008598834937835
  },
  {
    "temp": 178.9295196533203,
    "speed": 0,
    "load": 0.1313554168375184
  },
  {
    "temp": 178.93881225585938,
    "speed": 0,
    "load": 0.1153493690657772
  },
  {
    "temp": 178.93356323242188,
    "speed": 0,
    "load": 0.10785342382832219
  },
  {
    "temp": 178.93966674804688,
    "speed": 0,
    "load": 0.10516370230194205
  },
  {
    "temp": 178.9427947998047,
    "speed": 0,
    "load": 0.09458119137847554
  },
  {
    "temp": 178.95382690429688,
    "speed": 0,
    "load": 0.09162690707900722
  },
  {
    "temp": 178.95413208007812,
    "speed": 0,
    "load": 0.08602699504867317
  },
  {
    "temp": 178.96139526367188,
    "speed": 0,
    "load": 0.07037369764104717
  },
  {
    "temp": 178.96017456054688,
    "speed": 0,
    "load": 0.06741941334158064
  },
  {
    "temp": 178.95065307617188,
    "speed": 0,
    "load": 0.06071715642338482
  },
  {
    "temp": 178.9430389404297,
    "speed": 0,
    "load": 0.05564636993922534
  },
  {
    "temp": 178.93038940429688,
    "speed": 0,
    "load": 0.04144816778357452
  },
  {
    "temp": 178.9268341064453,
    "speed": 0,
    "load": 0.038934821439251976
  },
  {
    "temp": 178.9154510498047,
    "speed": 0,
    "load": 0.030777469269079205
  },
  {
    "temp": 178.91615295410156,
    "speed": 0,
    "load": 0.01869576929812311
  },
  {
    "temp": 178.9069061279297,
    "speed": 0,
    "load": 0.013095857267789057
  },
  {
    "temp": 178.89097595214844,
    "speed": 0,
    "load": 0.006966819691282211
  },
  {
    "temp": 178.8867645263672,
    "speed": 0,
    "load": 0.004100722982842697
  },
  {
    "temp": 178.86534118652344,
    "speed": 0,
    "load": -0.0024251587532937435
  },
  {
    "temp": 178.8577117919922,
    "speed": 0,
    "load": -0.008598290125316765
  },
  {
    "temp": 178.8516082763672,
    "speed": 0,
    "load": -0.01291948208573146
  },
  {
    "temp": 178.8467254638672,
    "speed": 0,
    "load": -0.02645627730866451
  },
  {
    "temp": 178.84654235839844,
    "speed": 0,
    "load": -0.02469252548808676
  },
  {
    "temp": 178.84268188476562,
    "speed": 0,
    "load": -0.03364356597751872
  },
  {
    "temp": 178.83958435058594,
    "speed": 0,
    "load": -0.04845908127037113
  },
  {
    "temp": 178.8351287841797,
    "speed": 0,
    "load": -0.05423536848276278
  },
  {
    "temp": 178.8335418701172,
    "speed": 0,
    "load": -0.056528245849513326
  },
  {
    "temp": 178.832275390625,
    "speed": 0,
    "load": -0.056572339645027725
  },
  {
    "temp": 178.82273864746094,
    "speed": 0,
    "load": -0.06327459656322176
  },
  {
    "temp": 178.82363891601562,
    "speed": 0,
    "load": -0.06684619399989344
  },
  {
    "temp": 178.82435607910156,
    "speed": 0,
    "load": -0.0722697308481699
  },
  {
    "temp": 178.82493591308594,
    "speed": 0,
    "load": -0.08316089834023543
  },
  {
    "temp": 178.81040954589844,
    "speed": 0,
    "load": -0.08514511913838518
  },
  {
    "temp": 178.79669189453125,
    "speed": 0,
    "load": -0.08968678007637365
  },
  {
    "temp": 178.80279541015625,
    "speed": 0,
    "load": -0.09352294028612995
  },
  {
    "temp": 178.79623413085938,
    "speed": 0,
    "load": -0.09775594465551585
  },
  {
    "temp": 178.7938995361328,
    "speed": 0,
    "load": -0.10476685814231246
  },
  {
    "temp": 178.7834930419922,
    "speed": 0,
    "load": -0.1114691150605065
  },
  {
    "temp": 178.78370666503906,
    "speed": 0,
    "load": -0.11451158695100361
  },
  {
    "temp": 178.79083251953125,
    "speed": 0,
    "load": -0.12125793766471205
  },
  {
    "temp": 178.78103637695312,
    "speed": 0,
    "load": -0.12452087853278115
  },
  {
    "temp": 178.76522827148438,
    "speed": 0,
    "load": -0.1258436923982149
  },
  {
    "temp": 178.76910400390625,
    "speed": 0,
    "load": -0.13166407340612096
  },
  {
    "temp": 178.76365661621094,
    "speed": 0,
    "load": -0.13228138654332255
  },
  {
    "temp": 178.75929260253906,
    "speed": 0,
    "load": -0.13272232449846655
  },
  {
    "temp": 178.73593139648438,
    "speed": 0,
    "load": -0.14418671133222194
  },
  {
    "temp": 178.7285919189453,
    "speed": 0,
    "load": -0.14405442994567874
  },
  {
    "temp": 178.7312469482422,
    "speed": 0,
    "load": -0.14864018467918072
  },
  {
    "temp": 178.72824096679688,
    "speed": 0,
    "load": -0.15216768832033623
  },
  {
    "temp": 178.73095703125,
    "speed": 0,
    "load": -0.15648888028075092
  },
  {
    "temp": 178.73313903808594,
    "speed": 0,
    "load": -0.15401962773194278
  },
  {
    "temp": 178.7277374267578,
    "speed": 0,
    "load": -0.1686587678427367
  },
  {
    "temp": 178.72203063964844,
    "speed": 0,
    "load": -0.16689501602215895
  },
  {
    "temp": 178.70892333984375,
    "speed": 0,
    "load": -0.17134848936911773
  },
  {
    "temp": 178.69688415527344,
    "speed": 0,
    "load": -0.17694840139945178
  },
  {
    "temp": 178.6887969970703,
    "speed": 0,
    "load": -0.18087274920023688
  },
  {
    "temp": 178.6908721923828,
    "speed": 0,
    "load": -0.19070566559995683
  },
  {
    "temp": 178.69253540039062,
    "speed": 0,
    "load": -0.19449773201419873
  },
  {
    "temp": 178.69386291503906,
    "speed": 0,
    "load": -0.20040630061313358
  },
  {
    "temp": 178.69578552246094,
    "speed": 0,
    "load": -0.19679060938095017
  },
  {
    "temp": 178.7050018310547,
    "speed": 0,
    "load": -0.2067117133716998
  },
  {
    "temp": 178.69529724121094,
    "speed": 0,
    "load": -0.20433064841391957
  },
  {
    "temp": 178.69839477539062,
    "speed": 0,
    "load": -0.20543299330178044
  },
  {
    "temp": 178.71563720703125,
    "speed": 0,
    "load": -0.20944552869359434
  },
  {
    "temp": 178.72943115234375,
    "speed": 0,
    "load": -0.21010693562631122
  },
  {
    "temp": 178.73191833496094,
    "speed": 0,
    "load": -0.21575094145215967
  },
  {
    "temp": 178.72537231445312,
    "speed": 0,
    "load": -0.2188816009336847
  },
  {
    "temp": 178.73814392089844,
    "speed": 0,
    "load": -0.22501063851019243
  },
  {
    "temp": 178.7388916015625,
    "speed": 0,
    "load": -0.22743579726348706
  },
  {
    "temp": 178.74803161621094,
    "speed": 0,
    "load": -0.22902317390200633
  },
  {
    "temp": 178.75534057617188,
    "speed": 0,
    "load": -0.22752398485451586
  },
  {
    "temp": 178.78121948242188,
    "speed": 0,
    "load": -0.2263775461711397
  },
  {
    "temp": 178.79042053222656,
    "speed": 0,
    "load": -0.2340939603861667
  },
  {
    "temp": 178.78924560546875,
    "speed": 0,
    "load": -0.23493174250094206
  },
  {
    "temp": 178.7943878173828,
    "speed": 0,
    "load": -0.23651911913946133
  },
  {
    "temp": 178.8009490966797,
    "speed": 0,
    "load": -0.23978206000752955
  },
  {
    "temp": 178.79766845703125,
    "speed": 0,
    "load": -0.24251587532942587
  },
  {
    "temp": 178.80357360839844,
    "speed": 0,
    "load": -0.24763075560910064
  },
  {
    "temp": 178.8120880126953,
    "speed": 0,
    "load": -0.24758666181358624
  },
  {
    "temp": 178.8151092529297,
    "speed": 0,
    "load": -0.2536275117990643
  },
  {
    "temp": 178.81753540039062,
    "speed": 0,
    "load": -0.2532747614349491
  },
  {
    "temp": 178.82102966308594,
    "speed": 0,
    "load": -0.25120235304576966
  },
  {
    "temp": 178.822265625,
    "speed": 0,
    "load": -0.25084960268165446
  },
  {
    "temp": 178.82325744628906,
    "speed": 0,
    "load": -0.25843373551013826
  },
  {
    "temp": 178.8240509033203,
    "speed": 0,
    "load": -0.2650478048373053
  },
  {
    "temp": 178.8251953125,
    "speed": 0,
    "load": -0.26169667637820737
  },
  {
    "temp": 178.8256072998047,
    "speed": 0,
    "load": -0.2683989332964023
  },
  {
    "temp": 178.825927734375,
    "speed": 0,
    "load": -0.2720587183241001
  },
  {
    "temp": 178.83473205566406,
    "speed": 0,
    "load": -0.2767326606486318
  },
  {
    "temp": 178.85423278808594,
    "speed": 0,
    "load": -0.2798633201301568
  },
  {
    "temp": 178.8488311767578,
    "speed": 0,
    "load": -0.28175935333727775
  },
  {
    "temp": 178.84451293945312,
    "speed": 0,
    "load": -0.28180344713279215
  },
  {
    "temp": 178.84104919433594,
    "speed": 0,
    "load": -0.2868742336169525
  },
  {
    "temp": 178.84461975097656,
    "speed": 0,
    "load": -0.2844490748636588
  },
  {
    "temp": 178.8411407470703,
    "speed": 0,
    "load": -0.28511048179637477
  },
  {
    "temp": 178.84690856933594,
    "speed": 0,
    "load": -0.2885497978465015
  },
  {
    "temp": 178.86004638671875,
    "speed": 0,
    "load": -0.29710399417630384
  },
  {
    "temp": 178.86203002929688,
    "speed": 0,
    "load": -0.2960457430839565
  },
  {
    "temp": 178.85804748535156,
    "speed": 0,
    "load": -0.2950756795826388
  },
  {
    "temp": 178.8518829345703,
    "speed": 0,
    "load": -0.2989118397923951
  },
  {
    "temp": 178.84695434570312,
    "speed": 0,
    "load": -0.3036298759124403
  },
  {
    "temp": 178.86204528808594,
    "speed": 0,
    "load": -0.3031448441617819
  },
  {
    "temp": 178.85508728027344,
    "speed": 0,
    "load": -0.3078628802818262
  },
  {
    "temp": 178.85806274414062,
    "speed": 0,
    "load": -0.30803925546388466
  },
  {
    "temp": 178.8555145263672,
    "speed": 0,
    "load": -0.30839200582800075
  },
  {
    "temp": 178.849853515625,
    "speed": 0,
    "load": -0.30834791203248546
  },
  {
    "temp": 178.86239624023438,
    "speed": 0,
    "load": -0.30561409671059003
  },
  {
    "temp": 178.8565673828125,
    "speed": 0,
    "load": -0.31293366676598744
  },
  {
    "temp": 178.85069274902344,
    "speed": 0,
    "load": -0.3180926408411775
  },
  {
    "temp": 178.8459930419922,
    "speed": 0,
    "load": -0.321620144482333
  },
  {
    "temp": 178.8460693359375,
    "speed": 0,
    "load": -0.3218847072554194
  },
  {
    "temp": 178.85084533691406,
    "speed": 0,
    "load": -0.32400120944011235
  },
  {
    "temp": 178.8461151123047,
    "speed": 0,
    "load": -0.32430986600871314
  },
  {
    "temp": 178.8478546142578,
    "speed": 0,
    "load": -0.326867306148551
  },
  {
    "temp": 178.85227966308594,
    "speed": 0,
    "load": -0.33114440431345216
  },
  {
    "temp": 178.84727478027344,
    "speed": 0,
    "load": -0.3337900320443179
  },
  {
    "temp": 178.84326171875,
    "speed": 0,
    "load": -0.33520103350078045
  },
  {
    "temp": 178.83749389648438,
    "speed": 0,
    "load": -0.33110031051793776
  },
  {
    "temp": 178.83543395996094,
    "speed": 0,
    "load": -0.3363915659796701
  },
  {
    "temp": 178.8337860107422,
    "speed": 0,
    "load": -0.3419032904189754
  },
  {
    "temp": 178.82289123535156,
    "speed": 0,
    "load": -0.33991906962082474
  },
  {
    "temp": 178.82376098632812,
    "speed": 0,
    "load": -0.3412418834862585
  },
  {
    "temp": 178.82444763183594,
    "speed": 0,
    "load": -0.34626857617490536
  },
  {
    "temp": 178.825439453125,
    "speed": 0,
    "load": -0.3488701101102567
  },
  {
    "temp": 178.82579040527344,
    "speed": 0,
    "load": -0.3527503641155274
  },
  {
    "temp": 178.82608032226562,
    "speed": 0,
    "load": -0.35455820973161956
  },
  {
    "temp": 178.8264923095703,
    "speed": 0,
    "load": -0.35530780425536523
  },
  {
    "temp": 178.82664489746094,
    "speed": 0,
    "load": -0.36134865424084417
  },
  {
    "temp": 178.82676696777344,
    "speed": 0,
    "load": -0.36540528342817247
  },
  {
    "temp": 178.8268585205078,
    "speed": 0,
    "load": -0.36271556190179144
  },
  {
    "temp": 178.81846618652344,
    "speed": 0,
    "load": -0.3640383757672243
  },
  {
    "temp": 178.8116912841797,
    "speed": 0,
    "load": -0.3680509111590382
  },
  {
    "temp": 178.81480407714844,
    "speed": 0,
    "load": -0.37387129216694426
  },
  {
    "temp": 178.81729125976562,
    "speed": 0,
    "load": -0.3687123180917551
  },
  {
    "temp": 178.82769775390625,
    "speed": 0,
    "load": -0.3673454104308078
  },
  {
    "temp": 178.82760620117188,
    "speed": 0,
    "load": -0.37012331954821676
  },
  {
    "temp": 178.82752990722656,
    "speed": 0,
    "load": -0.3711815706405641
  },
  {
    "temp": 178.8274688720703,
    "speed": 0,
    "load": -0.3707847264809345
  },
  {
    "temp": 178.82742309570312,
    "speed": 0,
    "load": -0.37312169764319947
  },
  {
    "temp": 178.82737731933594,
    "speed": 0,
    "load": -0.37431223012208914
  },
  {
    "temp": 178.8273162841797,
    "speed": 0,
    "load": -0.3725043845059979
  },
  {
    "temp": 178.82730102539062,
    "speed": 0,
    "load": -0.368139098750067
  },
  {
    "temp": 178.82728576660156,
    "speed": 0,
    "load": -0.367257222839779
  },
  {
    "temp": 178.82725524902344,
    "speed": 0,
    "load": -0.3800444235389673
  },
  {
    "temp": 178.82725524902344,
    "speed": 0,
    "load": -0.38851043227773907
  },
  {
    "temp": 178.82725524902344,
    "speed": 0,
    "load": -0.3865262114795893
  },
  {
    "temp": 178.82725524902344,
    "speed": 0,
    "load": -0.387275806003335
  },
  {
    "temp": 178.82725524902344,
    "speed": 0,
    "load": -0.38520339761415556
  },
  {
    "temp": 178.82725524902344,
    "speed": 0,
    "load": -0.39274343664712497
  },
  {
    "temp": 178.82725524902344,
    "speed": 0,
    "load": -0.3947276574452756
  },
  {
    "temp": 178.82725524902344,
    "speed": 0,
    "load": -0.389965527529716
  },
  {
    "temp": 178.82725524902344,
    "speed": 0,
    "load": -0.39331665598881393
  },
  {
    "temp": 178.82725524902344,
    "speed": 0,
    "load": -0.3961386589017373
  },
  {
    "temp": 178.82725524902344,
    "speed": 0,
    "load": -0.399577974951864
  },
  {
    "temp": 178.82725524902344,
    "speed": 0,
    "load": -0.3951245016049061
  },
  {
    "temp": 178.82725524902344,
    "speed": 0,
    "load": -0.3978142231312862
  },
  {
    "temp": 178.82725524902344,
    "speed": 0,
    "load": -0.3981669734954014
  },
  {
    "temp": 178.82725524902344,
    "speed": 0,
    "load": -0.4022236026827306
  },
  {
    "temp": 178.82725524902344,
    "speed": 0,
    "load": -0.40403144829882187
  },
  {
    "temp": 178.82725524902344,
    "speed": 0,
    "load": -0.40495741800462604
  },
  {
    "temp": 178.82725524902344,
    "speed": 0,
    "load": -0.40861720303232474
  },
  {
    "temp": 178.8187255859375,
    "speed": 0,
    "load": -0.4189792449782175
  },
  {
    "temp": 178.82041931152344,
    "speed": 0,
    "load": -0.41937608913784796
  },
  {
    "temp": 178.82286071777344,
    "speed": 0,
    "load": -0.4152753661550044
  },
  {
    "temp": 178.82373046875,
    "speed": 0,
    "load": -0.4153194599505188
  },
  {
    "temp": 178.82443237304688,
    "speed": 0,
    "load": -0.4188910573871887
  },
  {
    "temp": 178.81646728515625,
    "speed": 0,
    "load": -0.4212721223449689
  },
  {
    "temp": 178.81861877441406,
    "speed": 0,
    "load": -0.4224626548238586
  },
  {
    "temp": 178.82171630859375,
    "speed": 0,
    "load": -0.4290767241510256
  },
  {
    "temp": 178.82281494140625,
    "speed": 0,
    "load": -0.42810666064970704
  },
  {
    "temp": 178.82369995117188,
    "speed": 0,
    "load": -0.42704840955736056
  },
  {
    "temp": 178.82440185546875,
    "speed": 0,
    "load": -0.42678384678427417
  },
  {
    "temp": 178.82542419433594,
    "speed": 0,
    "load": -0.4332215409293827
  },
  {
    "temp": 178.82579040527344,
    "speed": 0,
    "load": -0.43203100845049214
  },
  {
    "temp": 178.82608032226562,
    "speed": 0,
    "load": -0.43154597669983374
  },
  {
    "temp": 178.8264923095703,
    "speed": 0,
    "load": -0.4299145062657992
  },
  {
    "temp": 178.82664489746094,
    "speed": 0,
    "load": -0.4336624788845267
  },
  {
    "temp": 178.80116271972656,
    "speed": 0,
    "load": -0.4362640128198789
  },
  {
    "temp": 178.80372619628906,
    "speed": 0,
    "load": -0.43829232741354307
  },
  {
    "temp": 178.8084259033203,
    "speed": 0,
    "load": -0.43948285989243274
  },
  {
    "temp": 178.8121795654297,
    "speed": 0,
    "load": -0.43939467230140394
  },
  {
    "temp": 178.815185546875,
    "speed": 0,
    "load": -0.44226076900984346
  },
  {
    "temp": 178.79562377929688,
    "speed": 0,
    "load": -0.43961514127897594
  },
  {
    "temp": 178.7934112548828,
    "speed": 0,
    "load": -0.4413788930995537
  },
  {
    "temp": 178.79164123535156,
    "speed": 0,
    "load": -0.4484779941773791
  },
  {
    "temp": 178.79078674316406,
    "speed": 0,
    "load": -0.44706699272091655
  },
  {
    "temp": 178.781005859375,
    "speed": 0,
    "load": -0.43913010952831755
  },
  {
    "temp": 178.78172302246094,
    "speed": 0,
    "load": -0.4443772711945364
  },
  {
    "temp": 178.78956604003906,
    "speed": 0,
    "load": -0.44600874162857007
  },
  {
    "temp": 178.77149963378906,
    "speed": 0,
    "load": -0.4450827719227668
  },
  {
    "temp": 178.77410888671875,
    "speed": 0,
    "load": -0.4477724934491478
  },
  {
    "temp": 178.7778778076172,
    "speed": 0,
    "load": -0.4491834949056095
  },
  {
    "temp": 178.7792205810547,
    "speed": 0,
    "load": -0.4514322784768465
  },
  {
    "temp": 178.77174377441406,
    "speed": 0,
    "load": -0.4556652828462333
  },
  {
    "temp": 178.7626953125,
    "speed": 0,
    "load": -0.46148566385413936
  },
  {
    "temp": 178.75852966308594,
    "speed": 0,
    "load": -0.4646604171311788
  },
  {
    "temp": 178.76373291015625,
    "speed": 0,
    "load": -0.4669092007024158
  },
  {
    "temp": 178.76951599121094,
    "speed": 0,
    "load": -0.46920207806916636
  },
  {
    "temp": 178.77252197265625,
    "speed": 0,
    "load": -0.46267619633302903
  },
  {
    "temp": 178.77493286132812,
    "speed": 0,
    "load": -0.4643076667670627
  },
  {
    "temp": 178.77685546875,
    "speed": 0,
    "load": -0.46576276201903966
  },
  {
    "temp": 178.77108764648438,
    "speed": 0,
    "load": -0.46876114011402237
  },
  {
    "temp": 178.77378845214844,
    "speed": 0,
    "load": -0.4757279598053037
  },
  {
    "temp": 178.77593994140625,
    "speed": 0,
    "load": -0.47643346053353497
  },
  {
    "temp": 178.7691192626953,
    "speed": 0,
    "load": -0.4786822441047711
  },
  {
    "temp": 178.78321838378906,
    "speed": 0,
    "load": -0.48018143315226247
  },
  {
    "temp": 178.7749481201172,
    "speed": 0,
    "load": -0.48110740285806486
  },
  {
    "temp": 178.77687072753906,
    "speed": 0,
    "load": -0.4830034360651858
  },
  {
    "temp": 178.77841186523438,
    "speed": 0,
    "load": -0.4833120926337875
  },
  {
    "temp": 178.79598999023438,
    "speed": 0,
    "load": -0.4876773783897175
  },
  {
    "temp": 178.793701171875,
    "speed": 0,
    "load": -0.48855925430000546
  },
  {
    "temp": 178.7833251953125,
    "speed": 0,
    "load": -0.489749786778896
  },
  {
    "temp": 178.79209899902344,
    "speed": 0,
    "load": -0.48900019225515035
  },
  {
    "temp": 178.7991180419922,
    "speed": 0,
    "load": -0.4896615991878672
  },
  {
    "temp": 178.79620361328125,
    "speed": 0,
    "load": -0.4917781013725602
  },
  {
    "temp": 178.79388427734375,
    "speed": 0,
    "load": -0.49230722691873297
  },
  {
    "temp": 178.79736328125,
    "speed": 0,
    "load": -0.49698116924326463
  },
  {
    "temp": 178.7947998046875,
    "speed": 0,
    "load": -0.49993545354273117
  },
  {
    "temp": 178.80128479003906,
    "speed": 0,
    "load": -0.4991858590189864
  },
  {
    "temp": 178.8064727783203,
    "speed": 0,
    "load": -0.4990535776324432
  },
  {
    "temp": 178.8106231689453,
    "speed": 0,
    "load": -0.5000677349292744
  },
  {
    "temp": 178.8166046142578,
    "speed": 0,
    "load": -0.5016110177722801
  },
  {
    "temp": 178.80165100097656,
    "speed": 0,
    "load": -0.4982157955176678
  },
  {
    "temp": 178.8067626953125,
    "speed": 0,
    "load": -0.5014346425902225
  },
  {
    "temp": 178.81085205078125,
    "speed": 0,
    "load": -0.5040802703210892
  },
  {
    "temp": 178.8013916015625,
    "speed": 0,
    "load": -0.5024047060915402
  },
  {
    "temp": 178.8065643310547,
    "speed": 0,
    "load": -0.5117525907406018
  },
  {
    "temp": 178.8021697998047,
    "speed": 0,
    "load": -0.505844022141666
  },
  {
    "temp": 178.7941131591797,
    "speed": 0,
    "load": -0.5061526787102677
  },
  {
    "temp": 178.8007354736328,
    "speed": 0,
    "load": -0.5036393323659443
  },
  {
    "temp": 178.79750061035156,
    "speed": 0,
    "load": -0.5079164305308455
  },
  {
    "temp": 178.80821228027344,
    "speed": 0,
    "load": -0.5115321217630298
  },
  {
    "temp": 178.81201171875,
    "speed": 0,
    "load": -0.5121053411047178
  },
  {
    "temp": 178.8065185546875,
    "speed": 0,
    "load": -0.5114880279675145
  },
  {
    "temp": 178.81065368652344,
    "speed": 0,
    "load": -0.5166029082471901
  },
  {
    "temp": 178.80979919433594,
    "speed": 0,
    "load": -0.5157651261324157
  },
  {
    "temp": 178.80474853515625,
    "speed": 0,
    "load": -0.5156769385413869
  },
  {
    "temp": 178.8092498779297,
    "speed": 0,
    "load": -0.5172202213843926
  },
  {
    "temp": 178.7957763671875,
    "speed": 0,
    "load": -0.5190280670004839
  },
  {
    "temp": 178.80206298828125,
    "speed": 0,
    "load": -0.5247161666218467
  },
  {
    "temp": 178.80430603027344,
    "speed": 0,
    "load": -0.5207918188210616
  },
  {
    "temp": 178.8088836669922,
    "speed": 0,
    "load": -0.5226437582326682
  },
  {
    "temp": 178.8125457763672,
    "speed": 0,
    "load": -0.5224673830506106
  },
  {
    "temp": 178.80694580078125,
    "speed": 0,
    "load": -0.5198217553197448
  },
  {
    "temp": 178.81100463867188,
    "speed": 0,
    "load": -0.5282436702630022
  },
  {
    "temp": 178.8168487548828,
    "speed": 0,
    "load": -0.5270531377841126
  },
  {
    "temp": 178.8189239501953,
    "speed": 0,
    "load": -0.5241429472801595
  },
  {
    "temp": 178.82058715820312,
    "speed": 0,
    "load": -0.5221146326864954
  },
  {
    "temp": 178.82191467285156,
    "speed": 0,
    "load": -0.534945927181198
  },
  {
    "temp": 178.8084716796875,
    "speed": 0,
    "load": -0.5301397034701232
  },
  {
    "temp": 178.80369567871094,
    "speed": 0,
    "load": -0.5314184235400425
  },
  {
    "temp": 178.79132080078125,
    "speed": 0,
    "load": -0.5381206804582375
  },
  {
    "temp": 178.79742431640625,
    "speed": 0,
    "load": -0.5407222143935897
  },
  {
    "temp": 178.8033905029297,
    "speed": 0,
    "load": -0.5437205924885715
  },
  {
    "temp": 178.8081512451172,
    "speed": 0,
    "load": -0.542662341396225
  },
  {
    "temp": 178.80343627929688,
    "speed": 0,
    "load": -0.5427505289872538
  },
  {
    "temp": 178.79966735839844,
    "speed": 0,
    "load": -0.5389143687774975
  },
  {
    "temp": 178.79664611816406,
    "speed": 0,
    "load": -0.5367537727972902
  },
  {
    "temp": 178.8008270263672,
    "speed": 0,
    "load": -0.5392230253460983
  },
  {
    "temp": 178.79757690429688,
    "speed": 0,
    "load": -0.5418245592814506
  },
  {
    "temp": 178.78643798828125,
    "speed": 0,
    "load": -0.545440250513634
  },
  {
    "temp": 178.7946014404297,
    "speed": 0,
    "load": -0.5504228494067664
  },
  {
    "temp": 178.80113220214844,
    "speed": 0,
    "load": -0.5500700990426513
  },
  {
    "temp": 178.79782104492188,
    "speed": 0,
    "load": -0.5513047253170553
  },
  {
    "temp": 178.8083953857422,
    "speed": 0,
    "load": -0.5468512519700965
  },
  {
    "temp": 178.81216430664062,
    "speed": 0,
    "load": -0.5470717209476685
  },
  {
    "temp": 178.81517028808594,
    "speed": 0,
    "load": -0.550819693566396
  },
  {
    "temp": 178.80905151367188,
    "speed": 0,
    "load": -0.5531566647286619
  },
  {
    "temp": 178.8087615966797,
    "speed": 0,
    "load": -0.5483504410175879
  },
  {
    "temp": 178.8124542236328,
    "speed": 0,
    "load": -0.549937817656108
  },
  {
    "temp": 178.806884765625,
    "speed": 0,
    "load": -0.5502464742247088
  },
  {
    "temp": 178.79885864257812,
    "speed": 0,
    "load": -0.5517456632722002
  },
  {
    "temp": 178.80453491210938,
    "speed": 0,
    "load": -0.5519661322497722
  },
  {
    "temp": 178.80906677246094,
    "speed": 0,
    "load": -0.5506433183843384
  },
  {
    "temp": 178.80416870117188,
    "speed": 0,
    "load": -0.5525393515914594
  },
  {
    "temp": 178.790283203125,
    "speed": 0,
    "load": -0.5589770457365679
  },
  {
    "temp": 178.7805938720703,
    "speed": 0,
    "load": -0.5603880471930296
  },
  {
    "temp": 178.78138732910156,
    "speed": 0,
    "load": -0.5618431424450065
  },
  {
    "temp": 178.78936767578125,
    "speed": 0,
    "load": -0.5669139289291678
  },
  {
    "temp": 178.79693603515625,
    "speed": 0,
    "load": -0.5694713690690048
  },
  {
    "temp": 178.80299377441406,
    "speed": 0,
    "load": -0.5652824584951333
  },
  {
    "temp": 178.80784606933594,
    "speed": 0,
    "load": -0.5664288971785085
  },
  {
    "temp": 178.78408813476562,
    "speed": 0,
    "load": -0.5676635234529126
  },
  {
    "temp": 178.75856018066406,
    "speed": 0,
    "load": -0.5682808365901151
  },
  {
    "temp": 178.75521850585938,
    "speed": 0,
    "load": -0.5755122190544828
  },
  {
    "temp": 178.7589569091797,
    "speed": 0,
    "load": -0.5750271873038244
  },
  {
    "temp": 178.7640838623047,
    "speed": 0,
    "load": -0.5726020285505307
  },
  {
    "temp": 178.7596435546875,
    "speed": 0,
    "load": -0.5740571238025067
  },
  {
    "temp": 178.7771453857422,
    "speed": 0,
    "load": -0.5759090632141133
  },
  {
    "temp": 178.7615509033203,
    "speed": 0,
    "load": -0.5750271873038244
  },
  {
    "temp": 178.7576141357422,
    "speed": 0,
    "load": -0.5746744369397092
  },
  {
    "temp": 178.76559448242188,
    "speed": 0,
    "load": -0.575203562485882
  },
  {
    "temp": 178.77792358398438,
    "speed": 0,
    "load": -0.5768350329199166
  },
  {
    "temp": 178.7707061767578,
    "speed": 0,
    "load": -0.5750712810993388
  },
  {
    "temp": 178.76715087890625,
    "speed": 0,
    "load": -0.5771877832840318
  },
  {
    "temp": 178.7706298828125,
    "speed": 0,
    "load": -0.575203562485882
  },
  {
    "temp": 178.75634765625,
    "speed": 0,
    "load": -0.5769232205109454
  },
  {
    "temp": 178.7449188232422,
    "speed": 0,
    "load": -0.5759972508051421
  },
  {
    "temp": 178.7523651123047,
    "speed": 0,
    "load": -0.5761736259872006
  },
  {
    "temp": 178.75880432128906,
    "speed": 0,
    "load": -0.5759972508051421
  },
  {
    "temp": 178.7554168701172,
    "speed": 0,
    "load": -0.5840223215887708
  },
  {
    "temp": 178.76124572753906,
    "speed": 0,
    "load": -0.5839782277932564
  },
  {
    "temp": 178.7573699951172,
    "speed": 0,
    "load": -0.584375071952886
  },
  {
    "temp": 178.7628173828125,
    "speed": 0,
    "load": -0.5835813836336259
  },
  {
    "temp": 178.7689208984375,
    "speed": 0,
    "load": -0.5860506361824349
  },
  {
    "temp": 178.7720489501953,
    "speed": 0,
    "load": -0.5892694832549887
  },
  {
    "temp": 178.77455139160156,
    "speed": 0,
    "load": -0.5954867084225253
  },
  {
    "temp": 178.76449584960938,
    "speed": 0,
    "load": -0.5970740850610454
  },
  {
    "temp": 178.77703857421875,
    "speed": 0,
    "load": -0.5885639825267575
  },
  {
    "temp": 178.78707885742188,
    "speed": 0,
    "load": -0.5898867963921912
  },
  {
    "temp": 178.7780303955078,
    "speed": 0,
    "load": -0.5883435135491855
  },
  {
    "temp": 178.78892517089844,
    "speed": 0,
    "load": -0.5953103332404677
  },
  {
    "temp": 178.7965850830078,
    "speed": 0,
    "load": -0.5982646175399351
  },
  {
    "temp": 178.794189453125,
    "speed": 0,
    "load": -0.5957071774000973
  },
  {
    "temp": 178.79226684570312,
    "speed": 0,
    "load": -0.6022330591362346
  },
  {
    "temp": 178.78948974609375,
    "speed": 0,
    "load": -0.5977354919937614
  },
  {
    "temp": 178.78851318359375,
    "speed": 0,
    "load": -0.5957953649911261
  },
  {
    "temp": 178.79624938964844,
    "speed": 0,
    "load": -0.6028503722734371
  },
  {
    "temp": 178.80740356445312,
    "speed": 0,
    "load": -0.6059810317549621
  },
  {
    "temp": 178.81137084960938,
    "speed": 0,
    "load": -0.6026739970913795
  },
  {
    "temp": 178.81454467773438,
    "speed": 0,
    "load": -0.6050550620491588
  },
  {
    "temp": 178.81707763671875,
    "speed": 0,
    "load": -0.6058928441639333
  },
  {
    "temp": 178.8207244873047,
    "speed": 0,
    "load": -0.6059810317549621
  },
  {
    "temp": 178.81349182128906,
    "speed": 0,
    "load": -0.6088030346678863
  },
  {
    "temp": 178.8162384033203,
    "speed": 0,
    "load": -0.6083620967127423
  },
  {
    "temp": 178.8201904296875,
    "speed": 0,
    "load": -0.6139620087430764
  },
  {
    "temp": 178.82159423828125,
    "speed": 0,
    "load": -0.6247208948485996
  },
  {
    "temp": 178.83126831054688,
    "speed": 0,
    "load": -0.6591581491453775
  },
  {
    "temp": 178.82981872558594,
    "speed": 0,
    "load": -0.6737972892561723
  },
  {
    "temp": 178.8292999267578,
    "speed": 0,
    "load": -0.6863640209777877
  },
  {
    "temp": 178.82888793945312,
    "speed": 0,
    "load": -0.6994157844500624
  },
  {
    "temp": 178.8282928466797,
    "speed": 0,
    "load": -0.7140990183563716
  },
  {
    "temp": 178.81954956054688,
    "speed": 0,
    "load": -0.7010913486796113
  },
  {
    "temp": 178.8210906982422,
    "speed": 0,
    "load": -0.7039574453880499
  },
  {
    "temp": 178.8232879638672,
    "speed": 0,
    "load": -0.7086313877125807
  },
  {
    "temp": 178.82408142089844,
    "speed": 0,
    "load": -0.7122029851492506
  },
  {
    "temp": 178.82470703125,
    "speed": 0,
    "load": -0.7128643920819666
  },
  {
    "temp": 178.82521057128906,
    "speed": 0,
    "load": -0.7155541136083476
  },
  {
    "temp": 178.83447265625,
    "speed": 0,
    "load": -0.7099101077824992
  },
  {
    "temp": 178.83302307128906,
    "speed": 0,
    "load": -0.7085432001215519
  },
  {
    "temp": 178.8318634033203,
    "speed": 0,
    "load": -0.7104392333286729
  },
  {
    "temp": 178.83018493652344,
    "speed": 0,
    "load": -0.7133935176281403
  },
  {
    "temp": 178.82958984375,
    "speed": 0,
    "load": -0.7142312997429148
  },
  {
    "temp": 178.82911682128906,
    "speed": 0,
    "load": -0.7128202982864522
  },
  {
    "temp": 178.82843017578125,
    "speed": 0,
    "load": -0.7165682709051797
  },
  {
    "temp": 178.82818603515625,
    "speed": 0,
    "load": -0.7169651150648102
  },
  {
    "temp": 178.82798767089844,
    "speed": 0,
    "load": -0.7179792723616423
  },
  {
    "temp": 178.8277130126953,
    "speed": 0,
    "load": -0.7227854960727162
  },
  {
    "temp": 178.82762145996094,
    "speed": 0,
    "load": -0.7196107427956768
  },
  {
    "temp": 178.82754516601562,
    "speed": 0,
    "load": -0.7187288668853871
  },
  {
    "temp": 178.8274383544922,
    "speed": 0,
    "load": -0.7186847730898727
  },
  {
    "temp": 178.827392578125,
    "speed": 0,
    "load": -0.7208012752745665
  },
  {
    "temp": 178.82736206054688,
    "speed": 0,
    "load": -0.7211540256386817
  },
  {
    "temp": 178.8273162841797,
    "speed": 0,
    "load": -0.7248138106663804
  },
  {
    "temp": 178.82730102539062,
    "speed": 0,
    "load": -0.7264893748959294
  },
  {
    "temp": 178.82728576660156,
    "speed": 0,
    "load": -0.7236232781874907
  },
  {
    "temp": 178.82725524902344,
    "speed": 0,
    "load": -0.7218154325713986
  },
  {
    "temp": 178.82725524902344,
    "speed": 0,
    "load": -0.7222563705265426
  },
  {
    "temp": 178.82725524902344,
    "speed": 0,
    "load": -0.7272830632151894
  },
  {
    "temp": 178.82725524902344,
    "speed": 0,
    "load": -0.7333680069961819
  },
  {
    "temp": 178.82725524902344,
    "speed": 0,
    "load": -0.7350876650212452
  },
  {
    "temp": 178.82725524902344,
    "speed": 0,
    "load": -0.7333239132006675
  },
  {
    "temp": 178.8187255859375,
    "speed": 0,
    "load": -0.7323979434948642
  },
  {
    "temp": 178.82177734375,
    "speed": 0,
    "load": -0.7306341916742864
  },
  {
    "temp": 178.82286071777344,
    "speed": 0,
    "load": -0.7329711628365523
  },
  {
    "temp": 178.82373046875,
    "speed": 0,
    "load": -0.7303255351056857
  },
  {
    "temp": 178.82443237304688,
    "speed": 0,
    "load": -0.7284735956940791
  },
  {
    "temp": 178.8249969482422,
    "speed": 0,
    "load": -0.7328829752455235
  },
  {
    "temp": 178.82579040527344,
    "speed": 0,
    "load": -0.7262248121228421
  },
  {
    "temp": 178.82608032226562,
    "speed": 0,
    "load": -0.7278562825568766
  },
  {
    "temp": 178.8264923095703,
    "speed": 0,
    "load": -0.7351317588167596
  },
  {
    "temp": 178.82664489746094,
    "speed": 0,
    "load": -0.7340735077244132
  },
  {
    "temp": 178.8096923828125,
    "speed": 0,
    "load": -0.7345144456795571
  },
  {
    "temp": 178.80747985839844,
    "speed": 0,
    "load": -0.7417899219394402
  },
  {
    "temp": 178.81143188476562,
    "speed": 0,
    "load": -0.7413048901887809
  },
  {
    "temp": 178.81459045410156,
    "speed": 0,
    "load": -0.7407757646426081
  },
  {
    "temp": 178.81712341308594,
    "speed": 0,
    "load": -0.7388356376399727
  },
  {
    "temp": 178.8207550048828,
    "speed": 0,
    "load": -0.7447001124433932
  },
  {
    "temp": 178.79644775390625,
    "speed": 0,
    "load": -0.7440827993061916
  },
  {
    "temp": 178.7940673828125,
    "speed": 0,
    "load": -0.7433332047824459
  },
  {
    "temp": 178.7974853515625,
    "speed": 0,
    "load": -0.7420103909170122
  },
  {
    "temp": 178.79490661621094,
    "speed": 0,
    "load": -0.7417017343484114
  },
  {
    "temp": 178.7928466796875,
    "speed": 0,
    "load": -0.7473016463787454
  },
  {
    "temp": 178.79119873046875,
    "speed": 0,
    "load": -0.7411726088022377
  },
  {
    "temp": 178.79840087890625,
    "speed": 0,
    "load": -0.747478021560803
  },
  {
    "temp": 178.8019561767578,
    "speed": 0,
    "load": -0.750388212064756
  },
  {
    "temp": 178.78993225097656,
    "speed": 0,
    "load": -0.7558558427085469
  },
  {
    "temp": 178.79739379882812,
    "speed": 0,
    "load": -0.7508291500199
  },
  {
    "temp": 178.8013153076172,
    "speed": 0,
    "load": -0.7540479970924547
  },
  {
    "temp": 178.80650329589844,
    "speed": 0,
    "load": -0.7575314069380958
  },
  {
    "temp": 178.7935791015625,
    "speed": 0,
    "load": -0.7553708109578885
  },
  {
    "temp": 178.77496337890625,
    "speed": 0,
    "load": -0.7573109379605238
  },
  {
    "temp": 178.77688598632812,
    "speed": 0,
    "load": -0.7562526868681765
  },
  {
    "temp": 178.77842712402344,
    "speed": 0,
    "load": -0.7606179726241065
  },
  {
    "temp": 178.7796630859375,
    "speed": 0,
    "load": -0.7599565656913896
  },
  {
    "temp": 178.77459716796875,
    "speed": 0,
    "load": -0.7589424083945575
  },
  {
    "temp": 178.77659606933594,
    "speed": 0,
    "load": -0.7619407864895393
  },
  {
    "temp": 178.7781982421875,
    "speed": 0,
    "load": -0.7647627894024644
  },
  {
    "temp": 178.78903198242188,
    "speed": 0,
    "load": -0.7644541328338628
  },
  {
    "temp": 178.78814697265625,
    "speed": 0,
    "load": -0.764939164584522
  },
  {
    "temp": 178.7874298095703,
    "speed": 0,
    "load": -0.7682461992481047
  },
  {
    "temp": 178.79493713378906,
    "speed": 0,
    "load": -0.7676729799064166
  },
  {
    "temp": 178.78431701660156,
    "speed": 0,
    "load": -0.7688194185897927
  },
  {
    "temp": 178.77581787109375,
    "speed": 0,
    "load": -0.7722587346399186
  },
  {
    "temp": 178.78610229492188,
    "speed": 0,
    "load": -0.7722146408444042
  },
  {
    "temp": 178.78724670410156,
    "speed": 0,
    "load": -0.7763594576227622
  },
  {
    "temp": 178.77816772460938,
    "speed": 0,
    "load": -0.7740665802560107
  },
  {
    "temp": 178.77944946289062,
    "speed": 0,
    "load": -0.7763594576227622
  },
  {
    "temp": 178.7727508544922,
    "speed": 0,
    "load": -0.779137366740172
  },
  {
    "temp": 178.7836456298828,
    "speed": 0,
    "load": -0.7816507130844945
  },
  {
    "temp": 178.77528381347656,
    "speed": 0,
    "load": -0.7820034634486106
  },
  {
    "temp": 178.7686004638672,
    "speed": 0,
    "load": -0.788088407229603
  },
  {
    "temp": 178.76751708984375,
    "speed": 0,
    "load": -0.7838554028602172
  },
  {
    "temp": 178.76239013671875,
    "speed": 0,
    "load": -0.7818711820620674
  },
  {
    "temp": 178.76683044433594,
    "speed": 0,
    "load": -0.7829735269499283
  },
  {
    "temp": 178.75331115722656,
    "speed": 0,
    "load": -0.7868096871596846
  },
  {
    "temp": 178.77310180664062,
    "speed": 0,
    "load": -0.7918363798483306
  },
  {
    "temp": 178.75831604003906,
    "speed": 0,
    "load": -0.785398685703222
  },
  {
    "temp": 178.75502014160156,
    "speed": 0,
    "load": -0.7924977867810474
  },
  {
    "temp": 178.76565551757812,
    "speed": 0,
    "load": -0.7918363798483306
  },
  {
    "temp": 178.76943969726562,
    "speed": 0,
    "load": -0.794349726192654
  },
  {
    "temp": 178.763916015625,
    "speed": 0,
    "load": -0.7946142889657404
  },
  {
    "temp": 178.75950622558594,
    "speed": 0,
    "load": -0.7887939079578343
  },
  {
    "temp": 178.77305603027344,
    "speed": 0,
    "load": -0.786853780955199
  },
  {
    "temp": 178.78402709960938,
    "speed": 0,
    "load": -0.7905135659828977
  },
  {
    "temp": 178.7841339111328,
    "speed": 0,
    "load": -0.7960693842177164
  },
  {
    "temp": 178.79275512695312,
    "speed": 0,
    "load": -0.7917040984617874
  },
  {
    "temp": 178.80516052246094,
    "speed": 0,
    "load": -0.7925859743720762
  },
  {
    "temp": 178.8095703125,
    "speed": 0,
    "load": -0.7948788517388268
  },
  {
    "temp": 178.81309509277344,
    "speed": 0,
    "load": -0.7967748849459477
  },
  {
    "temp": 178.79031372070312,
    "speed": 0,
    "load": -0.8007874203377625
  },
  {
    "temp": 178.78062438964844,
    "speed": 0,
    "load": -0.8043590177744324
  },
  {
    "temp": 178.78204345703125,
    "speed": 0,
    "load": -0.7988913871306416
  },
  {
    "temp": 178.79107666015625,
    "speed": 0,
    "load": -0.799949638222988
  },
  {
    "temp": 178.79830932617188,
    "speed": 0,
    "load": -0.8023307031807674
  },
  {
    "temp": 178.80409240722656,
    "speed": 0,
    "load": -0.8039621736148019
  },
  {
    "temp": 178.79705810546875,
    "speed": 0,
    "load": -0.8091211476899911
  },
  {
    "temp": 178.80308532714844,
    "speed": 0,
    "load": -0.8067841765277262
  },
  {
    "temp": 178.8079071044922,
    "speed": 0,
    "load": -0.8092975228720496
  },
  {
    "temp": 178.811767578125,
    "speed": 0,
    "load": -0.8060345820039805
  },
  {
    "temp": 178.8173370361328,
    "speed": 0,
    "load": -0.8057259254353797
  },
  {
    "temp": 178.80224609375,
    "speed": 0,
    "load": -0.8042708301834027
  },
  {
    "temp": 178.80723571777344,
    "speed": 0,
    "load": -0.8040062674103163
  },
  {
    "temp": 178.81443786621094,
    "speed": 0,
    "load": -0.8085920221438183
  },
  {
    "temp": 178.81700134277344,
    "speed": 0,
    "load": -0.8115022126477713
  },
  {
    "temp": 178.8190460205078,
    "speed": 0,
    "load": -0.8094738980541072
  },
  {
    "temp": 178.81214904785156,
    "speed": 0,
    "load": -0.8039180798192875
  },
  {
    "temp": 178.80392456054688,
    "speed": 0,
    "load": -0.808106990393159
  },
  {
    "temp": 178.80857849121094,
    "speed": 0,
    "load": -0.8109730871015977
  },
  {
    "temp": 178.8123016357422,
    "speed": 0,
    "load": -0.8092975228720496
  },
  {
    "temp": 178.81529235839844,
    "speed": 0,
    "load": -0.8152501852664988
  },
  {
    "temp": 178.819580078125,
    "speed": 0,
    "load": -0.8113699312612281
  },
  {
    "temp": 178.82110595703125,
    "speed": 0,
    "load": -0.8122077133760026
  },
  {
    "temp": 178.82232666015625,
    "speed": 0,
    "load": -0.8153383728575276
  },
  {
    "temp": 178.82330322265625,
    "speed": 0,
    "load": -0.8184690323390527
  },
  {
    "temp": 178.82470703125,
    "speed": 0,
    "load": -0.8185572199300815
  },
  {
    "temp": 178.81668090820312,
    "speed": 0,
    "load": -0.8200564089775728
  },
  {
    "temp": 178.81878662109375,
    "speed": 0,
    "load": -0.8168816557005334
  },
  {
    "temp": 178.8204803466797,
    "speed": 0,
    "load": -0.8193509082493415
  },
  {
    "temp": 178.8143768310547,
    "speed": 0,
    "load": -0.8193068144538271
  },
  {
    "temp": 178.79986572265625,
    "speed": 0,
    "load": -0.8141919341741524
  },
  {
    "temp": 178.8053436279297,
    "speed": 0,
    "load": -0.8199241275910296
  },
  {
    "temp": 178.806396484375,
    "speed": 0,
    "load": -0.8197918462044864
  },
  {
    "temp": 178.81056213378906,
    "speed": 0,
    "load": -0.8219083483891794
  },
  {
    "temp": 178.8138885498047,
    "speed": 0,
    "load": -0.8241571319604155
  },
  {
    "temp": 178.81187438964844,
    "speed": 0,
    "load": -0.8184690323390527
  },
  {
    "temp": 178.80641174316406,
    "speed": 0,
    "load": -0.8233193498456419
  },
  {
    "temp": 178.81057739257812,
    "speed": 0,
    "load": -0.8232752560501275
  },
  {
    "temp": 178.8053741455078,
    "speed": 0,
    "load": -0.8208500972968329
  },
  {
    "temp": 178.80641174316406,
    "speed": 0,
    "load": -0.8234957250276995
  },
  {
    "temp": 178.81057739257812,
    "speed": 0,
    "load": -0.8245098823245316
  },
  {
    "temp": 178.81390380859375,
    "speed": 0,
    "load": -0.8245098823245316
  },
  {
    "temp": 178.81871032714844,
    "speed": 0,
    "load": -0.8253035706437917
  },
  {
    "temp": 178.82041931152344,
    "speed": 0,
    "load": -0.8260972589630509
  },
  {
    "temp": 178.81324768066406,
    "speed": 0,
    "load": -0.8207178159102897
  },
  {
    "temp": 178.79437255859375,
    "speed": 0,
    "load": -0.8238925691873291
  },
  {
    "temp": 178.8009490966797,
    "speed": 0,
    "load": -0.822305192548809
  },
  {
    "temp": 178.79766845703125,
    "speed": 0,
    "load": -0.8261854465540797
  },
  {
    "temp": 178.80148315429688,
    "speed": 0,
    "load": -0.826450009327167
  },
  {
    "temp": 178.80662536621094,
    "speed": 0,
    "load": -0.8273759790329702
  },
  {
    "temp": 178.8107452392578,
    "speed": 0,
    "load": -0.8267586658957677
  },
  {
    "temp": 178.81668090820312,
    "speed": 0,
    "load": -0.8290515432625192
  },
  {
    "temp": 178.81878662109375,
    "speed": 0,
    "load": -0.8262295403495941
  },
  {
    "temp": 178.80340576171875,
    "speed": 0,
    "load": -0.8286546991028887
  },
  {
    "temp": 178.80816650390625,
    "speed": 0,
    "load": -0.8282578549432591
  },
  {
    "temp": 178.79490661621094,
    "speed": 0,
    "load": -0.8287869804894319
  },
  {
    "temp": 178.80654907226562,
    "speed": 0,
    "load": -0.8242012257559299
  },
  {
    "temp": 178.81068420410156,
    "speed": 0,
    "load": -0.8265822907137101
  },
  {
    "temp": 178.81399536132812,
    "speed": 0,
    "load": -0.8312121392427265
  },
  {
    "temp": 178.80810546875,
    "speed": 0,
    "load": -0.8299775129683216
  },
  {
    "temp": 178.8149871826172,
    "speed": 0,
    "load": -0.8281696673522303
  },
  {
    "temp": 178.8174285888672,
    "speed": 0,
    "load": -0.827464166623999
  },
  {
    "temp": 178.8193817138672,
    "speed": 0,
    "load": -0.8314326082202985
  },
  {
    "temp": 178.8153839111328,
    "speed": 0,
    "load": -0.8301097943548656
  },
  {
    "temp": 178.8177490234375,
    "speed": 0,
    "load": -0.828125573556715
  },
  {
    "temp": 178.81964111328125,
    "speed": 0,
    "load": -0.8290515432625192
  },
  {
    "temp": 178.8126220703125,
    "speed": 0,
    "load": -0.8254358520303349
  },
  {
    "temp": 178.81105041503906,
    "speed": 0,
    "load": -0.8335050166094771
  },
  {
    "temp": 178.8142852783203,
    "speed": 0,
    "load": -0.8313003268337553
  },
  {
    "temp": 178.81687927246094,
    "speed": 0,
    "load": -0.8313444206292697
  },
  {
    "temp": 178.8206024169922,
    "speed": 0,
    "load": -0.8314767020158129
  },
  {
    "temp": 178.82192993164062,
    "speed": 0,
    "load": -0.8335050166094771
  },
  {
    "temp": 178.82298278808594,
    "speed": 0,
    "load": -0.8362388319313725
  },
  {
    "temp": 178.81597900390625,
    "speed": 0,
    "load": -0.8326231406991891
  },
  {
    "temp": 178.81822204589844,
    "speed": 0,
    "load": -0.8340341421556507
  },
  {
    "temp": 178.8200225830078,
    "speed": 0,
    "load": -0.8344309863152803
  },
  {
    "temp": 178.8214569091797,
    "speed": 0,
    "load": -0.8335491104049915
  },
  {
    "temp": 178.8081817626953,
    "speed": 0,
    "load": -0.8323585779261018
  },
  {
    "temp": 178.81199645996094,
    "speed": 0,
    "load": -0.8298452315817784
  },
  {
    "temp": 178.7979736328125,
    "speed": 0,
    "load": -0.8327995158812467
  },
  {
    "temp": 178.8016815185547,
    "speed": 0,
    "load": -0.8358419877717429
  },
  {
    "temp": 178.7982635498047,
    "speed": 0,
    "load": -0.8327995158812467
  },
  {
    "temp": 178.80406188964844,
    "speed": 0,
    "load": -0.837870302365407
  },
  {
    "temp": 178.8038787841797,
    "speed": 0,
    "load": -0.8400749921411288
  },
  {
    "temp": 178.8085479736328,
    "speed": 0,
    "load": -0.8384876155026095
  },
  {
    "temp": 178.8037567138672,
    "speed": 0,
    "load": -0.8390167410487823
  },
  {
    "temp": 178.79685974121094,
    "speed": 0,
    "load": -0.8350923932479972
  },
  {
    "temp": 178.78585815429688,
    "speed": 0,
    "load": -0.8343427987242515
  },
  {
    "temp": 178.79412841796875,
    "speed": 0,
    "load": -0.8335491104049915
  },
  {
    "temp": 178.79751586914062,
    "speed": 0,
    "load": -0.8387962720712103
  },
  {
    "temp": 178.80345153808594,
    "speed": 0,
    "load": -0.8463363111041797
  },
  {
    "temp": 178.80821228027344,
    "speed": 0,
    "load": -0.8387521782756959
  },
  {
    "temp": 178.8082275390625,
    "speed": 0,
    "load": -0.8357538001807141
  },
  {
    "temp": 178.80349731445312,
    "speed": 0,
    "load": -0.8346073614973388
  },
  {
    "temp": 178.79971313476562,
    "speed": 0,
    "load": -0.8383553341160663
  },
  {
    "temp": 178.8052215576172,
    "speed": 0,
    "load": -0.8346514552928532
  },
  {
    "temp": 178.80108642578125,
    "speed": 0,
    "load": -0.8392813038218687
  },
  {
    "temp": 178.80368041992188,
    "speed": 0,
    "load": -0.8398545231635568
  },
  {
    "temp": 178.79986572265625,
    "speed": 0,
    "load": -0.8434702143957411
  },
  {
    "temp": 178.79681396484375,
    "speed": 0,
    "load": -0.8423237757123658
  },
  {
    "temp": 178.80776977539062,
    "speed": 0,
    "load": -0.8467331552638093
  },
  {
    "temp": 178.80313110351562,
    "speed": 0,
    "load": -0.8401190859366432
  },
  {
    "temp": 178.80795288085938,
    "speed": 0,
    "load": -0.841882837757221
  },
  {
    "temp": 178.80328369140625,
    "speed": 0,
    "load": -0.839766335572528
  },
  {
    "temp": 178.7965545654297,
    "speed": 0,
    "load": -0.8394576790039272
  },
  {
    "temp": 178.79415893554688,
    "speed": 0,
    "load": -0.8406482114828169
  },
  {
    "temp": 178.80076599121094,
    "speed": 0,
    "load": -0.8390167410487823
  },
  {
    "temp": 178.8017578125,
    "speed": 0,
    "load": -0.8425442446899378
  },
  {
    "temp": 178.80685424804688,
    "speed": 0,
    "load": -0.8435143081912555
  },
  {
    "temp": 178.80735778808594,
    "speed": 0,
    "load": -0.8444843716925732
  },
  {
    "temp": 178.8113250732422,
    "speed": 0,
    "load": -0.8467331552638093
  },
  {
    "temp": 178.8144989013672,
    "speed": 0,
    "load": -0.8438670585553707
  },
  {
    "temp": 178.8085174560547,
    "speed": 0,
    "load": -0.848937845039532
  },
  {
    "temp": 178.8015899658203,
    "speed": 0,
    "load": -0.850392940291508
  },
  {
    "temp": 178.8067169189453,
    "speed": 0,
    "load": -0.8507456906556232
  },
  {
    "temp": 178.8022918701172,
    "speed": 0,
    "load": -0.8537440687506059
  },
  {
    "temp": 178.802734375,
    "speed": 0,
    "load": -0.8515834727703986
  },
  {
    "temp": 178.80763244628906,
    "speed": 0,
    "load": -0.8495992519722488
  },
  {
    "temp": 178.81155395507812,
    "speed": 0,
    "load": -0.8556841957532413
  },
  {
    "temp": 178.8171844482422,
    "speed": 0,
    "load": -0.8492905954036472
  },
  {
    "temp": 178.8106689453125,
    "speed": 0,
    "load": -0.8498638147453352
  },
  {
    "temp": 178.80545043945312,
    "speed": 0,
    "load": -0.8541850067057499
  },
  {
    "temp": 178.79620361328125,
    "speed": 0,
    "load": -0.8538322563416347
  },
  {
    "temp": 178.79388427734375,
    "speed": 0,
    "load": -0.8588589490302807
  },
  {
    "temp": 178.78347778320312,
    "speed": 0,
    "load": -0.8575802289603622
  },
  {
    "temp": 178.7906951904297,
    "speed": 0,
    "load": -0.8540968191147211
  },
  {
    "temp": 178.7894744873047,
    "speed": 0,
    "load": -0.8511425348152537
  },
  {
    "temp": 178.79702758789062,
    "speed": 0,
    "load": -0.8559487585263277
  },
  {
    "temp": 178.80307006835938,
    "speed": 0,
    "load": -0.8583298234841079
  },
  {
    "temp": 178.811767578125,
    "speed": 0,
    "load": -0.8559487585263277
  },
  {
    "temp": 178.8148651123047,
    "speed": 0,
    "load": -0.8540527253192067
  },
  {
    "temp": 178.79173278808594,
    "speed": 0,
    "load": -0.8582857296885926
  },
  {
    "temp": 178.7908477783203,
    "speed": 0,
    "load": -0.8634887975592971
  },
  {
    "temp": 178.7895965576172,
    "speed": 0,
    "load": -0.8607549822374017
  },
  {
    "temp": 178.78858947753906,
    "speed": 0,
    "load": -0.862695109240037
  },
  {
    "temp": 178.7963104248047,
    "speed": 0,
    "load": -0.8657816749260476
  },
  {
    "temp": 178.802490234375,
    "speed": 0,
    "load": -0.8632242347862107
  },
  {
    "temp": 178.7977294921875,
    "speed": 0,
    "load": -0.8607549822374017
  },
  {
    "temp": 178.79510498046875,
    "speed": 0,
    "load": -0.8582857296885926
  },
  {
    "temp": 178.79299926757812,
    "speed": 0,
    "load": -0.8594321683719688
  },
  {
    "temp": 178.7882537841797,
    "speed": 0,
    "load": -0.8628714844220955
  },
  {
    "temp": 178.79605102539062,
    "speed": 0,
    "load": -0.8641061106964996
  },
  {
    "temp": 178.79376220703125,
    "speed": 0,
    "load": -0.8610195450104889
  },
  {
    "temp": 178.8004608154297,
    "speed": 0,
    "load": -0.8622982650804074
  },
  {
    "temp": 178.79473876953125,
    "speed": 0,
    "load": -0.8668840198139094
  },
  {
    "temp": 178.78416442871094,
    "speed": 0,
    "load": -0.8642383920830428
  },
  {
    "temp": 178.78424072265625,
    "speed": 0,
    "load": -0.8654289245619324
  },
  {
    "temp": 178.77752685546875,
    "speed": 0,
    "load": -0.8658698625170773
  },
  {
    "temp": 178.7789306640625,
    "speed": 0,
    "load": -0.8608431698284305
  },
  {
    "temp": 178.78858947753906,
    "speed": 0,
    "load": -0.8723516504577002
  },
  {
    "temp": 178.77517700195312,
    "speed": 0,
    "load": -0.8660903314946493
  },
  {
    "temp": 178.7685089111328,
    "speed": 0,
    "load": -0.8637974541278979
  },
  {
    "temp": 178.76318359375,
    "speed": 0,
    "load": -0.86560529974399
  },
  {
    "temp": 178.7674560546875,
    "speed": 0,
    "load": -0.8660903314946493
  },
  {
    "temp": 178.7623291015625,
    "speed": 0,
    "load": -0.8629596720131243
  },
  {
    "temp": 178.7635040283203,
    "speed": 0,
    "load": -0.8627832968310658
  },
  {
    "temp": 178.76771545410156,
    "speed": 0,
    "load": -0.8630478596041531
  },
  {
    "temp": 178.77108764648438,
    "speed": 0,
    "load": -0.8642824858785572
  },
  {
    "temp": 178.76739501953125,
    "speed": 0,
    "load": -0.8604904194643153
  },
  {
    "temp": 178.77935791015625,
    "speed": 0,
    "load": -0.8652525493798748
  },
  {
    "temp": 178.7718505859375,
    "speed": 0,
    "load": -0.8674572391555966
  },
  {
    "temp": 178.7917938232422,
    "speed": 0,
    "load": -0.8693091785672031
  },
  {
    "temp": 178.7988739013672,
    "speed": 0,
    "load": -0.8651202679933316
  },
  {
    "temp": 178.7960205078125,
    "speed": 0,
    "load": -0.8660462376991349
  },
  {
    "temp": 178.79190063476562,
    "speed": 0,
    "load": -0.8664871756542789
  },
  {
    "temp": 178.78189086914062,
    "speed": 0,
    "load": -0.8711611179788097
  },
  {
    "temp": 178.7738800048828,
    "speed": 0,
    "load": -0.8675895205421398
  },
  {
    "temp": 178.77601623535156,
    "speed": 0,
    "load": -0.8720429938890986
  },
  {
    "temp": 178.77737426757812,
    "speed": 0,
    "load": -0.8748649968020228
  },
  {
    "temp": 178.77880859375,
    "speed": 0,
    "load": -0.874776809210994
  },
  {
    "temp": 178.77142333984375,
    "speed": 0,
    "load": -0.872219369071157
  },
  {
    "temp": 178.77784729003906,
    "speed": 0,
    "load": -0.8730130573904162
  },
  {
    "temp": 178.7877197265625,
    "speed": 0,
    "load": -0.872219369071157
  },
  {
    "temp": 178.78709411621094,
    "speed": 0,
    "load": -0.8696178351358039
  },
  {
    "temp": 178.7951202392578,
    "speed": 0,
    "load": -0.8719548062980698
  },
  {
    "temp": 178.79815673828125,
    "speed": 0,
    "load": -0.8750413719840804
  },
  {
    "temp": 178.80397033691406,
    "speed": 0,
    "load": -0.8753500285526821
  },
  {
    "temp": 178.80862426757812,
    "speed": 0,
    "load": -0.8719548062980698
  },
  {
    "temp": 178.81234741210938,
    "speed": 0,
    "load": -0.8792302825579528
  },
  {
    "temp": 178.81532287597656,
    "speed": 0,
    "load": -0.8734980891410755
  },
  {
    "temp": 178.8025360107422,
    "speed": 0,
    "load": -0.8748649968020228
  },
  {
    "temp": 178.7989501953125,
    "speed": 0,
    "load": -0.8700146792954344
  },
  {
    "temp": 178.79608154296875,
    "speed": 0,
    "load": -0.8713374931608673
  },
  {
    "temp": 178.8004608154297,
    "speed": 0,
    "load": -0.8757468727123117
  },
  {
    "temp": 178.80581665039062,
    "speed": 0,
    "load": -0.8761878106674565
  },
  {
    "temp": 178.8101043701172,
    "speed": 0,
    "load": -0.8739831208917339
  },
  {
    "temp": 178.80499267578125,
    "speed": 0,
    "load": -0.874776809210994
  },
  {
    "temp": 178.7923583984375,
    "speed": 0,
    "load": -0.8742917774603356
  },
  {
    "temp": 178.79080200195312,
    "speed": 0,
    "load": -0.8757027789167973
  },
  {
    "temp": 178.8039093017578,
    "speed": 0,
    "load": -0.8763200920539997
  },
  {
    "temp": 178.800048828125,
    "speed": 0,
    "load": -0.8792302825579528
  },
  {
    "temp": 178.7969512939453,
    "speed": 0,
    "load": -0.8735421829365899
  },
  {
    "temp": 178.80784606933594,
    "speed": 0,
    "load": -0.8771137803732589
  },
  {
    "temp": 178.80319213867188,
    "speed": 0,
    "load": -0.8761437168719421
  },
  {
    "temp": 178.79946899414062,
    "speed": 0,
    "load": -0.8765405610315717
  },
  {
    "temp": 178.7941131591797,
    "speed": 0,
    "load": -0.874997278188566
  },
  {
    "temp": 178.8007354736328,
    "speed": 0,
    "load": -0.8752618409616524
  },
  {
    "temp": 178.8060302734375,
    "speed": 0,
    "load": -0.8806853778099288
  }
]