[
  {
    "temp": 218.4884490966797,
    "speed": 0,
    "load": 0.0003968441596304828
  },
  {
    "temp": 218.48509216308594,
    "speed": 0,
    "load": 0.0014550952519760685
  },
  {
    "temp": 218.4951934814453,
    "speed": 0,
    "load": 0.0019842207981497495
  },
  {
    "temp": 218.50975036621094,
    "speed": 0,
    "load": 0.0010141572968320745
  },
  {
    "temp": 218.4893341064453,
    "speed": 0,
    "load": -0.000970063501317675
  },
  {
    "temp": 218.48580932617188,
    "speed": 0,
    "load": 0.004629848529016378
  },
  {
    "temp": 218.4829864501953,
    "speed": 0,
    "load": 0.009568353626633552
  },
  {
    "temp": 218.49351501464844,
    "speed": 0,
    "load": 0.010582510923465627
  },
  {
    "temp": 218.48309326171875,
    "speed": 0.24957571923732758,
    "load": 0.005952662394450137
  },
  {
    "temp": 218.4936065673828,
    "speed": 0.24957571923732758,
    "load": 0.005335349257246769
  },
  {
    "temp": 218.47642517089844,
    "speed": 0.24957571923732758,
    "load": 0.2540243559586939
  },
  {
    "temp": 218.47547912597656,
    "speed": 0.2496006339788437,
    "load": 0.5446024683988595
  },
  {
    "temp": 218.47471618652344,
    "speed": 0.2496504932641983,
    "load": 0.9108014401462929
  },
  {
    "temp": 218.47361755371094,
    "speed": 0.249625563621521,
    "load": 1.2332593667433995
  },
  {
    "temp": 218.48602294921875,
    "speed": 0.2496006339788437,
    "load": 1.9335129333082355
  },
  {
    "temp": 218.49594116210938,
    "speed": 0.2496006339788437,
    "load": 2.281942105463348
  },
  {
    "temp": 218.4910888671875,
    "speed": 0.2496006339788437,
    "load": 2.4402388313601913
  },
  {
    "temp": 218.5071258544922,
    "speed": 0.2496006339788437,
    "load": 2.252840200423818
  },
  {
    "temp": 218.51283264160156,
    "speed": 0.2496006339788437,
    "load": 2.1506307824213424
  },
  {
    "temp": 218.50460815429688,
    "speed": 0.249625563621521,
    "load": 2.304385847380199
  },
  {
    "temp": 218.5108184814453,
    "speed": 0.2496006339788437,
    "load": 2.171619429086216
  },
  {
    "temp": 218.50299072265625,
    "speed": 0.2496006339788437,
    "load": 1.9324105884203737
  },
  {
    "temp": 218.509521484375,
    "speed": 0.249625563621521,
    "load": 1.8169289379680533
  },
  {
    "temp": 218.50613403320312,
    "speed": 0.2496006339788437,
    "load": 1.8008787964007977
  },
  {
    "temp": 218.49925231933594,
    "speed": 0.2496006339788437,
    "load": 1.7944851960512027
  },
  {
    "temp": 218.50653076171875,
    "speed": 0.2496006339788437,
    "load": 1.748230804556555
  },
  {
    "temp": 218.4995574951172,
    "speed": 0.2496006339788437,
    "load": 1.7810806822148129
  },
  {
    "temp": 218.48953247070312,
    "speed": 0.24957571923732758,
    "load": 1.8731926210444803
  },
  {
    "temp": 218.4859619140625,
    "speed": 0.2496006339788437,
    "load": 2.019804491129997
  },
  {
    "temp": 218.47030639648438,
    "speed": 0.2496006339788437,
    "load": 2.0097070119571887
  },
  {
    "temp": 218.4705810546875,
    "speed": 0.249625563621521,
    "load": 2.0511992735362794
  },
  {
    "temp": 218.48121643066406,
    "speed": 0.2496754229068756,
    "load": 2.118706874468887
  },
  {
    "temp": 218.47930908203125,
    "speed": 0.2496504932641983,
    "load": 2.092206503364708
  },
  {
    "temp": 218.49057006835938,
    "speed": 0.249625563621521,
    "load": 2.0990851354649616
  },
  {
    "temp": 218.4739990234375,
    "speed": 0.249625563621521,
    "load": 2.1959151104146732
  },
  {
    "temp": 218.49618530273438,
    "speed": 0.249625563621521,
    "load": 2.2682289350583558
  },
  {
    "temp": 218.4912872314453,
    "speed": 0.2496504932641983,
    "load": 2.318054923989675
  },
  {
    "temp": 218.48423767089844,
    "speed": 0.249625563621521,
    "load": 2.2852050463314155
  },
  {
    "temp": 218.4817352294922,
    "speed": 0.2496504932641983,
    "load": 2.235026307035983
  },
  {
    "temp": 218.47972106933594,
    "speed": 0.249625563621521,
    "load": 2.0954694442327773
  },
  {
    "temp": 218.45379638671875,
    "speed": 0.2496504932641983,
    "load": 2.056049591042867
  },
  {
    "temp": 218.444580078125,
    "speed": 0.2496006339788437,
    "load": 1.9914521806142114
  },
  {
    "temp": 218.4499969482422,
    "speed": 0.2496006339788437,
    "load": 1.9294563041209072
  },
  {
    "temp": 218.48081970214844,
    "speed": 0.249625563621521,
    "load": 1.8910947020233442
  },
  {
    "temp": 218.4661865234375,
    "speed": 0.2496504932641983,
    "load": 1.9289271785747344
  },
  {
    "temp": 218.48007202148438,
    "speed": 0.2496006339788437,
    "load": 1.8580243553875126
  },
  {
    "temp": 218.48728942871094,
    "speed": 0.24957571923732758,
    "load": 1.7736288307728723
  },
  {
    "temp": 218.4841766357422,
    "speed": 0.2496006339788437,
    "load": 1.7310342243059234
  },
  {
    "temp": 218.4944610595703,
    "speed": 0,
    "load": 1.7346058217425933
  },
  {
    "temp": 218.47711181640625,
    "speed": 0,
    "load": 1.7054598229075468
  },
  {
    "temp": 218.4649200439453,
    "speed": 0,
    "load": 1.5773673469380958
  },
  {
    "temp": 218.47906494140625,
    "speed": 0,
    "load": 1.3294720285559096
  },
  {
    "temp": 218.46478271484375,
    "speed": 0,
    "load": 1.24428281562201
  },
  {
    "temp": 218.46726989746094,
    "speed": 0,
    "load": 1.1679564555865118
  },
  {
    "temp": 218.45535278320312,
    "speed": 0,
    "load": 1.0339995048136403
  },
  {
    "temp": 218.44581604003906,
    "speed": 0,
    "load": 0.9802050742860215
  },
  {
    "temp": 218.4381866455078,
    "speed": 0,
    "load": 0.9302908977636752
  },
  {
    "temp": 218.45278930664062,
    "speed": 0,
    "load": 0.8895923245038455
  },
  {
    "temp": 218.4437713623047,
    "speed": 0,
    "load": 0.8193509082493415
  },
  {
    "temp": 218.43655395507812,
    "speed": 0,
    "load": 0.7885734389802623
  },
  {
    "temp": 218.4563751220703,
    "speed": 0,
    "load": 0.7661296970634117
  },
  {
    "temp": 218.46189880371094,
    "speed": 0,
    "load": 0.7082786373484646
  },
  {
    "temp": 218.4510498046875,
    "speed": 0,
    "load": 0.6807200151519401
  },
  {
    "temp": 218.45518493652344,
    "speed": 0,
    "load": 0.6547046757984196
  },
  {
    "temp": 218.45855712890625,
    "speed": 0,
    "load": 0.6016598397945456
  },
  {
    "temp": 218.47396850585938,
    "speed": 0,
    "load": 0.5854774168407468
  },
  {
    "temp": 218.46070861816406,
    "speed": 0,
    "load": 0.5662084282009365
  },
  {
    "temp": 218.47569274902344,
    "speed": 0,
    "load": 0.5497173486785352
  },
  {
    "temp": 218.48704528808594,
    "speed": 0,
    "load": 0.5113557465809722
  },
  {
    "temp": 218.49676513671875,
    "speed": 0,
    "load": 0.49989135974721766
  },
  {
    "temp": 218.50453186035156,
    "speed": 0,
    "load": 0.487501003207659
  },
  {
    "temp": 218.4979705810547,
    "speed": 0,
    "load": 0.46197069560479687
  },
  {
    "temp": 218.48594665527344,
    "speed": 0,
    "load": 0.45099134052170253
  },
  {
    "temp": 218.49588012695312,
    "speed": 0,
    "load": 0.4337506664755564
  },
  {
    "temp": 218.51019287109375,
    "speed": 0,
    "load": 0.4221539982552569
  },
  {
    "temp": 218.51527404785156,
    "speed": 0,
    "load": 0.4110423617856176
  },
  {
    "temp": 218.52259826660156,
    "speed": 0,
    "load": 0.4031054785930186
  },
  {
    "temp": 218.52520751953125,
    "speed": 0,
    "load": 0.40032756947560966
  },
  {
    "temp": 218.5272979736328,
    "speed": 0,
    "load": 0.3909355910310337
  },
  {
    "temp": 218.52896118164062,
    "speed": 0,
    "load": 0.3806176428806536
  },
  {
    "temp": 218.53028869628906,
    "speed": 0,
    "load": 0.36593440897434615
  },
  {
    "temp": 218.53221130371094,
    "speed": 0,
    "load": 0.36267146810627704
  },
  {
    "temp": 218.53289794921875,
    "speed": 0,
    "load": 0.3491787666788584
  },
  {
    "temp": 218.533447265625,
    "speed": 0,
    "load": 0.3413741648728017
  },
  {
    "temp": 218.5240020751953,
    "speed": 0,
    "load": 0.33573015904695325
  },
  {
    "temp": 218.5263214111328,
    "speed": 0,
    "load": 0.33101212292690807
  },
  {
    "temp": 218.52967834472656,
    "speed": 0,
    "load": 0.32770508826332456
  },
  {
    "temp": 218.53086853027344,
    "speed": 0,
    "load": 0.3184453912052927
  },
  {
    "temp": 218.51902770996094,
    "speed": 0,
    "load": 0.3145651372000211
  },
  {
    "temp": 218.5095672607422,
    "speed": 0,
    "load": 0.31200769706018416
  },
  {
    "temp": 218.51895141601562,
    "speed": 0,
    "load": 0.30883294378314385
  },
  {
    "temp": 218.5222930908203,
    "speed": 0,
    "load": 0.29692761899424536
  },
  {
    "temp": 218.52496337890625,
    "speed": 0,
    "load": 0.2960898368794709
  },
  {
    "temp": 218.52880859375,
    "speed": 0,
    "load": 0.2875356405496694
  },
  {
    "temp": 218.53016662597656,
    "speed": 0,
    "load": 0.28594826391114925
  },
  {
    "temp": 218.53126525878906,
    "speed": 0,
    "load": 0.28233257267896494
  },
  {
    "temp": 218.5328369140625,
    "speed": 0,
    "load": 0.2731169694164466
  },
  {
    "temp": 218.5334014892578,
    "speed": 0,
    "load": 0.2732051570074763
  },
  {
    "temp": 218.53419494628906,
    "speed": 0,
    "load": 0.26588558695207887
  },
  {
    "temp": 218.53448486328125,
    "speed": 0,
    "load": 0.2645186792911316
  },
  {
    "temp": 218.5347137451172,
    "speed": 0,
    "load": 0.26328405301672664
  },
  {
    "temp": 218.53504943847656,
    "speed": 0,
    "load": 0.2489535694745335
  },
  {
    "temp": 218.53517150878906,
    "speed": 0,
    "load": 0.25054094611305366
  },
  {
    "temp": 218.52247619628906,
    "speed": 0,
    "load": 0.24330956364868506
  },
  {
    "temp": 218.51698303222656,
    "speed": 0,
    "load": 0.24282453189802577
  },
  {
    "temp": 218.5207061767578,
    "speed": 0,
    "load": 0.24348593883074354
  },
  {
    "temp": 218.51329040527344,
    "speed": 0,
    "load": 0.23559314943365806
  },
  {
    "temp": 218.51776123046875,
    "speed": 0,
    "load": 0.24061984212230403
  },
  {
    "temp": 218.52133178710938,
    "speed": 0,
    "load": 0.23576952461571565
  },
  {
    "temp": 218.51368713378906,
    "speed": 0,
    "load": 0.23559314943365806
  },
  {
    "temp": 218.51808166503906,
    "speed": 0,
    "load": 0.22545157646533642
  },
  {
    "temp": 218.50880432128906,
    "speed": 0,
    "load": 0.22501063851019243
  },
  {
    "temp": 218.51846313476562,
    "speed": 0,
    "load": 0.22412876259990266
  },
  {
    "temp": 218.5218963623047,
    "speed": 0,
    "load": 0.22681848412628458
  },
  {
    "temp": 218.52464294433594,
    "speed": 0,
    "load": 0.21822019400096782
  },
  {
    "temp": 218.52859497070312,
    "speed": 0,
    "load": 0.21663281736244855
  },
  {
    "temp": 218.52999877929688,
    "speed": 0,
    "load": 0.2148249717463564
  },
  {
    "temp": 218.51834106445312,
    "speed": 0,
    "load": 0.20975418526219602
  },
  {
    "temp": 218.52456665039062,
    "speed": 0,
    "load": 0.20953371628462403
  },
  {
    "temp": 218.5267791748047,
    "speed": 0,
    "load": 0.2067558071672133
  },
  {
    "temp": 218.52854919433594,
    "speed": 0,
    "load": 0.20781405825956067
  },
  {
    "temp": 218.51718139648438,
    "speed": 0,
    "load": 0.20512433673317876
  },
  {
    "temp": 218.5110321044922,
    "speed": 0,
    "load": 0.19802523565535424
  },
  {
    "temp": 218.5159454345703,
    "speed": 0,
    "load": 0.19626148383477648
  },
  {
    "temp": 218.5230255126953,
    "speed": 0,
    "load": 0.19388041887699625
  },
  {
    "temp": 218.52554321289062,
    "speed": 0,
    "load": 0.1957764520841172
  },
  {
    "temp": 218.5147705078125,
    "speed": 0,
    "load": 0.19251351121604898
  },
  {
    "temp": 218.51893615722656,
    "speed": 0,
    "load": 0.19352766851288106
  },
  {
    "temp": 218.50193786621094,
    "speed": 0,
    "load": 0.1911906973506161
  },
  {
    "temp": 218.50868225097656,
    "speed": 0,
    "load": 0.1914552601237025
  },
  {
    "temp": 218.50814819335938,
    "speed": 0,
    "load": 0.1837388459086755
  },
  {
    "temp": 218.5008544921875,
    "speed": 0,
    "load": 0.18634037984402685
  },
  {
    "temp": 218.5078125,
    "speed": 0,
    "load": 0.18523803495616686
  },
  {
    "temp": 218.4820098876953,
    "speed": 0,
    "load": 0.18466481561447878
  },
  {
    "temp": 218.47994995117188,
    "speed": 0,
    "load": 0.18492937838756518
  },
  {
    "temp": 218.47830200195312,
    "speed": 0,
    "load": 0.1807404678136928
  },
  {
    "temp": 218.48976135253906,
    "speed": 0,
    "load": 0.17831530906039905
  },
  {
    "temp": 218.4934844970703,
    "speed": 0,
    "load": 0.1804759050406064
  },
  {
    "temp": 218.5019073486328,
    "speed": 0,
    "load": 0.1845325342279347
  },
  {
    "temp": 218.50865173339844,
    "speed": 0,
    "load": 0.17430277366858515
  },
  {
    "temp": 218.485107421875,
    "speed": 0,
    "load": 0.1684382988651647
  },
  {
    "temp": 218.49520874023438,
    "speed": 0,
    "load": 0.17139258316463213
  },
  {
    "temp": 218.4867401123047,
    "speed": 0,
    "load": 0.17011386309471366
  },
  {
    "temp": 218.48373413085938,
    "speed": 0,
    "load": 0.16764461054590463
  },
  {
    "temp": 218.48194885253906,
    "speed": 0,
    "load": 0.1649107952240092
  },
  {
    "temp": 218.46710205078125,
    "speed": 0,
    "load": 0.164558044859894
  },
  {
    "temp": 218.4424285888672,
    "speed": 0,
    "load": 0.1681296422965639
  },
  {
    "temp": 218.4482879638672,
    "speed": 0,
    "load": 0.15582747334803404
  },
  {
    "temp": 218.44017028808594,
    "speed": 0,
    "load": 0.1576794127596406
  },
  {
    "temp": 218.44894409179688,
    "speed": 0,
    "load": 0.1616919481514545
  },
  {
    "temp": 218.44068908691406,
    "speed": 0,
    "load": 0.15437237809605708
  },
  {
    "temp": 218.44688415527344,
    "speed": 0,
    "load": 0.15838491348787187
  },
  {
    "temp": 218.46604919433594,
    "speed": 0,
    "load": 0.15243225109342173
  },
  {
    "temp": 218.44158935546875,
    "speed": 0,
    "load": 0.15441647189157237
  },
  {
    "temp": 218.46522521972656,
    "speed": 0,
    "load": 0.15432828430054268
  },
  {
    "temp": 218.46652221679688,
    "speed": 0,
    "load": 0.1492134040208688
  },
  {
    "temp": 218.46755981445312,
    "speed": 0,
    "load": 0.1540637215274563
  },
  {
    "temp": 218.4683837890625,
    "speed": 0,
    "load": 0.15446056568708677
  },
  {
    "temp": 218.48236083984375,
    "speed": 0,
    "load": 0.14396624235464994
  },
  {
    "temp": 218.49301147460938,
    "speed": 0,
    "load": 0.1454654314021413
  },
  {
    "temp": 218.47509765625,
    "speed": 0,
    "load": 0.14797877774646384
  },
  {
    "temp": 218.46160888671875,
    "speed": 0,
    "load": 0.14273161608024498
  },
  {
    "temp": 218.45082092285156,
    "speed": 0,
    "load": 0.14352530439950506
  },
  {
    "temp": 218.45834350585938,
    "speed": 0,
    "load": 0.14696462044963177
  },
  {
    "temp": 218.4738006591797,
    "speed": 0,
    "load": 0.1453772438111116
  },
  {
    "temp": 218.4960479736328,
    "speed": 0,
    "load": 0.14281980367127378
  },
  {
    "temp": 218.49118041992188,
    "speed": 0,
    "load": 0.14264342848921618
  },
  {
    "temp": 218.5000762939453,
    "speed": 0,
    "load": 0.14440718030979394
  },
  {
    "temp": 218.48728942871094,
    "speed": 0,
    "load": 0.14890474745226712
  },
  {
    "temp": 218.49696350097656,
    "speed": 0,
    "load": 0.1491252164298391
  },
  {
    "temp": 218.4980926513672,
    "speed": 0,
    "load": 0.14731737081374785
  },
  {
    "temp": 218.49281311035156,
    "speed": 0,
    "load": 0.14718508942720376
  },
  {
    "temp": 218.48858642578125,
    "speed": 0,
    "load": 0.1419379277609858
  },
  {
    "temp": 218.48251342773438,
    "speed": 0,
    "load": 0.13730807923196853
  },
  {
    "temp": 218.4803466796875,
    "speed": 0,
    "load": 0.14013008214489364
  },
  {
    "temp": 218.47862243652344,
    "speed": 0,
    "load": 0.13739626682299733
  },
  {
    "temp": 218.4991455078125,
    "speed": 0,
    "load": 0.14030645732695124
  },
  {
    "temp": 218.50643920898438,
    "speed": 0,
    "load": 0.1383222365288015
  },
  {
    "temp": 218.5122833251953,
    "speed": 0,
    "load": 0.134353794932502
  },
  {
    "temp": 218.52069091796875,
    "speed": 0,
    "load": 0.13492701427418918
  },
  {
    "temp": 218.523681640625,
    "speed": 0,
    "load": 0.13686714127682453
  },
  {
    "temp": 218.51329040527344,
    "speed": 0,
    "load": 0.1384104241198303
  },
  {
    "temp": 218.5111083984375,
    "speed": 0,
    "load": 0.14052692630452324
  },
  {
    "temp": 218.5032196044922,
    "speed": 0,
    "load": 0.13655848470822374
  },
  {
    "temp": 218.49691772460938,
    "speed": 0,
    "load": 0.13629392193513734
  },
  {
    "temp": 218.50062561035156,
    "speed": 0,
    "load": 0.13206091756575056
  },
  {
    "temp": 218.50762939453125,
    "speed": 0,
    "load": 0.12901844567525433
  },
  {
    "temp": 218.51771545410156,
    "speed": 0,
    "load": 0.13232548033883784
  },
  {
    "temp": 218.52130126953125,
    "speed": 0,
    "load": 0.13338373143118343
  },
  {
    "temp": 218.524169921875,
    "speed": 0,
    "load": 0.13082629129134649
  },
  {
    "temp": 218.52645874023438,
    "speed": 0,
    "load": 0.13223729274780904
  },
  {
    "temp": 218.52828979492188,
    "speed": 0,
    "load": 0.12879797669768234
  },
  {
    "temp": 218.5181427001953,
    "speed": 0,
    "load": 0.13192863617920736
  },
  {
    "temp": 218.52163696289062,
    "speed": 0,
    "load": 0.1302530719496584
  },
  {
    "temp": 218.52442932128906,
    "speed": 0,
    "load": 0.12315397087183388
  },
  {
    "temp": 218.52845764160156,
    "speed": 0,
    "load": 0.12606416137578602
  },
  {
    "temp": 218.52989196777344,
    "speed": 0,
    "load": 0.12743106903673418
  },
  {
    "temp": 218.53103637695312,
    "speed": 0,
    "load": 0.12399175298660747
  },
  {
    "temp": 218.53268432617188,
    "speed": 0,
    "load": 0.12972394640348472
  },
  {
    "temp": 218.5332794189453,
    "speed": 0,
    "load": 0.12738697524121978
  },
  {
    "temp": 218.52134704589844,
    "speed": 0,
    "load": 0.12350672123594908
  },
  {
    "temp": 218.51141357421875,
    "speed": 0,
    "load": 0.12042015554993757
  },
  {
    "temp": 218.52012634277344,
    "speed": 0,
    "load": 0.11393836760931553
  },
  {
    "temp": 218.52322387695312,
    "speed": 0,
    "load": 0.11451158695100272
  },
  {
    "temp": 218.5257110595703,
    "speed": 0,
    "load": 0.1187445913203895
  },
  {
    "temp": 218.52769470214844,
    "speed": 0,
    "load": 0.11640762015812367
  },
  {
    "temp": 218.53054809570312,
    "speed": 0,
    "load": 0.1189650602979615
  },
  {
    "temp": 218.5315704345703,
    "speed": 0,
    "load": 0.11812727818318702
  },
  {
    "temp": 218.53237915039062,
    "speed": 0,
    "load": 0.12183115700640013
  },
  {
    "temp": 218.52076721191406,
    "speed": 0,
    "load": 0.1190091540934759
  },
  {
    "temp": 218.51095581054688,
    "speed": 0,
    "load": 0.11601077599849408
  },
  {
    "temp": 218.51588439941406,
    "speed": 0,
    "load": 0.11349742965417153
  },
  {
    "temp": 218.5229949951172,
    "speed": 0,
    "load": 0.1114250212649921
  },
  {
    "temp": 218.52552795410156,
    "speed": 0,
    "load": 0.11473205592857472
  },
  {
    "temp": 218.51475524902344,
    "speed": 0,
    "load": 0.1151289000882052
  },
  {
    "temp": 218.52227783203125,
    "speed": 0,
    "load": 0.115217087679234
  },
  {
    "temp": 218.5121612548828,
    "speed": 0,
    "load": 0.11261555374388177
  },
  {
    "temp": 218.49127197265625,
    "speed": 0,
    "load": 0.11455568074651712
  },
  {
    "temp": 218.50723266601562,
    "speed": 0,
    "load": 0.11085180192330402
  },
  {
    "temp": 218.51290893554688,
    "speed": 0,
    "load": 0.11367380483622913
  },
  {
    "temp": 218.5174560546875,
    "speed": 0,
    "load": 0.11301239790351225
  },
  {
    "temp": 218.49073791503906,
    "speed": 0,
    "load": 0.11248327235733857
  },
  {
    "temp": 218.48692321777344,
    "speed": 0,
    "load": 0.1037086070499651
  },
  {
    "temp": 218.4710693359375,
    "speed": 0,
    "load": 0.10639832857634612
  },
  {
    "temp": 218.4840850830078,
    "speed": 0,
    "load": 0.10825026798795268
  },
  {
    "temp": 218.49440002441406,
    "speed": 0,
    "load": 0.11045495776367442
  },
  {
    "temp": 218.5092315673828,
    "speed": 0,
    "load": 0.10600148441671653
  },
  {
    "temp": 218.48892211914062,
    "speed": 0,
    "load": 0.10970536323992963
  },
  {
    "temp": 218.49826049804688,
    "speed": 0,
    "load": 0.10825026798795268
  },
  {
    "temp": 218.49893188476562,
    "speed": 0,
    "load": 0.10789751762383748
  },
  {
    "temp": 218.5062713623047,
    "speed": 0,
    "load": 0.10983764462647283
  },
  {
    "temp": 218.51214599609375,
    "speed": 0,
    "load": 0.11186595922013698
  },
  {
    "temp": 218.50405883789062,
    "speed": 0,
    "load": 0.10273854354864742
  },
  {
    "temp": 218.4796142578125,
    "speed": 0,
    "load": 0.10833845557898147
  },
  {
    "temp": 218.46522521972656,
    "speed": 0,
    "load": 0.10344404427687781
  },
  {
    "temp": 218.46652221679688,
    "speed": 0,
    "load": 0.10106297931909847
  },
  {
    "temp": 218.4803466796875,
    "speed": 0,
    "load": 0.10692745412251892
  },
  {
    "temp": 218.4797821044922,
    "speed": 0,
    "load": 0.10957308185338555
  },
  {
    "temp": 218.47816467285156,
    "speed": 0,
    "load": 0.09850553917926153
  },
  {
    "temp": 218.475830078125,
    "speed": 0,
    "load": 0.09850553917926153
  },
  {
    "temp": 218.4622039794922,
    "speed": 0,
    "load": 0.10093069793255527
  },
  {
    "temp": 218.4512939453125,
    "speed": 0,
    "load": 0.10031338479535368
  },
  {
    "temp": 218.45863342285156,
    "speed": 0,
    "load": 0.10287082493519062
  },
  {
    "temp": 218.4484405517578,
    "speed": 0,
    "load": 0.10132754209218486
  },
  {
    "temp": 218.46588134765625,
    "speed": 0,
    "load": 0.09497803553810602
  },
  {
    "temp": 218.4781951904297,
    "speed": 0,
    "load": 0.0959921928349381
  },
  {
    "temp": 218.48968505859375,
    "speed": 0,
    "load": 0.09740319429139976
  },
  {
    "temp": 218.486083984375,
    "speed": 0,
    "load": 0.10137163588769926
  },
  {
    "temp": 218.50392150878906,
    "speed": 0,
    "load": 0.09850553917926153
  },
  {
    "temp": 218.51026916503906,
    "speed": 0,
    "load": 0.09497803553810602
  },
  {
    "temp": 218.5153350830078,
    "speed": 0,
    "load": 0.09352294028612906
  },
  {
    "temp": 218.5124053955078,
    "speed": 0,
    "load": 0.09228831401172499
  },
  {
    "temp": 218.5170440673828,
    "speed": 0,
    "load": 0.09493394174259162
  },
  {
    "temp": 218.51095581054688,
    "speed": 0,
    "load": 0.09374340926370106
  },
  {
    "temp": 218.51588439941406,
    "speed": 0,
    "load": 0.09206784503415211
  },
  {
    "temp": 218.51983642578125,
    "speed": 0,
    "load": 0.09189146985209451
  },
  {
    "temp": 218.52552795410156,
    "speed": 0,
    "load": 0.09056865598666164
  },
  {
    "temp": 218.5275421142578,
    "speed": 0,
    "load": 0.0881875910288814
  },
  {
    "temp": 218.52915954589844,
    "speed": 0,
    "load": 0.08977496766740156
  },
  {
    "temp": 218.531494140625,
    "speed": 0,
    "load": 0.0881875910288814
  },
  {
    "temp": 218.53231811523438,
    "speed": 0,
    "load": 0.08748209030065102
  },
  {
    "temp": 218.53297424316406,
    "speed": 0,
    "load": 0.0844396184101539
  },
  {
    "temp": 218.52114868164062,
    "speed": 0,
    "load": 0.08523330672941487
  },
  {
    "temp": 218.51126098632812,
    "speed": 0,
    "load": 0.08386639906846671
  },
  {
    "temp": 218.49053955078125,
    "speed": 0,
    "load": 0.08100030236002809
  },
  {
    "temp": 218.4867706298828,
    "speed": 0,
    "load": 0.07773736149195987
  },
  {
    "temp": 218.48133850097656,
    "speed": 0,
    "load": 0.08038298922282561
  },
  {
    "temp": 218.49220275878906,
    "speed": 0,
    "load": 0.08100030236002809
  },
  {
    "temp": 218.50088500976562,
    "speed": 0,
    "load": 0.07588542208035332
  },
  {
    "temp": 218.48779296875,
    "speed": 0,
    "load": 0.07782554908298867
  },
  {
    "temp": 218.4845733642578,
    "speed": 0,
    "load": 0.07619407864895411
  },
  {
    "temp": 218.48199462890625,
    "speed": 0,
    "load": 0.0730634191674282
  },
  {
    "temp": 218.47828674316406,
    "speed": 0,
    "load": 0.0731075129629426
  },
  {
    "temp": 218.48976135253906,
    "speed": 0,
    "load": 0.07125557355133605
  },
  {
    "temp": 218.4960479736328,
    "speed": 0,
    "load": 0.0687422272070135
  },
  {
    "temp": 218.49118041992188,
    "speed": 0,
    "load": 0.06860994582047031
  },
  {
    "temp": 218.48728942871094,
    "speed": 0,
    "load": 0.06786035129672463
  },
  {
    "temp": 218.49696350097656,
    "speed": 0,
    "load": 0.07107919836927845
  },
  {
    "temp": 218.46482849121094,
    "speed": 0,
    "load": 0.06728713195503655
  },
  {
    "temp": 218.45339965820312,
    "speed": 0,
    "load": 0.06627297465820536
  },
  {
    "temp": 218.48300170898438,
    "speed": 0,
    "load": 0.06724303815952215
  },
  {
    "temp": 218.4935302734375,
    "speed": 0,
    "load": 0.06062896883235691
  },
  {
    "temp": 218.48822021484375,
    "speed": 0,
    "load": 0.055337713370623653
  },
  {
    "temp": 218.49769592285156,
    "speed": 0,
    "load": 0.06622888086269008
  },
  {
    "temp": 218.50527954101562,
    "speed": 0,
    "load": 0.06477378561071401
  },
  {
    "temp": 218.5059814453125,
    "speed": 0,
    "load": 0.06221634547087618
  },
  {
    "temp": 218.49913024902344,
    "speed": 0,
    "load": 0.06076125021890011
  },
  {
    "temp": 218.46804809570312,
    "speed": 0,
    "load": 0.05877702942075036
  },
  {
    "temp": 218.4923858642578,
    "speed": 0,
    "load": 0.05635187066745573
  },
  {
    "temp": 218.50103759765625,
    "speed": 0,
    "load": 0.061775407515731295
  },
  {
    "temp": 218.49046325683594,
    "speed": 0,
    "load": 0.05824790387457668
  },
  {
    "temp": 218.48670959472656,
    "speed": 0,
    "load": 0.0613344695605873
  },
  {
    "temp": 218.48370361328125,
    "speed": 0,
    "load": 0.058424279056634276
  },
  {
    "temp": 218.48960876464844,
    "speed": 0,
    "load": 0.05621958928091164
  },
  {
    "temp": 218.48602294921875,
    "speed": 0,
    "load": 0.057189652782230205
  },
  {
    "temp": 218.49594116210938,
    "speed": 0,
    "load": 0.05696918380465821
  },
  {
    "temp": 218.5,
    "speed": 0,
    "load": 0.05427946227827629
  },
  {
    "temp": 218.4943389892578,
    "speed": 0,
    "load": 0.05255980425321294
  },
  {
    "temp": 218.4964141845703,
    "speed": 0,
    "load": 0.05255980425321294
  },
  {
    "temp": 218.49147033691406,
    "speed": 0,
    "load": 0.060496687445812825
  },
  {
    "temp": 218.50030517578125,
    "speed": 0,
    "load": 0.053309398776959505
  },
  {
    "temp": 218.5130157470703,
    "speed": 0,
    "load": 0.05053148965954879
  },
  {
    "temp": 218.5175323486328,
    "speed": 0,
    "load": 0.05233933527564094
  },
  {
    "temp": 218.52114868164062,
    "speed": 0,
    "load": 0.05194249111601135
  },
  {
    "temp": 218.5263671875,
    "speed": 0,
    "load": 0.05626368307642604
  },
  {
    "temp": 218.5154266357422,
    "speed": 0,
    "load": 0.0534857739590171
  },
  {
    "temp": 218.51947021484375,
    "speed": 0,
    "load": 0.05295664841284342
  },
  {
    "temp": 218.52528381347656,
    "speed": 0,
    "load": 0.0535739615500459
  },
  {
    "temp": 218.52735900878906,
    "speed": 0,
    "load": 0.05308892979938751
  },
  {
    "temp": 218.51754760742188,
    "speed": 0,
    "load": 0.0537062429365891
  },
  {
    "temp": 218.5211639404297,
    "speed": 0,
    "load": 0.0615549385381593
  },
  {
    "temp": 218.5135955810547,
    "speed": 0,
    "load": 0.06009984328618234
  },
  {
    "temp": 218.51800537109375,
    "speed": 0,
    "load": 0.05436764986930509
  },
  {
    "temp": 218.5215301513672,
    "speed": 0,
    "load": 0.053353492572473904
  },
  {
    "temp": 218.526611328125,
    "speed": 0,
    "load": 0.05674871482708532
  },
  {
    "temp": 218.52841186523438,
    "speed": 0,
    "load": 0.05436764986930509
  },
  {
    "temp": 218.52078247070312,
    "speed": 0,
    "load": 0.056043214098854044
  },
  {
    "temp": 218.51097106933594,
    "speed": 0,
    "load": 0.05480858782444997
  },
  {
    "temp": 218.51589965820312,
    "speed": 0,
    "load": 0.05233933527564094
  },
  {
    "temp": 218.51022338867188,
    "speed": 0,
    "load": 0.05185430352498255
  },
  {
    "temp": 218.5153045654297,
    "speed": 0,
    "load": 0.051986584911525746
  },
  {
    "temp": 218.50657653808594,
    "speed": 0,
    "load": 0.05882112321626476
  },
  {
    "temp": 218.4940185546875,
    "speed": 0,
    "load": 0.05154564695638175
  },
  {
    "temp": 218.4895477294922,
    "speed": 0,
    "load": 0.051413365569838554
  },
  {
    "temp": 218.49876403808594,
    "speed": 0,
    "load": 0.05189839732049695
  },
  {
    "temp": 218.46597290039062,
    "speed": 0,
    "load": 0.05026692688646239
  },
  {
    "temp": 218.4671173095703,
    "speed": 0,
    "load": 0.04854726886139904
  },
  {
    "temp": 218.46803283691406,
    "speed": 0,
    "load": 0.052162960093583344
  },
  {
    "temp": 218.46934509277344,
    "speed": 0,
    "load": 0.0499141765223472
  },
  {
    "temp": 218.48260498046875,
    "speed": 0,
    "load": 0.049429144771688804
  },
  {
    "temp": 218.4804229736328,
    "speed": 0,
    "load": 0.050222833090947994
  },
  {
    "temp": 218.48751831054688,
    "speed": 0,
    "load": 0.050751958637121675
  },
  {
    "temp": 218.48435974121094,
    "speed": 0,
    "load": 0.050751958637121675
  },
  {
    "temp": 218.46902465820312,
    "speed": 0,
    "load": 0.05031102068197679
  },
  {
    "temp": 218.46998596191406,
    "speed": 0,
    "load": 0.049781895135804
  },
  {
    "temp": 218.47032165527344,
    "speed": 0,
    "load": 0.04444654587855634
  },
  {
    "temp": 218.4580078125,
    "speed": 0,
    "load": 0.04285916924003619
  },
  {
    "temp": 218.44793701171875,
    "speed": 0,
    "load": 0.04391742033238355
  },
  {
    "temp": 218.4462432861328,
    "speed": 0,
    "load": 0.04387332653686915
  },
  {
    "temp": 218.4513397216797,
    "speed": 0,
    "load": 0.04488748383370034
  },
  {
    "temp": 218.44261169433594,
    "speed": 0,
    "load": 0.041845011943205
  },
  {
    "temp": 218.47608947753906,
    "speed": 0,
    "load": 0.0419772933297482
  },
  {
    "temp": 218.47520446777344,
    "speed": 0,
    "load": 0.0380088517334487
  },
  {
    "temp": 218.48728942871094,
    "speed": 0,
    "load": 0.03871435246167909
  },
  {
    "temp": 218.47911071777344,
    "speed": 0,
    "load": 0.039816697349539965
  },
  {
    "temp": 218.47763061523438,
    "speed": 0,
    "load": 0.04052219807777124
  },
  {
    "temp": 218.4508514404297,
    "speed": 0,
    "load": 0.040478104282256844
  },
  {
    "temp": 218.44810485839844,
    "speed": 0,
    "load": 0.038405695893078295
  },
  {
    "temp": 218.4400177001953,
    "speed": 0,
    "load": 0.04052219807777124
  },
  {
    "temp": 218.45913696289062,
    "speed": 0,
    "load": 0.03434906670575
  },
  {
    "temp": 218.46165466308594,
    "speed": 0,
    "load": 0.03179162656591128
  },
  {
    "temp": 218.46527099609375,
    "speed": 0,
    "load": 0.04281507544452179
  },
  {
    "temp": 218.45375061035156,
    "speed": 0,
    "load": 0.03871435246167909
  },
  {
    "temp": 218.47299194335938,
    "speed": 0,
    "load": 0.035363224002581184
  },
  {
    "temp": 218.45993041992188,
    "speed": 0,
    "load": 0.033246721817888236
  },
  {
    "temp": 218.44947814941406,
    "speed": 0,
    "load": 0.03373175356854752
  },
  {
    "temp": 218.43443298339844,
    "speed": 0,
    "load": 0.028264122924756663
  },
  {
    "temp": 218.4290771484375,
    "speed": 0,
    "load": 0.029322374017103137
  },
  {
    "temp": 218.43760681152344,
    "speed": 0,
    "load": 0.034481348092293196
  },
  {
    "temp": 218.43963623046875,
    "speed": 0,
    "load": 0.035980537139783664
  },
  {
    "temp": 218.45883178710938,
    "speed": 0,
    "load": 0.03315853422685944
  },
  {
    "temp": 218.47625732421875,
    "speed": 0,
    "load": 0.03161525138385368
  },
  {
    "temp": 218.48812866210938,
    "speed": 0,
    "load": 0.028087747742699065
  },
  {
    "temp": 218.4720458984375,
    "speed": 0,
    "load": 0.028925529857473542
  },
  {
    "temp": 218.4719696044922,
    "speed": 0,
    "load": 0.02720587183241019
  },
  {
    "temp": 218.4821014404297,
    "speed": 0,
    "load": 0.02645627730866451
  },
  {
    "temp": 218.49281311035156,
    "speed": 0,
    "load": 0.02275239848545141
  },
  {
    "temp": 218.4757843017578,
    "speed": 0,
    "load": 0.01944536382186879
  },
  {
    "temp": 218.49732971191406,
    "speed": 0,
    "load": 0.02213508534824893
  },
  {
    "temp": 218.50498962402344,
    "speed": 0,
    "load": 0.02403111855536988
  },
  {
    "temp": 218.4955596923828,
    "speed": 0,
    "load": 0.02323743023611069
  },
  {
    "temp": 218.49078369140625,
    "speed": 0,
    "load": 0.029366467812617536
  },
  {
    "temp": 218.48696899414062,
    "speed": 0,
    "load": 0.022796492280965808
  },
  {
    "temp": 218.50448608398438,
    "speed": 0,
    "load": 0.01679973609100216
  },
  {
    "temp": 218.51071166992188,
    "speed": 0,
    "load": 0.02460433789705796
  },
  {
    "temp": 218.50946044921875,
    "speed": 0,
    "load": 0.02385474337331228
  },
  {
    "temp": 218.5146942138672,
    "speed": 0,
    "load": 0.025353932420803638
  },
  {
    "temp": 218.50608825683594,
    "speed": 0,
    "load": 0.022840586076480207
  },
  {
    "temp": 218.51199340820312,
    "speed": 0,
    "load": 0.023766555782283483
  },
  {
    "temp": 218.48724365234375,
    "speed": 0,
    "load": 0.02508936964771724
  },
  {
    "temp": 218.49691772460938,
    "speed": 0,
    "load": 0.02394293096434108
  },
  {
    "temp": 218.50465393066406,
    "speed": 0,
    "load": 0.017857987183348634
  },
  {
    "temp": 218.51084899902344,
    "speed": 0,
    "load": 0.019665832799440786
  },
  {
    "temp": 218.50698852539062,
    "speed": 0,
    "load": 0.019004425866723906
  },
  {
    "temp": 218.4999237060547,
    "speed": 0,
    "load": 0.01036204194589363
  },
  {
    "temp": 218.50706481933594,
    "speed": 0,
    "load": 0.015168265656967606
  },
  {
    "temp": 218.51734924316406,
    "speed": 0,
    "load": 0.01825483134297823
  },
  {
    "temp": 218.53379821777344,
    "speed": 0,
    "load": 0.017152486455117355
  },
  {
    "temp": 218.52423095703125,
    "speed": 0,
    "load": 0.017196580250631754
  },
  {
    "temp": 218.52650451660156,
    "speed": 0,
    "load": 0.016711548499972473
  },
  {
    "temp": 218.52980041503906,
    "speed": 0,
    "load": 0.014506858724250726
  },
  {
    "temp": 218.5309600830078,
    "speed": 0,
    "load": 0.014374577337707528
  },
  {
    "temp": 218.5326385498047,
    "speed": 0,
    "load": 0.012213981357500181
  },
  {
    "temp": 218.53323364257812,
    "speed": 0,
    "load": 0.009612447422147952
  },
  {
    "temp": 218.53370666503906,
    "speed": 0,
    "load": 0.011905324788899385
  },
  {
    "temp": 218.53439331054688,
    "speed": 0,
    "load": 0.010802979901037624
  },
  {
    "temp": 218.53463745117188,
    "speed": 0,
    "load": 0.01102344887860962
  },
  {
    "temp": 218.5348358154297,
    "speed": 0,
    "load": 0.016050141567256482
  },
  {
    "temp": 218.5351104736328,
    "speed": 0,
    "load": 0.013889545587049135
  },
  {
    "temp": 218.53521728515625,
    "speed": 0,
    "load": 0.019798114185983984
  },
  {
    "temp": 218.54559326171875,
    "speed": 0,
    "load": 0.018872144480180708
  },
  {
    "temp": 218.54359436035156,
    "speed": 0,
    "load": 0.013007669676760258
  },
  {
    "temp": 218.54200744628906,
    "speed": 0,
    "load": 0.01622651674931408
  },
  {
    "temp": 218.5407257080078,
    "speed": 0,
    "load": 0.013889545587049135
  },
  {
    "temp": 218.5388946533203,
    "speed": 0,
    "load": 0.019842207981498383
  },
  {
    "temp": 218.53823852539062,
    "speed": 0,
    "load": 0.01865167550260871
  },
  {
    "temp": 218.55050659179688,
    "speed": 0,
    "load": 0.017813893387834234
  },
  {
    "temp": 218.5475311279297,
    "speed": 0,
    "load": 0.016623360908943674
  },
  {
    "temp": 218.54324340820312,
    "speed": 0,
    "load": 0.02015086455009918
  },
  {
    "temp": 218.55450439453125,
    "speed": 0,
    "load": 0.015741484998655686
  },
  {
    "temp": 218.5507354736328,
    "speed": 0,
    "load": 0.019754020390469584
  },
  {
    "temp": 218.54530334472656,
    "speed": 0,
    "load": 0.020856365278330458
  },
  {
    "temp": 218.54336547851562,
    "speed": 0,
    "load": 0.016006047771742082
  },
  {
    "temp": 218.5418243408203,
    "speed": 0,
    "load": 0.012213981357500181
  },
  {
    "temp": 218.54058837890625,
    "speed": 0,
    "load": 0.013007669676760258
  },
  {
    "temp": 218.5490264892578,
    "speed": 0,
    "load": 0.017637518205776637
  },
  {
    "temp": 218.5463409423828,
    "speed": 0,
    "load": 0.01728476784166144
  },
  {
    "temp": 218.54420471191406,
    "speed": 0,
    "load": 0.01424229595116433
  },
  {
    "temp": 218.54112243652344,
    "speed": 0,
    "load": 0.020327239732156777
  },
  {
    "temp": 218.52723693847656,
    "speed": 0,
    "load": 0.01750523681923344
  },
  {
    "temp": 218.52891540527344,
    "speed": 0,
    "load": 0.016314704340342878
  },
  {
    "temp": 218.53025817871094,
    "speed": 0,
    "load": 0.01803436236540623
  },
  {
    "temp": 218.5321807861328,
    "speed": 0,
    "load": 0.017064298864088556
  },
  {
    "temp": 218.52008056640625,
    "speed": 0,
    "load": 0.016976111273059757
  },
  {
    "temp": 218.523193359375,
    "speed": 0,
    "load": 0.017990268569891832
  },
  {
    "temp": 218.5276641845703,
    "speed": 0,
    "load": 0.01622651674931408
  },
  {
    "temp": 218.5292510986328,
    "speed": 0,
    "load": 0.015653297407626887
  },
  {
    "temp": 218.53053283691406,
    "speed": 0,
    "load": 0.009877010195235236
  },
  {
    "temp": 218.5221405029297,
    "speed": 0,
    "load": 0.010538417127951227
  },
  {
    "temp": 218.51205444335938,
    "speed": 0,
    "load": 0.015521016021083689
  },
  {
    "temp": 218.50775146484375,
    "speed": 0,
    "load": 0.012566731721615376
  },
  {
    "temp": 218.5005340576172,
    "speed": 0,
    "load": 0.007495945237455004
  },
  {
    "temp": 218.50755310058594,
    "speed": 0,
    "load": 0.008245539761200682
  },
  {
    "temp": 218.51316833496094,
    "speed": 0,
    "load": 0.014021826973592333
  },
  {
    "temp": 218.51101684570312,
    "speed": 0,
    "load": 0.013316326245361054
  },
  {
    "temp": 218.50315856933594,
    "speed": 0,
    "load": 0.010979355083095221
  },
  {
    "temp": 218.5148468017578,
    "speed": 0,
    "load": 0.014815515292851522
  },
  {
    "temp": 218.493408203125,
    "speed": 0,
    "load": 0.010494323332436828
  },
  {
    "temp": 218.475341796875,
    "speed": 0,
    "load": 0.012566731721615376
  },
  {
    "temp": 218.474609375,
    "speed": 0,
    "load": 0.014595046315279525
  },
  {
    "temp": 218.4735565185547,
    "speed": 0,
    "load": 0.018298925138492628
  },
  {
    "temp": 218.4731903076172,
    "speed": 0,
    "load": 0.01746114302371904
  },
  {
    "temp": 218.47288513183594,
    "speed": 0,
    "load": 0.015256453247996404
  },
  {
    "temp": 218.47264099121094,
    "speed": 0,
    "load": 0.015961953976227683
  },
  {
    "temp": 218.44671630859375,
    "speed": 0,
    "load": 0.017240674046147042
  },
  {
    "temp": 218.46449279785156,
    "speed": 0,
    "load": 0.01869576929812311
  },
  {
    "temp": 218.46592712402344,
    "speed": 0,
    "load": 0.022840586076480207
  },
  {
    "temp": 218.4670867919922,
    "speed": 0,
    "load": 0.019004425866723906
  },
  {
    "temp": 218.44569396972656,
    "speed": 0,
    "load": 0.02195871016619133
  },
  {
    "temp": 218.46368408203125,
    "speed": 0,
    "load": 0.02266421089442261
  },
  {
    "temp": 218.4652862548828,
    "speed": 0,
    "load": 0.01825483134297823
  },
  {
    "temp": 218.4573516845703,
    "speed": 0,
    "load": 0.011420293038240104
  },
  {
    "temp": 218.44741821289062,
    "speed": 0,
    "load": 0.012478544130586577
  },
  {
    "temp": 218.4522705078125,
    "speed": 0,
    "load": 0.013580889018448339
  },
  {
    "temp": 218.45669555664062,
    "speed": 0,
    "load": 0.00912741567148867
  },
  {
    "temp": 218.4468994140625,
    "speed": 0,
    "load": 0.006614069327166128
  },
  {
    "temp": 218.4646453857422,
    "speed": 0,
    "load": 0.016491079522400476
  },
  {
    "temp": 218.46717834472656,
    "speed": 0,
    "load": 0.017240674046147042
  },
  {
    "temp": 218.46807861328125,
    "speed": 0,
    "load": 0.01613832915828528
  },
  {
    "temp": 218.48158264160156,
    "speed": 0,
    "load": 0.011420293038240104
  },
  {
    "temp": 218.45497131347656,
    "speed": 0,
    "load": 0.012522637926100977
  },
  {
    "temp": 218.45831298828125,
    "speed": 0,
    "load": 0.012699013108158574
  },
  {
    "temp": 218.47377014160156,
    "speed": 0,
    "load": 0.01234626274404338
  },
  {
    "temp": 218.47335815429688,
    "speed": 0,
    "load": 0.011199824060668107
  },
  {
    "temp": 218.47018432617188,
    "speed": 0,
    "load": 0.012169887561985782
  },
  {
    "temp": 218.4832763671875,
    "speed": 0,
    "load": 0.019048519662238306
  },
  {
    "temp": 218.48095703125,
    "speed": 0,
    "load": 0.019842207981498383
  },
  {
    "temp": 218.47763061523438,
    "speed": 0,
    "load": 0.01728476784166144
  },
  {
    "temp": 218.48922729492188,
    "speed": 0,
    "load": 0.006966819691281323
  },
  {
    "temp": 218.49850463867188,
    "speed": 0,
    "load": 0.008774665307373475
  },
  {
    "temp": 218.51187133789062,
    "speed": 0,
    "load": 0.007936883192599886
  },
  {
    "temp": 218.5038299560547,
    "speed": 0,
    "load": 0.014021826973592333
  },
  {
    "temp": 218.51019287109375,
    "speed": 0,
    "load": 0.011949418584413785
  },
  {
    "temp": 218.51934814453125,
    "speed": 0,
    "load": 0.012522637926100977
  },
  {
    "temp": 218.5098114013672,
    "speed": 0,
    "load": 0.006658163122680527
  },
  {
    "temp": 218.50218200683594,
    "speed": 0,
    "load": 0.002777909117409827
  },
  {
    "temp": 218.51422119140625,
    "speed": 0,
    "load": 0.003218847072553821
  },
  {
    "temp": 218.5185089111328,
    "speed": 0,
    "load": 0.013713170404991537
  },
  {
    "temp": 218.5219268798828,
    "speed": 0,
    "load": 0.015256453247996404
  },
  {
    "temp": 218.52467346191406,
    "speed": 0,
    "load": 0.014154108360135531
  },
  {
    "temp": 218.52862548828125,
    "speed": 0,
    "load": 0.01036204194589363
  },
  {
    "temp": 218.530029296875,
    "speed": 0,
    "load": 0.010406135741408029
  },
  {
    "temp": 218.53114318847656,
    "speed": 0,
    "load": 0.014021826973592333
  },
  {
    "temp": 218.5327606201172,
    "speed": 0,
    "load": 0.010582510923465627
  },
  {
    "temp": 218.53334045410156,
    "speed": 0,
    "load": 0.013448607631904252
  },
  {
    "temp": 218.52101135253906,
    "speed": 0,
    "load": 0.016358798135857278
  },
  {
    "temp": 218.51348876953125,
    "speed": 0,
    "load": 0.014595046315279525
  },
  {
    "temp": 218.51791381835938,
    "speed": 0,
    "load": 0.014683233906308324
  },
  {
    "temp": 218.52145385742188,
    "speed": 0,
    "load": 0.013669076609477138
  },
  {
    "temp": 218.5265655517578,
    "speed": 0,
    "load": 0.013184044858817856
  },
  {
    "temp": 218.52838134765625,
    "speed": 0,
    "load": 0.012213981357500181
  },
  {
    "temp": 218.5298309326172,
    "speed": 0,
    "load": 0.010582510923465627
  },
  {
    "temp": 218.53099060058594,
    "speed": 0,
    "load": 0.011199824060668107
  },
  {
    "temp": 218.5428924560547,
    "speed": 0,
    "load": 0.015080078065938807
  },
  {
    "temp": 218.54144287109375,
    "speed": 0,
    "load": 0.012213981357500181
  },
  {
    "temp": 218.540283203125,
    "speed": 0,
    "load": 0.01106754267412402
  },
  {
    "temp": 218.52581787109375,
    "speed": 0,
    "load": 0.017990268569891832
  },
  {
    "temp": 218.5277862548828,
    "speed": 0,
    "load": 0.012743106903672974
  },
  {
    "temp": 218.53060913085938,
    "speed": 0,
    "load": 0.006878632100252524
  },
  {
    "temp": 218.51882934570312,
    "speed": 0,
    "load": 0.008510102534287078
  },
  {
    "temp": 218.53497314453125,
    "speed": 0,
    "load": 0.010758886105523224
  },
  {
    "temp": 218.5351104736328,
    "speed": 0,
    "load": 0.012390356539557779
  },
  {
    "temp": 218.53521728515625,
    "speed": 0,
    "load": 0.017549330614747838
  },
  {
    "temp": 218.53529357910156,
    "speed": 0,
    "load": 0.01750523681923344
  },
  {
    "temp": 218.53541564941406,
    "speed": 0,
    "load": 0.013713170404991537
  },
  {
    "temp": 218.53546142578125,
    "speed": 0,
    "load": 0.016446985726886076
  },
  {
    "temp": 218.53549194335938,
    "speed": 0,
    "load": 0.013228138654332255
  },
  {
    "temp": 218.53553771972656,
    "speed": 0,
    "load": 0.01869576929812311
  },
  {
    "temp": 218.53555297851562,
    "speed": 0,
    "load": 0.010670698514494426
  },
  {
    "temp": 218.53558349609375,
    "speed": 0,
    "load": 0.01538873463454049
  },
  {
    "temp": 218.5355987548828,
    "speed": 0,
    "load": 0.015168265656967606
  },
  {
    "temp": 218.5355987548828,
    "speed": 0,
    "load": 0.016535173317914875
  },
  {
    "temp": 218.5355987548828,
    "speed": 0,
    "load": 0.014154108360135531
  },
  {
    "temp": 218.5355987548828,
    "speed": 0,
    "load": 0.007936883192599886
  },
  {
    "temp": 218.5355987548828,
    "speed": 0,
    "load": 0.009391978444575955
  },
  {
    "temp": 218.5355987548828,
    "speed": 0,
    "load": 0.00643769414510853
  },
  {
    "temp": 218.52281188964844,
    "speed": 0,
    "load": 0.009877010195235236
  },
  {
    "temp": 218.52537536621094,
    "speed": 0,
    "load": 0.009391978444575955
  },
  {
    "temp": 218.5402069091797,
    "speed": 0,
    "load": 0.0069227258957669235
  },
  {
    "temp": 218.53855895996094,
    "speed": 0,
    "load": 0.008995134284945472
  },
  {
    "temp": 218.53797912597656,
    "speed": 0,
    "load": 0.006129037576507734
  },
  {
    "temp": 218.53712463378906,
    "speed": 0,
    "load": 0.008774665307373475
  },
  {
    "temp": 218.5368194580078,
    "speed": 0,
    "load": 0.009965197786264035
  },
  {
    "temp": 218.53639221191406,
    "speed": 0,
    "load": 0.011420293038240104
  },
  {
    "temp": 218.53623962402344,
    "speed": 0,
    "load": 0.01106754267412402
  },
  {
    "temp": 218.53611755371094,
    "speed": 0,
    "load": 0.005776287212391651
  },
  {
    "temp": 218.53594970703125,
    "speed": 0,
    "load": 0.008245539761200682
  },
  {
    "temp": 218.535888671875,
    "speed": 0,
    "load": 0.0057321934168772515
  },
  {
    "temp": 218.53579711914062,
    "speed": 0,
    "load": 0.008025070783628685
  },
  {
    "temp": 218.52297973632812,
    "speed": 0,
    "load": 0.006349506554079731
  },
  {
    "temp": 218.5275421142578,
    "speed": 0,
    "load": 0.007231382464367719
  },
  {
    "temp": 218.51637268066406,
    "speed": 0,
    "load": 0.0007936883192600774
  },
  {
    "temp": 218.5202178955078,
    "speed": 0,
    "load": 0.003968441596299499
  },
  {
    "temp": 218.50018310546875,
    "speed": 0,
    "load": 0.004629848529016378
  },
  {
    "temp": 218.5072784423828,
    "speed": 0,
    "load": 0.0038802540052707
  },
  {
    "temp": 218.51295471191406,
    "speed": 0,
    "load": 0.00917150946700307
  },
  {
    "temp": 218.50833129882812,
    "speed": 0,
    "load": 0.012787200699187373
  },
  {
    "temp": 218.5137939453125,
    "speed": 0,
    "load": 0.006173131372022134
  },
  {
    "temp": 218.51815795898438,
    "speed": 0,
    "load": 0.005776287212391651
  },
  {
    "temp": 218.51422119140625,
    "speed": 0,
    "load": 0.005379443052761168
  },
  {
    "temp": 218.5185089111328,
    "speed": 0,
    "load": 0.005114880279674772
  },
  {
    "temp": 218.5219268798828,
    "speed": 0,
    "load": 0.007363663850911806
  },
  {
    "temp": 218.51663208007812,
    "speed": 0,
    "load": 0.006878632100252524
  },
  {
    "temp": 218.5076446533203,
    "speed": 0,
    "load": 0.009347884649061555
  },
  {
    "temp": 218.51324462890625,
    "speed": 0,
    "load": 0.00586447480342045
  },
  {
    "temp": 218.5110626220703,
    "speed": 0,
    "load": 0.005070786484160372
  },
  {
    "temp": 218.51597595214844,
    "speed": 0,
    "load": 0.004100722982843585
  },
  {
    "temp": 218.48724365234375,
    "speed": 0,
    "load": -0.0002645627730872846
  },
  {
    "temp": 218.49691772460938,
    "speed": 0,
    "load": 0.00255744013983783
  },
  {
    "temp": 218.50465393066406,
    "speed": 0,
    "load": 0.000529125546173681
  },
  {
    "temp": 218.51084899902344,
    "speed": 0,
    "load": -0.0025133463443234305
  },
  {
    "temp": 218.4941864013672,
    "speed": 0,
    "load": 0.0021605959802082353
  },
  {
    "temp": 218.48968505859375,
    "speed": 0,
    "load": 0.009303790853547156
  },
  {
    "temp": 218.486083984375,
    "speed": 0,
    "load": 0.005599912030334053
  },
  {
    "temp": 218.49598693847656,
    "speed": 0,
    "load": 0.00917150946700307
  },
  {
    "temp": 218.48468017578125,
    "speed": 0,
    "load": 0.0077605080105414
  },
  {
    "temp": 218.48208618164062,
    "speed": 0,
    "load": 0.007055007282310122
  },
  {
    "temp": 218.48001098632812,
    "speed": 0,
    "load": 0.005908568598934849
  },
  {
    "temp": 218.4795684814453,
    "speed": 0,
    "load": 0.009568353626633552
  },
  {
    "temp": 218.47799682617188,
    "speed": 0,
    "load": 0.007584132828483803
  },
  {
    "temp": 218.46392822265625,
    "speed": 0,
    "load": 0.0022928773667514335
  },
  {
    "temp": 218.45391845703125,
    "speed": 0,
    "load": 0.0025133463443234305
  },
  {
    "temp": 218.4574737548828,
    "speed": 0,
    "load": 0.003747972618727502
  },
  {
    "temp": 218.4497833251953,
    "speed": 0,
    "load": 0.0028220029129242263
  },
  {
    "temp": 218.45416259765625,
    "speed": 0,
    "load": 0.007892789397085487
  },
  {
    "temp": 218.4448699951172,
    "speed": 0,
    "load": 0.005776287212391651
  },
  {
    "temp": 218.4417266845703,
    "speed": 0,
    "load": 0.00837782114774388
  },
  {
    "temp": 218.44772338867188,
    "speed": 0,
    "load": -0.0011464386833752727
  },
  {
    "temp": 218.4525146484375,
    "speed": 0,
    "load": 0.005335349257246769
  },
  {
    "temp": 218.47219848632812,
    "speed": 0,
    "load": 0.005688099621362852
  },
  {
    "temp": 218.4720916748047,
    "speed": 0,
    "load": 0.004850317506588375
  },
  {
    "temp": 218.47201538085938,
    "speed": 0,
    "load": 0.008686477716344676
  },
  {
    "temp": 218.4846954345703,
    "speed": 0,
    "load": 0.009524259831119153
  },
  {
    "temp": 218.4821014404297,
    "speed": 0,
    "load": 0.00833372735222948
  },
  {
    "temp": 218.48858642578125,
    "speed": 0,
    "load": 0.007804601806056688
  },
  {
    "temp": 218.48521423339844,
    "speed": 0,
    "load": 0.006878632100252524
  },
  {
    "temp": 218.49530029296875,
    "speed": 0,
    "load": 0.005644005825848453
  },
  {
    "temp": 218.48680114746094,
    "speed": 0,
    "load": 0.011376199242725704
  },
  {
    "temp": 218.49656677246094,
    "speed": 0,
    "load": 0.011243917856182506
  },
  {
    "temp": 218.50039672851562,
    "speed": 0,
    "load": 0.006525881736137329
  },
  {
    "temp": 218.5074462890625,
    "speed": 0,
    "load": 0.009259697058032756
  },
  {
    "temp": 218.5002899169922,
    "speed": 0,
    "load": 0.0023810649577802323
  },
  {
    "temp": 218.5130157470703,
    "speed": 0,
    "load": -0.0009259697058032756
  },
  {
    "temp": 218.50474548339844,
    "speed": 0,
    "load": 0.0015873766385192667
  },
  {
    "temp": 218.51092529296875,
    "speed": 0,
    "load": 0.0019842207981497495
  },
  {
    "temp": 218.5095977783203,
    "speed": 0,
    "load": 0.006217225167536533
  },
  {
    "temp": 218.50201416015625,
    "speed": 0,
    "load": 0.005335349257246769
  },
  {
    "temp": 218.5087432861328,
    "speed": 0,
    "load": 0.0008818759102888762
  },
  {
    "temp": 218.51841735839844,
    "speed": 0,
    "load": 0.0008818759102888762
  },
  {
    "temp": 218.52186584472656,
    "speed": 0,
    "load": 0.0021605959802082353
  },
  {
    "temp": 218.5246124267578,
    "speed": 0,
    "load": -0.0018078456160921519
  },
  {
    "temp": 218.51402282714844,
    "speed": 0,
    "load": 0.001411001456461669
  },
  {
    "temp": 218.50901794433594,
    "speed": 0,
    "load": -0.0009259697058032756
  },
  {
    "temp": 218.51434326171875,
    "speed": 0,
    "load": 0.0007055007282312786
  },
  {
    "temp": 218.5186004638672,
    "speed": 0,
    "load": 0.002998378094981824
  },
  {
    "temp": 218.5247344970703,
    "speed": 0,
    "load": 0.0026456277308666287
  },
  {
    "temp": 218.52691650390625,
    "speed": 0,
    "load": -0.0060408499854789355
  },
  {
    "temp": 218.52865600585938,
    "speed": 0,
    "load": -0.0015432828430048673
  },
  {
    "temp": 218.50814819335938,
    "speed": 0,
    "load": -0.003351128459097019
  },
  {
    "temp": 218.51364135742188,
    "speed": 0,
    "load": -0.0037920664142419014
  },
  {
    "temp": 218.49244689941406,
    "speed": 0,
    "load": -0.0049825988931315734
  },
  {
    "temp": 218.50799560546875,
    "speed": 0,
    "load": -0.007892789397085487
  },
  {
    "temp": 218.51351928710938,
    "speed": 0,
    "load": -0.006084943780993335
  },
  {
    "temp": 218.5179443359375,
    "speed": 0,
    "load": -0.006084943780993335
  },
  {
    "temp": 218.52430725097656,
    "speed": 0,
    "load": -0.0009259697058032756
  },
  {
    "temp": 218.5265655517578,
    "speed": 0,
    "load": -0.0009259697058032756
  },
  {
    "temp": 218.51559448242188,
    "speed": 0,
    "load": -0.0001763751820575976
  },
  {
    "temp": 218.51258850097656,
    "speed": 0,
    "load": -0.002910190503953025
  },
  {
    "temp": 218.51719665527344,
    "speed": 0,
    "load": -0.002777909117409827
  },
  {
    "temp": 218.52088928222656,
    "speed": 0,
    "load": -0.006525881736137329
  },
  {
    "temp": 218.503173828125,
    "speed": 0,
    "load": -0.0022928773667514335
  },
  {
    "temp": 218.4968719482422,
    "speed": 0,
    "load": -0.004321191960415582
  },
  {
    "temp": 218.50462341308594,
    "speed": 0,
    "load": -0.0003968441596304828
  },
  {
    "temp": 218.50299072265625,
    "speed": 0,
    "load": 0.0026015339353522293
  },
  {
    "temp": 218.509521484375,
    "speed": 0,
    "load": 0.003836160209756301
  },
  {
    "temp": 218.51473999023438,
    "speed": 0,
    "load": 0.0022928773667514335
  },
  {
    "temp": 218.5222625732422,
    "speed": 0,
    "load": 0.005688099621362852
  },
  {
    "temp": 218.51214599609375,
    "speed": 0,
    "load": 0.0057321934168772515
  },
  {
    "temp": 218.516845703125,
    "speed": 0,
    "load": 0.014771421497337123
  },
  {
    "temp": 218.5236053466797,
    "speed": 0,
    "load": 0.013889545587049135
  },
  {
    "temp": 218.52601623535156,
    "speed": 0,
    "load": 0.006349506554079731
  },
  {
    "temp": 218.52947998046875,
    "speed": 0,
    "load": 0.009832916399720837
  },
  {
    "temp": 218.5307159423828,
    "speed": 0,
    "load": 0.01106754267412402
  },
  {
    "temp": 218.5316925048828,
    "speed": 0,
    "load": 0.010494323332436828
  },
  {
    "temp": 218.52288818359375,
    "speed": 0,
    "load": 0.011243917856182506
  },
  {
    "temp": 218.5254364013672,
    "speed": 0,
    "load": 0.005114880279674772
  },
  {
    "temp": 218.52748107910156,
    "speed": 0,
    "load": 0.009656541217662351
  },
  {
    "temp": 218.52911376953125,
    "speed": 0,
    "load": 0.00582038100790605
  },
  {
    "temp": 218.5314483642578,
    "speed": 0,
    "load": 0.0060408499854789355
  },
  {
    "temp": 218.53228759765625,
    "speed": 0,
    "load": 0.008554196329801478
  },
  {
    "temp": 218.5334930419922,
    "speed": 0,
    "load": 0.005776287212391651
  },
  {
    "temp": 218.53392028808594,
    "speed": 0,
    "load": 0.004453473346958781
  },
  {
    "temp": 218.52174377441406,
    "speed": 0,
    "load": -0.0009259697058032756
  },
  {
    "temp": 218.52452087402344,
    "speed": 0,
    "load": 0.0008818759102888762
  },
  {
    "temp": 218.52674865722656,
    "speed": 0,
    "load": 0.0021165021846929477
  },
  {
    "temp": 218.5285186767578,
    "speed": 0,
    "load": 0.0034834098456402174
  },
  {
    "temp": 218.51829528808594,
    "speed": 0,
    "load": 0.0028220029129242263
  },
  {
    "temp": 218.52175903320312,
    "speed": 0,
    "load": -0.004012535391814787
  },
  {
    "temp": 218.51174926757812,
    "speed": 0,
    "load": -0.0019842207981497495
  },
  {
    "temp": 218.5165252685547,
    "speed": 0,
    "load": 0.0006173131372024798
  },
  {
    "temp": 218.51316833496094,
    "speed": 0,
    "load": 0.0033952222546114186
  },
  {
    "temp": 218.5176544189453,
    "speed": 0,
    "load": 0.001631470434033666
  },
  {
    "temp": 218.5084686279297,
    "speed": 0,
    "load": -0.0022928773667514335
  },
  {
    "temp": 218.51824951171875,
    "speed": 0,
    "load": -0.007275476259882119
  },
  {
    "temp": 218.521728515625,
    "speed": 0,
    "load": -0.0055117244393052545
  },
  {
    "temp": 218.51394653320312,
    "speed": 0,
    "load": -0.0035715974366699044
  },
  {
    "temp": 218.51828002929688,
    "speed": 0,
    "load": -0.00718728866885332
  },
  {
    "temp": 218.52174377441406,
    "speed": 0,
    "load": -0.010582510923465627
  },
  {
    "temp": 218.51173400878906,
    "speed": 0,
    "load": -0.007628226623998202
  },
  {
    "temp": 218.50755310058594,
    "speed": 0,
    "load": -0.005335349257246769
  },
  {
    "temp": 218.50038146972656,
    "speed": 0,
    "load": -0.008201445965686283
  },
  {
    "temp": 218.50743103027344,
    "speed": 0,
    "load": -0.00908332187597427
  },
  {
    "temp": 218.51759338378906,
    "speed": 0,
    "load": -0.007628226623998202
  },
  {
    "temp": 218.5211944580078,
    "speed": 0,
    "load": -0.009303790853547156
  },
  {
    "temp": 218.52407836914062,
    "speed": 0,
    "load": -0.015256453247996404
  },
  {
    "temp": 218.52822875976562,
    "speed": 0,
    "load": -0.013845451791534735
  },
  {
    "temp": 218.5169219970703,
    "speed": 0,
    "load": -0.013933639382563534
  },
  {
    "temp": 218.52066040039062,
    "speed": 0,
    "load": -0.016579267113429275
  },
  {
    "temp": 218.5260467529297,
    "speed": 0,
    "load": -0.017240674046147042
  },
  {
    "temp": 218.50238037109375,
    "speed": 0,
    "load": -0.01878395688915191
  },
  {
    "temp": 218.49624633789062,
    "speed": 0,
    "load": -0.018475300320550225
  },
  {
    "temp": 218.4976348876953,
    "speed": 0,
    "load": -0.01882805068466631
  },
  {
    "temp": 218.49244689941406,
    "speed": 0,
    "load": -0.02195871016619133
  },
  {
    "temp": 218.48829650878906,
    "speed": 0,
    "load": -0.01869576929812311
  },
  {
    "temp": 218.479736328125,
    "speed": 0,
    "load": -0.021517772211047337
  },
  {
    "temp": 218.47813415527344,
    "speed": 0,
    "load": -0.016006047771742082
  },
  {
    "temp": 218.4768524169922,
    "speed": 0,
    "load": -0.008201445965686283
  },
  {
    "temp": 218.4775390625,
    "speed": 0,
    "load": -0.006217225167536533
  },
  {
    "temp": 218.4763641357422,
    "speed": 0,
    "load": -0.008818759102887874
  },
  {
    "temp": 218.47543334960938,
    "speed": 0,
    "load": -0.013095857267789057
  },
  {
    "temp": 218.47409057617188,
    "speed": 0,
    "load": -0.01031794815037923
  },
  {
    "temp": 218.47361755371094,
    "speed": 0,
    "load": -0.011420293038240104
  },
  {
    "temp": 218.47323608398438,
    "speed": 0,
    "load": -0.013624982813962738
  },
  {
    "temp": 218.4624481201172,
    "speed": 0,
    "load": -0.011993512379928184
  },
  {
    "temp": 218.47708129882812,
    "speed": 0,
    "load": -0.013139951063303457
  },
  {
    "temp": 218.46319580078125,
    "speed": 0,
    "load": -0.012213981357500181
  },
  {
    "temp": 218.4534454345703,
    "speed": 0,
    "load": -0.011773043402356187
  },
  {
    "temp": 218.4442901611328,
    "speed": 0,
    "load": -0.008730571511859075
  },
  {
    "temp": 218.41831970214844,
    "speed": 0,
    "load": -0.003527503641155505
  },
  {
    "temp": 218.44178771972656,
    "speed": 0,
    "load": -0.006173131372022134
  },
  {
    "temp": 218.43496704101562,
    "speed": 0,
    "load": -0.008113258374657484
  },
  {
    "temp": 218.42514038085938,
    "speed": 0,
    "load": -0.009568353626633552
  },
  {
    "temp": 218.42164611816406,
    "speed": 0,
    "load": -0.010273854354864831
  },
  {
    "temp": 218.44444274902344,
    "speed": 0,
    "load": -0.010847073696552023
  },
  {
    "temp": 218.4370880126953,
    "speed": 0,
    "load": -0.011508480629268902
  },
  {
    "temp": 218.44955444335938,
    "speed": 0,
    "load": -0.01485960908836681
  },
  {
    "temp": 218.4539794921875,
    "speed": 0,
    "load": -0.014947796679395609
  },
  {
    "temp": 218.45751953125,
    "speed": 0,
    "load": -0.011817137197870586
  },
  {
    "temp": 218.4728546142578,
    "speed": 0,
    "load": -0.011861230993384986
  },
  {
    "temp": 218.48541259765625,
    "speed": 0,
    "load": -0.008906946693916673
  },
  {
    "temp": 218.49545288085938,
    "speed": 0,
    "load": -0.015168265656967606
  },
  {
    "temp": 218.4779052734375,
    "speed": 0,
    "load": -0.017064298864088556
  },
  {
    "temp": 218.48590087890625,
    "speed": 0,
    "load": -0.013669076609477138
  },
  {
    "temp": 218.4702606201172,
    "speed": 0,
    "load": -0.01618242295379968
  },
  {
    "temp": 218.47055053710938,
    "speed": 0,
    "load": -0.018298925138492628
  },
  {
    "temp": 218.4683837890625,
    "speed": 0,
    "load": -0.016358798135857278
  },
  {
    "temp": 218.48182678222656,
    "speed": 0,
    "load": -0.013845451791534735
  },
  {
    "temp": 218.4884033203125,
    "speed": 0,
    "load": -0.01424229595116433
  },
  {
    "temp": 218.47225952148438,
    "speed": 0,
    "load": -0.010582510923465627
  },
  {
    "temp": 218.44656372070312,
    "speed": 0,
    "load": -0.015565109816598088
  },
  {
    "temp": 218.46437072753906,
    "speed": 0,
    "load": -0.017725705796805435
  },
  {
    "temp": 218.47979736328125,
    "speed": 0,
    "load": -0.01613832915828528
  },
  {
    "temp": 218.4653778076172,
    "speed": 0,
    "load": -0.01609423536277088
  },
  {
    "temp": 218.45384216308594,
    "speed": 0,
    "load": -0.017549330614747838
  },
  {
    "temp": 218.45741271972656,
    "speed": 0,
    "load": -0.01821073754746383
  },
  {
    "temp": 218.45997619628906,
    "speed": 0,
    "load": -0.017769799592319835
  },
  {
    "temp": 218.44952392578125,
    "speed": 0,
    "load": -0.023810649577797882
  },
  {
    "temp": 218.43446350097656,
    "speed": 0,
    "load": -0.01627061054482848
  },
  {
    "temp": 218.44190979003906,
    "speed": 0,
    "load": -0.013801357996020336
  },
  {
    "temp": 218.4606475830078,
    "speed": 0,
    "load": -0.011728949606841788
  },
  {
    "temp": 218.46463012695312,
    "speed": 0,
    "load": -0.007848695601571087
  },
  {
    "temp": 218.4788360595703,
    "speed": 0,
    "load": -0.013316326245361054
  },
  {
    "temp": 218.464599609375,
    "speed": 0,
    "load": -0.02063589630075846
  },
  {
    "temp": 218.44410705566406,
    "speed": 0,
    "load": -0.01926898863981119
  },
  {
    "temp": 218.42404174804688,
    "speed": 0,
    "load": -0.014639140110793925
  },
  {
    "temp": 218.4463653564453,
    "speed": 0,
    "load": -0.014154108360135531
  }
]