[
  {
    "temp": 208.5889434814453,
    "speed": 0,
    "load": 0.002645627730867517
  },
  {
    "temp": 208.595458984375,
    "speed": 0,
    "load": 0.004233004369387672
  },
  {
    "temp": 208.60484313964844,
    "speed": 0,
    "load": 0.0010141572968329626
  },
  {
    "temp": 208.59539794921875,
    "speed": 0,
    "load": 0.003836160209756301
  },
  {
    "temp": 208.5878448486328,
    "speed": 0,
    "load": 0.004894411302103663
  },
  {
    "temp": 208.5999755859375,
    "speed": 0,
    "load": 0.0032629408680691085
  },
  {
    "temp": 208.5915069580078,
    "speed": 0,
    "load": 0.0013669076609481579
  },
  {
    "temp": 208.6103057861328,
    "speed": 0,
    "load": -0.0007936883192591893
  },
  {
    "temp": 208.59976196289062,
    "speed": 2.4950098991394043,
    "load": 0.007716414215027001
  },
  {
    "temp": 208.5948028564453,
    "speed": 2.4925224781036377,
    "load": 0.2099746542397689
  },
  {
    "temp": 208.5873565673828,
    "speed": 2.4950098991394043,
    "load": 1.964907715714519
  },
  {
    "temp": 208.58140563964844,
    "speed": 2.497502565383911,
    "load": 7.558734802267525
  },
  {
    "temp": 208.5856170654297,
    "speed": 2.497502565383911,
    "load": 6.4623425768009515
  },
  {
    "temp": 208.58001708984375,
    "speed": 2.497502565383911,
    "load": 4.355981965076108
  },
  {
    "temp": 208.58831787109375,
    "speed": 2.4950098991394043,
    "load": 4.14631596740494
  },
  {
    "temp": 208.59771728515625,
    "speed": 2.5,
    "load": 4.050896993911691
  },
  {
    "temp": 208.60247802734375,
    "speed": 2.497502565383911,
    "load": 3.758555129650947
  },
  {
    "temp": 208.593505859375,
    "speed": 2.497502565383911,
    "load": 3.2204785429882232
  },
  {
    "temp": 208.58058166503906,
    "speed": 2.497502565383911,
    "load": 2.9761989158382214
  },
  {
    "temp": 208.57598876953125,
    "speed": 2.497502565383911,
    "load": 2.872005277037596
  },
  {
    "temp": 208.58509826660156,
    "speed": 2.497502565383911,
    "load": 3.7977545138632838
  },
  {
    "temp": 208.5982208251953,
    "speed": 2.4950098991394043,
    "load": 4.11214327588125
  },
  {
    "temp": 208.60289001464844,
    "speed": 2.4950098991394043,
    "load": 4.276833602127686
  },
  {
    "temp": 208.5938262939453,
    "speed": 2.497502565383911,
    "load": 4.320442365891468
  },
  {
    "temp": 208.6038055419922,
    "speed": 2.497502565383911,
    "load": 4.254345766415321
  },
  {
    "temp": 208.5945587158203,
    "speed": 2.4950098991394043,
    "load": 4.224361985465501
  },
  {
    "temp": 208.58717346191406,
    "speed": 2.497502565383911,
    "load": 4.2755107882622525
  },
  {
    "temp": 208.5893096923828,
    "speed": 2.497502565383911,
    "load": 4.3073906024191935
  },
  {
    "temp": 208.5829620361328,
    "speed": 2.4950098991394043,
    "load": 4.312196826130267
  },
  {
    "temp": 208.57383728027344,
    "speed": 2.497502565383911,
    "load": 4.320089615527353
  },
  {
    "temp": 208.57058715820312,
    "speed": 2.497502565383911,
    "load": 4.351175741365033
  },
  {
    "temp": 208.5679931640625,
    "speed": 2.4950098991394043,
    "load": 4.308977979057714
  },
  {
    "temp": 208.55311584472656,
    "speed": 2.4950098991394043,
    "load": 4.330010719518102
  },
  {
    "temp": 208.5547332763672,
    "speed": 2.4950098991394043,
    "load": 4.334155536296459
  },
  {
    "temp": 208.55531311035156,
    "speed": 2.5,
    "load": 4.341166449783255
  },
  {
    "temp": 208.55613708496094,
    "speed": 2.497502565383911,
    "load": 4.484162628636588
  },
  {
    "temp": 208.55642700195312,
    "speed": 2.4950098991394043,
    "load": 4.593471147716885
  },
  {
    "temp": 208.55665588378906,
    "speed": 2.4950098991394043,
    "load": 4.585666545910831
  },
  {
    "temp": 208.5467529296875,
    "speed": 2.497502565383911,
    "load": 4.685671274137581
  },
  {
    "temp": 208.53611755371094,
    "speed": 2.497502565383911,
    "load": 4.776989524647989
  },
  {
    "temp": 208.54385375976562,
    "speed": 2.497502565383911,
    "load": 4.794979793217882
  },
  {
    "temp": 208.54660034179688,
    "speed": 2.4950098991394043,
    "load": 4.7119070824686755
  },
  {
    "temp": 208.54879760742188,
    "speed": 2.497502565383911,
    "load": 4.617149515908141
  },
  {
    "temp": 208.5519561767578,
    "speed": 2.497502565383911,
    "load": 4.557093766417472
  },
  {
    "temp": 208.540283203125,
    "speed": 2.497502565383911,
    "load": 4.5279918613779415
  },
  {
    "temp": 208.53094482421875,
    "speed": 0,
    "load": 4.503784367640513
  },
  {
    "temp": 208.52774047851562,
    "speed": 0,
    "load": 4.244160099651486
  },
  {
    "temp": 208.53370666503906,
    "speed": 0,
    "load": 1.2549535141365045
  },
  {
    "temp": 208.5167236328125,
    "speed": 0,
    "load": 0.6589817739633208
  },
  {
    "temp": 208.4993133544922,
    "speed": 0,
    "load": 0.3867025866616469
  },
  {
    "temp": 208.48538208007812,
    "speed": 0,
    "load": 0.1226689391211746
  },
  {
    "temp": 208.48834228515625,
    "speed": 0,
    "load": 0.04528432799333082
  },
  {
    "temp": 208.4766082763672,
    "speed": 0,
    "load": -0.04016944771365516
  },
  {
    "temp": 208.46722412109375,
    "speed": 0,
    "load": -0.08033889542731032
  },
  {
    "temp": 208.44346618652344,
    "speed": 0,
    "load": -0.10930851908029915
  },
  {
    "temp": 208.4279022216797,
    "speed": 0,
    "load": -0.1726272094390353
  },
  {
    "temp": 208.4026641845703,
    "speed": 0,
    "load": -0.20058267579519118
  },
  {
    "temp": 208.3867950439453,
    "speed": 0,
    "load": -0.2225854797568978
  },
  {
    "temp": 208.36978149414062,
    "speed": 0,
    "load": -0.2614321136051192
  },
  {
    "temp": 208.35806274414062,
    "speed": 0,
    "load": -0.27832003728715016
  },
  {
    "temp": 208.34678649902344,
    "speed": 0,
    "load": -0.3110817273543809
  },
  {
    "temp": 208.3377685546875,
    "speed": 0,
    "load": -0.32056189338998564
  },
  {
    "temp": 208.33055114746094,
    "speed": 0,
    "load": -0.3222374576195337
  },
  {
    "temp": 208.32017517089844,
    "speed": 0,
    "load": -0.34692998310762135
  },
  {
    "temp": 208.3164825439453,
    "speed": 0,
    "load": -0.35107479988597845
  },
  {
    "temp": 208.32394409179688,
    "speed": 0,
    "load": -0.35451411593610516
  },
  {
    "temp": 208.3195037841797,
    "speed": 0,
    "load": -0.35896758928306305
  },
  {
    "temp": 208.30287170410156,
    "speed": 0,
    "load": -0.36677219108911885
  },
  {
    "temp": 208.30264282226562,
    "speed": 0,
    "load": -0.3688445994782974
  },
  {
    "temp": 208.30245971679688,
    "speed": 0,
    "load": -0.37082882027644803
  },
  {
    "temp": 208.30230712890625,
    "speed": 0,
    "load": -0.3839687713397506
  },
  {
    "temp": 208.30209350585938,
    "speed": 0,
    "load": -0.3904505592803744
  },
  {
    "temp": 208.30201721191406,
    "speed": 0,
    "load": -0.38855452607325347
  },
  {
    "temp": 208.30191040039062,
    "speed": 0,
    "load": -0.3920379359188946
  },
  {
    "temp": 208.30186462402344,
    "speed": 0,
    "load": -0.39768194174474214
  },
  {
    "temp": 208.3146209716797,
    "speed": 0,
    "load": -0.3946835636497603
  },
  {
    "temp": 208.3099822998047,
    "speed": 0,
    "load": -0.39675597203893886
  },
  {
    "temp": 208.30833435058594,
    "speed": 0,
    "load": -0.3991811307922335
  },
  {
    "temp": 208.3070068359375,
    "speed": 0,
    "load": -0.40142991436346964
  },
  {
    "temp": 208.3059539794922,
    "speed": 0,
    "load": -0.40500151180013955
  },
  {
    "temp": 208.32489013671875,
    "speed": 0,
    "load": -0.4027527282289025
  },
  {
    "temp": 208.32025146484375,
    "speed": 0,
    "load": -0.41232108185553695
  },
  {
    "temp": 208.3365936279297,
    "speed": 0,
    "load": -0.4068534512117461
  },
  {
    "temp": 208.32962036132812,
    "speed": 0,
    "load": -0.40848492164577976
  },
  {
    "temp": 208.34962463378906,
    "speed": 0,
    "load": -0.4106896114215024
  },
  {
    "temp": 208.37843322753906,
    "speed": 0,
    "load": -0.41285020740171063
  },
  {
    "temp": 208.37586975097656,
    "speed": 0,
    "load": -0.414790334404346
  },
  {
    "temp": 208.38662719726562,
    "speed": 0,
    "load": -0.41602496067874917
  },
  {
    "temp": 208.41490173339844,
    "speed": 0,
    "load": -0.41580449170117717
  },
  {
    "temp": 208.4178466796875,
    "speed": 0,
    "load": -0.41593677308772037
  },
  {
    "temp": 208.45791625976562,
    "speed": 0,
    "load": -0.4195083705243903
  },
  {
    "temp": 208.4778594970703,
    "speed": 0,
    "load": -0.42440278182649394
  },
  {
    "temp": 208.50656127929688,
    "speed": 0,
    "load": -0.4188028697961599
  },
  {
    "temp": 208.5167694091797,
    "speed": 0,
    "load": -0.4229035927790026
  },
  {
    "temp": 208.5121307373047,
    "speed": 0,
    "load": -0.4263870026246437
  },
  {
    "temp": 208.52850341796875,
    "speed": 0,
    "load": -0.4263870026246437
  },
  {
    "temp": 208.53431701660156,
    "speed": 0,
    "load": -0.4327806029742369
  },
  {
    "temp": 208.53897094726562,
    "speed": 0,
    "load": -0.43917420332383195
  },
  {
    "temp": 208.54566955566406,
    "speed": 0,
    "load": -0.438380515004571
  },
  {
    "temp": 208.5480499267578,
    "speed": 0,
    "load": -0.44084976755338
  },
  {
    "temp": 208.562744140625,
    "speed": 0,
    "load": -0.4414670806905825
  },
  {
    "temp": 208.5839080810547,
    "speed": 0,
    "load": -0.4423489566008705
  },
  {
    "temp": 208.60421752929688,
    "speed": 0,
    "load": -0.43921829711934635
  },
  {
    "temp": 208.63327026367188,
    "speed": 0,
    "load": -0.43974742266551914
  },
  {
    "temp": 208.63160705566406,
    "speed": 0,
    "load": -0.43511757413650276
  },
  {
    "temp": 208.6423797607422,
    "speed": 0,
    "load": -0.44367177046630424
  },
  {
    "temp": 208.6510009765625,
    "speed": 0,
    "load": -0.4453914284913676
  },
  {
    "temp": 208.6634063720703,
    "speed": 0,
    "load": -0.45147637227236004
  },
  {
    "temp": 208.6806182861328,
    "speed": 0,
    "load": -0.44755202447157494
  },
  {
    "temp": 208.66880798339844,
    "speed": 0,
    "load": -0.4450386781272524
  },
  {
    "temp": 208.68760681152344,
    "speed": 0,
    "load": -0.4457000850599684
  },
  {
    "temp": 208.7127685546875,
    "speed": 0,
    "load": -0.4445536463765931
  },
  {
    "temp": 208.72010803222656,
    "speed": 0,
    "load": -0.45081496533964405
  },
  {
    "temp": 208.75369262695312,
    "speed": 0,
    "load": -0.445876460242026
  },
  {
    "temp": 208.7528533935547,
    "speed": 0,
    "load": -0.4460528354240836
  },
  {
    "temp": 208.7649688720703,
    "speed": 0,
    "load": -0.4557975642327756
  },
  {
    "temp": 208.7490692138672,
    "speed": 0,
    "load": -0.452710998546765
  },
  {
    "temp": 208.74920654296875,
    "speed": 0,
    "load": -0.4534605930705098
  },
  {
    "temp": 208.76205444335938,
    "speed": 0,
    "load": -0.45469521934491475
  },
  {
    "temp": 208.74472045898438,
    "speed": 0,
    "load": -0.4560180332103476
  },
  {
    "temp": 208.75845336914062,
    "speed": 0,
    "load": -0.4522700605916201
  },
  {
    "temp": 208.74241638183594,
    "speed": 0,
    "load": -0.4494921514742103
  },
  {
    "temp": 208.74383544921875,
    "speed": 0,
    "load": -0.45099134052170164
  },
  {
    "temp": 208.74496459960938,
    "speed": 0,
    "load": -0.4499330894293543
  },
  {
    "temp": 208.7440185546875,
    "speed": 0,
    "load": -0.4532842178884522
  },
  {
    "temp": 208.73231506347656,
    "speed": 0,
    "load": -0.4534164992749954
  },
  {
    "temp": 208.7101593017578,
    "speed": 0,
    "load": -0.4566353463475501
  },
  {
    "temp": 208.6884765625,
    "speed": 0,
    "load": -0.45518025109557314
  },
  {
    "temp": 208.70068359375,
    "speed": 0,
    "load": -0.45562118905071713
  },
  {
    "temp": 208.6848602294922,
    "speed": 0,
    "load": -0.461088819694508
  },
  {
    "temp": 208.6748504638672,
    "speed": 0,
    "load": -0.4566794401430645
  },
  {
    "temp": 208.67697143554688,
    "speed": 0,
    "load": -0.45804634780401265
  },
  {
    "temp": 208.66587829589844,
    "speed": 0,
    "load": -0.460868350716936
  },
  {
    "temp": 208.68572998046875,
    "speed": 0,
    "load": -0.4647045109266923
  },
  {
    "temp": 208.6601104736328,
    "speed": 0,
    "load": -0.460868350716936
  },
  {
    "temp": 208.62319946289062,
    "speed": 0,
    "load": -0.4602951313752488
  },
  {
    "temp": 208.61007690429688,
    "speed": 0,
    "load": -0.4596337244425319
  },
  {
    "temp": 208.59957885742188,
    "speed": 0,
    "load": -0.4645722295401491
  },
  {
    "temp": 208.5911865234375,
    "speed": 0,
    "load": -0.4675265138396174
  },
  {
    "temp": 208.5791015625,
    "speed": 0,
    "load": -0.4607801631259072
  },
  {
    "temp": 208.57479858398438,
    "speed": 0,
    "load": -0.4643076667670627
  },
  {
    "temp": 208.5713653564453,
    "speed": 0,
    "load": -0.46285257151508574
  },
  {
    "temp": 208.56642150878906,
    "speed": 0,
    "load": -0.4639549164029475
  },
  {
    "temp": 208.5646514892578,
    "speed": 0,
    "load": -0.46272029012854254
  },
  {
    "temp": 208.56324768066406,
    "speed": 0,
    "load": -0.4604715065573064
  },
  {
    "temp": 208.56121826171875,
    "speed": 0,
    "load": -0.4601187561931912
  },
  {
    "temp": 208.5605010986328,
    "speed": 0,
    "load": -0.45562118905071713
  },
  {
    "temp": 208.55992126464844,
    "speed": 0,
    "load": -0.45778178503092537
  },
  {
    "temp": 208.55946350097656,
    "speed": 0,
    "load": -0.45791406641746857
  },
  {
    "temp": 208.5587921142578,
    "speed": 0,
    "load": -0.45557709525520274
  },
  {
    "temp": 208.5585479736328,
    "speed": 0,
    "load": -0.4636903536298611
  },
  {
    "temp": 208.55836486816406,
    "speed": 0,
    "load": -0.4673501386575589
  },
  {
    "temp": 208.55809020996094,
    "speed": 0,
    "load": -0.4639990101984619
  },
  {
    "temp": 208.55799865722656,
    "speed": 0,
    "load": -0.4646163233356635
  },
  {
    "temp": 208.557861328125,
    "speed": 0,
    "load": -0.4686288587274774
  },
  {
    "temp": 208.5578155517578,
    "speed": 0,
    "load": -0.4673060448620445
  },
  {
    "temp": 208.5449676513672,
    "speed": 0,
    "load": -0.463558072243317
  },
  {
    "temp": 208.54750061035156,
    "speed": 0,
    "load": -0.46602732479212605
  },
  {
    "temp": 208.55113220214844,
    "speed": 0,
    "load": -0.46298485290162894
  },
  {
    "temp": 208.5396270751953,
    "speed": 0,
    "load": -0.4609565383079648
  },
  {
    "temp": 208.5460968017578,
    "speed": 0,
    "load": -0.46152975764965287
  },
  {
    "temp": 208.54840087890625,
    "speed": 0,
    "load": -0.4641753853805195
  },
  {
    "temp": 208.5502471923828,
    "speed": 0,
    "load": -0.4681879207723334
  },
  {
    "temp": 208.55288696289062,
    "speed": 0,
    "load": -0.4645281357446347
  },
  {
    "temp": 208.5538330078125,
    "speed": 0,
    "load": -0.46210297699134095
  },
  {
    "temp": 208.55458068847656,
    "speed": 0,
    "load": -0.4646604171311779
  },
  {
    "temp": 208.54542541503906,
    "speed": 0,
    "load": -0.461088819694508
  },
  {
    "temp": 208.54786682128906,
    "speed": 0,
    "load": -0.4573408470757805
  },
  {
    "temp": 208.54981994628906,
    "speed": 0,
    "load": -0.4635139784478026
  },
  {
    "temp": 208.55262756347656,
    "speed": 0,
    "load": -0.46245572735545615
  },
  {
    "temp": 208.55361938476562,
    "speed": 0,
    "load": -0.4605156003528208
  },
  {
    "temp": 208.55441284179688,
    "speed": 0,
    "load": -0.45809044159952705
  },
  {
    "temp": 208.55555725097656,
    "speed": 0,
    "load": -0.4611329134900224
  },
  {
    "temp": 208.55596923828125,
    "speed": 0,
    "load": -0.4597660058290751
  },
  {
    "temp": 208.55628967285156,
    "speed": 0,
    "load": -0.4570762843026941
  },
  {
    "temp": 208.5693359375,
    "speed": 0,
    "load": -0.4572967532802661
  },
  {
    "temp": 208.5651092529297,
    "speed": 0,
    "load": -0.45782587882643977
  },
  {
    "temp": 208.56361389160156,
    "speed": 0,
    "load": -0.45451884416285715
  },
  {
    "temp": 208.5614471435547,
    "speed": 0,
    "load": -0.4564589711654925
  },
  {
    "temp": 208.56068420410156,
    "speed": 0,
    "load": -0.45866366094121425
  },
  {
    "temp": 208.57286071777344,
    "speed": 0,
    "load": -0.45888412991878624
  },
  {
    "temp": 208.56980895996094,
    "speed": 0,
    "load": -0.45844319196364225
  },
  {
    "temp": 208.56541442871094,
    "speed": 0,
    "load": -0.45888412991878624
  },
  {
    "temp": 208.56385803222656,
    "speed": 0,
    "load": -0.45059449636207205
  },
  {
    "temp": 208.5753936767578,
    "speed": 0,
    "load": -0.4556652828462324
  },
  {
    "temp": 208.57183837890625,
    "speed": 0,
    "load": -0.45562118905071713
  },
  {
    "temp": 208.56671142578125,
    "speed": 0,
    "load": -0.45010946461141277
  },
  {
    "temp": 208.5648956298828,
    "speed": 0,
    "load": -0.44799296242671893
  },
  {
    "temp": 208.5634307861328,
    "speed": 0,
    "load": -0.4495803390652391
  },
  {
    "temp": 208.56134033203125,
    "speed": 0,
    "load": -0.4499330894293543
  },
  {
    "temp": 208.5605926513672,
    "speed": 0,
    "load": -0.45002127702038397
  },
  {
    "temp": 208.5855712890625,
    "speed": 0,
    "load": -0.45085905913515845
  },
  {
    "temp": 208.58572387695312,
    "speed": 0,
    "load": -0.44746383688054614
  },
  {
    "temp": 208.59288024902344,
    "speed": 0,
    "load": -0.4537251558435962
  },
  {
    "temp": 208.58583068847656,
    "speed": 0,
    "load": -0.448125243813263
  },
  {
    "temp": 208.57566833496094,
    "speed": 0,
    "load": -0.4497126204517823
  },
  {
    "temp": 208.57205200195312,
    "speed": 0,
    "load": -0.45460703175388595
  },
  {
    "temp": 208.5819549560547,
    "speed": 0,
    "load": -0.4567676277340933
  },
  {
    "temp": 208.5834197998047,
    "speed": 0,
    "load": -0.45121180949927364
  },
  {
    "temp": 208.57826232910156,
    "speed": 0,
    "load": -0.4457441788554828
  },
  {
    "temp": 208.57412719726562,
    "speed": 0,
    "load": -0.45473931314042915
  },
  {
    "temp": 208.60142517089844,
    "speed": 0,
    "load": -0.4498008080428111
  },
  {
    "temp": 208.59266662597656,
    "speed": 0,
    "load": -0.45085905913515845
  },
  {
    "temp": 208.59027099609375,
    "speed": 0,
    "load": -0.44433317739902023
  },
  {
    "temp": 208.583740234375,
    "speed": 0,
    "load": -0.4491834949056095
  },
  {
    "temp": 208.57432556152344,
    "speed": 0,
    "load": -0.4567235339385789
  },
  {
    "temp": 208.57098388671875,
    "speed": 0,
    "load": -0.45059449636207205
  },
  {
    "temp": 208.5811004638672,
    "speed": 0,
    "load": -0.45147637227236004
  },
  {
    "temp": 208.5891876220703,
    "speed": 0,
    "load": -0.45046221497552796
  },
  {
    "temp": 208.58287048339844,
    "speed": 0,
    "load": -0.44715518031194534
  },
  {
    "temp": 208.57781982421875,
    "speed": 0,
    "load": -0.44737564928951734
  },
  {
    "temp": 208.5807647705078,
    "speed": 0,
    "load": -0.4491394011100951
  },
  {
    "temp": 208.5889129638672,
    "speed": 0,
    "load": -0.4489189321325231
  },
  {
    "temp": 208.6082305908203,
    "speed": 0,
    "load": -0.45068268395310085
  },
  {
    "temp": 208.602783203125,
    "speed": 0,
    "load": -0.45112362190824484
  },
  {
    "temp": 208.59375,
    "speed": 0,
    "load": -0.4488307445414943
  },
  {
    "temp": 208.58651733398438,
    "speed": 0,
    "load": -0.44777249344914694
  },
  {
    "temp": 208.57611083984375,
    "speed": 0,
    "load": -0.45002127702038397
  },
  {
    "temp": 208.57240295410156,
    "speed": 0,
    "load": -0.4520495916140481
  },
  {
    "temp": 208.5822296142578,
    "speed": 0,
    "load": -0.45152046606787444
  },
  {
    "temp": 208.5733642578125,
    "speed": 0,
    "load": -0.45416609379874107
  },
  {
    "temp": 208.57020568847656,
    "speed": 0,
    "load": -0.4529755613198514
  },
  {
    "temp": 208.56768798828125,
    "speed": 0,
    "load": -0.45500387591351554
  },
  {
    "temp": 208.5742950439453,
    "speed": 0,
    "load": -0.4528873737288226
  },
  {
    "temp": 208.57095336914062,
    "speed": 0,
    "load": -0.4559739394148332
  },
  {
    "temp": 208.58106994628906,
    "speed": 0,
    "load": -0.4570321905071797
  },
  {
    "temp": 208.57261657714844,
    "speed": 0,
    "load": -0.45509206350454434
  },
  {
    "temp": 208.56961059570312,
    "speed": 0,
    "load": -0.45125590329478804
  },
  {
    "temp": 208.5800018310547,
    "speed": 0,
    "load": -0.45398971861668347
  },
  {
    "temp": 208.57192993164062,
    "speed": 0,
    "load": -0.45469521934491475
  },
  {
    "temp": 208.58184814453125,
    "speed": 0,
    "load": -0.4562385021879205
  },
  {
    "temp": 208.5731201171875,
    "speed": 0,
    "load": -0.45425428138977075
  },
  {
    "temp": 208.5700225830078,
    "speed": 0,
    "load": -0.4570321905071797
  },
  {
    "temp": 208.56753540039062,
    "speed": 0,
    "load": -0.4536369682525674
  },
  {
    "temp": 208.5655517578125,
    "speed": 0,
    "load": -0.45421018759425547
  },
  {
    "temp": 208.5754852294922,
    "speed": 0,
    "load": -0.4488748383370087
  },
  {
    "temp": 208.57191467285156,
    "speed": 0,
    "load": -0.4565912525520357
  },
  {
    "temp": 208.5818328857422,
    "speed": 0,
    "load": -0.46210297699134095
  },
  {
    "temp": 208.57310485839844,
    "speed": 0,
    "load": -0.45923688028290144
  },
  {
    "temp": 208.57000732421875,
    "speed": 0,
    "load": -0.4526669047512506
  },
  {
    "temp": 208.56553649902344,
    "speed": 0,
    "load": -0.456062127005862
  },
  {
    "temp": 208.5767364501953,
    "speed": 0,
    "load": -0.46280847771957134
  },
  {
    "temp": 208.57290649414062,
    "speed": 0,
    "load": -0.46223525837788415
  },
  {
    "temp": 208.56739807128906,
    "speed": 0,
    "load": -0.46307304049265774
  },
  {
    "temp": 208.56544494628906,
    "speed": 0,
    "load": -0.463337603265745
  },
  {
    "temp": 208.57666015625,
    "speed": 0,
    "load": -0.4612651948765656
  },
  {
    "temp": 208.58258056640625,
    "speed": 0,
    "load": -0.46258800874199935
  },
  {
    "temp": 208.5775909423828,
    "speed": 0,
    "load": -0.45848728575915665
  },
  {
    "temp": 208.57359313964844,
    "speed": 0,
    "load": -0.46289666531060014
  },
  {
    "temp": 208.5703887939453,
    "speed": 0,
    "load": -0.46258800874199935
  },
  {
    "temp": 208.5678253173828,
    "speed": 0,
    "load": -0.4634257908567738
  },
  {
    "temp": 208.57693481445312,
    "speed": 0,
    "load": -0.4635139784478026
  },
  {
    "temp": 208.5730743408203,
    "speed": 0,
    "load": -0.4645281357446347
  },
  {
    "temp": 208.56997680664062,
    "speed": 0,
    "load": -0.4642194791760339
  },
  {
    "temp": 208.56552124023438,
    "speed": 0,
    "load": -0.46563048063249646
  },
  {
    "temp": 208.56393432617188,
    "speed": 0,
    "load": -0.46593913720109725
  },
  {
    "temp": 208.5626678466797,
    "speed": 0,
    "load": -0.46690920070241404
  },
  {
    "temp": 208.56166076660156,
    "speed": 0,
    "load": -0.46981939120636795
  },
  {
    "temp": 208.56019592285156,
    "speed": 0,
    "load": -0.4669973882934437
  },
  {
    "temp": 208.55967712402344,
    "speed": 0,
    "load": -0.46549819924595237
  },
  {
    "temp": 208.55926513671875,
    "speed": 0,
    "load": -0.4710099236852576
  },
  {
    "temp": 208.5586700439453,
    "speed": 0,
    "load": -0.4722445499596617
  },
  {
    "temp": 208.55845642089844,
    "speed": 0,
    "load": -0.4712744864583449
  },
  {
    "temp": 208.5581512451172,
    "speed": 0,
    "load": -0.4726854879148066
  },
  {
    "temp": 208.55804443359375,
    "speed": 0,
    "load": -0.4691138904781367
  },
  {
    "temp": 208.55795288085938,
    "speed": 0,
    "load": -0.4691579842736511
  },
  {
    "temp": 208.5706024169922,
    "speed": 0,
    "load": -0.4710981112762864
  },
  {
    "temp": 208.56800842285156,
    "speed": 0,
    "load": -0.47462561491744193
  },
  {
    "temp": 208.56593322753906,
    "speed": 0,
    "load": -0.46620369997418365
  },
  {
    "temp": 208.5629425048828,
    "speed": 0,
    "load": -0.4685406711364486
  },
  {
    "temp": 208.56187438964844,
    "speed": 0,
    "load": -0.4692461718646799
  },
  {
    "temp": 208.56033325195312,
    "speed": 0,
    "load": -0.4714949554359169
  },
  {
    "temp": 208.55978393554688,
    "speed": 0,
    "load": -0.4719799871865753
  },
  {
    "temp": 208.56922912597656,
    "speed": 0,
    "load": -0.4653218240638948
  },
  {
    "temp": 208.56690979003906,
    "speed": 0,
    "load": -0.46615960617866925
  },
  {
    "temp": 208.56504821777344,
    "speed": 0,
    "load": -0.46986348500188235
  },
  {
    "temp": 208.5635528564453,
    "speed": 0,
    "load": -0.4670414820889581
  },
  {
    "temp": 208.57420349121094,
    "speed": 0,
    "load": -0.4676147014306462
  },
  {
    "temp": 208.5708770751953,
    "speed": 0,
    "load": -0.46166203903619607
  },
  {
    "temp": 208.56822204589844,
    "speed": 0,
    "load": -0.4641312915850051
  },
  {
    "temp": 208.5644073486328,
    "speed": 0,
    "load": -0.4653218240638948
  },
  {
    "temp": 208.56304931640625,
    "speed": 0,
    "load": -0.4647486047222067
  },
  {
    "temp": 208.5619659423828,
    "speed": 0,
    "load": -0.4612651948765656
  },
  {
    "temp": 208.56109619140625,
    "speed": 0,
    "load": -0.45857547335018545
  },
  {
    "temp": 208.57261657714844,
    "speed": 0,
    "load": -0.46152975764965287
  },
  {
    "temp": 208.56961059570312,
    "speed": 0,
    "load": -0.46593913720109725
  },
  {
    "temp": 208.5672149658203,
    "speed": 0,
    "load": -0.46201478940031215
  },
  {
    "temp": 208.56529235839844,
    "speed": 0,
    "load": -0.45906050510084384
  },
  {
    "temp": 208.56251525878906,
    "speed": 0,
    "load": -0.46227935217339855
  },
  {
    "temp": 208.56153869628906,
    "speed": 0,
    "load": -0.46249982115097055
  },
  {
    "temp": 208.57034301757812,
    "speed": 0,
    "load": -0.46232344596891295
  },
  {
    "temp": 208.58058166503906,
    "speed": 0,
    "load": -0.46161794524068167
  },
  {
    "temp": 208.58877563476562,
    "speed": 0,
    "load": -0.46280847771957134
  },
  {
    "temp": 208.57754516601562,
    "speed": 0,
    "load": -0.46236753976442735
  },
  {
    "temp": 208.5735626220703,
    "speed": 0,
    "load": -0.46241163355994175
  },
  {
    "temp": 208.57037353515625,
    "speed": 0,
    "load": -0.4644399481536059
  },
  {
    "temp": 208.5887908935547,
    "speed": 0,
    "load": -0.46677691931587084
  },
  {
    "temp": 208.5953369140625,
    "speed": 0,
    "load": -0.46986348500188235
  },
  {
    "temp": 208.60057067871094,
    "speed": 0,
    "load": -0.4653659178594092
  },
  {
    "temp": 208.5953369140625,
    "speed": 0,
    "load": -0.46611551238315485
  },
  {
    "temp": 208.58778381347656,
    "speed": 0,
    "load": -0.4688934215005647
  },
  {
    "temp": 208.5817413330078,
    "speed": 0,
    "load": -0.46686510690689964
  },
  {
    "temp": 208.58584594726562,
    "speed": 0,
    "load": -0.4671737634755013
  },
  {
    "temp": 208.5802001953125,
    "speed": 0,
    "load": -0.4687611401140206
  },
  {
    "temp": 208.58847045898438,
    "speed": 0,
    "load": -0.4645722295401491
  },
  {
    "temp": 208.58229064941406,
    "speed": 0,
    "load": -0.4636462598343458
  },
  {
    "temp": 208.57339477539062,
    "speed": 0,
    "load": -0.46624779376969805
  },
  {
    "temp": 208.5702362060547,
    "speed": 0,
    "load": -0.4717154244134889
  },
  {
    "temp": 208.5677032470703,
    "speed": 0,
    "load": -0.4722445499596617
  },
  {
    "temp": 208.56407165527344,
    "speed": 0,
    "load": -0.4714949554359169
  },
  {
    "temp": 208.5755615234375,
    "speed": 0,
    "load": -0.4671296696799869
  },
  {
    "temp": 208.5847625732422,
    "speed": 0,
    "load": -0.46695329449792844
  },
  {
    "temp": 208.57498168945312,
    "speed": 0,
    "load": -0.47061307952562714
  },
  {
    "temp": 208.57150268554688,
    "speed": 0,
    "load": -0.4691579842736511
  },
  {
    "temp": 208.5687255859375,
    "speed": 0,
    "load": -0.46585094961006845
  },
  {
    "temp": 208.56471252441406,
    "speed": 0,
    "load": -0.4678792642037326
  },
  {
    "temp": 208.56329345703125,
    "speed": 0,
    "load": -0.4692902656601943
  },
  {
    "temp": 208.5612335205078,
    "speed": 0,
    "load": -0.47378783280266745
  },
  {
    "temp": 208.5732879638672,
    "speed": 0,
    "load": -0.4730823320744362
  },
  {
    "temp": 208.57786560058594,
    "speed": 0,
    "load": -0.46633598136072685
  },
  {
    "temp": 208.5738067626953,
    "speed": 0,
    "load": -0.4711862988673152
  },
  {
    "temp": 208.58335876464844,
    "speed": 0,
    "load": -0.4686288587274774
  },
  {
    "temp": 208.5909881591797,
    "speed": 0,
    "load": -0.4634698846522882
  },
  {
    "temp": 208.57896423339844,
    "speed": 0,
    "load": -0.4674383262485877
  },
  {
    "temp": 208.5874786376953,
    "speed": 0,
    "load": -0.46624779376969805
  },
  {
    "temp": 208.5942840576172,
    "speed": 0,
    "load": -0.47012804777496875
  },
  {
    "temp": 208.61431884765625,
    "speed": 0,
    "load": -0.4726854879148066
  },
  {
    "temp": 208.6029815673828,
    "speed": 0,
    "load": -0.4677469828171894
  },
  {
    "temp": 208.59390258789062,
    "speed": 0,
    "load": -0.47418467696229705
  },
  {
    "temp": 208.61663818359375,
    "speed": 0,
    "load": -0.4791231820599151
  },
  {
    "temp": 208.63040161132812,
    "speed": 0,
    "load": -0.47440514593986904
  },
  {
    "temp": 208.6144256591797,
    "speed": 0,
    "load": -0.47705077367073656
  },
  {
    "temp": 208.6158447265625,
    "speed": 0,
    "load": -0.47630117914699
  },
  {
    "temp": 208.6042022705078,
    "speed": 0,
    "load": -0.4805341835163768
  },
  {
    "temp": 208.61044311523438,
    "speed": 0,
    "load": -0.48926475502823585
  },
  {
    "temp": 208.6254425048828,
    "speed": 0,
    "load": -0.49579063676437407
  },
  {
    "temp": 208.6138153076172,
    "speed": 0,
    "load": -0.49676070026569086
  },
  {
    "temp": 208.6153564453125,
    "speed": 0,
    "load": -0.4955701677868012
  },
  {
    "temp": 208.61659240722656,
    "speed": 0,
    "load": -0.49327729042004975
  },
  {
    "temp": 208.6055908203125,
    "speed": 0,
    "load": -0.49336547801107944
  },
  {
    "temp": 208.60877990722656,
    "speed": 0,
    "load": -0.49728982581186454
  },
  {
    "temp": 208.59854125976562,
    "speed": 0,
    "load": -0.49728982581186454
  },
  {
    "temp": 208.59658813476562,
    "speed": 0,
    "load": -0.5019637681363953
  },
  {
    "temp": 208.5887908935547,
    "speed": 0,
    "load": -0.49658432508363326
  },
  {
    "temp": 208.5953369140625,
    "speed": 0,
    "load": -0.4955701677868012
  },
  {
    "temp": 208.5945281982422,
    "speed": 0,
    "load": -0.5013464549991928
  },
  {
    "temp": 208.58714294433594,
    "speed": 0,
    "load": -0.5022724247049961
  },
  {
    "temp": 208.58123779296875,
    "speed": 0,
    "load": -0.5042125517076315
  },
  {
    "temp": 208.57272338867188,
    "speed": 0,
    "load": -0.5017432991588233
  },
  {
    "temp": 208.5697021484375,
    "speed": 0,
    "load": -0.4989653900414126
  },
  {
    "temp": 208.58006286621094,
    "speed": 0,
    "load": -0.5045212082762323
  },
  {
    "temp": 208.5719757080078,
    "speed": 0,
    "load": -0.4979953265400958
  },
  {
    "temp": 208.56910705566406,
    "speed": 0,
    "load": -0.4992299528144999
  },
  {
    "temp": 208.56680297851562,
    "speed": 0,
    "load": -0.500244110111332
  },
  {
    "temp": 208.56349182128906,
    "speed": 0,
    "load": -0.498127607926639
  },
  {
    "temp": 208.56231689453125,
    "speed": 0,
    "load": -0.49689298165223406
  },
  {
    "temp": 208.56137084960938,
    "speed": 0,
    "load": -0.49984726595170237
  },
  {
    "temp": 208.5606231689453,
    "speed": 0,
    "load": -0.49587882435540287
  },
  {
    "temp": 208.5595245361328,
    "speed": 0,
    "load": -0.49728982581186454
  },
  {
    "temp": 208.55914306640625,
    "speed": 0,
    "load": -0.49962679697413037
  },
  {
    "temp": 208.558837890625,
    "speed": 0,
    "load": -0.5010818922261064
  },
  {
    "temp": 208.54815673828125,
    "speed": 0,
    "load": -0.5065495228698964
  },
  {
    "temp": 208.550048828125,
    "speed": 0,
    "load": -0.5043448330941747
  },
  {
    "temp": 208.5515594482422,
    "speed": 0,
    "load": -0.501258267408164
  },
  {
    "temp": 208.55276489257812,
    "speed": 0,
    "load": -0.5039038951390307
  },
  {
    "temp": 208.55372619628906,
    "speed": 0,
    "load": -0.5016551115677945
  },
  {
    "temp": 208.5653533935547,
    "speed": 0,
    "load": -0.49720163822083574
  },
  {
    "temp": 208.5637969970703,
    "speed": 0,
    "load": -0.5006409542709616
  },
  {
    "temp": 208.5615692138672,
    "speed": 0,
    "load": -0.5005968604754472
  },
  {
    "temp": 208.56077575683594,
    "speed": 0,
    "load": -0.49693707544774846
  },
  {
    "temp": 208.5601348876953,
    "speed": 0,
    "load": -0.49631976231054686
  },
  {
    "temp": 208.55921936035156,
    "speed": 0,
    "load": -0.49746620099392214
  },
  {
    "temp": 208.55889892578125,
    "speed": 0,
    "load": -0.49204266414564657
  },
  {
    "temp": 208.5586395263672,
    "speed": 0,
    "load": -0.4984803582907542
  },
  {
    "temp": 208.571044921875,
    "speed": 0,
    "load": -0.49733391960737894
  },
  {
    "temp": 208.568359375,
    "speed": 0,
    "load": -0.49609929333297487
  },
  {
    "temp": 208.5662078857422,
    "speed": 0,
    "load": -0.49579063676437407
  },
  {
    "temp": 208.5631103515625,
    "speed": 0,
    "load": -0.49340957180659384
  },
  {
    "temp": 208.56201171875,
    "speed": 0,
    "load": -0.49676070026569086
  },
  {
    "temp": 208.58343505859375,
    "speed": 0,
    "load": -0.49658432508363326
  },
  {
    "temp": 208.57826232910156,
    "speed": 0,
    "load": -0.4994063279965575
  },
  {
    "temp": 208.57412719726562,
    "speed": 0,
    "load": -0.49667251267466206
  },
  {
    "temp": 208.57081604003906,
    "speed": 0,
    "load": -0.49676070026569086
  },
  {
    "temp": 208.56605529785156,
    "speed": 0,
    "load": -0.49680479406120526
  },
  {
    "temp": 208.5771484375,
    "speed": 0,
    "load": -0.4916458199860161
  },
  {
    "temp": 208.5732421875,
    "speed": 0,
    "load": -0.49274816487387696
  },
  {
    "temp": 208.56761169433594,
    "speed": 0,
    "load": -0.4988331086548694
  },
  {
    "temp": 208.56561279296875,
    "speed": 0,
    "load": -0.4979953265400958
  },
  {
    "temp": 208.5640106201172,
    "speed": 0,
    "load": -0.49640794990157566
  },
  {
    "temp": 208.56170654296875,
    "speed": 0,
    "load": -0.4982598893131822
  },
  {
    "temp": 208.56088256835938,
    "speed": 0,
    "load": -0.5020078619319097
  },
  {
    "temp": 208.55970764160156,
    "speed": 0,
    "load": -0.5025810812735969
  },
  {
    "temp": 208.54647827148438,
    "speed": 0,
    "load": -0.5011259860216208
  },
  {
    "temp": 208.5487060546875,
    "speed": 0,
    "load": -0.49574654296885967
  },
  {
    "temp": 208.55191040039062,
    "speed": 0,
    "load": -0.49676070026569086
  },
  {
    "temp": 208.5530548095703,
    "speed": 0,
    "load": -0.4988331086548694
  },
  {
    "temp": 208.55397033691406,
    "speed": 0,
    "load": -0.5064613352788676
  },
  {
    "temp": 208.55528259277344,
    "speed": 0,
    "load": -0.5057558345506372
  },
  {
    "temp": 208.5685272216797,
    "speed": 0,
    "load": -0.506064491119238
  },
  {
    "temp": 208.56634521484375,
    "speed": 0,
    "load": -0.5100770265110519
  },
  {
    "temp": 208.5631866455078,
    "speed": 0,
    "load": -0.5054471779820364
  },
  {
    "temp": 208.57485961914062,
    "speed": 0,
    "load": -0.5022724247049961
  },
  {
    "temp": 208.5686492919922,
    "speed": 0,
    "load": -0.5004204852933896
  },
  {
    "temp": 208.56643676757812,
    "speed": 0,
    "load": -0.5061085849147524
  },
  {
    "temp": 208.56466674804688,
    "speed": 0,
    "load": -0.5042125517076315
  },
  {
    "temp": 208.56211853027344,
    "speed": 0,
    "load": -0.5050062400268915
  },
  {
    "temp": 208.56121826171875,
    "speed": 0,
    "load": -0.507078648416071
  },
  {
    "temp": 208.55992126464844,
    "speed": 0,
    "load": -0.5087101188501046
  },
  {
    "temp": 208.55946350097656,
    "speed": 0,
    "load": -0.5037716137524875
  },
  {
    "temp": 208.55909729003906,
    "speed": 0,
    "load": -0.5041243641166027
  },
  {
    "temp": 208.5585479736328,
    "speed": 0,
    "load": -0.50518261520895
  },
  {
    "temp": 208.55836486816406,
    "speed": 0,
    "load": -0.4984362644952398
  },
  {
    "temp": 208.55809020996094,
    "speed": 0,
    "load": -0.4992740466100143
  },
  {
    "temp": 208.55799865722656,
    "speed": 0,
    "load": -0.4993181404055287
  },
  {
    "temp": 208.57070922851562,
    "speed": 0,
    "load": -0.5018314867498521
  },
  {
    "temp": 208.56808471679688,
    "speed": 0,
    "load": -0.5017432991588233
  },
  {
    "temp": 208.56431579589844,
    "speed": 0,
    "load": -0.4989212962458982
  },
  {
    "temp": 208.56297302246094,
    "speed": 0,
    "load": -0.49671660647017646
  },
  {
    "temp": 208.56190490722656,
    "speed": 0,
    "load": -0.49676070026569086
  },
  {
    "temp": 208.56105041503906,
    "speed": 0,
    "load": -0.5038157075480019
  },
  {
    "temp": 208.559814453125,
    "speed": 0,
    "load": -0.500685048066476
  },
  {
    "temp": 208.57215881347656,
    "speed": 0,
    "load": -0.49997954733824557
  },
  {
    "temp": 208.56924438476562,
    "speed": 0,
    "load": -0.49733391960737894
  },
  {
    "temp": 208.59829711914062,
    "speed": 0,
    "load": -0.4993622342010431
  },
  {
    "temp": 208.5901641845703,
    "speed": 0,
    "load": -0.4945119166944547
  },
  {
    "temp": 208.5784454345703,
    "speed": 0,
    "load": -0.4993181404055287
  },
  {
    "temp": 208.57427978515625,
    "speed": 0,
    "load": -0.49614338712848927
  },
  {
    "temp": 208.57093811035156,
    "speed": 0,
    "load": -0.49371822837519463
  },
  {
    "temp": 208.56613159179688,
    "speed": 0,
    "load": -0.49358594698865144
  },
  {
    "temp": 208.56442260742188,
    "speed": 0,
    "load": -0.5005968604754472
  },
  {
    "temp": 208.5619659423828,
    "speed": 0,
    "load": -0.5024487998870537
  },
  {
    "temp": 208.56109619140625,
    "speed": 0,
    "load": -0.5009055170440488
  },
  {
    "temp": 208.56039428710938,
    "speed": 0,
    "load": -0.4993181404055287
  },
  {
    "temp": 208.55982971191406,
    "speed": 0,
    "load": -0.5022283309094817
  },
  {
    "temp": 208.5692596435547,
    "speed": 0,
    "load": -0.4989212962458982
  },
  {
    "temp": 208.56692504882812,
    "speed": 0,
    "load": -0.5036393323659443
  },
  {
    "temp": 208.5650634765625,
    "speed": 0,
    "load": -0.5061967725057812
  },
  {
    "temp": 208.5623779296875,
    "speed": 0,
    "load": -0.5061526787102668
  },
  {
    "temp": 208.56141662597656,
    "speed": 0,
    "load": -0.5053148965954932
  },
  {
    "temp": 208.56065368652344,
    "speed": 0,
    "load": -0.5043007392986603
  },
  {
    "temp": 208.56004333496094,
    "speed": 0,
    "load": -0.5067699918474693
  },
  {
    "temp": 208.5591583251953,
    "speed": 0,
    "load": -0.5018314867498521
  },
  {
    "temp": 208.55885314941406,
    "speed": 0,
    "load": -0.5031102068197706
  },
  {
    "temp": 208.55841064453125,
    "speed": 0,
    "load": -0.5015228301812513
  },
  {
    "temp": 208.55824279785156,
    "speed": 0,
    "load": -0.4988331086548694
  },
  {
    "temp": 208.55812072753906,
    "speed": 0,
    "load": -0.502933831637713
  },
  {
    "temp": 208.58094787597656,
    "speed": 0,
    "load": -0.50518261520895
  },
  {
    "temp": 208.57627868652344,
    "speed": 0,
    "load": -0.5065936166654117
  },
  {
    "temp": 208.57254028320312,
    "speed": 0,
    "load": -0.5072109298026142
  },
  {
    "temp": 208.58233642578125,
    "speed": 0,
    "load": -0.5046093958672611
  },
  {
    "temp": 208.60923767089844,
    "speed": 0,
    "load": -0.4981717017221534
  },
  {
    "temp": 208.59890747070312,
    "speed": 0,
    "load": -0.4977307637670094
  },
  {
    "temp": 208.5906524658203,
    "speed": 0,
    "load": -0.5034629571838867
  },
  {
    "temp": 208.59153747558594,
    "speed": 0,
    "load": -0.503154300615285
  },
  {
    "temp": 208.58474731445312,
    "speed": 0,
    "load": -0.5032424882063138
  },
  {
    "temp": 208.57496643066406,
    "speed": 0,
    "load": -0.4983039831086966
  },
  {
    "temp": 208.5714874267578,
    "speed": 0,
    "load": -0.5023165185005105
  },
  {
    "temp": 208.56871032714844,
    "speed": 0,
    "load": -0.5022724247049961
  },
  {
    "temp": 208.57749938964844,
    "speed": 0,
    "load": -0.5016551115677945
  },
  {
    "temp": 208.57351684570312,
    "speed": 0,
    "load": -0.4982157955176678
  },
  {
    "temp": 208.58824157714844,
    "speed": 0,
    "load": -0.49984726595170237
  },
  {
    "temp": 208.5948944091797,
    "speed": 0,
    "load": -0.50002364113376
  },
  {
    "temp": 208.6002197265625,
    "speed": 0,
    "load": -0.4981717017221534
  },
  {
    "temp": 208.60447692871094,
    "speed": 0,
    "load": -0.5041684579121171
  },
  {
    "temp": 208.6003875732422,
    "speed": 0,
    "load": -0.5064613352788676
  },
  {
    "temp": 208.59182739257812,
    "speed": 0,
    "load": -0.5050503338224059
  },
  {
    "temp": 208.60252380371094,
    "speed": 0,
    "load": -0.5039038951390307
  },
  {
    "temp": 208.6319122314453,
    "speed": 0,
    "load": -0.5084455560770174
  },
  {
    "temp": 208.6298370361328,
    "speed": 0,
    "load": -0.5086219312590758
  },
  {
    "temp": 208.6166229248047,
    "speed": 0,
    "load": -0.5077841491443014
  },
  {
    "temp": 208.6175994873047,
    "speed": 0,
    "load": -0.5084455560770174
  },
  {
    "temp": 208.60560607910156,
    "speed": 0,
    "load": -0.5084896498725326
  },
  {
    "temp": 208.62158203125,
    "speed": 0,
    "load": -0.5055353655730652
  },
  {
    "temp": 208.59854125976562,
    "speed": 0,
    "load": -0.5126785604464041
  },
  {
    "temp": 208.59034729003906,
    "speed": 0,
    "load": -0.5126785604464041
  },
  {
    "temp": 208.58380126953125,
    "speed": 0,
    "load": -0.5064613352788676
  },
  {
    "temp": 208.58460998535156,
    "speed": 0,
    "load": -0.5027574564556545
  },
  {
    "temp": 208.57920837402344,
    "speed": 0,
    "load": -0.5035070509794011
  },
  {
    "temp": 208.59445190429688,
    "speed": 0,
    "load": -0.5044330206852035
  },
  {
    "temp": 208.59986877441406,
    "speed": 0,
    "load": -0.5085778374635614
  },
  {
    "temp": 208.59141540527344,
    "speed": 0,
    "load": -0.5085778374635614
  },
  {
    "temp": 208.58465576171875,
    "speed": 0,
    "load": -0.5033306757973435
  },
  {
    "temp": 208.60047912597656,
    "speed": 0,
    "load": -0.5079164305308446
  },
  {
    "temp": 208.6046905517578,
    "speed": 0,
    "load": -0.5100329327155375
  },
  {
    "temp": 208.59527587890625,
    "speed": 0,
    "load": -0.508533743668047
  },
  {
    "temp": 208.58773803710938,
    "speed": 0,
    "load": -0.5033747695928579
  },
  {
    "temp": 208.57688903808594,
    "speed": 0,
    "load": -0.5009496108395632
  },
  {
    "temp": 208.57302856445312,
    "speed": 0,
    "load": -0.5045653020717467
  },
  {
    "temp": 208.5699462890625,
    "speed": 0,
    "load": -0.5042566455031459
  },
  {
    "temp": 208.56747436523438,
    "speed": 0,
    "load": -0.5049621462313771
  },
  {
    "temp": 208.5639190673828,
    "speed": 0,
    "load": -0.507519586371215
  },
  {
    "temp": 208.56265258789062,
    "speed": 0,
    "load": -0.5093274319873071
  },
  {
    "temp": 208.5616455078125,
    "speed": 0,
    "load": -0.5045653020717467
  },
  {
    "temp": 208.56019592285156,
    "speed": 0,
    "load": -0.5026692688646257
  },
  {
    "temp": 208.55967712402344,
    "speed": 0,
    "load": -0.5049180524358627
  },
  {
    "temp": 208.55926513671875,
    "speed": 0,
    "load": -0.5054912717775508
  },
  {
    "temp": 208.55892944335938,
    "speed": 0,
    "load": -0.5061526787102668
  },
  {
    "temp": 208.5586700439453,
    "speed": 0,
    "load": -0.5051385214134347
  },
  {
    "temp": 208.55828857421875,
    "speed": 0,
    "load": -0.5048739586403483
  },
  {
    "temp": 208.5581512451172,
    "speed": 0,
    "load": -0.5040361765255739
  },
  {
    "temp": 208.55804443359375,
    "speed": 0,
    "load": -0.5016110177722801
  },
  {
    "temp": 208.55787658691406,
    "speed": 0,
    "load": -0.5059322097326948
  },
  {
    "temp": 208.5578155517578,
    "speed": 0,
    "load": -0.5018314867498521
  },
  {
    "temp": 208.55776977539062,
    "speed": 0,
    "load": -0.5052708027999788
  },
  {
    "temp": 208.55770874023438,
    "speed": 0,
    "load": -0.506505429074382
  },
  {
    "temp": 208.5576934814453,
    "speed": 0,
    "load": -0.5066818042564405
  },
  {
    "temp": 208.55767822265625,
    "speed": 0,
    "load": -0.5064613352788676
  },
  {
    "temp": 208.55764770507812,
    "speed": 0,
    "load": -0.5044771144807179
  },
  {
    "temp": 208.55763244628906,
    "speed": 0,
    "load": -0.5048298648448339
  },
  {
    "temp": 208.54737854003906,
    "speed": 0,
    "load": -0.5074754925757006
  },
  {
    "temp": 208.54942321777344,
    "speed": 0,
    "load": -0.5023165185005105
  },
  {
    "temp": 208.5523681640625,
    "speed": 0,
    "load": -0.5059763035282092
  },
  {
    "temp": 208.5534210205078,
    "speed": 0,
    "load": -0.5073873049846718
  },
  {
    "temp": 208.5414581298828,
    "speed": 0,
    "load": -0.50628496009681
  },
  {
    "temp": 208.54469299316406,
    "speed": 0,
    "load": -0.5059322097326948
  },
  {
    "temp": 208.56211853027344,
    "speed": 0,
    "load": -0.5053589903910076
  },
  {
    "temp": 208.56121826171875,
    "speed": 0,
    "load": -0.5093715257828215
  },
  {
    "temp": 208.55992126464844,
    "speed": 0,
    "load": -0.5165588144516757
  },
  {
    "temp": 208.55946350097656,
    "speed": 0,
    "load": -0.5099888389200231
  },
  {
    "temp": 208.55909729003906,
    "speed": 0,
    "load": -0.5155887509503572
  },
  {
    "temp": 208.5713348388672,
    "speed": 0,
    "load": -0.5146186874490404
  },
  {
    "temp": 208.56858825683594,
    "speed": 0,
    "load": -0.5090187754187063
  },
  {
    "temp": 208.56639099121094,
    "speed": 0,
    "load": -0.5059322097326948
  },
  {
    "temp": 208.563232421875,
    "speed": 0,
    "load": -0.5052708027999788
  },
  {
    "temp": 208.56210327148438,
    "speed": 0,
    "load": -0.5095919947603935
  },
  {
    "temp": 208.56048583984375,
    "speed": 0,
    "load": -0.5083573684859886
  },
  {
    "temp": 208.55990600585938,
    "speed": 0,
    "load": -0.5085778374635614
  },
  {
    "temp": 208.5594482421875,
    "speed": 0,
    "load": -0.5091069630097351
  },
  {
    "temp": 208.55908203125,
    "speed": 0,
    "load": -0.5073873049846718
  },
  {
    "temp": 208.5585479736328,
    "speed": 0,
    "load": -0.5061526787102668
  },
  {
    "temp": 208.57115173339844,
    "speed": 0,
    "load": -0.5147509688355836
  },
  {
    "temp": 208.5684356689453,
    "speed": 0,
    "load": -0.5106943396482544
  },
  {
    "temp": 208.5645294189453,
    "speed": 0,
    "load": -0.5081368995084166
  },
  {
    "temp": 208.56314086914062,
    "speed": 0,
    "load": -0.5158533137234436
  },
  {
    "temp": 208.5841522216797,
    "speed": 0,
    "load": -0.5172643151799061
  },
  {
    "temp": 208.57884216308594,
    "speed": 0,
    "load": -0.5128108418329482
  },
  {
    "temp": 208.57460021972656,
    "speed": 0,
    "load": -0.5119730597181729
  },
  {
    "temp": 208.5684814453125,
    "speed": 0,
    "load": -0.5171761275888773
  },
  {
    "temp": 208.56629943847656,
    "speed": 0,
    "load": -0.5132958735836066
  },
  {
    "temp": 208.56455993652344,
    "speed": 0,
    "load": -0.5132517797880922
  },
  {
    "temp": 208.56317138671875,
    "speed": 0,
    "load": -0.5106943396482544
  },
  {
    "temp": 208.57395935058594,
    "speed": 0,
    "load": -0.5109148086258273
  },
  {
    "temp": 208.58348083496094,
    "speed": 0,
    "load": -0.5149273440176412
  },
  {
    "temp": 208.5741729736328,
    "speed": 0,
    "load": -0.5110470900123705
  },
  {
    "temp": 208.58364868164062,
    "speed": 0,
    "load": -0.5083132746904742
  },
  {
    "temp": 208.5784454345703,
    "speed": 0,
    "load": -0.5118407783316297
  },
  {
    "temp": 208.58372497558594,
    "speed": 0,
    "load": -0.513780905334265
  },
  {
    "temp": 208.5973358154297,
    "speed": 0,
    "load": -0.5155887509503572
  },
  {
    "temp": 208.58938598632812,
    "speed": 0,
    "load": -0.5169997524068197
  },
  {
    "temp": 208.6085968017578,
    "speed": 0,
    "load": -0.5107384334437688
  },
  {
    "temp": 208.6234893798828,
    "speed": 0,
    "load": -0.5120612473092017
  },
  {
    "temp": 208.63587951660156,
    "speed": 0,
    "load": -0.5092833381917927
  },
  {
    "temp": 208.6457977294922,
    "speed": 0,
    "load": -0.5133840611746354
  },
  {
    "temp": 208.63961791992188,
    "speed": 0,
    "load": -0.5159415013144724
  },
  {
    "temp": 208.63600158691406,
    "speed": 0,
    "load": -0.5156328447458716
  },
  {
    "temp": 208.6331024169922,
    "speed": 0,
    "load": -0.5196894739331999
  },
  {
    "temp": 208.6563720703125,
    "speed": 0,
    "load": -0.5167351896337333
  },
  {
    "temp": 208.66683959960938,
    "speed": 0,
    "load": -0.5166470020427045
  },
  {
    "temp": 208.65777587890625,
    "speed": 0,
    "load": -0.5151478129952132
  },
  {
    "temp": 208.62171936035156,
    "speed": 0,
    "load": -0.51501553160867
  },
  {
    "temp": 208.62168884277344,
    "speed": 0,
    "load": -0.5108266210347985
  },
  {
    "temp": 208.6216583251953,
    "speed": 0,
    "load": -0.5091069630097351
  },
  {
    "temp": 208.60882568359375,
    "speed": 0,
    "load": -0.5097242761469367
  },
  {
    "temp": 208.5985870361328,
    "speed": 0,
    "load": -0.5107384334437688
  },
  {
    "temp": 208.59039306640625,
    "speed": 0,
    "load": -0.5195130987511423
  },
  {
    "temp": 208.61439514160156,
    "speed": 0,
    "load": -0.5181020972946806
  },
  {
    "temp": 208.60304260253906,
    "speed": 0,
    "load": -0.5194690049556279
  },
  {
    "temp": 208.6096954345703,
    "speed": 0,
    "load": -0.5167351896337333
  },
  {
    "temp": 208.62484741210938,
    "speed": 0,
    "load": -0.5154123757682996
  },
  {
    "temp": 208.6114044189453,
    "speed": 0,
    "load": -0.5149714378131556
  },
  {
    "temp": 208.60226440429688,
    "speed": 0,
    "load": -0.5169556586113053
  },
  {
    "temp": 208.61891174316406,
    "speed": 0,
    "load": -0.5204390684569464
  },
  {
    "temp": 208.63221740722656,
    "speed": 0,
    "load": -0.520394974661432
  },
  {
    "temp": 208.6300811767578,
    "speed": 0,
    "load": -0.5195571925466567
  },
  {
    "temp": 208.6269989013672,
    "speed": 0,
    "load": -0.5221587264820098
  },
  {
    "temp": 208.6131134033203,
    "speed": 0,
    "load": -0.5143982184714675
  },
  {
    "temp": 208.62757873535156,
    "speed": 0,
    "load": -0.514574593653526
  },
  {
    "temp": 208.6126251220703,
    "speed": 0,
    "load": -0.5172202213843917
  },
  {
    "temp": 208.61441040039062,
    "speed": 0,
    "load": -0.522291007868553
  },
  {
    "temp": 208.60304260253906,
    "speed": 0,
    "load": -0.5227760396192114
  },
  {
    "temp": 208.6096954345703,
    "speed": 0,
    "load": -0.5196453801376855
  },
  {
    "temp": 208.612060546875,
    "speed": 0,
    "load": -0.520394974661432
  },
  {
    "temp": 208.61395263671875,
    "speed": 0,
    "load": -0.523966572098101
  },
  {
    "temp": 208.59365844726562,
    "speed": 0,
    "load": -0.5243193224622171
  },
  {
    "temp": 208.5934600830078,
    "speed": 0,
    "load": -0.525862605305222
  },
  {
    "temp": 208.58628845214844,
    "speed": 0,
    "load": -0.5301397034701232
  },
  {
    "temp": 208.58055114746094,
    "speed": 0,
    "load": -0.5312861421534985
  },
  {
    "temp": 208.59274291992188,
    "speed": 0,
    "load": -0.5285082330360886
  },
  {
    "temp": 208.59849548339844,
    "speed": 0,
    "load": -0.5312861421534985
  },
  {
    "temp": 208.59031677246094,
    "speed": 0,
    "load": -0.5327412374054745
  },
  {
    "temp": 208.58876037597656,
    "speed": 0,
    "load": -0.5286405144226318
  },
  {
    "temp": 208.6081085205078,
    "speed": 0,
    "load": -0.5321680180637873
  },
  {
    "temp": 208.59800720214844,
    "speed": 0,
    "load": -0.5314184235400417
  },
  {
    "temp": 208.5834503173828,
    "speed": 0,
    "load": -0.5329617063830474
  },
  {
    "temp": 208.57827758789062,
    "speed": 0,
    "load": -0.5338876760888507
  },
  {
    "temp": 208.57083129882812,
    "speed": 0,
    "load": -0.5343286140439947
  },
  {
    "temp": 208.5681915283203,
    "speed": 0,
    "load": -0.5390907439595551
  },
  {
    "temp": 208.56607055664062,
    "speed": 0,
    "load": -0.5375474611165494
  },
  {
    "temp": 208.57716369628906,
    "speed": 0,
    "load": -0.5340640512709083
  },
  {
    "temp": 208.57012939453125,
    "speed": 0,
    "load": -0.5435883111020274
  },
  {
    "temp": 208.59320068359375,
    "speed": 0,
    "load": -0.5387379935954391
  },
  {
    "temp": 208.59060668945312,
    "speed": 0,
    "load": -0.5462780326284085
  },
  {
    "temp": 208.58399963378906,
    "speed": 0,
    "load": -0.5404135578249871
  },
  {
    "temp": 208.5915069580078,
    "speed": 0,
    "load": -0.5359600844780292
  },
  {
    "temp": 208.60487365722656,
    "speed": 0,
    "load": -0.5394875881191847
  },
  {
    "temp": 208.5954132080078,
    "speed": 0,
    "load": -0.5408104019846176
  },
  {
    "temp": 208.59458923339844,
    "speed": 0,
    "load": -0.5382970556402942
  },
  {
    "temp": 208.58718872070312,
    "speed": 0,
    "load": -0.5371065231614045
  },
  {
    "temp": 208.58126831054688,
    "speed": 0,
    "load": -0.5408985895756464
  },
  {
    "temp": 208.58932495117188,
    "speed": 0,
    "load": -0.5404135578249871
  },
  {
    "temp": 208.59835815429688,
    "speed": 0,
    "load": -0.5435001235109986
  },
  {
    "temp": 208.5902099609375,
    "speed": 0,
    "load": -0.5414277151218201
  },
  {
    "temp": 208.6014862060547,
    "speed": 0,
    "load": -0.5400608074608719
  },
  {
    "temp": 208.60549926757812,
    "speed": 0,
    "load": -0.54499931255849
  },
  {
    "temp": 208.59591674804688,
    "speed": 0,
    "load": -0.5423536848276225
  },
  {
    "temp": 208.6025848388672,
    "speed": 0,
    "load": -0.5454843443091484
  },
  {
    "temp": 208.5935821533203,
    "speed": 0,
    "load": -0.5426182476007098
  },
  {
    "temp": 208.5991668701172,
    "speed": 0,
    "load": -0.544205624239229
  },
  {
    "temp": 208.59698486328125,
    "speed": 0,
    "load": -0.5453520629226052
  },
  {
    "temp": 208.589111328125,
    "speed": 0,
    "load": -0.5421773096455649
  },
  {
    "temp": 208.5982208251953,
    "speed": 0,
    "load": -0.5433678421244554
  },
  {
    "temp": 208.59010314941406,
    "speed": 0,
    "load": -0.5486590975861887
  },
  {
    "temp": 208.62197875976562,
    "speed": 0,
    "load": -0.5491441293368471
  },
  {
    "temp": 208.5988006591797,
    "speed": 0,
    "load": -0.5492764107233903
  },
  {
    "temp": 208.6161346435547,
    "speed": 0,
    "load": -0.5491441293368471
  },
  {
    "temp": 208.64109802246094,
    "speed": 0,
    "load": -0.5446465621943739
  },
  {
    "temp": 208.63719177246094,
    "speed": 0,
    "load": -0.5492764107233903
  },
  {
    "temp": 208.63406372070312,
    "speed": 0,
    "load": -0.5526275391824882
  },
  {
    "temp": 208.6269989013672,
    "speed": 0,
    "load": -0.5539062592524067
  },
  {
    "temp": 208.6259002685547,
    "speed": 0,
    "load": -0.5500700990426504
  },
  {
    "temp": 208.62503051757812,
    "speed": 0,
    "load": -0.5437205924885706
  },
  {
    "temp": 208.62432861328125,
    "speed": 0,
    "load": -0.5434119359199698
  },
  {
    "temp": 208.6002960205078,
    "speed": 0,
    "load": -0.5495850672919911
  },
  {
    "temp": 208.5917510986328,
    "speed": 0,
    "load": -0.5452638753315764
  },
  {
    "temp": 208.5849151611328,
    "speed": 0,
    "load": -0.545440250513634
  },
  {
    "temp": 208.58787536621094,
    "speed": 0,
    "load": -0.5468512519700965
  },
  {
    "temp": 208.58181762695312,
    "speed": 0,
    "load": -0.5506433183843384
  },
  {
    "temp": 208.60255432128906,
    "speed": 0,
    "load": -0.5478213154714133
  },
  {
    "temp": 208.59356689453125,
    "speed": 0,
    "load": -0.5495409734964767
  },
  {
    "temp": 208.58062744140625,
    "speed": 0,
    "load": -0.5517456632721984
  },
  {
    "temp": 208.58880615234375,
    "speed": 0,
    "load": -0.551040162543968
  },
  {
    "temp": 208.6005859375,
    "speed": 0,
    "load": -0.5515692880901408
  },
  {
    "temp": 208.5919952392578,
    "speed": 0,
    "load": -0.5512165377260256
  },
  {
    "temp": 208.58984375,
    "speed": 0,
    "load": -0.5555818234819556
  },
  {
    "temp": 208.59617614746094,
    "speed": 0,
    "load": -0.5516133818856552
  },
  {
    "temp": 208.6012420654297,
    "speed": 0,
    "load": -0.5550526979357819
  },
  {
    "temp": 208.5855255126953,
    "speed": 0,
    "load": -0.5543031034120371
  },
  {
    "temp": 208.5927276611328,
    "speed": 0,
    "load": -0.5556700110729844
  },
  {
    "temp": 208.58570861816406,
    "speed": 0,
    "load": -0.5539062592524067
  },
  {
    "temp": 208.58009338378906,
    "speed": 0,
    "load": -0.5545235723896091
  },
  {
    "temp": 208.5822296142578,
    "speed": 0,
    "load": -0.5565518869832733
  },
  {
    "temp": 208.590087890625,
    "speed": 0,
    "load": -0.5502905680202224
  },
  {
    "temp": 208.58358764648438,
    "speed": 0,
    "load": -0.555846386255042
  },
  {
    "temp": 208.57423400878906,
    "speed": 0,
    "load": -0.5599912030334
  },
  {
    "temp": 208.57090759277344,
    "speed": 0,
    "load": -0.5579187946442206
  },
  {
    "temp": 208.56825256347656,
    "speed": 0,
    "load": -0.5583597325993654
  },
  {
    "temp": 208.5661163330078,
    "speed": 0,
    "load": -0.5554495420954115
  },
  {
    "temp": 208.56304931640625,
    "speed": 0,
    "load": -0.5596384526692839
  },
  {
    "temp": 208.5619659423828,
    "speed": 0,
    "load": -0.5651501771085892
  },
  {
    "temp": 208.56039428710938,
    "speed": 0,
    "load": -0.5635187066745546
  },
  {
    "temp": 208.55982971191406,
    "speed": 0,
    "load": -0.558536107781423
  },
  {
    "temp": 208.55938720703125,
    "speed": 0,
    "load": -0.5654147398816756
  },
  {
    "temp": 208.55874633789062,
    "speed": 0,
    "load": -0.5643564887893291
  },
  {
    "temp": 208.5585174560547,
    "speed": 0,
    "load": -0.5603439533975152
  },
  {
    "temp": 208.55833435058594,
    "speed": 0,
    "load": -0.5634305190835258
  },
  {
    "temp": 208.5581817626953,
    "speed": 0,
    "load": -0.5670021165201957
  },
  {
    "temp": 208.55796813964844,
    "speed": 0,
    "load": -0.5590652333275958
  },
  {
    "temp": 208.58346557617188,
    "speed": 0,
    "load": -0.5598589216468568
  },
  {
    "temp": 208.57415771484375,
    "speed": 0,
    "load": -0.559197514714139
  },
  {
    "temp": 208.5708465576172,
    "speed": 0,
    "load": -0.5629895811283809
  },
  {
    "temp": 208.5681915283203,
    "speed": 0,
    "load": -0.566472990974022
  },
  {
    "temp": 208.5643768310547,
    "speed": 0,
    "load": -0.5644005825848435
  },
  {
    "temp": 208.56301879882812,
    "speed": 0,
    "load": -0.5637832694476419
  },
  {
    "temp": 208.5619354248047,
    "speed": 0,
    "load": -0.5641801136072715
  },
  {
    "temp": 208.5603790283203,
    "speed": 0,
    "load": -0.5610494541257456
  },
  {
    "temp": 208.57261657714844,
    "speed": 0,
    "load": -0.5632982376969826
  },
  {
    "temp": 208.5800018310547,
    "speed": 0,
    "load": -0.5625927369687513
  },
  {
    "temp": 208.5755157470703,
    "speed": 0,
    "load": -0.5628572997418377
  },
  {
    "temp": 208.584716796875,
    "speed": 0,
    "load": -0.5671784917022533
  },
  {
    "temp": 208.58518981933594,
    "speed": 0,
    "load": -0.5662084282009356
  },
  {
    "temp": 208.5796661376953,
    "speed": 0,
    "load": -0.5662084282009356
  },
  {
    "temp": 208.57525634765625,
    "speed": 0,
    "load": -0.5688540559318023
  },
  {
    "temp": 208.57913208007812,
    "speed": 0,
    "load": -0.5686335869542294
  },
  {
    "temp": 208.5748291015625,
    "speed": 0,
    "load": -0.5691627125004031
  },
  {
    "temp": 208.58140563964844,
    "speed": 0,
    "load": -0.5699123070241487
  },
  {
    "temp": 208.5894317626953,
    "speed": 0,
    "load": -0.568589493158715
  },
  {
    "temp": 208.58306884765625,
    "speed": 0,
    "load": -0.5680162738170278
  },
  {
    "temp": 208.60714721679688,
    "speed": 0,
    "load": -0.5637832694476419
  },
  {
    "temp": 208.6100311279297,
    "speed": 0,
    "load": -0.5684572117721718
  },
  {
    "temp": 208.6141815185547,
    "speed": 0,
    "load": -0.5672225854977677
  },
  {
    "temp": 208.6156463623047,
    "speed": 0,
    "load": -0.5683249303856286
  },
  {
    "temp": 208.6168212890625,
    "speed": 0,
    "load": -0.5662084282009356
  },
  {
    "temp": 208.615966796875,
    "speed": 0,
    "load": -0.5661202406099068
  },
  {
    "temp": 208.61708068847656,
    "speed": 0,
    "load": -0.5682367427945998
  },
  {
    "temp": 208.61868286132812,
    "speed": 0,
    "load": -0.5656793026547629
  },
  {
    "temp": 208.60646057128906,
    "speed": 0,
    "load": -0.5664288971785076
  },
  {
    "temp": 208.6118927001953,
    "speed": 0,
    "load": -0.5625486431732369
  },
  {
    "temp": 208.62660217285156,
    "speed": 0,
    "load": -0.566032053018878
  },
  {
    "temp": 208.65118408203125,
    "speed": 0,
    "load": -0.5711028395030384
  },
  {
    "temp": 208.62771606445312,
    "speed": 0,
    "load": -0.5726461223460442
  },
  {
    "temp": 208.62648010253906,
    "speed": 0,
    "load": -0.5722933719819281
  },
  {
    "temp": 208.62548828125,
    "speed": 0,
    "load": -0.5718965278222985
  },
  {
    "temp": 208.62469482421875,
    "speed": 0,
    "load": -0.5712792146850969
  },
  {
    "temp": 208.6133270263672,
    "speed": 0,
    "load": -0.5684572117721718
  },
  {
    "temp": 208.60218811035156,
    "speed": 0,
    "load": -0.5712351208895825
  },
  {
    "temp": 208.6188507080078,
    "speed": 0,
    "load": -0.5684131179766574
  },
  {
    "temp": 208.60958862304688,
    "speed": 0,
    "load": -0.5722492781864137
  },
  {
    "temp": 208.5991973876953,
    "speed": 0,
    "load": -0.5731311540967035
  },
  {
    "temp": 208.62925720214844,
    "speed": 0,
    "load": -0.5765704701468293
  },
  {
    "temp": 208.63926696777344,
    "speed": 0,
    "load": -0.5776287212391757
  },
  {
    "temp": 208.63572692871094,
    "speed": 0,
    "load": -0.5765263763513149
  },
  {
    "temp": 208.62010192871094,
    "speed": 0,
    "load": -0.573087060301189
  }
]