[
  {
    "temp": 198.65252685546875,
    "speed": 0,
    "load": 0.0021165021846929477
  },
  {
    "temp": 198.64349365234375,
    "speed": 0,
    "load": 0.0009259697058023875
  },
  {
    "temp": 198.64649963378906,
    "speed": 0,
    "load": 0.0025133463443243187
  },
  {
    "temp": 198.63446044921875,
    "speed": 0,
    "load": 0.0008818759102897644
  },
  {
    "temp": 198.64952087402344,
    "speed": 0,
    "load": 0.0012346262744049596
  },
  {
    "temp": 198.65277099609375,
    "speed": 0,
    "load": 0.0026015339353531175
  },
  {
    "temp": 198.6539306640625,
    "speed": 0,
    "load": 0.0030424718904971115
  },
  {
    "temp": 198.65484619140625,
    "speed": 0,
    "load": -0.0014550952519751803
  },
  {
    "temp": 198.65557861328125,
    "speed": 1.2487512826919556,
    "load": 0.0027338153218945394
  },
  {
    "temp": 198.65664672851562,
    "speed": 1.2487512826919556,
    "load": 0.04920867579411592
  },
  {
    "temp": 198.6570281982422,
    "speed": 1.249375343322754,
    "load": 2.3752445767719053
  },
  {
    "temp": 198.6470947265625,
    "speed": 1.2487512826919556,
    "load": 4.2744084433743925
  },
  {
    "temp": 198.63278198242188,
    "speed": 1.2487512826919556,
    "load": 6.179657253757869
  },
  {
    "temp": 198.637939453125,
    "speed": 1.2487512826919556,
    "load": 5.589770457365679
  },
  {
    "temp": 198.64535522460938,
    "speed": 1.2487512826919556,
    "load": 3.601228467255421
  },
  {
    "temp": 198.6479949951172,
    "speed": 1.2487512826919556,
    "load": 3.054024464921209
  },
  {
    "temp": 198.63986206054688,
    "speed": 1.249375343322754,
    "load": 2.6274169933189935
  },
  {
    "temp": 198.63336181640625,
    "speed": 1.2487512826919556,
    "load": 2.3199950509923095
  },
  {
    "temp": 198.64242553710938,
    "speed": 1.249375343322754,
    "load": 2.0802129909847817
  },
  {
    "temp": 198.63540649414062,
    "speed": 1.2487512826919556,
    "load": 2.1002756679438512
  },
  {
    "temp": 198.64002990722656,
    "speed": 1.2487512826919556,
    "load": 2.0828586187156475
  },
  {
    "temp": 198.64669799804688,
    "speed": 1.2487512826919556,
    "load": 1.9635849018490834
  },
  {
    "temp": 198.63882446289062,
    "speed": 1.249375343322754,
    "load": 1.896650520258163
  },
  {
    "temp": 198.64276123046875,
    "speed": 1.2487512826919556,
    "load": 1.8235871010907356
  },
  {
    "temp": 198.6484375,
    "speed": 1.2487512826919556,
    "load": 1.7038724462690276
  },
  {
    "temp": 198.6402130126953,
    "speed": 1.249375343322754,
    "load": 1.6539582697466795
  },
  {
    "temp": 198.63656616210938,
    "speed": 1.249375343322754,
    "load": 1.5443851878932957
  },
  {
    "temp": 198.64096069335938,
    "speed": 1.2487512826919556,
    "load": 1.5696509327230697
  },
  {
    "temp": 198.62399291992188,
    "speed": 1.2487512826919556,
    "load": 1.773143799022213
  },
  {
    "temp": 198.6309051513672,
    "speed": 1.2487512826919556,
    "load": 1.9665832799440661
  },
  {
    "temp": 198.630615234375,
    "speed": 1.249375343322754,
    "load": 2.1916821060452865
  },
  {
    "temp": 198.61572265625,
    "speed": 1.249375343322754,
    "load": 2.4750729298165997
  },
  {
    "temp": 198.59426879882812,
    "speed": 1.2487512826919556,
    "load": 2.5421395927940633
  },
  {
    "temp": 198.58663940429688,
    "speed": 1.249375343322754,
    "load": 2.5710210288560233
  },
  {
    "temp": 198.58053588867188,
    "speed": 1.249375343322754,
    "load": 2.5909073306330352
  },
  {
    "temp": 198.57565307617188,
    "speed": 1.249375343322754,
    "load": 2.606207877676548
  },
  {
    "temp": 198.56863403320312,
    "speed": 1.2487512826919556,
    "load": 2.61696676378207
  },
  {
    "temp": 198.5763702392578,
    "speed": 1.2487512826919556,
    "load": 2.6192596411488207
  },
  {
    "temp": 198.5620880126953,
    "speed": 1.249375343322754,
    "load": 2.638396348402088
  },
  {
    "temp": 198.56199645996094,
    "speed": 1.2487512826919556,
    "load": 2.6258737104759877
  },
  {
    "temp": 198.56082153320312,
    "speed": 1.2487512826919556,
    "load": 2.6157762313031814
  },
  {
    "temp": 198.57012939453125,
    "speed": 1.2487512826919556,
    "load": 2.675435136634219
  },
  {
    "temp": 198.5712432861328,
    "speed": 1.249375343322754,
    "load": 2.6892364946302383
  },
  {
    "temp": 198.56822204589844,
    "speed": 1.249375343322754,
    "load": 2.7056834803571252
  },
  {
    "temp": 198.55557250976562,
    "speed": 1.249375343322754,
    "load": 2.7401648284494176
  },
  {
    "temp": 198.53939819335938,
    "speed": 0,
    "load": 2.721998184697469
  },
  {
    "temp": 198.5325164794922,
    "speed": 0,
    "load": 2.6492434220986407
  },
  {
    "temp": 198.50416564941406,
    "speed": 0,
    "load": 1.3055731913870812
  },
  {
    "temp": 198.51455688476562,
    "speed": 0,
    "load": 0.9018503996568601
  },
  {
    "temp": 198.51263427734375,
    "speed": 0,
    "load": 0.6981811581756592
  },
  {
    "temp": 198.52828979492188,
    "speed": 0,
    "load": 0.4827388732920994
  },
  {
    "temp": 198.52362060546875,
    "speed": 0,
    "load": 0.41690683658903893
  },
  {
    "temp": 198.53012084960938,
    "speed": 0,
    "load": 0.36990285057064476
  },
  {
    "temp": 198.5128631591797,
    "speed": 0,
    "load": 0.30561409671059003
  },
  {
    "temp": 198.52151489257812,
    "speed": 0,
    "load": 0.27748225517237834
  },
  {
    "temp": 198.50796508789062,
    "speed": 0,
    "load": 0.23616636877534525
  },
  {
    "temp": 198.5068817138672,
    "speed": 0,
    "load": 0.2155745662701012
  },
  {
    "temp": 198.4962615966797,
    "speed": 0,
    "load": 0.19767248529123904
  },
  {
    "temp": 198.50758361816406,
    "speed": 0,
    "load": 0.16658635945355904
  },
  {
    "temp": 198.5275421142578,
    "speed": 0,
    "load": 0.15498969123325956
  },
  {
    "temp": 198.5230255126953,
    "speed": 0,
    "load": 0.14599455694831498
  },
  {
    "temp": 198.50833129882812,
    "speed": 0,
    "load": 0.1272546938546757
  },
  {
    "temp": 198.50765991210938,
    "speed": 0,
    "load": 0.11742177745495574
  },
  {
    "temp": 198.5071258544922,
    "speed": 0,
    "load": 0.10009291581778079
  },
  {
    "temp": 198.50839233398438,
    "speed": 0,
    "load": 0.0878348406647671
  },
  {
    "temp": 198.50770568847656,
    "speed": 0,
    "load": 0.08077983338245609
  },
  {
    "temp": 198.51739501953125,
    "speed": 0,
    "load": 0.07332798194051549
  },
  {
    "temp": 198.50473022460938,
    "speed": 0,
    "load": 0.06375962831388193
  },
  {
    "temp": 198.5150146484375,
    "speed": 0,
    "load": 0.04695989222287977
  },
  {
    "temp": 198.51344299316406,
    "speed": 0,
    "load": 0.04074266705534235
  },
  {
    "temp": 198.5322265625,
    "speed": 0,
    "load": 0.03492228604743808
  },
  {
    "temp": 198.53701782226562,
    "speed": 0,
    "load": 0.02575077658043412
  },
  {
    "temp": 198.5408477783203,
    "speed": 0,
    "load": 0.028660967084386257
  },
  {
    "temp": 198.5565948486328,
    "speed": 0,
    "load": 0.029322374017104025
  },
  {
    "temp": 198.53602600097656,
    "speed": 0,
    "load": 0.014330483542194017
  },
  {
    "temp": 198.52981567382812,
    "speed": 0,
    "load": 0.013316326245361054
  },
  {
    "temp": 198.54531860351562,
    "speed": 0,
    "load": 0.008906946693917561
  },
  {
    "temp": 198.56764221191406,
    "speed": 0,
    "load": 0.004277098164900295
  },
  {
    "temp": 198.57557678222656,
    "speed": 0,
    "load": 0.0019842207981497495
  },
  {
    "temp": 198.58700561523438,
    "speed": 0,
    "load": -0.0026897215263819163
  },
  {
    "temp": 198.601318359375,
    "speed": 0,
    "load": -0.004453473346957892
  },
  {
    "temp": 198.60348510742188,
    "speed": 0,
    "load": -0.006658163122681415
  },
  {
    "temp": 198.614501953125,
    "speed": 0,
    "load": -0.011288011651696905
  },
  {
    "temp": 198.62330627441406,
    "speed": 0,
    "load": -0.011552574424783302
  },
  {
    "temp": 198.62574768066406,
    "speed": 0,
    "load": -0.009965197786263147
  },
  {
    "temp": 198.64254760742188,
    "speed": 0,
    "load": -0.012919482085729683
  },
  {
    "temp": 198.645751953125,
    "speed": 0,
    "load": -0.015080078065938807
  },
  {
    "temp": 198.6483154296875,
    "speed": 0,
    "load": -0.020988646664873656
  },
  {
    "temp": 198.65199279785156,
    "speed": 0,
    "load": -0.026235808331092514
  },
  {
    "temp": 198.65330505371094,
    "speed": 0,
    "load": -0.023766555782282595
  },
  {
    "temp": 198.66339111328125,
    "speed": 0,
    "load": -0.026853121468294106
  },
  {
    "temp": 198.66241455078125,
    "speed": 0,
    "load": -0.023193336440595402
  },
  {
    "temp": 198.671875,
    "speed": 0,
    "load": -0.029851499563276818
  },
  {
    "temp": 198.67526245117188,
    "speed": 0,
    "load": -0.026764933877265307
  },
  {
    "temp": 198.6719207763672,
    "speed": 0,
    "load": -0.02760271599204067
  },
  {
    "temp": 198.66925048828125,
    "speed": 0,
    "load": -0.030071968540848815
  },
  {
    "temp": 198.67564392089844,
    "speed": 0,
    "load": -0.035319130207065896
  },
  {
    "temp": 198.69268798828125,
    "speed": 0,
    "load": -0.030071968540848815
  },
  {
    "temp": 198.71722412109375,
    "speed": 0,
    "load": -0.03430497291023471
  },
  {
    "temp": 198.71572875976562,
    "speed": 0,
    "load": -0.034569535683321106
  },
  {
    "temp": 198.7145233154297,
    "speed": 0,
    "load": -0.03950804078093917
  },
  {
    "temp": 198.71278381347656,
    "speed": 0,
    "load": -0.04113951121497372
  },
  {
    "temp": 198.72239685058594,
    "speed": 0,
    "load": -0.04003716632711196
  },
  {
    "temp": 198.7198486328125,
    "speed": 0,
    "load": -0.04140407398806012
  },
  {
    "temp": 198.73666381835938,
    "speed": 0,
    "load": -0.04629848529016378
  },
  {
    "temp": 198.73126220703125,
    "speed": 0,
    "load": -0.04052219807777213
  },
  {
    "temp": 198.731689453125,
    "speed": 0,
    "load": -0.04700398601839417
  },
  {
    "temp": 198.71705627441406,
    "speed": 0,
    "load": -0.04665123565427898
  },
  {
    "temp": 198.715576171875,
    "speed": 0,
    "load": -0.04506385901575882
  },
  {
    "temp": 198.7154998779297,
    "speed": 0,
    "load": -0.04140407398806012
  },
  {
    "temp": 198.71434020996094,
    "speed": 0,
    "load": -0.051898397320497835
  },
  {
    "temp": 198.72364807128906,
    "speed": 0,
    "load": -0.04806223711073976
  },
  {
    "temp": 198.70021057128906,
    "speed": 0,
    "load": -0.04775358054213896
  },
  {
    "temp": 198.71234130859375,
    "speed": 0,
    "load": -0.048414987474854954
  },
  {
    "temp": 198.71182250976562,
    "speed": 0,
    "load": -0.04973780134029049
  },
  {
    "temp": 198.70083618164062,
    "speed": 0,
    "load": -0.04934095718065912
  },
  {
    "temp": 198.7128448486328,
    "speed": 0,
    "load": -0.051457459365352065
  },
  {
    "temp": 198.7019805908203,
    "speed": 0,
    "load": -0.04987008272683191
  },
  {
    "temp": 198.7047576904297,
    "speed": 0,
    "load": -0.0504873958640335
  },
  {
    "temp": 198.70574951171875,
    "speed": 0,
    "load": -0.05569046373473974
  },
  {
    "temp": 198.68875122070312,
    "speed": 0,
    "load": -0.05749830935083189
  },
  {
    "temp": 198.68270874023438,
    "speed": 0,
    "load": -0.05833609146560548
  },
  {
    "temp": 198.67787170410156,
    "speed": 0,
    "load": -0.05560227614371094
  },
  {
    "temp": 198.67910766601562,
    "speed": 0,
    "load": -0.057674684532889486
  },
  {
    "temp": 198.67498779296875,
    "speed": 0,
    "load": -0.05710146519120052
  },
  {
    "temp": 198.6819305419922,
    "speed": 0,
    "load": -0.06129037576507379
  },
  {
    "temp": 198.68373107910156,
    "speed": 0,
    "load": -0.05939434255795284
  },
  {
    "temp": 198.67869567871094,
    "speed": 0,
    "load": -0.05445583746033478
  },
  {
    "temp": 198.67466735839844,
    "speed": 0,
    "load": -0.06111400058301619
  },
  {
    "temp": 198.6688690185547,
    "speed": 0,
    "load": -0.059747092922068035
  },
  {
    "temp": 198.66680908203125,
    "speed": 0,
    "load": -0.05987937430860946
  },
  {
    "temp": 198.65492248535156,
    "speed": 0,
    "load": -0.06137856335610259
  },
  {
    "temp": 198.6556396484375,
    "speed": 0,
    "load": -0.06305412758564977
  },
  {
    "temp": 198.65621948242188,
    "speed": 0,
    "load": -0.06569975531651728
  },
  {
    "temp": 198.65704345703125,
    "speed": 0,
    "load": -0.06984457209487438
  },
  {
    "temp": 198.64710998535156,
    "speed": 0,
    "load": -0.06292184619910834
  },
  {
    "temp": 198.64939880371094,
    "speed": 0,
    "load": -0.05868884182972067
  },
  {
    "temp": 198.64450073242188,
    "speed": 0,
    "load": -0.06477378561071312
  },
  {
    "temp": 198.64730834960938,
    "speed": 0,
    "load": -0.06424466006454033
  },
  {
    "temp": 198.64955139160156,
    "speed": 0,
    "load": -0.06600841188511808
  },
  {
    "temp": 198.64254760742188,
    "speed": 0,
    "load": -0.06547928633894351
  },
  {
    "temp": 198.645751953125,
    "speed": 0,
    "load": -0.059747092922068035
  },
  {
    "temp": 198.65036010742188,
    "speed": 0,
    "load": -0.06274547101704897
  },
  {
    "temp": 198.65199279785156,
    "speed": 0,
    "load": -0.06318640897219474
  },
  {
    "temp": 198.63282775878906,
    "speed": 0,
    "load": -0.06093762540095682
  },
  {
    "temp": 198.63796997070312,
    "speed": 0,
    "load": -0.06393600349593953
  },
  {
    "temp": 198.63185119628906,
    "speed": 0,
    "load": -0.06221634547087618
  },
  {
    "temp": 198.63327026367188,
    "speed": 0,
    "load": -0.06195178269778978
  },
  {
    "temp": 198.62808227539062,
    "speed": 0,
    "load": -0.06278956481256337
  },
  {
    "temp": 198.62393188476562,
    "speed": 0,
    "load": -0.06922725895767279
  },
  {
    "temp": 198.6363983154297,
    "speed": 0,
    "load": -0.06803672647878223
  },
  {
    "temp": 198.6408233642578,
    "speed": 0,
    "load": -0.06781625750121023
  },
  {
    "temp": 198.6443634033203,
    "speed": 0,
    "load": -0.06830128925186862
  },
  {
    "temp": 198.64720153808594,
    "speed": 0,
    "load": -0.06221634547087618
  },
  {
    "temp": 198.64105224609375,
    "speed": 0,
    "load": -0.05992346810412563
  },
  {
    "temp": 198.64454650878906,
    "speed": 0,
    "load": -0.06336278415425234
  },
  {
    "temp": 198.62686157226562,
    "speed": 0,
    "load": -0.06539109874791471
  },
  {
    "temp": 198.63319396972656,
    "speed": 0,
    "load": -0.06759578852363823
  },
  {
    "temp": 198.62388610839844,
    "speed": 0,
    "load": -0.06605250568063248
  },
  {
    "temp": 198.62057495117188,
    "speed": 0,
    "load": -0.06909497757112781
  },
  {
    "temp": 198.61581420898438,
    "speed": 0,
    "load": -0.06913907136664399
  },
  {
    "temp": 198.62435913085938,
    "speed": 0,
    "load": -0.07284295018985709
  },
  {
    "temp": 198.63119506835938,
    "speed": 0,
    "load": -0.06719894436400686
  },
  {
    "temp": 198.6226043701172,
    "speed": 0,
    "load": -0.06763988231915263
  },
  {
    "temp": 198.62979125976562,
    "speed": 0,
    "load": -0.06786035129672463
  },
  {
    "temp": 198.6150665283203,
    "speed": 0,
    "load": -0.06600841188511808
  },
  {
    "temp": 198.61228942871094,
    "speed": 0,
    "load": -0.06680210020437904
  },
  {
    "temp": 198.60105895996094,
    "speed": 0,
    "load": -0.06711075677297806
  },
  {
    "temp": 198.6217498779297,
    "speed": 0,
    "load": -0.07218154325713932
  },
  {
    "temp": 198.61886596679688,
    "speed": 0,
    "load": -0.06997685348141758
  },
  {
    "temp": 198.61656188964844,
    "speed": 0,
    "load": -0.06777216370569583
  },
  {
    "temp": 198.6249542236328,
    "speed": 0,
    "load": -0.06653753743129087
  },
  {
    "temp": 198.6124725341797,
    "speed": 0,
    "load": -0.06680210020437904
  },
  {
    "temp": 198.62168884277344,
    "speed": 0,
    "load": -0.06768397611466703
  },
  {
    "temp": 198.6188201904297,
    "speed": 0,
    "load": -0.06684619399989167
  },
  {
    "temp": 198.6147003173828,
    "speed": 0,
    "load": -0.06459741042865552
  },
  {
    "temp": 198.62347412109375,
    "speed": 0,
    "load": -0.06834538304738302
  },
  {
    "temp": 198.6304931640625,
    "speed": 0,
    "load": -0.06816900786532543
  },
  {
    "temp": 198.62586975097656,
    "speed": 0,
    "load": -0.06944772793524301
  },
  {
    "temp": 198.6273956298828,
    "speed": 0,
    "load": -0.06336278415425234
  },
  {
    "temp": 198.6336212158203,
    "speed": 0,
    "load": -0.06719894436400686
  },
  {
    "temp": 198.63861083984375,
    "speed": 0,
    "load": -0.07041779143656157
  },
  {
    "temp": 198.6355438232422,
    "speed": 0,
    "load": -0.07059416661862095
  },
  {
    "temp": 198.64013671875,
    "speed": 0,
    "load": -0.06486197320174192
  },
  {
    "temp": 198.64381408691406,
    "speed": 0,
    "load": -0.06808082027429663
  },
  {
    "temp": 198.64910888671875,
    "speed": 0,
    "load": -0.0648178794062293
  },
  {
    "temp": 198.6510009765625,
    "speed": 0,
    "load": -0.06539109874791471
  },
  {
    "temp": 198.65371704101562,
    "speed": 0,
    "load": -0.06543519254343089
  },
  {
    "temp": 198.65467834472656,
    "speed": 0,
    "load": -0.06746350713709326
  },
  {
    "temp": 198.65545654296875,
    "speed": 0,
    "load": -0.06336278415425234
  },
  {
    "temp": 198.64837646484375,
    "speed": 0,
    "load": -0.06627297465820448
  },
  {
    "temp": 198.65040588378906,
    "speed": 0,
    "load": -0.06697847538643664
  },
  {
    "temp": 198.6417999267578,
    "speed": 0,
    "load": -0.06772806991018143
  },
  {
    "temp": 198.6451416015625,
    "speed": 0,
    "load": -0.06600841188511808
  },
  {
    "temp": 198.64996337890625,
    "speed": 0,
    "load": -0.06296593999462097
  },
  {
    "temp": 198.65167236328125,
    "speed": 0,
    "load": -0.062480908243962574
  },
  {
    "temp": 198.64390563964844,
    "speed": 0,
    "load": -0.06093762540095682
  },
  {
    "temp": 198.6365966796875,
    "speed": 0,
    "load": -0.06032031226375523
  },
  {
    "temp": 198.63075256347656,
    "speed": 0,
    "load": -0.06278956481256337
  },
  {
    "temp": 198.6407470703125,
    "speed": 0,
    "load": -0.06847766443392622
  },
  {
    "temp": 198.64430236816406,
    "speed": 0,
    "load": -0.06437694145108352
  },
  {
    "temp": 198.64715576171875,
    "speed": 0,
    "load": -0.06816900786532543
  },
  {
    "temp": 198.6512451171875,
    "speed": 0,
    "load": -0.06534700495240209
  },
  {
    "temp": 198.6527099609375,
    "speed": 0,
    "load": -0.06292184619910834
  },
  {
    "temp": 198.6466064453125,
    "speed": 0,
    "load": -0.061863595106759206
  },
  {
    "temp": 198.6387481689453,
    "speed": 0,
    "load": -0.06530291115688591
  },
  {
    "temp": 198.6427001953125,
    "speed": 0,
    "load": -0.06609659947614688
  },
  {
    "temp": 198.65660095214844,
    "speed": 0,
    "load": -0.06609659947614688
  },
  {
    "temp": 198.656982421875,
    "speed": 0,
    "load": -0.06331869035873616
  },
  {
    "temp": 198.65728759765625,
    "speed": 0,
    "load": -0.06852175822944062
  },
  {
    "temp": 198.65753173828125,
    "speed": 0,
    "load": -0.06592022429408928
  },
  {
    "temp": 198.65773010253906,
    "speed": 0,
    "load": -0.06940363413973039
  },
  {
    "temp": 198.65802001953125,
    "speed": 0,
    "load": -0.06944772793524301
  },
  {
    "temp": 198.6581268310547,
    "speed": 0,
    "load": -0.06517062977034449
  },
  {
    "temp": 198.64796447753906,
    "speed": 0,
    "load": -0.061158094378528816
  },
  {
    "temp": 198.6517791748047,
    "speed": 0,
    "load": -0.06367144072285136
  },
  {
    "temp": 198.65313720703125,
    "speed": 0,
    "load": -0.06556747392997231
  },
  {
    "temp": 198.6542205810547,
    "speed": 0,
    "load": -0.06640525604474767
  },
  {
    "temp": 198.65577697753906,
    "speed": 0,
    "load": -0.06799263268326783
  },
  {
    "temp": 198.64608764648438,
    "speed": 0,
    "load": -0.06799263268326783
  },
  {
    "temp": 198.65057373046875,
    "speed": 0,
    "load": -0.06442103524659792
  },
  {
    "temp": 198.65216064453125,
    "speed": 0,
    "load": -0.06455331663314112
  },
  {
    "temp": 198.6534423828125,
    "speed": 0,
    "load": -0.06922725895767279
  },
  {
    "temp": 198.64422607421875,
    "speed": 0,
    "load": -0.06768397611466703
  },
  {
    "temp": 198.64938354492188,
    "speed": 0,
    "load": -0.06913907136664399
  },
  {
    "temp": 198.65121459960938,
    "speed": 0,
    "load": -0.06636116224923327
  },
  {
    "temp": 198.64244079589844,
    "speed": 0,
    "load": -0.06834538304738302
  },
  {
    "temp": 198.64566040039062,
    "speed": 0,
    "load": -0.06922725895767279
  },
  {
    "temp": 198.65029907226562,
    "speed": 0,
    "load": -0.06896269618458639
  },
  {
    "temp": 198.65194702148438,
    "speed": 0,
    "load": -0.06940363413973039
  },
  {
    "temp": 198.65325927734375,
    "speed": 0,
    "load": -0.06662572502231967
  },
  {
    "temp": 198.6551513671875,
    "speed": 0,
    "load": -0.07116738596030636
  },
  {
    "temp": 198.65582275390625,
    "speed": 0,
    "load": -0.06905088377561519
  },
  {
    "temp": 198.64613342285156,
    "speed": 0,
    "load": -0.06719894436400686
  },
  {
    "temp": 198.65060424804688,
    "speed": 0,
    "load": -0.0686099458204712
  },
  {
    "temp": 198.64195251464844,
    "speed": 0,
    "load": -0.07147604252890893
  },
  {
    "temp": 198.63768005371094,
    "speed": 0,
    "load": -0.07107919836927756
  },
  {
    "temp": 198.641845703125,
    "speed": 0,
    "load": -0.06922725895767279
  },
  {
    "temp": 198.6451873779297,
    "speed": 0,
    "load": -0.07068235420964974
  },
  {
    "temp": 198.64785766601562,
    "speed": 0,
    "load": -0.06949182173075918
  },
  {
    "temp": 198.64146423339844,
    "speed": 0,
    "load": -0.07010913486796078
  },
  {
    "temp": 198.64488220214844,
    "speed": 0,
    "load": -0.07182879289302413
  },
  {
    "temp": 198.64761352539062,
    "speed": 0,
    "load": -0.07407757646426028
  },
  {
    "temp": 198.65155029296875,
    "speed": 0,
    "load": -0.06680210020437904
  },
  {
    "temp": 198.6529541015625,
    "speed": 0,
    "load": -0.06816900786532543
  },
  {
    "temp": 198.6467742919922,
    "speed": 0,
    "load": -0.06464150422416992
  },
  {
    "temp": 198.63888549804688,
    "speed": 0,
    "load": -0.05864474803420627
  },
  {
    "temp": 198.642822265625,
    "speed": 0,
    "load": -0.07156423011993773
  },
  {
    "temp": 198.64028930664062,
    "speed": 0,
    "load": -0.06799263268326783
  },
  {
    "temp": 198.64393615722656,
    "speed": 0,
    "load": -0.07204926187059613
  },
  {
    "temp": 198.64918518066406,
    "speed": 0,
    "load": -0.07341616953154428
  },
  {
    "temp": 198.6408233642578,
    "speed": 0,
    "load": -0.06984457209487438
  },
  {
    "temp": 198.63412475585938,
    "speed": 0,
    "load": -0.07218154325713932
  },
  {
    "temp": 198.62448120117188,
    "speed": 0,
    "load": -0.07306341916742731
  },
  {
    "temp": 198.61080932617188,
    "speed": 0,
    "load": -0.07081463559619117
  },
  {
    "temp": 198.620361328125,
    "speed": 0,
    "load": -0.07434213923734667
  },
  {
    "temp": 198.62799072265625,
    "speed": 0,
    "load": -0.07897198776636394
  },
  {
    "temp": 198.61236572265625,
    "speed": 0,
    "load": -0.07412167025977467
  },
  {
    "temp": 198.59088134765625,
    "speed": 0,
    "load": -0.07443032682837547
  },
  {
    "temp": 198.59417724609375,
    "speed": 0,
    "load": -0.07332798194051549
  },
  {
    "temp": 198.59072875976562,
    "speed": 0,
    "load": -0.06975638450384558
  },
  {
    "temp": 198.6042938232422,
    "speed": 0,
    "load": -0.07310751296294349
  },
  {
    "temp": 198.5869598388672,
    "speed": 0,
    "load": -0.07544448412520843
  },
  {
    "temp": 198.59103393554688,
    "speed": 0,
    "load": -0.0725783874167707
  },
  {
    "temp": 198.5840606689453,
    "speed": 0,
    "load": -0.07156423011993773
  },
  {
    "temp": 198.5617218017578,
    "speed": 0,
    "load": -0.07747279871887258
  },
  {
    "temp": 198.5708465576172,
    "speed": 0,
    "load": -0.07540039032969403
  },
  {
    "temp": 198.5655517578125,
    "speed": 0,
    "load": -0.07844286222019115
  },
  {
    "temp": 198.5636749267578,
    "speed": 0,
    "load": -0.06900678998009901
  },
  {
    "temp": 198.57119750976562,
    "speed": 0,
    "load": -0.07332798194051549
  },
  {
    "temp": 198.5681915283203,
    "speed": 0,
    "load": -0.0762822662399838
  },
  {
    "temp": 198.5740966796875,
    "speed": 0,
    "load": -0.07809011185607595
  },
  {
    "temp": 198.58074951171875,
    "speed": 0,
    "load": -0.07897198776636394
  },
  {
    "temp": 198.58828735351562,
    "speed": 0,
    "load": -0.07601770346689563
  },
  {
    "temp": 198.59210205078125,
    "speed": 0,
    "load": -0.07809011185607595
  },
  {
    "temp": 198.57916259765625,
    "speed": 0,
    "load": -0.08249949140751944
  },
  {
    "temp": 198.57455444335938,
    "speed": 0,
    "load": -0.08064755199591112
  },
  {
    "temp": 198.5966033935547,
    "speed": 0,
    "load": -0.08373411768192263
  },
  {
    "temp": 198.58851623535156,
    "speed": 0,
    "load": -0.0839545866594964
  },
  {
    "temp": 198.60252380371094,
    "speed": 0,
    "load": -0.0919796574431242
  },
  {
    "temp": 198.58583068847656,
    "speed": 0,
    "load": -0.08593880745764615
  },
  {
    "temp": 198.5901336669922,
    "speed": 0,
    "load": -0.07936883192599353
  },
  {
    "temp": 198.5935821533203,
    "speed": 0,
    "load": -0.08232311622546185
  },
  {
    "temp": 198.61695861816406,
    "speed": 0,
    "load": -0.08197036586134665
  },
  {
    "temp": 198.62527465820312,
    "speed": 0,
    "load": -0.08360183629537943
  },
  {
    "temp": 198.62168884277344,
    "speed": 0,
    "load": -0.08576243227558855
  },
  {
    "temp": 198.61447143554688,
    "speed": 0,
    "load": -0.0881875910288823
  },
  {
    "temp": 198.61305236816406,
    "speed": 0,
    "load": -0.0840427742505252
  },
  {
    "temp": 198.6221466064453,
    "speed": 0,
    "load": -0.0880112158468247
  },
  {
    "temp": 198.62942504882812,
    "speed": 0,
    "load": -0.08457189979669799
  },
  {
    "temp": 198.63990783691406,
    "speed": 0,
    "load": -0.08448371220566919
  },
  {
    "temp": 198.63339233398438,
    "speed": 0,
    "load": -0.0878348406647671
  },
  {
    "temp": 198.6424560546875,
    "speed": 0,
    "load": -0.08686477716344854
  },
  {
    "temp": 198.6456756591797,
    "speed": 0,
    "load": -0.08241130381649064
  },
  {
    "temp": 198.64825439453125,
    "speed": 0,
    "load": -0.08915765453019908
  },
  {
    "temp": 198.6503143310547,
    "speed": 0,
    "load": -0.08955449868983045
  },
  {
    "temp": 198.64303588867188,
    "speed": 0,
    "load": -0.08973087387188805
  },
  {
    "temp": 198.64613342285156,
    "speed": 0,
    "load": -0.09233240780723939
  },
  {
    "temp": 198.64862060546875,
    "speed": 0,
    "load": -0.09264106437584019
  },
  {
    "temp": 198.65060424804688,
    "speed": 0,
    "load": -0.09700635013176928
  },
  {
    "temp": 198.645263671875,
    "speed": 0,
    "load": -0.09612447422148129
  },
  {
    "temp": 198.64791870117188,
    "speed": 0,
    "load": -0.09612447422148129
  },
  {
    "temp": 198.6517333984375,
    "speed": 0,
    "load": -0.09422844101436034
  },
  {
    "temp": 198.65309143066406,
    "speed": 0,
    "load": -0.09365522167267137
  },
  {
    "temp": 198.65504455566406,
    "speed": 0,
    "load": -0.09749138188242945
  },
  {
    "temp": 198.65574645996094,
    "speed": 0,
    "load": -0.09687406874522786
  },
  {
    "temp": 198.65631103515625,
    "speed": 0,
    "load": -0.09863782056580384
  },
  {
    "temp": 198.64686584472656,
    "speed": 0,
    "load": -0.10168029245630095
  },
  {
    "temp": 198.64920043945312,
    "speed": 0,
    "load": -0.10207713661593054
  },
  {
    "temp": 198.65106201171875,
    "speed": 0,
    "load": -0.0955953486753085
  },
  {
    "temp": 198.65374755859375,
    "speed": 0,
    "load": -0.09709453772279808
  },
  {
    "temp": 198.6547088623047,
    "speed": 0,
    "load": -0.09802050742860224
  },
  {
    "temp": 198.6554718017578,
    "speed": 0,
    "load": -0.09660950597213969
  },
  {
    "temp": 198.6560821533203,
    "speed": 0,
    "load": -0.09308200233098596
  },
  {
    "temp": 198.64877319335938,
    "speed": 0,
    "load": -0.09868191436131823
  },
  {
    "temp": 198.65072631835938,
    "speed": 0,
    "load": -0.10547235887054285
  },
  {
    "temp": 198.66250610351562,
    "speed": 0,
    "load": -0.09753547567794207
  },
  {
    "temp": 198.66107177734375,
    "speed": 0,
    "load": -0.09749138188242945
  },
  {
    "temp": 198.6605682373047,
    "speed": 0,
    "load": -0.10419363880062349
  },
  {
    "temp": 198.66015625,
    "speed": 0,
    "load": -0.10269444975313213
  },
  {
    "temp": 198.6598358154297,
    "speed": 0,
    "load": -0.1035763256634219
  },
  {
    "temp": 198.65936279296875,
    "speed": 0,
    "load": -0.10278263734416093
  },
  {
    "temp": 198.65919494628906,
    "speed": 0,
    "load": -0.10648651616737403
  },
  {
    "temp": 198.65895080566406,
    "speed": 0,
    "load": -0.10234169938901694
  },
  {
    "temp": 198.65887451171875,
    "speed": 0,
    "load": -0.1067951727359766
  },
  {
    "temp": 198.6588134765625,
    "speed": 0,
    "load": -0.10463457675576926
  },
  {
    "temp": 198.65870666503906,
    "speed": 0,
    "load": -0.10273854354864831
  },
  {
    "temp": 198.65867614746094,
    "speed": 0,
    "load": -0.10101888552358496
  },
  {
    "temp": 198.6586456298828,
    "speed": 0,
    "load": -0.10313538770827613
  },
  {
    "temp": 198.6586151123047,
    "speed": 0,
    "load": -0.09890238333889023
  },
  {
    "temp": 198.65859985351562,
    "speed": 0,
    "load": -0.10194485522938734
  },
  {
    "temp": 198.6688232421875,
    "speed": 0,
    "load": -0.1109399895143337
  },
  {
    "temp": 198.6651153564453,
    "speed": 0,
    "load": -0.10485504573333948
  },
  {
    "temp": 198.66380310058594,
    "speed": 0,
    "load": -0.1029149187307059
  },
  {
    "temp": 198.66275024414062,
    "speed": 0,
    "load": -0.09700635013176928
  },
  {
    "temp": 198.67147827148438,
    "speed": 0,
    "load": -0.10838254937449499
  },
  {
    "temp": 198.66888427734375,
    "speed": 0,
    "load": -0.1029149187307059
  },
  {
    "temp": 198.6651611328125,
    "speed": 0,
    "load": -0.09832916399720304
  },
  {
    "temp": 198.674072265625,
    "speed": 0,
    "load": -0.10088660413703998
  },
  {
    "temp": 198.67095947265625,
    "speed": 0,
    "load": -0.10481095193782686
  },
  {
    "temp": 198.66648864746094,
    "speed": 0,
    "load": -0.10498732711988445
  },
  {
    "temp": 198.66490173339844,
    "speed": 0,
    "load": -0.1034881380723931
  },
  {
    "temp": 198.66363525390625,
    "speed": 0,
    "load": -0.10220941800247374
  },
  {
    "temp": 198.66261291503906,
    "speed": 0,
    "load": -0.10159210486527215
  },
  {
    "temp": 198.67958068847656,
    "speed": 0,
    "load": -0.10079841654601118
  },
  {
    "temp": 198.6753692626953,
    "speed": 0,
    "load": -0.10251807457107454
  },
  {
    "temp": 198.66175842285156,
    "speed": 0,
    "load": -0.10534007748399965
  },
  {
    "temp": 198.66111755371094,
    "speed": 0,
    "load": -0.10190076143387294
  },
  {
    "temp": 198.65814208984375,
    "speed": 0,
    "load": -0.10578101543914364
  },
  {
    "temp": 198.65821838378906,
    "speed": 0,
    "load": -0.10511960850642588
  },
  {
    "temp": 198.6582794189453,
    "speed": 0,
    "load": -0.10842664317001116
  },
  {
    "temp": 198.6583709716797,
    "speed": 0,
    "load": -0.10538417127951405
  },
  {
    "temp": 198.6584014892578,
    "speed": 0,
    "load": -0.10661879755391901
  },
  {
    "temp": 198.658447265625,
    "speed": 0,
    "load": -0.10675107894046043
  },
  {
    "temp": 198.65846252441406,
    "speed": 0,
    "load": -0.10454638916474046
  },
  {
    "temp": 198.65847778320312,
    "speed": 0,
    "load": -0.10675107894046043
  },
  {
    "temp": 198.65850830078125,
    "speed": 0,
    "load": -0.10604557821223004
  },
  {
    "temp": 198.65850830078125,
    "speed": 0,
    "load": -0.1077652362372934
  },
  {
    "temp": 198.65850830078125,
    "speed": 0,
    "load": -0.10851483076103996
  },
  {
    "temp": 198.65850830078125,
    "speed": 0,
    "load": -0.10542826507502845
  },
  {
    "temp": 198.65850830078125,
    "speed": 0,
    "load": -0.10608967200774444
  },
  {
    "temp": 198.65850830078125,
    "speed": 0,
    "load": -0.1075888610552358
  },
  {
    "temp": 198.65850830078125,
    "speed": 0,
    "load": -0.10917623769375595
  },
  {
    "temp": 198.65850830078125,
    "speed": 0,
    "load": -0.11071952053675993
  },
  {
    "temp": 198.65850830078125,
    "speed": 0,
    "load": -0.10653060996289021
  },
  {
    "temp": 198.63189697265625,
    "speed": 0,
    "load": -0.10238579318453134
  },
  {
    "temp": 198.62698364257812,
    "speed": 0,
    "load": -0.10273854354864831
  },
  {
    "temp": 198.6383514404297,
    "speed": 0,
    "load": -0.10820617419243739
  },
  {
    "temp": 198.64239501953125,
    "speed": 0,
    "load": -0.1030031063217347
  },
  {
    "temp": 198.6400146484375,
    "speed": 0,
    "load": -0.10441410777819549
  },
  {
    "temp": 198.6437225341797,
    "speed": 0,
    "load": -0.10569282784811485
  },
  {
    "temp": 198.63644409179688,
    "speed": 0,
    "load": -0.10494323332436828
  },
  {
    "temp": 198.6444091796875,
    "speed": 0,
    "load": -0.10220941800247374
  },
  {
    "temp": 198.64723205566406,
    "speed": 0,
    "load": -0.1030912939127635
  },
  {
    "temp": 198.6494903564453,
    "speed": 0,
    "load": -0.10454638916474046
  },
  {
    "temp": 198.6527557373047,
    "speed": 0,
    "load": -0.10710382930457563
  },
  {
    "temp": 198.65391540527344,
    "speed": 0,
    "load": -0.10939670667132795
  },
  {
    "temp": 198.65484619140625,
    "speed": 0,
    "load": -0.10494323332436828
  },
  {
    "temp": 198.6561737060547,
    "speed": 0,
    "load": -0.10145982347872895
  },
  {
    "temp": 198.65664672851562,
    "speed": 0,
    "load": -0.10675107894046043
  },
  {
    "temp": 198.6470947265625,
    "speed": 0,
    "load": -0.11420293038240281
  },
  {
    "temp": 198.63914489746094,
    "speed": 0,
    "load": -0.1075888610552358
  },
  {
    "temp": 198.6430206298828,
    "speed": 0,
    "load": -0.1075447672597214
  },
  {
    "temp": 198.63836669921875,
    "speed": 0,
    "load": -0.1107636143322761
  },
  {
    "temp": 198.64239501953125,
    "speed": 0,
    "load": -0.1155698380433492
  },
  {
    "temp": 198.6456298828125,
    "speed": 0,
    "load": -0.11561393183886359
  },
  {
    "temp": 198.64820861816406,
    "speed": 0,
    "load": -0.10860301835206876
  },
  {
    "temp": 198.6334991455078,
    "speed": 0,
    "load": -0.10701564171354683
  },
  {
    "temp": 198.6385040283203,
    "speed": 0,
    "load": -0.10979355083095754
  },
  {
    "temp": 198.64572143554688,
    "speed": 0,
    "load": -0.10701564171354683
  },
  {
    "temp": 198.64828491210938,
    "speed": 0,
    "load": -0.10661879755391901
  },
  {
    "temp": 198.65032958984375,
    "speed": 0,
    "load": -0.10996992601301514
  },
  {
    "temp": 198.6328125,
    "speed": 0,
    "load": -0.115217087679234
  },
  {
    "temp": 198.63795471191406,
    "speed": 0,
    "load": -0.11270374133490968
  },
  {
    "temp": 198.64207458496094,
    "speed": 0,
    "load": -0.1116013964470497
  },
  {
    "temp": 198.64537048339844,
    "speed": 0,
    "load": -0.11362971104071384
  },
  {
    "temp": 198.63987731933594,
    "speed": 0,
    "load": -0.1116013964470497
  },
  {
    "temp": 198.64361572265625,
    "speed": 0,
    "load": -0.11292421031248345
  },
  {
    "temp": 198.62612915039062,
    "speed": 0,
    "load": -0.1107636143322761
  },
  {
    "temp": 198.61936950683594,
    "speed": 0,
    "load": -0.10825026798795356
  },
  {
    "temp": 198.61695861816406,
    "speed": 0,
    "load": -0.10939670667132795
  },
  {
    "temp": 198.62168884277344,
    "speed": 0,
    "load": -0.10877939353412636
  },
  {
    "temp": 198.62905883789062,
    "speed": 0,
    "load": -0.11177777162910729
  },
  {
    "temp": 198.63494873046875,
    "speed": 0,
    "load": -0.11446749315548921
  },
  {
    "temp": 198.63966369628906,
    "speed": 0,
    "load": -0.10847073696552378
  },
  {
    "temp": 198.62802124023438,
    "speed": 0,
    "load": -0.115437556656806
  },
  {
    "temp": 198.63412475585938,
    "speed": 0,
    "load": -0.11058723915021851
  },
  {
    "temp": 198.63900756835938,
    "speed": 0,
    "load": -0.11191005301565049
  },
  {
    "temp": 198.63580322265625,
    "speed": 0,
    "load": -0.1075447672597214
  },
  {
    "temp": 198.64035034179688,
    "speed": 0,
    "load": -0.10666289134943163
  },
  {
    "temp": 198.63870239257812,
    "speed": 0,
    "load": -0.10798570521486539
  },
  {
    "temp": 198.64266967773438,
    "speed": 0,
    "load": -0.10996992601301514
  },
  {
    "temp": 198.63560485839844,
    "speed": 0,
    "load": -0.11019039499058714
  },
  {
    "temp": 198.6336212158203,
    "speed": 0,
    "load": -0.11583440081643737
  },
  {
    "temp": 198.63861083984375,
    "speed": 0,
    "load": -0.115217087679234
  },
  {
    "temp": 198.62530517578125,
    "speed": 0,
    "load": -0.11746587125047014
  },
  {
    "temp": 198.62171936035156,
    "speed": 0,
    "load": -0.11662808913569656
  },
  {
    "temp": 198.60861206054688,
    "speed": 0,
    "load": -0.1109840833098481
  },
  {
    "temp": 198.61859130859375,
    "speed": 0,
    "load": -0.11045495776367353
  },
  {
    "temp": 198.6145477294922,
    "speed": 0,
    "load": -0.10794161141935099
  },
  {
    "temp": 198.62335205078125,
    "speed": 0,
    "load": -0.11764224643252952
  },
  {
    "temp": 198.62014770507812,
    "speed": 0,
    "load": -0.11649580774915158
  },
  {
    "temp": 198.62782287597656,
    "speed": 0,
    "load": -0.11402655520034521
  },
  {
    "temp": 198.62864685058594,
    "speed": 0,
    "load": -0.11808318438767351
  },
  {
    "temp": 198.6243896484375,
    "speed": 0,
    "load": -0.11962646723067927
  },
  {
    "temp": 198.61074829101562,
    "speed": 0,
    "load": -0.1151729938837196
  },
  {
    "temp": 198.59927368164062,
    "speed": 0,
    "load": -0.1111604584919057
  },
  {
    "temp": 198.60089111328125,
    "speed": 0,
    "load": -0.11279192892593848
  },
  {
    "temp": 198.59298706054688,
    "speed": 0,
    "load": -0.11080770812778873
  },
  {
    "temp": 198.60609436035156,
    "speed": 0,
    "load": -0.11340924206314185
  },
  {
    "temp": 198.6165771484375,
    "speed": 0,
    "load": -0.1189209665024471
  },
  {
    "temp": 198.61325073242188,
    "speed": 0,
    "load": -0.1225366577346314
  },
  {
    "temp": 198.622314453125,
    "speed": 0,
    "load": -0.11645171395363896
  },
  {
    "temp": 198.63536071777344,
    "speed": 0,
    "load": -0.11706902709084055
  },
  {
    "temp": 198.6297607421875,
    "speed": 0,
    "load": -0.12165478182434164
  },
  {
    "temp": 198.63551330566406,
    "speed": 0,
    "load": -0.11825955956973111
  },
  {
    "temp": 198.63356018066406,
    "speed": 0,
    "load": -0.12218390737051443
  },
  {
    "temp": 198.62831115722656,
    "speed": 0,
    "load": -0.12227209496154501
  },
  {
    "temp": 198.62411499023438,
    "speed": 0,
    "load": -0.1148202435196044
  },
  {
    "temp": 198.61807250976562,
    "speed": 0,
    "load": -0.11724540227289815
  },
  {
    "temp": 198.62615966796875,
    "speed": 0,
    "load": -0.11684855811326855
  },
  {
    "temp": 198.63262939453125,
    "speed": 0,
    "load": -0.1188327789114183
  },
  {
    "temp": 198.62353515625,
    "speed": 0,
    "load": -0.115437556656806
  },
  {
    "temp": 198.6305389404297,
    "speed": 0,
    "load": -0.12011149898133588
  },
  {
    "temp": 198.63613891601562,
    "speed": 0,
    "load": -0.11623124497606518
  },
  {
    "temp": 198.6442108154297,
    "speed": 0,
    "load": -0.11605486979400759
  },
  {
    "temp": 198.64707946777344,
    "speed": 0,
    "load": -0.11839184095627253
  },
  {
    "temp": 198.6493682861328,
    "speed": 0,
    "load": -0.12011149898133588
  },
  {
    "temp": 198.64242553710938,
    "speed": 0,
    "load": -0.11715721468186935
  },
  {
    "temp": 198.64564514160156,
    "speed": 0,
    "load": -0.11645171395363896
  },
  {
    "temp": 198.65028381347656,
    "speed": 0,
    "load": -0.11834774716075991
  },
  {
    "temp": 198.64169311523438,
    "speed": 0,
    "load": -0.1190532478889903
  },
  {
    "temp": 198.6450653076172,
    "speed": 0,
    "load": -0.12086109350508245
  },
  {
    "temp": 198.63967895507812,
    "speed": 0,
    "load": -0.11989103000376566
  },
  {
    "temp": 198.64344787597656,
    "speed": 0,
    "load": -0.1190532478889903
  },
  {
    "temp": 198.64646911621094,
    "speed": 0,
    "load": -0.11561393183886359
  },
  {
    "temp": 198.65081787109375,
    "speed": 0,
    "load": -0.11623124497606518
  },
  {
    "temp": 198.65235900878906,
    "speed": 0,
    "load": -0.115217087679234
  },
  {
    "temp": 198.65359497070312,
    "speed": 0,
    "load": -0.1231980646673474
  },
  {
    "temp": 198.65538024902344,
    "speed": 0,
    "load": -0.11733358986392695
  },
  {
    "temp": 198.656005859375,
    "speed": 0,
    "load": -0.11446749315548921
  },
  {
    "temp": 198.65692138671875,
    "speed": 0,
    "load": -0.12103746868714005
  },
  {
    "temp": 198.65724182128906,
    "speed": 0,
    "load": -0.1229775956897754
  },
  {
    "temp": 198.65750122070312,
    "speed": 0,
    "load": -0.11830365336524373
  },
  {
    "temp": 198.6578826904297,
    "speed": 0,
    "load": -0.12068471832302485
  },
  {
    "temp": 198.65802001953125,
    "speed": 0,
    "load": -0.12116975007368325
  },
  {
    "temp": 198.658203125,
    "speed": 0,
    "load": -0.12412403437315156
  },
  {
    "temp": 198.65826416015625,
    "speed": 0,
    "load": -0.1260641613757869
  },
  {
    "temp": 198.6583251953125,
    "speed": 0,
    "load": -0.12862160151562385
  },
  {
    "temp": 198.6583709716797,
    "speed": 0,
    "load": -0.12227209496154501
  },
  {
    "temp": 198.6666259765625,
    "speed": 0,
    "load": -0.12500591028343955
  },
  {
    "temp": 198.66500854492188,
    "speed": 0,
    "load": -0.1230657832808042
  },
  {
    "temp": 198.66371154785156,
    "speed": 0,
    "load": -0.11676037052223975
  },
  {
    "temp": 198.6626739501953,
    "speed": 0,
    "load": -0.122492563939117
  },
  {
    "temp": 198.66119384765625,
    "speed": 0,
    "load": -0.12218390737051443
  },
  {
    "temp": 198.65042114257812,
    "speed": 0,
    "load": -0.11680446431775415
  },
  {
    "temp": 198.65203857421875,
    "speed": 0,
    "load": -0.1154816504523204
  },
  {
    "temp": 198.6543731689453,
    "speed": 0,
    "load": -0.12006740518582326
  },
  {
    "temp": 198.65521240234375,
    "speed": 0,
    "load": -0.12024378036788086
  },
  {
    "temp": 198.6564178466797,
    "speed": 0,
    "load": -0.12350672123594997
  },
  {
    "temp": 198.65684509277344,
    "speed": 0,
    "load": -0.12500591028343955
  },
  {
    "temp": 198.65745544433594,
    "speed": 0,
    "load": -0.11755405884149894
  },
  {
    "temp": 198.6576690673828,
    "speed": 0,
    "load": -0.11468796213305943
  },
  {
    "temp": 198.6578369140625,
    "speed": 0,
    "load": -0.12103746868714005
  },
  {
    "temp": 198.64784240722656,
    "speed": 0,
    "load": -0.12231618875705941
  },
  {
    "temp": 198.6499786376953,
    "speed": 0,
    "load": -0.1185682161383319
  },
  {
    "temp": 198.6516876220703,
    "speed": 0,
    "load": -0.12094928109611125
  },
  {
    "temp": 198.65306091308594,
    "speed": 0,
    "load": -0.11830365336524373
  },
  {
    "temp": 198.65415954589844,
    "speed": 0,
    "load": -0.11587849461194999
  },
  {
    "temp": 198.65573120117188,
    "speed": 0,
    "load": -0.12112565627816885
  },
  {
    "temp": 198.6562957763672,
    "speed": 0,
    "load": -0.11724540227289815
  },
  {
    "temp": 198.65673828125,
    "speed": 0,
    "load": -0.1147320559285756
  },
  {
    "temp": 198.6573944091797,
    "speed": 0,
    "load": -0.11367380483622824
  },
  {
    "temp": 198.6473846435547,
    "speed": 0,
    "load": -0.11693674570429735
  },
  {
    "temp": 198.64320373535156,
    "speed": 0,
    "load": -0.11702493329532615
  },
  {
    "temp": 198.64627075195312,
    "speed": 0,
    "load": -0.11645171395363896
  },
  {
    "temp": 198.63848876953125,
    "speed": 0,
    "load": -0.11041086396816091
  },
  {
    "temp": 198.6272735595703,
    "speed": 0,
    "load": -0.1116013964470497
  },
  {
    "temp": 198.61305236816406,
    "speed": 0,
    "load": -0.1153052752702628
  },
  {
    "temp": 198.6221466064453,
    "speed": 0,
    "load": -0.1149525249061476
  },
  {
    "temp": 198.61477661132812,
    "speed": 0,
    "load": -0.12006740518582326
  },
  {
    "temp": 198.62353515625,
    "speed": 0,
    "load": -0.12227209496154501
  },
  {
    "temp": 198.62030029296875,
    "speed": 0,
    "load": -0.11565802563437799
  },
  {
    "temp": 198.62586975097656,
    "speed": 0,
    "load": -0.11706902709084055
  },
  {
    "temp": 198.62216186523438,
    "speed": 0,
    "load": -0.12019968657236468
  },
  {
    "temp": 198.61920166015625,
    "speed": 0,
    "load": -0.1186123099338463
  },
  {
    "temp": 198.63336181640625,
    "speed": 0,
    "load": -0.12006740518582326
  },
  {
    "temp": 198.63839721679688,
    "speed": 0,
    "load": -0.11671627672672535
  },
  {
    "temp": 198.63218688964844,
    "speed": 0,
    "load": -0.11755405884149894
  },
  {
    "temp": 198.64166259765625,
    "speed": 0,
    "load": -0.11825955956973111
  },
  {
    "temp": 198.64503479003906,
    "speed": 0,
    "load": -0.122492563939117
  },
  {
    "temp": 198.64170837402344,
    "speed": 0,
    "load": -0.11962646723067927
  },
  {
    "temp": 198.6348419189453,
    "speed": 0,
    "load": -0.12121384386919765
  },
  {
    "temp": 198.6293487548828,
    "speed": 0,
    "load": -0.12341853364492117
  },
  {
    "temp": 198.63986206054688,
    "speed": 0,
    "load": -0.12090518730059685
  },
  {
    "temp": 198.63336181640625,
    "speed": 0,
    "load": -0.12231618875705941
  },
  {
    "temp": 198.63839721679688,
    "speed": 0,
    "load": -0.12108156248265445
  },
  {
    "temp": 198.64564514160156,
    "speed": 0,
    "load": -0.12050834314096726
  },
  {
    "temp": 198.6379852294922,
    "speed": 0,
    "load": -0.1151729938837196
  },
  {
    "temp": 198.6453857421875,
    "speed": 0,
    "load": -0.1187445913203895
  },
  {
    "temp": 198.64801025390625,
    "speed": 0,
    "load": -0.12090518730059685
  },
  {
    "temp": 198.65011596679688,
    "speed": 0,
    "load": -0.11742177745495574
  },
  {
    "temp": 198.6428985595703,
    "speed": 0,
    "load": -0.1263287241488733
  },
  {
    "temp": 198.64602661132812,
    "speed": 0,
    "load": -0.12500591028343955
  },
  {
    "temp": 198.64852905273438,
    "speed": 0,
    "load": -0.1269460372860749
  },
  {
    "temp": 198.65052795410156,
    "speed": 0,
    "load": -0.1263287241488733
  },
  {
    "temp": 198.64317321777344,
    "speed": 0,
    "load": -0.1228012205077178
  },
  {
    "temp": 198.63600158691406,
    "speed": 0,
    "load": -0.12187525080191541
  },
  {
    "temp": 198.6405029296875,
    "speed": 0,
    "load": -0.12227209496154501
  },
  {
    "temp": 198.63674926757812,
    "speed": 0,
    "load": -0.12438859714623796
  },
  {
    "temp": 198.64111328125,
    "speed": 0,
    "load": -0.1262846303533589
  },
  {
    "temp": 198.64459228515625,
    "speed": 0,
    "load": -0.1231980646673474
  },
  {
    "temp": 198.6496124267578,
    "speed": 0,
    "load": -0.12703422487710547
  },
  {
    "temp": 198.65139770507812,
    "speed": 0,
    "load": -0.12518228546549715
  },
  {
    "temp": 198.65283203125,
    "speed": 0,
    "load": -0.12452087853278115
  },
  {
    "temp": 198.65489196777344,
    "speed": 0,
    "load": -0.1228894080987466
  },
  {
    "temp": 198.6453857421875,
    "speed": 0,
    "load": -0.13144360442854897
  },
  {
    "temp": 198.62753295898438,
    "speed": 0,
    "load": -0.12937119603937042
  },
  {
    "temp": 198.62844848632812,
    "speed": 0,
    "load": -0.12482953510138195
  },
  {
    "temp": 198.63446044921875,
    "speed": 0,
    "load": -0.1268137558995317
  },
  {
    "temp": 198.62904357910156,
    "speed": 0,
    "load": -0.12152250043780022
  },
  {
    "temp": 198.63966369628906,
    "speed": 0,
    "load": -0.12227209496154501
  },
  {
    "temp": 198.63319396972656,
    "speed": 0,
    "load": -0.12491772269241075
  },
  {
    "temp": 198.62184143066406,
    "speed": 0,
    "load": -0.1267255683085029
  },
  {
    "temp": 198.6189422607422,
    "speed": 0,
    "load": -0.12430040955520916
  },
  {
    "temp": 198.62686157226562,
    "speed": 0,
    "load": -0.12496181648792515
  },
  {
    "temp": 198.62802124023438,
    "speed": 0,
    "load": -0.12884207049319585
  },
  {
    "temp": 198.6136474609375,
    "speed": 0,
    "load": -0.12430040955520916
  },
  {
    "temp": 198.6113739013672,
    "speed": 0,
    "load": -0.1267255683085029
  },
  {
    "temp": 198.61056518554688,
    "speed": 0,
    "load": -0.12500591028343955
  },
  {
    "temp": 198.60992431640625,
    "speed": 0,
    "load": -0.12399175298660658
  },
  {
    "temp": 198.60940551757812,
    "speed": 0,
    "load": -0.12491772269241075
  },
  {
    "temp": 198.618896484375,
    "speed": 0,
    "load": -0.12460906612380995
  },
  {
    "temp": 198.6268310546875,
    "speed": 0,
    "load": -0.1310467602689176
  },
  {
    "temp": 198.61270141601562,
    "speed": 0,
    "load": -0.1309585726778888
  },
  {
    "temp": 198.6189727783203,
    "speed": 0,
    "load": -0.13285460588500975
  },
  {
    "temp": 198.62689208984375,
    "speed": 0,
    "load": -0.1276956318098197
  },
  {
    "temp": 198.61985778808594,
    "speed": 0,
    "load": -0.12350672123594997
  },
  {
    "temp": 198.62759399414062,
    "speed": 0,
    "load": -0.1231098770763186
  },
  {
    "temp": 198.62355041503906,
    "speed": 0,
    "load": -0.13175226099714976
  },
  {
    "temp": 198.6177215576172,
    "speed": 0,
    "load": -0.13338373143118254
  },
  {
    "temp": 198.62588500976562,
    "speed": 0,
    "load": -0.13263413690743775
  },
  {
    "temp": 198.62217712402344,
    "speed": 0,
    "load": -0.13082629129134737
  },
  {
    "temp": 198.63526916503906,
    "speed": 0,
    "load": -0.1337805755908139
  },
  {
    "temp": 198.63992309570312,
    "speed": 0,
    "load": -0.13673485989028045
  },
  {
    "temp": 198.63340759277344,
    "speed": 0,
    "load": -0.13629392193513645
  },
  {
    "temp": 198.62197875976562,
    "speed": 0,
    "load": -0.1351915770472747
  },
  {
    "temp": 198.61904907226562,
    "speed": 0,
    "load": -0.137704923391599
  },
  {
    "temp": 198.61671447753906,
    "speed": 0,
    "load": -0.13902773725703277
  },
  {
    "temp": 198.6031036376953,
    "speed": 0,
    "load": -0.13624982813962205
  },
  {
    "temp": 198.61419677734375,
    "speed": 0,
    "load": -0.1351915770472747
  },
  {
    "temp": 198.61172485351562,
    "speed": 0,
    "load": -0.1315758858150904
  },
  {
    "temp": 198.61085510253906,
    "speed": 0,
    "load": -0.1337805755908139
  },
  {
    "temp": 198.61778259277344,
    "speed": 0,
    "load": -0.1348388266831595
  },
  {
    "temp": 198.61569213867188,
    "speed": 0,
    "load": -0.1341774197504435
  },
  {
    "temp": 198.624267578125,
    "speed": 0,
    "load": -0.138366330324315
  },
  {
    "temp": 198.63111877441406,
    "speed": 0,
    "load": -0.1380135799601998
  },
  {
    "temp": 198.63075256347656,
    "speed": 0,
    "load": -0.1345742639100731
  },
  {
    "temp": 198.62606811523438,
    "speed": 0,
    "load": -0.13236957413435135
  },
  {
    "temp": 198.61209106445312,
    "speed": 0,
    "load": -0.1297239464034856
  },
  {
    "temp": 198.62881469726562,
    "speed": 0,
    "load": -0.1300766967676008
  },
  {
    "temp": 198.634765625,
    "speed": 0,
    "load": -0.13197272997472176
  },
  {
    "temp": 198.64332580566406,
    "speed": 0,
    "load": -0.12848932012908065
  },
  {
    "temp": 198.63612365722656,
    "speed": 0,
    "load": -0.1299444153810576
  },
  {
    "temp": 198.64060974121094,
    "speed": 0,
    "load": -0.13161997961060656
  },
  {
    "temp": 198.64419555664062,
    "speed": 0,
    "load": -0.13580889018447806
  },
  {
    "temp": 198.6391143798828,
    "speed": 0,
    "load": -0.1311349478599464
  },
  {
    "temp": 198.6327667236328,
    "speed": 0,
    "load": -0.1312231354509752
  },
  {
    "temp": 198.63792419433594,
    "speed": 0,
    "load": -0.12959166501694064
  },
  {
    "temp": 198.6453399658203,
    "speed": 0,
    "load": -0.13087038508686
  },
  {
    "temp": 198.64797973632812,
    "speed": 0,
    "load": -0.12954757122142802
  },
  {
    "temp": 198.6398468017578,
    "speed": 0,
    "load": -0.13135541683752017
  },
  {
    "temp": 198.64657592773438,
    "speed": 0,
    "load": -0.13126722924649137
  },
  {
    "temp": 198.63873291015625,
    "speed": 0,
    "load": -0.13210501136126496
  },
  {
    "temp": 198.6427001953125,
    "speed": 0,
    "load": -0.1351915770472747
  },
  {
    "temp": 198.62997436523438,
    "speed": 0,
    "load": -0.13135541683752017
  },
  {
    "temp": 198.63568115234375,
    "speed": 0,
    "load": -0.13281051208949712
  },
  {
    "temp": 198.63002014160156,
    "speed": 0,
    "load": -0.13289869968052592
  },
  {
    "temp": 198.64028930664062,
    "speed": 0,
    "load": -0.1307821974958312
  },
  {
    "temp": 198.64393615722656,
    "speed": 0,
    "load": -0.1343537949325011
  },
  {
    "temp": 198.63075256347656,
    "speed": 0,
    "load": -0.13717579784542444
  },
  {
    "temp": 198.6363067626953,
    "speed": 0,
    "load": -0.1386308930974014
  },
  {
    "temp": 198.6407470703125,
    "speed": 0,
    "load": -0.14048283250900973
  },
  {
    "temp": 198.654541015625,
    "speed": 0,
    "load": -0.1414528960103265
  },
  {
    "temp": 198.65597534179688,
    "speed": 0,
    "load": -0.1420702091475281
  },
  {
    "temp": 198.656494140625,
    "speed": 0,
    "load": -0.14339302301296186
  },
  {
    "temp": 198.64698791503906,
    "speed": 0,
    "load": -0.14030645732695213
  },
  {
    "temp": 198.6492919921875,
    "speed": 0,
    "load": -0.1414528960103265
  },
  {
    "temp": 198.64089965820312,
    "speed": 0,
    "load": -0.13960095659871996
  },
  {
    "temp": 198.63905334472656,
    "speed": 0,
    "load": -0.13721989164094062
  },
  {
    "temp": 198.63270568847656,
    "speed": 0,
    "load": -0.14048283250900973
  },
  {
    "temp": 198.63787841796875,
    "speed": 0,
    "load": -0.14409852374119403
  },
  {
    "temp": 198.64532470703125,
    "speed": 0,
    "load": -0.1376167358005702
  },
  {
    "temp": 198.64796447753906,
    "speed": 0,
    "load": -0.1420261153520137
  },
  {
    "temp": 198.6517791748047,
    "speed": 0,
    "load": -0.13977733178077756
  },
  {
    "temp": 198.65313720703125,
    "speed": 0,
    "load": -0.1375726420050558
  },
  {
    "temp": 198.6542205810547,
    "speed": 0,
    "load": -0.14511268103802522
  },
  {
    "temp": 198.65509033203125,
    "speed": 0,
    "load": -0.14886065365675272
  },
  {
    "temp": 198.6563262939453,
    "speed": 0,
    "load": -0.14599455694831498
  },
  {
    "temp": 198.65676879882812,
    "speed": 0,
    "load": -0.15124171861453206
  },
  {
    "temp": 198.65711975097656,
    "speed": 0,
    "load": -0.14299617885333227
  },
  {
    "temp": 198.6576385498047,
    "speed": 0,
    "load": -0.14326074162641866
  },
  {
    "temp": 198.65782165527344,
    "speed": 0,
    "load": -0.14423080512773545
  },
  {
    "temp": 198.657958984375,
    "speed": 0,
    "load": -0.14700871424514617
  },
  {
    "temp": 198.65817260742188,
    "speed": 0,
    "load": -0.14304027264884667
  },
  {
    "temp": 198.64801025390625,
    "speed": 0,
    "load": -0.14317255403538987
  },
  {
    "temp": 198.65011596679688,
    "speed": 0,
    "load": -0.14617093213037258
  },
  {
    "temp": 198.6633758544922,
    "speed": 0,
    "load": -0.14414261753670665
  },
  {
    "temp": 198.66241455078125,
    "speed": 0,
    "load": -0.14692052665411737
  },
  {
    "temp": 198.66163635253906,
    "speed": 0,
    "load": -0.1456859003797124
  },
  {
    "temp": 198.6605224609375,
    "speed": 0,
    "load": -0.145421337606626
  },
  {
    "temp": 198.6703643798828,
    "speed": 0,
    "load": -0.14374577337707706
  },
  {
    "temp": 198.66799926757812,
    "speed": 0,
    "load": -0.14608274453934378
  },
  {
    "temp": 198.66610717773438,
    "speed": 0,
    "load": -0.14304027264884667
  },
  {
    "temp": 198.66339111328125,
    "speed": 0,
    "load": -0.14304027264884667
  },
  {
    "temp": 198.66241455078125,
    "speed": 0,
    "load": -0.1453331500155972
  },
  {
    "temp": 198.64053344726562,
    "speed": 0,
    "load": -0.14326074162641866
  },
  {
    "temp": 198.6236572265625,
    "speed": 0,
    "load": -0.1414528960103265
  },
  {
    "temp": 198.63621520996094,
    "speed": 0,
    "load": -0.1418497401699561
  },
  {
    "temp": 198.64068603515625,
    "speed": 0,
    "load": -0.14264342848921707
  },
  {
    "temp": 198.64425659179688,
    "speed": 0,
    "load": -0.14586227556177
  },
  {
    "temp": 198.64939880371094,
    "speed": 0,
    "load": -0.14458355549185065
  },
  {
    "temp": 198.65122985839844,
    "speed": 0,
    "load": -0.14462764928736682
  },
  {
    "temp": 198.65269470214844,
    "speed": 0,
    "load": -0.1452890562200828
  },
  {
    "temp": 198.65480041503906,
    "speed": 0,
    "load": -0.14833152811057992
  },
  {
    "temp": 198.6453094482422,
    "speed": 0,
    "load": -0.15194721934276423
  },
  {
    "temp": 198.64794921875,
    "speed": 0,
    "load": -0.1502716551132135
  },
  {
    "temp": 198.65176391601562,
    "speed": 0,
    "load": -0.14471583687839562
  },
  {
    "temp": 198.6531219482422,
    "speed": 0,
    "load": -0.1428638974667873
  },
  {
    "temp": 198.65420532226562,
    "speed": 0,
    "load": -0.14590636935728618
  },
  {
    "temp": 198.65576171875,
    "speed": 0,
    "load": -0.14643549490345897
  },
  {
    "temp": 198.65631103515625,
    "speed": 0,
    "load": -0.1453331500155972
  },
  {
    "temp": 198.65675354003906,
    "speed": 0,
    "load": -0.14714099563168936
  },
  {
    "temp": 198.6573944091797,
    "speed": 0,
    "load": -0.14502449344699642
  },
  {
    "temp": 198.65762329101562,
    "speed": 0,
    "load": -0.1420702091475281
  },
  {
    "temp": 198.65780639648438,
    "speed": 0,
    "load": -0.14850790329263752
  },
  {
    "temp": 198.6580810546875,
    "speed": 0,
    "load": -0.1493897792029255
  },
  {
    "temp": 198.65817260742188,
    "speed": 0,
    "load": -0.15013937372667208
  },
  {
    "temp": 198.6582489013672,
    "speed": 0,
    "load": -0.14811105913300615
  },
  {
    "temp": 198.65835571289062,
    "speed": 0,
    "load": -0.14767012117786216
  },
  {
    "temp": 198.65838623046875,
    "speed": 0,
    "load": -0.15454875327811557
  },
  {
    "temp": 198.65841674804688,
    "speed": 0,
    "load": -0.1571502872134669
  },
  {
    "temp": 198.65846252441406,
    "speed": 0,
    "load": -0.15538653539288916
  },
  {
    "temp": 198.6482391357422,
    "speed": 0,
    "load": -0.14590636935728618
  },
  {
    "temp": 198.6400604248047,
    "speed": 0,
    "load": -0.153799158754369
  },
  {
    "temp": 198.62828063964844,
    "speed": 0,
    "load": -0.153799158754369
  },
  {
    "temp": 198.6240997314453,
    "speed": 0,
    "load": -0.15578337955251875
  },
  {
    "temp": 198.6309814453125,
    "speed": 0,
    "load": -0.15155037518313286
  },
  {
    "temp": 198.62625122070312,
    "speed": 0,
    "load": -0.14872837227020952
  },
  {
    "temp": 198.6276397705078,
    "speed": 0,
    "load": -0.15031574890872967
  },
  {
    "temp": 198.61334228515625,
    "speed": 0,
    "load": -0.15097715584144566
  },
  {
    "temp": 198.60189819335938,
    "speed": 0,
    "load": -0.15163856277416166
  },
  {
    "temp": 198.60385131835938,
    "speed": 0,
    "load": -0.14749374599580456
  },
  {
    "temp": 198.5943145751953,
    "speed": 0,
    "load": -0.15296137663959541
  },
  {
    "temp": 198.58668518066406,
    "speed": 0,
    "load": -0.1497425295670407
  },
  {
    "temp": 198.5908203125,
    "speed": 0,
    "load": -0.15080078065938807
  },
  {
    "temp": 198.5885772705078,
    "speed": 0,
    "load": -0.14771421497337656
  },
  {
    "temp": 198.5923309326172,
    "speed": 0,
    "load": -0.153578689776797
  },
  {
    "temp": 198.60557556152344,
    "speed": 0,
    "load": -0.14652368249448777
  },
  {
    "temp": 198.58778381347656,
    "speed": 0,
    "load": -0.1495220605894687
  },
  {
    "temp": 198.6019287109375,
    "speed": 0,
    "load": -0.15494559743774516
  },
  {
    "temp": 198.58253479003906,
    "speed": 0,
    "load": -0.1492134040208679
  },
  {
    "temp": 198.58326721191406,
    "speed": 0,
    "load": -0.15203540693379303
  },
  {
    "temp": 198.59832763671875,
    "speed": 0,
    "load": -0.15282909525305222
  },
  {
    "temp": 198.6199951171875,
    "speed": 0,
    "load": -0.15648888028075092
  },
  {
    "temp": 198.6072235107422,
    "speed": 0,
    "load": -0.16023685289947842
  },
  {
    "temp": 198.6072540283203,
    "speed": 0,
    "load": -0.15966363355778945
  },
  {
    "temp": 198.60728454589844,
    "speed": 0,
    "load": -0.15494559743774516
  },
  {
    "temp": 198.61753845214844,
    "speed": 0,
    "load": -0.15684163064486611
  },
  {
    "temp": 198.625732421875,
    "speed": 0,
    "load": -0.1530495642306242
  },
  {
    "temp": 198.61911010742188,
    "speed": 0,
    "load": -0.1538873463453978
  },
  {
    "temp": 198.6065216064453,
    "speed": 0,
    "load": -0.15516606641531716
  },
  {
    "temp": 198.61692810058594,
    "speed": 0,
    "load": -0.15578337955251875
  },
  {
    "temp": 198.61500549316406,
    "speed": 0,
    "load": -0.15207950072930565
  },
  {
    "temp": 198.61019897460938,
    "speed": 0,
    "load": -0.1497425295670407
  },
  {
    "temp": 198.619873046875,
    "speed": 0,
    "load": -0.14890474745226712
  },
  {
    "temp": 198.6276092529297,
    "speed": 0,
    "load": -0.15278500145753782
  },
  {
    "temp": 198.6203155517578,
    "speed": 0,
    "load": -0.15177084416070663
  },
  {
    "temp": 198.6177215576172,
    "speed": 0,
    "load": -0.1495220605894687
  },
  {
    "temp": 198.62588500976562,
    "speed": 0,
    "load": -0.15459284707362997
  },
  {
    "temp": 198.63763427734375,
    "speed": 0,
    "load": -0.15582747334803493
  },
  {
    "temp": 198.64181518554688,
    "speed": 0,
    "load": -0.15560700437046115
  },
  {
    "temp": 198.6478271484375,
    "speed": 0,
    "load": -0.15432828430054357
  },
  {
    "temp": 198.64996337890625,
    "speed": 0,
    "load": -0.14978662336255688
  },
  {
    "temp": 198.65167236328125,
    "speed": 0,
    "load": -0.15199131313827685
  },
  {
    "temp": 198.64280700683594,
    "speed": 0,
    "load": -0.15437237809605797
  },
  {
    "temp": 198.64846801757812,
    "speed": 0,
    "load": -0.14996299854461448
  },
  {
    "temp": 198.65048217773438,
    "speed": 0,
    "load": -0.1493456854074111
  },
  {
    "temp": 198.64186096191406,
    "speed": 0,
    "load": -0.15216768832033445
  },
  {
    "temp": 198.6478729248047,
    "speed": 0,
    "load": -0.153358220799225
  },
  {
    "temp": 198.65000915527344,
    "speed": 0,
    "load": -0.15137400000107526
  }
]